%!PS-Adobe-2.0 EPSF-2.0
%%BoundingBox:  0 0 567 294
%%Title: plots/variables_id_c1.eps: Input variables (training sample)
%%Creator: ROOT Version 6.04/14
%%CreationDate: Wed Oct  5 09:43:56 2016
%%DocumentNeededResources: ProcSet (FontSetInit)
%%EndComments
%%BeginProlog
80 dict begin
/s {stroke} def /l {lineto} def /m {moveto} def /t {translate} def
/r {rotate} def /rl {roll}  def /R {repeat} def
/d {rlineto} def /rm {rmoveto} def /gr {grestore} def /f {eofill} def
/c {setrgbcolor} def /black {0 setgray} def /sd {setdash} def
/cl {closepath} def /sf {scalefont setfont} def /lw {setlinewidth} def
/box {m dup 0 exch d exch 0 d 0 exch neg d cl} def
/NC{systemdict begin initclip end}def/C{NC box clip newpath}def
/bl {box s} def /bf {gsave box gsave f grestore 1 lw [] 0 sd s grestore} def /Y { 0 exch d} def /X { 0 d} def 
/K {{pop pop 0 moveto} exch kshow} bind def
/ita {/ang 15 def gsave [1 0 ang dup sin exch cos div 1 0 0] concat} def 
/mp {newpath /y exch def /x exch def} def
/side {[w .77 mul w .23 mul] .385 w mul sd w 0 l currentpoint t -144 r} def
/mr {mp x y w2 0 360 arc} def /m24 {mr s} def /m20 {mr f} def
/mb {mp x y w2 add m w2 neg 0 d 0 w neg d w 0 d 0 w d cl} def
/mt {mp x y w2 add m w2 neg w neg d w 0 d cl} def
/m21 {mb f} def /m25 {mb s} def /m22 {mt f} def /m26{mt s} def
/m23 {mp x y w2 sub m w2 w d w neg 0 d cl f} def
/m27 {mp x y w2 add m w3 neg w2 neg d w3 w2 neg d w3 w2 d cl s} def
/m28 {mp x w2 sub y w2 sub w3 add m w3 0 d  0 w3 neg d w3 0 d 0 w3 d w3 0 d  0 w3 d w3 neg 0 d 0 w3 d w3 neg 0 d 0 w3 neg d w3 neg 0 d cl s } def
/m29 {mp gsave x w2 sub y w2 add w3 sub m currentpoint t 4 {side} repeat cl fill gr} def
/m30 {mp gsave x w2 sub y w2 add w3 sub m currentpoint t 4 {side} repeat cl s gr} def
/m31 {mp x y w2 sub m 0 w d x w2 sub y m w 0 d x w2 sub y w2 add m w w neg d x w2 sub y w2 sub m w w d s} def
/m32 {mp x y w2 sub m w2 w d w neg 0 d cl s} def
/m33 {mp x y w2 add m w3 neg w2 neg d w3 w2 neg d w3 w2 d cl f} def
/m34 {mp x w2 sub y w2 sub w3 add m w3 0 d  0 w3 neg d w3 0 d 0 w3 d w3 0 d  0 w3 d w3 neg 0 d 0 w3 d w3 neg 0 d 0 w3 neg d w3 neg 0 d cl f } def
/m2 {mp x y w2 sub m 0 w d x w2 sub y m w 0 d s} def
/m5 {mp x w2 sub y w2 sub m w w d x w2 sub y w2 add m w w neg d s} def
%%IncludeResource: ProcSet (FontSetInit)
%%IncludeResource: font Times-Roman
%%IncludeResource: font Times-Italic
%%IncludeResource: font Times-Bold
%%IncludeResource: font Times-BoldItalic
%%IncludeResource: font Helvetica
%%IncludeResource: font Helvetica-Oblique
%%IncludeResource: font Helvetica-Bold
%%IncludeResource: font Helvetica-BoldOblique
%%IncludeResource: font Courier
%%IncludeResource: font Courier-Oblique
%%IncludeResource: font Courier-Bold
%%IncludeResource: font Courier-BoldOblique
%%IncludeResource: font Symbol
%%IncludeResource: font ZapfDingbats
/reEncode {exch findfont dup length dict begin {1 index /FID eq  {pop pop} {def} ifelse } forall /Encoding exch def currentdict end dup /FontName get exch definefont pop } def [/Times-Bold /Times-Italic /Times-BoldItalic /Helvetica /Helvetica-Oblique
 /Helvetica-Bold /Helvetica-BoldOblique /Courier /Courier-Oblique /Courier-Bold /Courier-BoldOblique /Times-Roman /AvantGarde-Book /AvantGarde-BookOblique /AvantGarde-Demi /AvantGarde-DemiOblique /Bookman-Demi /Bookman-DemiItalic /Bookman-Light
 /Bookman-LightItalic /Helvetica-Narrow /Helvetica-Narrow-Bold /Helvetica-Narrow-BoldOblique /Helvetica-Narrow-Oblique /NewCenturySchlbk-Roman /NewCenturySchlbk-Bold /NewCenturySchlbk-BoldItalic /NewCenturySchlbk-Italic /Palatino-Bold
 /Palatino-BoldItalic /Palatino-Italic /Palatino-Roman ] {ISOLatin1Encoding reEncode } forall
%%EndProlog
%%BeginSetup
%%EndSetup
newpath  gsave  .25 .25 scale  gsave  0 0 t 0.48 0.56 0.6 c[  ] 0 sd 3 lw 0.95 0.95 0.95 c 2268 1176 0 0 bf 0.48 0.56 0.6 c 0.95 0.95 0.95 c 710 565 23 600 bf black 0.95 0.95 0.95 c 548 427 143 681 bf black 548 427 143 681 bl 0.95 0.95 0.95 c 548 427
 143 681 bf black 548 427 143 681 bl 0 0 0.933333 c 6 lw 0.49 0.6 0.82 c black 3 lw 0.49 0.6 0.82 c 143 681 m 3 Y 14 X 8 Y 14 X 16 Y 14 X -1 Y 13 X 16 Y 14 X 26 Y 14 X 20 Y 13 X 29 Y 14 X 44 Y 14 X 94 Y 13 X 74 Y 14 X -86 Y 14 X -117 Y 13 X -42 Y 14
 X 3 Y 14 X -17 Y 13 X -13 Y 14 X 4 Y 14 X -7 Y 13 X -4 Y 14 X -12 Y 14 X 7 Y 13 X -12 Y 14 X 2 Y 14 X -2 Y 13 X -4 Y 14 X 2 Y 14 X -7 Y 13 X -2 Y 14 X -1 Y 14 X -6 Y 13 X -3 Y 14 X 5 Y 14 X -9 Y 14 X 2 Y 13 X 1 Y 14 X -4 Y 14 X 4 Y 13 X -2 Y 14 X -9
 Y 14 X f 6 lw 0 0 0.933333 c 0.49 0.6 0.82 c 0 0 0.933333 c 143 684 m 14 X 8 Y 14 X 16 Y 14 X -1 Y 13 X 16 Y 14 X 26 Y 14 X 20 Y 13 X 29 Y 14 X 44 Y 14 X 94 Y 13 X 74 Y 14 X -86 Y 14 X -117 Y 13 X -42 Y 14 X 3 Y 14 X -17 Y 13 X -13 Y 14 X 4 Y 14 X
 -7 Y 13 X -4 Y 14 X -12 Y 14 X 7 Y 13 X -12 Y 14 X 2 Y 14 X -2 Y 13 X -4 Y 14 X 2 Y 14 X -7 Y 13 X -2 Y 14 X -1 Y 14 X -6 Y 13 X -3 Y 14 X 5 Y 14 X -9 Y 14 X 2 Y 13 X 1 Y 14 X -4 Y 14 X 4 Y 13 X -2 Y 14 X -9 Y 14 X s black 3 lw 143 681 m 548 X s
 gsave  710 565 23 600 C 650.761 613.818 t 0 r /Helvetica-Bold findfont 28.5208 sf 0 0 m (Mjj) show NC gr  241 694 m -13 Y s 269 688 m -7 Y s 296 688 m -7 Y s 323 688 m -7 Y s 350 694 m -13 Y s 378 688 m -7 Y s 405 688 m -7 Y s 432 688 m -7 Y s 459
 694 m -13 Y s 487 688 m -7 Y s 514 688 m -7 Y s 541 688 m -7 Y s 568 694 m -13 Y s 596 688 m -7 Y s 623 688 m -7 Y s 650 688 m -7 Y s 677 694 m -13 Y s 241 694 m -13 Y s 214 688 m -7 Y s 187 688 m -7 Y s 160 688 m -7 Y s 677 694 m -13 Y s
 gsave  710 565 23 600 C 215.973 653.603 t 0 r /Helvetica-Bold findfont 25.6688 sf 0 0 m (200) show NC gr 
 gsave  710 565 23 600 C 326.801 653.603 t 0 r /Helvetica-Bold findfont 25.6688 sf 0 0 m (400) show NC gr 
 gsave  710 565 23 600 C 434.788 653.603 t 0 r /Helvetica-Bold findfont 25.6688 sf 0 0 m (600) show NC gr 
 gsave  710 565 23 600 C 542.774 653.603 t 0 r /Helvetica-Bold findfont 25.6688 sf 0 0 m (800) show NC gr 
 gsave  710 565 23 600 C 647.919 653.603 t 0 r /Helvetica-Bold findfont 25.6688 sf 0 0 m (1000) show NC gr  143 1108 m 548 X s 241 1095 m 13 Y s 269 1102 m 6 Y s 296 1102 m 6 Y s 323 1102 m 6 Y s 350 1095 m 13 Y s 378 1102 m 6 Y s 405 1102 m 6 Y s
 432 1102 m 6 Y s 459 1095 m 13 Y s 487 1102 m 6 Y s 514 1102 m 6 Y s 541 1102 m 6 Y s 568 1095 m 13 Y s 596 1102 m 6 Y s 623 1102 m 6 Y s 650 1102 m 6 Y s 677 1095 m 13 Y s 241 1095 m 13 Y s 214 1102 m 6 Y s 187 1102 m 6 Y s 160 1102 m 6 Y s 677
 1095 m 13 Y s 143 681 m 427 Y s
 gsave  710 565 23 600 C 48.3097 1045.76 t 90 r /Helvetica-Bold findfont 28.5208 sf 0 0 m (25.1 ) show NC gr 
 gsave  710 565 23 600 C 34.101 1037.24 t 90 r /Helvetica-Bold findfont 19.9646 sf 0 0 m ( ) show NC gr 
 gsave  710 565 23 600 C 48.3097 1028.71 t 90 r /Helvetica-Bold findfont 28.5208 sf 0 0 m (/) show NC gr 
 gsave  710 565 23 600 C 53.9933 1020.19 t 90 r /Helvetica-Bold findfont 19.9646 sf 0 0 m ( ) show NC gr 
 gsave  710 565 23 600 C 45.468 912.202 t 90 r /Helvetica-Bold findfont 28.5208 sf 0 0 m (\(1/N\) dN) show NC gr  160 681 m -17 X s 152 693 m -9 X s 152 705 m -9 X s 152 717 m -9 X s 152 729 m -9 X s 160 740 m -17 X s 152 752 m -9 X s 152 764 m -9 X
 s 152 776 m -9 X s 152 788 m -9 X s 160 800 m -17 X s 152 811 m -9 X s 152 823 m -9 X s 152 835 m -9 X s 152 847 m -9 X s 160 859 m -17 X s 152 870 m -9 X s 152 882 m -9 X s 152 894 m -9 X s 152 906 m -9 X s 160 918 m -17 X s 152 930 m -9 X s 152
 941 m -9 X s 152 953 m -9 X s 152 965 m -9 X s 160 977 m -17 X s 152 989 m -9 X s 152 1000 m -9 X s 152 1012 m -9 X s 152 1024 m -9 X s 160 1036 m -17 X s 152 1048 m -9 X s 152 1060 m -9 X s 152 1071 m -9 X s 152 1083 m -9 X s 160 1095 m -17 X s 160
 1095 m -17 X s 152 1107 m -9 X s
 gsave  710 565 23 600 C 119.354 670.653 t 0 r /Helvetica-Bold findfont 25.6688 sf 0 0 m (0) show NC gr 
 gsave  710 565 23 600 C 73.8855 730.33 t 0 r /Helvetica-Bold findfont 25.6688 sf 0 0 m (0.001) show NC gr 
 gsave  710 565 23 600 C 68.202 790.007 t 0 r /Helvetica-Bold findfont 25.6688 sf 0 0 m (0.002) show NC gr 
 gsave  710 565 23 600 C 68.202 849.683 t 0 r /Helvetica-Bold findfont 25.6688 sf 0 0 m (0.003) show NC gr 
 gsave  710 565 23 600 C 68.202 906.518 t 0 r /Helvetica-Bold findfont 25.6688 sf 0 0 m (0.004) show NC gr 
 gsave  710 565 23 600 C 68.202 966.195 t 0 r /Helvetica-Bold findfont 25.6688 sf 0 0 m (0.005) show NC gr 
 gsave  710 565 23 600 C 68.202 1025.87 t 0 r /Helvetica-Bold findfont 25.6688 sf 0 0 m (0.006) show NC gr 
 gsave  710 565 23 600 C 68.202 1085.55 t 0 r /Helvetica-Bold findfont 25.6688 sf 0 0 m (0.007) show NC gr  691 681 m 427 Y s 674 681 m 17 X s 683 693 m 8 X s 683 705 m 8 X s 683 717 m 8 X s 683 729 m 8 X s 674 740 m 17 X s 683 752 m 8 X s 683 764 m
 8 X s 683 776 m 8 X s 683 788 m 8 X s 674 800 m 17 X s 683 811 m 8 X s 683 823 m 8 X s 683 835 m 8 X s 683 847 m 8 X s 674 859 m 17 X s 683 870 m 8 X s 683 882 m 8 X s 683 894 m 8 X s 683 906 m 8 X s 674 918 m 17 X s 683 930 m 8 X s 683 941 m 8 X s
 683 953 m 8 X s 683 965 m 8 X s 674 977 m 17 X s 683 989 m 8 X s 683 1000 m 8 X s 683 1012 m 8 X s 683 1024 m 8 X s 674 1036 m 17 X s 683 1048 m 8 X s 683 1060 m 8 X s 683 1071 m 8 X s 683 1083 m 8 X s 674 1095 m 17 X s 674 1095 m 17 X s 683 1107 m
 8 X s 1 0 0 c 6 lw black 3 lw 1 0 0 c 677 682 m -1 -1 d s 673 693 m -10 -10 d s 662 682 m -1 -1 d s 646 681 m s 633 684 m -2 -3 d s 622 688 m -6 -7 d s 611 692 m -2 -3 d s 601 681 m s 595 691 m -9 -10 d s 587 698 m -16 -17 d s 570 696 m -3 -3 d s
 556 681 m s 554 695 m -13 -14 d s 536 691 m -11 -10 d s 526 698 m -16 -17 d s 517 704 m -4 -5 d s 499 685 m -4 -4 d s 491 693 m -11 -12 d s 472 689 m -7 -8 d s 472 703 m -22 -22 d s 472 718 m -37 -37 d s 462 724 m -42 -43 d s 458 735 m -53 -54 d s
 444 736 m -54 -55 d s 444 752 m -69 -71 d s 432 754 m -1 -1 d s 427 750 m -10 -11 d s 406 728 m -46 -47 d s 396 733 m -51 -52 d s 376 728 m -47 -47 d s 376 743 m -62 -62 d s 373 755 m -74 -74 d s 362 760 m -78 -79 d s 362 775 m -13 -14 d s 338 750 m
 -69 -69 d s 362 790 m -13 -13 d s 335 763 m -81 -82 d s 349 792 m s 328 771 m -89 -90 d s 321 779 m -13 -13 d s 295 753 m -71 -72 d s 321 795 m -13 -14 d s 294 767 m -85 -86 d s 321 810 m -13 -14 d s 294 782 m -100 -101 d s 319 823 m -11 -12 d s 289
 792 m -110 -111 d s 280 799 m -116 -118 d s 280 814 m -131 -133 d s 279 828 m -12 -13 d s 263 812 m -106 -107 d s 146 694 m -3 -3 d s 253 817 m -27 -28 d s 224 788 m -26 -26 d s 188 751 m -31 -31 d s 253 832 m -27 -28 d s 212 791 m -14 -14 d s 185
 763 m -28 -28 d s 253 847 m -27 -27 d s 185 778 m -28 -27 d s 253 862 m -27 -27 d s 180 789 m -23 -23 d s 253 878 m -14 -14 d s 233 857 m -7 -7 d s 162 786 m -5 -5 d s 253 893 m -14 -14 d s 244 899 m -5 -5 d s 6 lw 143 694 m 14 X 92 Y 14 X 3 Y 14 X
 -38 Y 13 X 40 Y 14 X -3 Y 14 X 69 Y 13 X 42 Y 14 X -87 Y 14 X 16 Y 13 X -36 Y 14 X -39 Y 14 X 70 Y 13 X -52 Y 14 X -21 Y 14 X 42 Y 13 X -37 Y 14 X -28 Y 14 X 6 Y 13 X -5 Y 14 X 22 Y 14 X 4 Y 13 X -19 Y 14 X -11 Y 14 X -35 Y 13 X 4 Y 14 X -8 Y 14 X
 19 Y 13 X -13 Y 14 X 4 Y 14 X -14 Y 13 X 15 Y 14 X 2 Y 14 X -17 Y 14 X 11 Y 13 X -8 Y 14 X -3 Y 14 X 1 Y 13 X 11 Y 14 X -12 Y 14 X s 0.48 0.56 0.6 c 3 lw 1 1 1 c 0.48 0.56 0.6 c 285 84 143 1024 bl 143 1024 m 285 X s 428 1024 m 84 Y s 428 1108 m -285
 X s 143 1108 m -84 Y s black
 gsave  710 565 23 600 C 227.34 1079.87 t 0 r /Helvetica-Bold findfont 31.3729 sf 0 0 m (Signal) show NC gr  0.49 0.6 0.82 c 156 1072 m 60 X 30 Y -60 X f 0 0 0.933333 c 6 lw 156 1102 m 60 X s 156 1072 m 60 X s 216 1072 m 30 Y s 156 1072 m 30 Y s
 black
 gsave  710 565 23 600 C 227.34 1037.24 t 0 r /Helvetica-Bold findfont 31.3729 sf 0 0 m (Background) show NC gr  1 0 0 c 3 lw 216 1038 m -8 -8 d s 216 1053 m -23 -23 d s 207 1060 m -29 -30 d s 192 1060 m -29 -30 d s 177 1060 m -21 -22 d s 162 1060 m
 -6 -7 d s 6 lw 0 0 0.933333 c 1 0 0 c 156 1060 m 60 X s 156 1030 m 60 X s 216 1030 m 30 Y s 156 1030 m 30 Y s black 3 lw 143 681 m 548 X s 241 694 m -13 Y s 269 688 m -7 Y s 296 688 m -7 Y s 323 688 m -7 Y s 350 694 m -13 Y s 378 688 m -7 Y s 405
 688 m -7 Y s 432 688 m -7 Y s 459 694 m -13 Y s 487 688 m -7 Y s 514 688 m -7 Y s 541 688 m -7 Y s 568 694 m -13 Y s 596 688 m -7 Y s 623 688 m -7 Y s 650 688 m -7 Y s 677 694 m -13 Y s 241 694 m -13 Y s 214 688 m -7 Y s 187 688 m -7 Y s 160 688 m
 -7 Y s 677 694 m -13 Y s 143 1108 m 548 X s 241 1095 m 13 Y s 269 1102 m 6 Y s 296 1102 m 6 Y s 323 1102 m 6 Y s 350 1095 m 13 Y s 378 1102 m 6 Y s 405 1102 m 6 Y s 432 1102 m 6 Y s 459 1095 m 13 Y s 487 1102 m 6 Y s 514 1102 m 6 Y s 541 1102 m 6 Y
 s 568 1095 m 13 Y s 596 1102 m 6 Y s 623 1102 m 6 Y s 650 1102 m 6 Y s 677 1095 m 13 Y s 241 1095 m 13 Y s 214 1102 m 6 Y s 187 1102 m 6 Y s 160 1102 m 6 Y s 677 1095 m 13 Y s 143 681 m 427 Y s 160 681 m -17 X s 152 693 m -9 X s 152 705 m -9 X s 152
 717 m -9 X s 152 729 m -9 X s 160 740 m -17 X s 152 752 m -9 X s 152 764 m -9 X s 152 776 m -9 X s 152 788 m -9 X s 160 800 m -17 X s 152 811 m -9 X s 152 823 m -9 X s 152 835 m -9 X s 152 847 m -9 X s 160 859 m -17 X s 152 870 m -9 X s 152 882 m -9
 X s 152 894 m -9 X s 152 906 m -9 X s 160 918 m -17 X s 152 930 m -9 X s 152 941 m -9 X s 152 953 m -9 X s 152 965 m -9 X s 160 977 m -17 X s 152 989 m -9 X s 152 1000 m -9 X s 152 1012 m -9 X s 152 1024 m -9 X s 160 1036 m -17 X s 152 1048 m -9 X s
 152 1060 m -9 X s 152 1071 m -9 X s 152 1083 m -9 X s 160 1095 m -17 X s 160 1095 m -17 X s 152 1107 m -9 X s 691 681 m 427 Y s 674 681 m 17 X s 683 693 m 8 X s 683 705 m 8 X s 683 717 m 8 X s 683 729 m 8 X s 674 740 m 17 X s 683 752 m 8 X s 683 764
 m 8 X s 683 776 m 8 X s 683 788 m 8 X s 674 800 m 17 X s 683 811 m 8 X s 683 823 m 8 X s 683 835 m 8 X s 683 847 m 8 X s 674 859 m 17 X s 683 870 m 8 X s 683 882 m 8 X s 683 894 m 8 X s 683 906 m 8 X s 674 918 m 17 X s 683 930 m 8 X s 683 941 m 8 X
 s 683 953 m 8 X s 683 965 m 8 X s 674 977 m 17 X s 683 989 m 8 X s 683 1000 m 8 X s 683 1012 m 8 X s 683 1024 m 8 X s 674 1036 m 17 X s 683 1048 m 8 X s 683 1060 m 8 X s 683 1071 m 8 X s 683 1083 m 8 X s 674 1095 m 17 X s 674 1095 m 17 X s 683 1107
 m 8 X s
 gsave  710 565 23 600 C 719.017 679.067 t 90 r /Helvetica-Bold findfont 19.9646 sf 0 0 m (U/O\255flow \(S,B\): \(0.0, 0.0\)% / \(0.0, 0.0\)%) show NC gr  0.48 0.56 0.6 c 0.364706 0.419608 0.490196 c 256 38 30 1124 bf 0.48 0.56 0.6 c 30 1124 m 256 X
 s 286 1124 m 38 Y s 286 1162 m -256 X s 30 1162 m -38 Y s 1 1 1 c black 1 1 1 c
 gsave  710 565 23 600 C 34.101 1136.7 t 0 r /Helvetica-Bold findfont 28.5208 sf 0 0 m (Input variable: Mjj) show NC gr  0.48 0.56 0.6 c 0.95 0.95 0.95 c 710 565 779 600 bf black 0.95 0.95 0.95 c 548 427 899 681 bf black 548 427 899 681 bl 0.95 0.95
 0.95 c 548 427 899 681 bf black 548 427 899 681 bl 0 0 0.933333 c 6 lw 0.49 0.6 0.82 c black 3 lw 0.49 0.6 0.82 c 899 681 m 278 Y 14 X 110 Y 14 X -85 Y 13 X -43 Y 14 X -53 Y 14 X -18 Y 13 X -9 Y 14 X -39 Y 27 X 2 Y 14 X -12 Y 14 X -1 Y 14 X -10 Y 13
 X -3 Y 14 X -6 Y 14 X -19 Y 13 X 19 Y 14 X 5 Y 14 X -30 Y 13 X 29 Y 14 X -19 Y 14 X -10 Y 13 X -5 Y 14 X -3 Y 14 X -2 Y 13 X -17 Y 14 X 9 Y 14 X -14 Y 13 X -25 Y 14 X 1 Y 14 X -7 Y 13 X -6 Y 14 X -12 Y 14 X 2 Y 13 X -5 Y 14 X -1 Y 14 X 2 Y 13 X -3 Y
 42 X f 6 lw 0 0 0.933333 c 0.49 0.6 0.82 c 0 0 0.933333 c 899 959 m 14 X 110 Y 14 X -85 Y 13 X -43 Y 14 X -53 Y 14 X -18 Y 13 X -9 Y 14 X -39 Y 27 X 2 Y 14 X -12 Y 14 X -1 Y 14 X -10 Y 13 X -3 Y 14 X -6 Y 14 X -19 Y 13 X 19 Y 14 X 5 Y 14 X -30 Y 13
 X 29 Y 14 X -19 Y 14 X -10 Y 13 X -5 Y 14 X -3 Y 14 X -2 Y 13 X -17 Y 14 X 9 Y 14 X -14 Y 13 X -25 Y 14 X 1 Y 14 X -7 Y 13 X -6 Y 14 X -12 Y 14 X 2 Y 13 X -5 Y 14 X -1 Y 14 X 2 Y 13 X -3 Y 42 X s black 3 lw 899 681 m 548 X s
 gsave  710 565 779 600 C 1383.93 610.976 t 0 r /Helvetica-Bold findfont 28.5208 sf 0 0 m (RMS) show NC gr  1006 694 m -13 Y s 1028 688 m -7 Y s 1049 688 m -7 Y s 1070 688 m -7 Y s 1092 688 m -7 Y s 1113 694 m -13 Y s 1135 688 m -7 Y s 1156 688 m -7
 Y s 1177 688 m -7 Y s 1199 688 m -7 Y s 1220 694 m -13 Y s 1242 688 m -7 Y s 1263 688 m -7 Y s 1284 688 m -7 Y s 1306 688 m -7 Y s 1327 694 m -13 Y s 1348 688 m -7 Y s 1370 688 m -7 Y s 1391 688 m -7 Y s 1413 688 m -7 Y s 1434 694 m -13 Y s 1006 694
 m -13 Y s 985 688 m -7 Y s 963 688 m -7 Y s 942 688 m -7 Y s 921 688 m -7 Y s 1434 694 m -13 Y s
 gsave  710 565 779 600 C 986.087 653.603 t 0 r /Helvetica-Bold findfont 25.6688 sf 0 0 m (0.5) show NC gr 
 gsave  710 565 779 600 C 1105.44 653.603 t 0 r /Helvetica-Bold findfont 25.6688 sf 0 0 m (1) show NC gr 
 gsave  710 565 779 600 C 1199.22 653.603 t 0 r /Helvetica-Bold findfont 25.6688 sf 0 0 m (1.5) show NC gr 
 gsave  710 565 779 600 C 1315.73 653.603 t 0 r /Helvetica-Bold findfont 25.6688 sf 0 0 m (2) show NC gr 
 gsave  710 565 779 600 C 1412.35 653.603 t 0 r /Helvetica-Bold findfont 25.6688 sf 0 0 m (2.5) show NC gr  899 1108 m 548 X s 1006 1095 m 13 Y s 1028 1102 m 6 Y s 1049 1102 m 6 Y s 1070 1102 m 6 Y s 1092 1102 m 6 Y s 1113 1095 m 13 Y s 1135 1102 m 6
 Y s 1156 1102 m 6 Y s 1177 1102 m 6 Y s 1199 1102 m 6 Y s 1220 1095 m 13 Y s 1242 1102 m 6 Y s 1263 1102 m 6 Y s 1284 1102 m 6 Y s 1306 1102 m 6 Y s 1327 1095 m 13 Y s 1348 1102 m 6 Y s 1370 1102 m 6 Y s 1391 1102 m 6 Y s 1413 1102 m 6 Y s 1434 1095
 m 13 Y s 1006 1095 m 13 Y s 985 1102 m 6 Y s 963 1102 m 6 Y s 942 1102 m 6 Y s 921 1102 m 6 Y s 1434 1095 m 13 Y s 899 681 m 427 Y s
 gsave  710 565 779 600 C 804.215 1008.82 t 90 r /Helvetica-Bold findfont 28.5208 sf 0 0 m (0.0639 ) show NC gr 
 gsave  710 565 779 600 C 790.007 1000.3 t 90 r /Helvetica-Bold findfont 19.9646 sf 0 0 m ( ) show NC gr 
 gsave  710 565 779 600 C 804.215 991.771 t 90 r /Helvetica-Bold findfont 28.5208 sf 0 0 m (/) show NC gr 
 gsave  710 565 779 600 C 809.899 983.246 t 90 r /Helvetica-Bold findfont 19.9646 sf 0 0 m ( ) show NC gr 
 gsave  710 565 779 600 C 804.215 875.259 t 90 r /Helvetica-Bold findfont 28.5208 sf 0 0 m (\(1/N\) dN) show NC gr  915 681 m -16 X s 907 694 m -8 X s 907 707 m -8 X s 907 720 m -8 X s 915 733 m -16 X s 907 746 m -8 X s 907 759 m -8 X s 907 772 m -8
 X s 915 785 m -16 X s 907 798 m -8 X s 907 811 m -8 X s 907 824 m -8 X s 915 837 m -16 X s 907 850 m -8 X s 907 863 m -8 X s 907 876 m -8 X s 915 889 m -16 X s 907 902 m -8 X s 907 915 m -8 X s 907 928 m -8 X s 915 941 m -16 X s 907 954 m -8 X s 907
 967 m -8 X s 907 980 m -8 X s 915 993 m -16 X s 907 1006 m -8 X s 907 1019 m -8 X s 907 1032 m -8 X s 915 1045 m -16 X s 907 1058 m -8 X s 907 1071 m -8 X s 907 1084 m -8 X s 915 1097 m -16 X s 915 1097 m -16 X s
 gsave  710 565 779 600 C 875.259 670.653 t 0 r /Helvetica-Bold findfont 25.6688 sf 0 0 m (0) show NC gr 
 gsave  710 565 779 600 C 852.525 724.646 t 0 r /Helvetica-Bold findfont 25.6688 sf 0 0 m (0.2) show NC gr 
 gsave  710 565 779 600 C 852.525 775.798 t 0 r /Helvetica-Bold findfont 25.6688 sf 0 0 m (0.4) show NC gr 
 gsave  710 565 779 600 C 852.525 826.949 t 0 r /Helvetica-Bold findfont 25.6688 sf 0 0 m (0.6) show NC gr 
 gsave  710 565 779 600 C 852.525 878.101 t 0 r /Helvetica-Bold findfont 25.6688 sf 0 0 m (0.8) show NC gr 
 gsave  710 565 779 600 C 878.101 932.094 t 0 r /Helvetica-Bold findfont 25.6688 sf 0 0 m (1) show NC gr 
 gsave  710 565 779 600 C 852.525 983.246 t 0 r /Helvetica-Bold findfont 25.6688 sf 0 0 m (1.2) show NC gr 
 gsave  710 565 779 600 C 852.525 1034.4 t 0 r /Helvetica-Bold findfont 25.6688 sf 0 0 m (1.4) show NC gr 
 gsave  710 565 779 600 C 852.525 1085.55 t 0 r /Helvetica-Bold findfont 25.6688 sf 0 0 m (1.6) show NC gr  1447 681 m 427 Y s 1430 681 m 17 X s 1438 694 m 9 X s 1438 707 m 9 X s 1438 720 m 9 X s 1430 733 m 17 X s 1438 746 m 9 X s 1438 759 m 9 X s
 1438 772 m 9 X s 1430 785 m 17 X s 1438 798 m 9 X s 1438 811 m 9 X s 1438 824 m 9 X s 1430 837 m 17 X s 1438 850 m 9 X s 1438 863 m 9 X s 1438 876 m 9 X s 1430 889 m 17 X s 1438 902 m 9 X s 1438 915 m 9 X s 1438 928 m 9 X s 1430 941 m 17 X s 1438
 954 m 9 X s 1438 967 m 9 X s 1438 980 m 9 X s 1430 993 m 17 X s 1438 1006 m 9 X s 1438 1019 m 9 X s 1438 1032 m 9 X s 1430 1045 m 17 X s 1438 1058 m 9 X s 1438 1071 m 9 X s 1438 1084 m 9 X s 1430 1097 m 17 X s 1430 1097 m 17 X s 1 0 0 c 6 lw black 3
 lw 1 0 0 c 1432 681 m s 1418 682 m -1 -1 d s 1402 682 m -1 Y s 1387 681 m s 1378 688 m -6 -7 d s 1378 703 m -14 -14 d s 1359 683 m -2 -2 d s 1351 691 m -9 -10 d s 1347 702 m -10 -10 d s 1327 681 m s 1323 693 m -12 -12 d s 1323 709 m -27 -28 d s 1323
 724 m -42 -43 d s 1323 739 m -13 -14 d s 1296 711 m -30 -30 d s 1323 754 m -13 -14 d s 1282 713 m -31 -32 d s 1318 763 m -8 -8 d s 1282 728 m -46 -47 d s 1282 743 m -61 -62 d s 1282 758 m -76 -77 d s 1282 773 m -27 -27 d s 1246 737 m -55 -56 d s
 1282 789 m -27 -28 d s 1241 747 m -65 -66 d s 1273 794 m -18 -18 d s 1241 763 m -80 -82 d s 1269 805 m -14 -14 d s 1241 778 m -95 -97 d s 1256 808 m -1 -1 d s 1241 793 m -27 -28 d s 1210 761 m -79 -80 d s 1241 808 m -13 -14 d s 1216 782 m -2 -2 d s
 1200 767 m -84 -86 d s 1241 823 m -13 -14 d s 1200 782 m -13 -14 d s 1178 760 m -78 -79 d s 1241 838 m -13 -13 d s 1199 796 m -12 -13 d s 1173 770 m -88 -89 d s 1241 854 m -13 -14 d s 1173 785 m -103 -104 d s 1241 869 m -13 -14 d s 1173 800 m -118
 -119 d s 1241 884 m -13 -14 d s 1173 815 m -133 -134 d s 1241 899 m -13 -14 d s 1173 830 m -148 -149 d s 1241 914 m -13 -13 d s 1173 845 m -27 -27 d s 1143 815 m -133 -134 d s 1241 930 m -13 -14 d s 1173 861 m -27 -28 d s 1127 815 m -132 -134 d s
 1241 945 m -13 -14 d s 1173 876 m -27 -28 d s 1115 818 m -10 -11 d s 1103 806 m -123 -125 d s 1241 960 m -13 -14 d s 1173 891 m -27 -28 d s 1091 808 m -126 -127 d s 1241 975 m -13 -14 d s 1173 906 m -14 -14 d s 1091 824 m -141 -143 d s 1241 990 m
 -13 -13 d s 1161 909 m -2 -1 d s 1091 839 m -41 -42 d s 1041 789 m -106 -108 d s 1241 1005 m -13 -13 d s 1091 854 m -14 -14 d s 1073 836 m -23 -23 d s 1036 799 m -116 -118 d s 1091 869 m -14 -14 d s 1062 840 m -12 -12 d s 1036 814 m -131 -133 d s
 1091 884 m -14 -14 d s 1036 829 m -96 -96 d s 935 727 m -36 -36 d s 1082 891 m -5 -5 d s 1036 844 m -27 -27 d s 995 803 m -55 -55 d s 927 734 m -28 -27 d s 1026 850 m -17 -18 d s 985 808 m -17 -17 d s 954 777 m -14 -14 d s 927 749 m -28 -27 d s 1022
 861 m -13 -14 d s 981 820 m -13 -14 d s 954 792 m -14 -14 d s 927 764 m -28 -27 d s 1022 876 m -13 -14 d s 981 835 m -13 -14 d s 954 807 m -14 -14 d s 927 780 m -28 -28 d s 1019 888 m -10 -10 d s 978 847 m -10 -11 d s 954 822 m -14 -13 d s 919 787 m
 -20 -20 d s 952 836 m -12 -12 d s 906 789 m -7 -7 d s 6 lw 899 789 m 14 X -2 Y 14 X -60 Y 13 X 109 Y 14 X -60 Y 14 X 71 Y 13 X -39 Y 14 X -6 Y 14 X 86 Y 13 X -38 Y 14 X -61 Y 14 X 51 Y 14 X -4 Y 13 X 55 Y 14 X -85 Y 14 X 12 Y 13 X -3 Y 28 X 63 Y 13
 X 31 Y 14 X -149 Y 14 X 36 Y 13 X -35 Y 14 X 21 Y 14 X 223 Y 13 X -268 Y 14 X 71 Y 14 X -14 Y 13 X -81 Y 14 X -3 Y 14 X 53 Y 13 X -82 Y 14 X 21 Y 14 X -19 Y 13 X 21 Y 14 X -23 Y 14 X 1 Y 27 X -1 Y 28 X s black 3 lw 899 681 m 548 X s 1006 694 m -13 Y
 s 1028 688 m -7 Y s 1049 688 m -7 Y s 1070 688 m -7 Y s 1092 688 m -7 Y s 1113 694 m -13 Y s 1135 688 m -7 Y s 1156 688 m -7 Y s 1177 688 m -7 Y s 1199 688 m -7 Y s 1220 694 m -13 Y s 1242 688 m -7 Y s 1263 688 m -7 Y s 1284 688 m -7 Y s 1306 688 m
 -7 Y s 1327 694 m -13 Y s 1348 688 m -7 Y s 1370 688 m -7 Y s 1391 688 m -7 Y s 1413 688 m -7 Y s 1434 694 m -13 Y s 1006 694 m -13 Y s 985 688 m -7 Y s 963 688 m -7 Y s 942 688 m -7 Y s 921 688 m -7 Y s 1434 694 m -13 Y s 899 1108 m 548 X s 1006
 1095 m 13 Y s 1028 1102 m 6 Y s 1049 1102 m 6 Y s 1070 1102 m 6 Y s 1092 1102 m 6 Y s 1113 1095 m 13 Y s 1135 1102 m 6 Y s 1156 1102 m 6 Y s 1177 1102 m 6 Y s 1199 1102 m 6 Y s 1220 1095 m 13 Y s 1242 1102 m 6 Y s 1263 1102 m 6 Y s 1284 1102 m 6 Y s
 1306 1102 m 6 Y s 1327 1095 m 13 Y s 1348 1102 m 6 Y s 1370 1102 m 6 Y s 1391 1102 m 6 Y s 1413 1102 m 6 Y s 1434 1095 m 13 Y s 1006 1095 m 13 Y s 985 1102 m 6 Y s 963 1102 m 6 Y s 942 1102 m 6 Y s 921 1102 m 6 Y s 1434 1095 m 13 Y s 899 681 m 427 Y
 s 915 681 m -16 X s 907 694 m -8 X s 907 707 m -8 X s 907 720 m -8 X s 915 733 m -16 X s 907 746 m -8 X s 907 759 m -8 X s 907 772 m -8 X s 915 785 m -16 X s 907 798 m -8 X s 907 811 m -8 X s 907 824 m -8 X s 915 837 m -16 X s 907 850 m -8 X s 907
 863 m -8 X s 907 876 m -8 X s 915 889 m -16 X s 907 902 m -8 X s 907 915 m -8 X s 907 928 m -8 X s 915 941 m -16 X s 907 954 m -8 X s 907 967 m -8 X s 907 980 m -8 X s 915 993 m -16 X s 907 1006 m -8 X s 907 1019 m -8 X s 907 1032 m -8 X s 915 1045
 m -16 X s 907 1058 m -8 X s 907 1071 m -8 X s 907 1084 m -8 X s 915 1097 m -16 X s 915 1097 m -16 X s 1447 681 m 427 Y s 1430 681 m 17 X s 1438 694 m 9 X s 1438 707 m 9 X s 1438 720 m 9 X s 1430 733 m 17 X s 1438 746 m 9 X s 1438 759 m 9 X s 1438
 772 m 9 X s 1430 785 m 17 X s 1438 798 m 9 X s 1438 811 m 9 X s 1438 824 m 9 X s 1430 837 m 17 X s 1438 850 m 9 X s 1438 863 m 9 X s 1438 876 m 9 X s 1430 889 m 17 X s 1438 902 m 9 X s 1438 915 m 9 X s 1438 928 m 9 X s 1430 941 m 17 X s 1438 954 m 9
 X s 1438 967 m 9 X s 1438 980 m 9 X s 1430 993 m 17 X s 1438 1006 m 9 X s 1438 1019 m 9 X s 1438 1032 m 9 X s 1430 1045 m 17 X s 1438 1058 m 9 X s 1438 1071 m 9 X s 1438 1084 m 9 X s 1430 1097 m 17 X s 1430 1097 m 17 X s
 gsave  710 565 779 600 C 1474.92 679.067 t 90 r /Helvetica-Bold findfont 19.9646 sf 0 0 m (U/O\255flow \(S,B\): \(0.0, 0.0\)% / \(0.0, 0.0\)%) show NC gr  0.48 0.56 0.6 c 0.364706 0.419608 0.490196 c 281 38 786 1124 bf 0.48 0.56 0.6 c 786 1124 m 281
 X s 1067 1124 m 38 Y s 1067 1162 m -281 X s 786 1162 m -38 Y s 1 1 1 c black 1 1 1 c
 gsave  710 565 779 600 C 790.007 1136.7 t 0 r /Helvetica-Bold findfont 28.5208 sf 0 0 m (Input variable: RMS) show NC gr  0.48 0.56 0.6 c 0.95 0.95 0.95 c 711 565 1534 600 bf black 0.95 0.95 0.95 c 547 427 1655 681 bf black 547 427 1655 681 bl 0.95
 0.95 0.95 c 547 427 1655 681 bf black 547 427 1655 681 bl 0 0 0.933333 c 6 lw 0.49 0.6 0.82 c black 3 lw 0.49 0.6 0.82 c 1655 681 m 66 Y 14 X 38 Y 14 X 51 Y 13 X 48 Y 14 X 45 Y 14 X 44 Y 13 X 62 Y 14 X -11 Y 14 X 30 Y 13 X -25 Y 14 X 10 Y 14 X -56 Y
 13 X -16 Y 14 X -25 Y 14 X -41 Y 13 X -2 Y 14 X -21 Y 14 X 6 Y 13 X -72 Y 14 X 14 Y 14 X -21 Y 14 X -12 Y 13 X -9 Y 14 X 2 Y 14 X -32 Y 13 X -22 Y 14 X -34 Y 14 X -3 Y 13 X -4 Y 14 X -7 Y 14 X 1 Y 13 X -2 Y 14 X -2 Y 14 X 2 Y 13 X -2 Y 82 X f 6 lw 0
 0 0.933333 c 0.49 0.6 0.82 c 0 0 0.933333 c 1655 747 m 14 X 38 Y 14 X 51 Y 13 X 48 Y 14 X 45 Y 14 X 44 Y 13 X 62 Y 14 X -11 Y 14 X 30 Y 13 X -25 Y 14 X 10 Y 14 X -56 Y 13 X -16 Y 14 X -25 Y 14 X -41 Y 13 X -2 Y 14 X -21 Y 14 X 6 Y 13 X -72 Y 14 X 14
 Y 14 X -21 Y 14 X -12 Y 13 X -9 Y 14 X 2 Y 14 X -32 Y 13 X -22 Y 14 X -34 Y 14 X -3 Y 13 X -4 Y 14 X -7 Y 14 X 1 Y 13 X -2 Y 14 X -2 Y 14 X 2 Y 13 X -2 Y 82 X s black 3 lw 1655 681 m 547 X s
 gsave  711 565 1534 600 C 2148.36 610.976 t 0 r /Helvetica-Bold findfont 28.5208 sf 0 0 m (dRll) show NC gr  1690 694 m -13 Y s 1701 688 m -7 Y s 1713 688 m -7 Y s 1724 688 m -7 Y s 1736 688 m -7 Y s 1747 694 m -13 Y s 1758 688 m -7 Y s 1770 688 m
 -7 Y s 1781 688 m -7 Y s 1793 688 m -7 Y s 1804 694 m -13 Y s 1815 688 m -7 Y s 1827 688 m -7 Y s 1838 688 m -7 Y s 1850 688 m -7 Y s 1861 694 m -13 Y s 1872 688 m -7 Y s 1884 688 m -7 Y s 1895 688 m -7 Y s 1906 688 m -7 Y s 1918 694 m -13 Y s 1929
 688 m -7 Y s 1941 688 m -7 Y s 1952 688 m -7 Y s 1963 688 m -7 Y s 1975 694 m -13 Y s 1986 688 m -7 Y s 1998 688 m -7 Y s 2009 688 m -7 Y s 2020 688 m -7 Y s 2032 694 m -13 Y s 2043 688 m -7 Y s 2055 688 m -7 Y s 2066 688 m -7 Y s 2077 688 m -7 Y s
 2089 694 m -13 Y s 2100 688 m -7 Y s 2112 688 m -7 Y s 2123 688 m -7 Y s 2134 688 m -7 Y s 2146 694 m -13 Y s 1690 694 m -13 Y s 1679 688 m -7 Y s 1667 688 m -7 Y s 1656 688 m -7 Y s 2146 694 m -13 Y s 2157 688 m -7 Y s 2169 688 m -7 Y s 2180 688 m
 -7 Y s 2191 688 m -7 Y s
 gsave  711 565 1534 600 C 1668.11 653.603 t 0 r /Helvetica-Bold findfont 25.6688 sf 0 0 m (0.5) show NC gr 
 gsave  711 565 1534 600 C 1739.15 653.603 t 0 r /Helvetica-Bold findfont 25.6688 sf 0 0 m (1) show NC gr 
 gsave  711 565 1534 600 C 1781.78 653.603 t 0 r /Helvetica-Bold findfont 25.6688 sf 0 0 m (1.5) show NC gr 
 gsave  711 565 1534 600 C 1849.98 653.603 t 0 r /Helvetica-Bold findfont 25.6688 sf 0 0 m (2) show NC gr 
 gsave  711 565 1534 600 C 1895.45 653.603 t 0 r /Helvetica-Bold findfont 25.6688 sf 0 0 m (2.5) show NC gr 
 gsave  711 565 1534 600 C 1963.65 653.603 t 0 r /Helvetica-Bold findfont 25.6688 sf 0 0 m (3) show NC gr 
 gsave  711 565 1534 600 C 2009.12 653.603 t 0 r /Helvetica-Bold findfont 25.6688 sf 0 0 m (3.5) show NC gr 
 gsave  711 565 1534 600 C 2080.16 653.603 t 0 r /Helvetica-Bold findfont 25.6688 sf 0 0 m (4) show NC gr 
 gsave  711 565 1534 600 C 2125.63 653.603 t 0 r /Helvetica-Bold findfont 25.6688 sf 0 0 m (4.5) show NC gr  1655 1108 m 547 X s 1690 1095 m 13 Y s 1701 1102 m 6 Y s 1713 1102 m 6 Y s 1724 1102 m 6 Y s 1736 1102 m 6 Y s 1747 1095 m 13 Y s 1758 1102 m
 6 Y s 1770 1102 m 6 Y s 1781 1102 m 6 Y s 1793 1102 m 6 Y s 1804 1095 m 13 Y s 1815 1102 m 6 Y s 1827 1102 m 6 Y s 1838 1102 m 6 Y s 1850 1102 m 6 Y s 1861 1095 m 13 Y s 1872 1102 m 6 Y s 1884 1102 m 6 Y s 1895 1102 m 6 Y s 1906 1102 m 6 Y s 1918
 1095 m 13 Y s 1929 1102 m 6 Y s 1941 1102 m 6 Y s 1952 1102 m 6 Y s 1963 1102 m 6 Y s 1975 1095 m 13 Y s 1986 1102 m 6 Y s 1998 1102 m 6 Y s 2009 1102 m 6 Y s 2020 1102 m 6 Y s 2032 1095 m 13 Y s 2043 1102 m 6 Y s 2055 1102 m 6 Y s 2066 1102 m 6 Y s
 2077 1102 m 6 Y s 2089 1095 m 13 Y s 2100 1102 m 6 Y s 2112 1102 m 6 Y s 2123 1102 m 6 Y s 2134 1102 m 6 Y s 2146 1095 m 13 Y s 1690 1095 m 13 Y s 1679 1102 m 6 Y s 1667 1102 m 6 Y s 1656 1102 m 6 Y s 2146 1095 m 13 Y s 2157 1102 m 6 Y s 2169 1102 m
 6 Y s 2180 1102 m 6 Y s 2191 1102 m 6 Y s 1655 681 m 427 Y s
 gsave  711 565 1534 600 C 1560.12 1040.08 t 90 r /Helvetica-Bold findfont 28.5208 sf 0 0 m (0.12 ) show NC gr 
 gsave  711 565 1534 600 C 1545.91 1031.56 t 90 r /Helvetica-Bold findfont 19.9646 sf 0 0 m ( ) show NC gr 
 gsave  711 565 1534 600 C 1560.12 1023.03 t 90 r /Helvetica-Bold findfont 28.5208 sf 0 0 m (/) show NC gr 
 gsave  711 565 1534 600 C 1565.8 1014.5 t 90 r /Helvetica-Bold findfont 19.9646 sf 0 0 m ( ) show NC gr 
 gsave  711 565 1534 600 C 1560.12 906.518 t 90 r /Helvetica-Bold findfont 28.5208 sf 0 0 m (\(1/N\) dN) show NC gr  1671 681 m -16 X s 1663 694 m -8 X s 1663 707 m -8 X s 1663 720 m -8 X s 1663 733 m -8 X s 1671 746 m -16 X s 1663 759 m -8 X s 1663
 772 m -8 X s 1663 785 m -8 X s 1663 798 m -8 X s 1671 811 m -16 X s 1663 824 m -8 X s 1663 837 m -8 X s 1663 850 m -8 X s 1663 863 m -8 X s 1671 876 m -16 X s 1663 889 m -8 X s 1663 902 m -8 X s 1663 915 m -8 X s 1663 928 m -8 X s 1671 941 m -16 X s
 1663 954 m -8 X s 1663 967 m -8 X s 1663 980 m -8 X s 1663 993 m -8 X s 1671 1006 m -16 X s 1663 1019 m -8 X s 1663 1032 m -8 X s 1663 1045 m -8 X s 1663 1058 m -8 X s 1671 1071 m -16 X s 1671 1071 m -16 X s 1663 1084 m -8 X s 1663 1097 m -8 X s
 gsave  711 565 1534 600 C 1631.16 670.653 t 0 r /Helvetica-Bold findfont 25.6688 sf 0 0 m (0) show NC gr 
 gsave  711 565 1534 600 C 1614.11 736.013 t 0 r /Helvetica-Bold findfont 25.6688 sf 0 0 m (0.1) show NC gr 
 gsave  711 565 1534 600 C 1608.43 801.374 t 0 r /Helvetica-Bold findfont 25.6688 sf 0 0 m (0.2) show NC gr 
 gsave  711 565 1534 600 C 1608.43 866.734 t 0 r /Helvetica-Bold findfont 25.6688 sf 0 0 m (0.3) show NC gr 
 gsave  711 565 1534 600 C 1608.43 932.094 t 0 r /Helvetica-Bold findfont 25.6688 sf 0 0 m (0.4) show NC gr 
 gsave  711 565 1534 600 C 1608.43 997.454 t 0 r /Helvetica-Bold findfont 25.6688 sf 0 0 m (0.5) show NC gr 
 gsave  711 565 1534 600 C 1608.43 1062.81 t 0 r /Helvetica-Bold findfont 25.6688 sf 0 0 m (0.6) show NC gr  2202 681 m 427 Y s 2186 681 m 16 X s 2194 694 m 8 X s 2194 707 m 8 X s 2194 720 m 8 X s 2194 733 m 8 X s 2186 746 m 16 X s 2194 759 m 8 X s
 2194 772 m 8 X s 2194 785 m 8 X s 2194 798 m 8 X s 2186 811 m 16 X s 2194 824 m 8 X s 2194 837 m 8 X s 2194 850 m 8 X s 2194 863 m 8 X s 2186 876 m 16 X s 2194 889 m 8 X s 2194 902 m 8 X s 2194 915 m 8 X s 2194 928 m 8 X s 2186 941 m 16 X s 2194 954
 m 8 X s 2194 967 m 8 X s 2194 980 m 8 X s 2194 993 m 8 X s 2186 1006 m 16 X s 2194 1019 m 8 X s 2194 1032 m 8 X s 2194 1045 m 8 X s 2194 1058 m 8 X s 2186 1071 m 16 X s 2186 1071 m 16 X s 2194 1084 m 8 X s 2194 1097 m 8 X s 1 0 0 c 6 lw black 3 lw 1
 0 0 c 2202 696 m -13 -14 d s 2188 681 m s 2202 710 m -13 -13 d s 2173 682 m -1 Y s 2158 681 m s 2143 681 m s 2128 681 m s 2113 681 m s 2098 681 m s 2093 692 m -11 -11 d s 2093 707 m -14 -14 d s 2067 681 m s 2093 722 m -14 -13 d s 2066 695 m -14 -14
 d s 2093 737 m -14 -13 d s 2066 710 m -14 -14 d s 2038 682 m -1 -1 d s 2093 753 m -14 -14 d s 2066 725 m -14 -14 d s 2038 698 m -16 -17 d s 2093 768 m -14 -14 d s 2066 740 m -14 -13 d s 2038 713 m -31 -32 d s 2066 755 m -14 -13 d s 2038 728 m -27
 -28 d s 2009 699 m -17 -18 d s 2062 767 m -10 -10 d s 2038 743 m -27 -27 d s 1997 702 m -20 -21 d s 2038 758 m -27 -27 d s 1997 717 m -35 -36 d s 2038 773 m -27 -27 d s 1997 732 m -50 -51 d s 2038 789 m -27 -28 d s 1997 747 m -41 -41 d s 1944 693 m
 -12 -12 d s 2038 804 m -27 -28 d s 1997 763 m -41 -42 d s 1943 707 m -26 -26 d s 2038 819 m -13 -14 d s 1997 778 m -27 -28 d s 1963 743 m -7 -7 d s 1943 723 m -41 -42 d s 2038 834 m -13 -14 d s 1997 793 m -27 -28 d s 1943 738 m -56 -57 d s 2033 844
 m -8 -8 d s 1997 808 m -27 -28 d s 1943 753 m -72 -72 d s 1997 823 m -27 -27 d s 1943 768 m -87 -87 d s 1997 838 m -27 -27 d s 1943 783 m -102 -102 d s 1997 854 m -27 -28 d s 1943 798 m -117 -117 d s 1997 869 m -27 -28 d s 1943 814 m -132 -133 d s
 1997 884 m -27 -28 d s 1943 829 m -14 -14 d s 1929 815 m -133 -134 d s 1997 899 m -27 -27 d s 1943 844 m -14 -14 d s 1915 816 m -134 -135 d s 1997 914 m -27 -27 d s 1943 859 m -14 -14 d s 1915 832 m -149 -151 d s 1997 930 m -13 -14 d s 1982 914 m
 -12 -12 d s 1943 874 m -14 -13 d s 1915 847 m -41 -41 d s 1860 792 m -109 -111 d s 1997 945 m -13 -14 d s 1943 890 m -14 -14 d s 1904 850 m -16 -16 d s 1888 834 m -14 -13 d s 1860 807 m -124 -126 d s 1997 960 m -13 -14 d s 1943 905 m -14 -14 d s
 1901 863 m -13 -13 d s 1860 822 m -139 -141 d s 1997 975 m -13 -14 d s 1943 920 m -14 -14 d s 1901 879 m -13 -14 d s 1859 836 m -153 -155 d s 1997 990 m -13 -13 d s 1943 935 m -14 -14 d s 1899 891 m -11 -11 d s 1847 839 m -156 -158 d s 1997 1005 m
 -13 -13 d s 1943 950 m -14 -13 d s 1847 854 m -172 -173 d s 1997 1021 m -13 -14 d s 1943 966 m -14 -14 d s 1847 869 m -187 -188 d s 1997 1036 m -13 -14 d s 1943 981 m -14 -14 d s 1843 881 m -188 -190 d s 1997 1051 m -13 -14 d s 1943 996 m -14 -14 d
 s 1833 886 m -178 -179 d s 1997 1066 m -13 -14 d s 1934 1003 m -5 -6 d s 1833 901 m -55 -55 d s 1769 836 m -114 -114 d s 1833 916 m -41 -41 d s 1783 866 m -5 -5 d s 1765 847 m -110 -110 d s 1833 931 m -41 -41 d s 1765 862 m -110 -110 d s 1833 946 m
 -14 -13 d s 1810 923 m -4 -4 d s 1765 878 m -82 -83 d s 1673 785 m -18 -18 d s 1833 962 m -14 -14 d s 1752 880 m -28 -29 d s 1718 846 m -35 -36 d s 1669 796 m -14 -14 d s 1833 977 m -14 -14 d s 1751 894 m -27 -27 d s 1710 853 m -27 -28 d s 1669 811
 m -14 -13 d s 1833 992 m -14 -14 d s 1751 909 m -27 -27 d s 1710 868 m -27 -28 d s 1669 827 m -14 -14 d s 1833 1007 m -14 -14 d s 1751 924 m -27 -27 d s 1710 883 m -27 -27 d s 1669 842 m -14 -14 d s 1833 1022 m -14 -13 d s 1740 928 m -3 -2 d s 1724
 912 m s 1710 898 m -27 -27 d s 1669 857 m -14 -14 d s 1833 1038 m -14 -14 d s 1710 913 m -27 -27 d s 1669 872 m -14 -14 d s 1833 1053 m -14 -14 d s 1690 909 m -7 -8 d s 1669 887 m -14 -13 d s 1833 1068 m -14 -14 d s 1669 902 m -14 -13 d s 1820 1069
 m -1 X s 6 lw 1655 902 m 14 X -117 Y 14 X 124 Y 13 X 4 Y 14 X -67 Y 14 X 66 Y 13 X 16 Y 14 X -48 Y 14 X -44 Y 13 X 30 Y 14 X 38 Y 14 X 19 Y 13 X 146 Y 14 X -188 Y 14 X -45 Y 13 X -45 Y 14 X 43 Y 14 X 57 Y 13 X -41 Y 14 X -35 Y 14 X 188 Y 14 X -310 Y
 13 X 50 Y 14 X 171 Y 14 X 153 Y 13 X -368 Y 14 X 91 Y 14 X 54 Y 13 X -163 Y 14 X 86 Y 14 X -86 Y 13 X 87 Y 14 X -87 Y 68 X 1 Y 14 X -1 Y 14 X 29 Y 13 X s black 3 lw 1655 681 m 547 X s 1690 694 m -13 Y s 1701 688 m -7 Y s 1713 688 m -7 Y s 1724 688 m
 -7 Y s 1736 688 m -7 Y s 1747 694 m -13 Y s 1758 688 m -7 Y s 1770 688 m -7 Y s 1781 688 m -7 Y s 1793 688 m -7 Y s 1804 694 m -13 Y s 1815 688 m -7 Y s 1827 688 m -7 Y s 1838 688 m -7 Y s 1850 688 m -7 Y s 1861 694 m -13 Y s 1872 688 m -7 Y s 1884
 688 m -7 Y s 1895 688 m -7 Y s 1906 688 m -7 Y s 1918 694 m -13 Y s 1929 688 m -7 Y s 1941 688 m -7 Y s 1952 688 m -7 Y s 1963 688 m -7 Y s 1975 694 m -13 Y s 1986 688 m -7 Y s 1998 688 m -7 Y s 2009 688 m -7 Y s 2020 688 m -7 Y s 2032 694 m -13 Y s
 2043 688 m -7 Y s 2055 688 m -7 Y s 2066 688 m -7 Y s 2077 688 m -7 Y s 2089 694 m -13 Y s 2100 688 m -7 Y s 2112 688 m -7 Y s 2123 688 m -7 Y s 2134 688 m -7 Y s 2146 694 m -13 Y s 1690 694 m -13 Y s 1679 688 m -7 Y s 1667 688 m -7 Y s 1656 688 m
 -7 Y s 2146 694 m -13 Y s 2157 688 m -7 Y s 2169 688 m -7 Y s 2180 688 m -7 Y s 2191 688 m -7 Y s 1655 1108 m 547 X s 1690 1095 m 13 Y s 1701 1102 m 6 Y s 1713 1102 m 6 Y s 1724 1102 m 6 Y s 1736 1102 m 6 Y s 1747 1095 m 13 Y s 1758 1102 m 6 Y s
 1770 1102 m 6 Y s 1781 1102 m 6 Y s 1793 1102 m 6 Y s 1804 1095 m 13 Y s 1815 1102 m 6 Y s 1827 1102 m 6 Y s 1838 1102 m 6 Y s 1850 1102 m 6 Y s 1861 1095 m 13 Y s 1872 1102 m 6 Y s 1884 1102 m 6 Y s 1895 1102 m 6 Y s 1906 1102 m 6 Y s 1918 1095 m
 13 Y s 1929 1102 m 6 Y s 1941 1102 m 6 Y s 1952 1102 m 6 Y s 1963 1102 m 6 Y s 1975 1095 m 13 Y s 1986 1102 m 6 Y s 1998 1102 m 6 Y s 2009 1102 m 6 Y s 2020 1102 m 6 Y s 2032 1095 m 13 Y s 2043 1102 m 6 Y s 2055 1102 m 6 Y s 2066 1102 m 6 Y s 2077
 1102 m 6 Y s 2089 1095 m 13 Y s 2100 1102 m 6 Y s 2112 1102 m 6 Y s 2123 1102 m 6 Y s 2134 1102 m 6 Y s 2146 1095 m 13 Y s 1690 1095 m 13 Y s 1679 1102 m 6 Y s 1667 1102 m 6 Y s 1656 1102 m 6 Y s 2146 1095 m 13 Y s 2157 1102 m 6 Y s 2169 1102 m 6 Y
 s 2180 1102 m 6 Y s 2191 1102 m 6 Y s 1655 681 m 427 Y s 1671 681 m -16 X s 1663 694 m -8 X s 1663 707 m -8 X s 1663 720 m -8 X s 1663 733 m -8 X s 1671 746 m -16 X s 1663 759 m -8 X s 1663 772 m -8 X s 1663 785 m -8 X s 1663 798 m -8 X s 1671 811 m
 -16 X s 1663 824 m -8 X s 1663 837 m -8 X s 1663 850 m -8 X s 1663 863 m -8 X s 1671 876 m -16 X s 1663 889 m -8 X s 1663 902 m -8 X s 1663 915 m -8 X s 1663 928 m -8 X s 1671 941 m -16 X s 1663 954 m -8 X s 1663 967 m -8 X s 1663 980 m -8 X s 1663
 993 m -8 X s 1671 1006 m -16 X s 1663 1019 m -8 X s 1663 1032 m -8 X s 1663 1045 m -8 X s 1663 1058 m -8 X s 1671 1071 m -16 X s 1671 1071 m -16 X s 1663 1084 m -8 X s 1663 1097 m -8 X s 2202 681 m 427 Y s 2186 681 m 16 X s 2194 694 m 8 X s 2194 707
 m 8 X s 2194 720 m 8 X s 2194 733 m 8 X s 2186 746 m 16 X s 2194 759 m 8 X s 2194 772 m 8 X s 2194 785 m 8 X s 2194 798 m 8 X s 2186 811 m 16 X s 2194 824 m 8 X s 2194 837 m 8 X s 2194 850 m 8 X s 2194 863 m 8 X s 2186 876 m 16 X s 2194 889 m 8 X s
 2194 902 m 8 X s 2194 915 m 8 X s 2194 928 m 8 X s 2186 941 m 16 X s 2194 954 m 8 X s 2194 967 m 8 X s 2194 980 m 8 X s 2194 993 m 8 X s 2186 1006 m 16 X s 2194 1019 m 8 X s 2194 1032 m 8 X s 2194 1045 m 8 X s 2194 1058 m 8 X s 2186 1071 m 16 X s
 2186 1071 m 16 X s 2194 1084 m 8 X s 2194 1097 m 8 X s
 gsave  711 565 1534 600 C 2230.83 679.067 t 90 r /Helvetica-Bold findfont 19.9646 sf 0 0 m (U/O\255flow \(S,B\): \(0.0, 0.0\)% / \(0.0, 0.0\)%) show NC gr  0.48 0.56 0.6 c 0.364706 0.419608 0.490196 c 270 38 1542 1124 bf 0.48 0.56 0.6 c 1542 1124 m
 270 X s 1812 1124 m 38 Y s 1812 1162 m -270 X s 1542 1162 m -38 Y s 1 1 1 c black 1 1 1 c
 gsave  711 565 1534 600 C 1545.91 1136.7 t 0 r /Helvetica-Bold findfont 28.5208 sf 0 0 m (Input variable: dRll) show NC gr  0.48 0.56 0.6 c 0.95 0.95 0.95 c 710 564 23 12 bf black 0.95 0.95 0.95 c 548 427 143 93 bf black 548 427 143 93 bl 0.95 0.95
 0.95 c 548 427 143 93 bf black 548 427 143 93 bl 0 0 0.933333 c 6 lw 0.49 0.6 0.82 c black 3 lw 0.49 0.6 0.82 c 143 93 m 388 Y 14 X -22 Y 14 X -46 Y 14 X -17 Y 13 X -36 Y 14 X 3 Y 14 X -28 Y 13 X -29 Y 14 X -44 Y 27 X -38 Y 14 X -9 Y 14 X 13 Y 13 X
 -43 Y 14 X 13 Y 14 X -14 Y 13 X -8 Y 14 X -34 Y 14 X 5 Y 13 X -4 Y 14 X 6 Y 14 X -17 Y 13 X -5 Y 14 X 6 Y 14 X -5 Y 13 X -1 Y 14 X -8 Y 27 X 3 Y 14 X 13 Y 14 X -9 Y 13 X 9 Y 14 X -12 Y 14 X 17 Y 14 X -4 Y 13 X -25 Y 14 X 12 Y 14 X 15 Y 13 X -3 Y 14
 X -41 Y 14 X -1 Y f 6 lw 0 0 0.933333 c 0.49 0.6 0.82 c 0 0 0.933333 c 143 481 m 14 X -22 Y 14 X -46 Y 14 X -17 Y 13 X -36 Y 14 X 3 Y 14 X -28 Y 13 X -29 Y 14 X -44 Y 27 X -38 Y 14 X -9 Y 14 X 13 Y 13 X -43 Y 14 X 13 Y 14 X -14 Y 13 X -8 Y 14 X -34
 Y 14 X 5 Y 13 X -4 Y 14 X 6 Y 14 X -17 Y 13 X -5 Y 14 X 6 Y 14 X -5 Y 13 X -1 Y 14 X -8 Y 27 X 3 Y 14 X 13 Y 14 X -9 Y 13 X 9 Y 14 X -12 Y 14 X 17 Y 14 X -4 Y 13 X -25 Y 14 X 12 Y 14 X 15 Y 13 X -3 Y 14 X -41 Y 14 X s black 3 lw 143 93 m 548 X s
 gsave  710 564 23 12 C 494.465 22.734 t 0 r /Helvetica-Bold findfont 28.5208 sf 0 0 m (abs\(dPll_MET\)) show NC gr  228 106 m -13 Y s 245 100 m -7 Y s 262 100 m -7 Y s 279 100 m -7 Y s 296 100 m -7 Y s 313 106 m -13 Y s 330 100 m -7 Y s 347 100 m -7
 Y s 364 100 m -7 Y s 381 100 m -7 Y s 398 106 m -13 Y s 415 100 m -7 Y s 432 100 m -7 Y s 449 100 m -7 Y s 466 100 m -7 Y s 483 106 m -13 Y s 500 100 m -7 Y s 517 100 m -7 Y s 534 100 m -7 Y s 551 100 m -7 Y s 568 106 m -13 Y s 585 100 m -7 Y s 602
 100 m -7 Y s 619 100 m -7 Y s 636 100 m -7 Y s 653 106 m -13 Y s 228 106 m -13 Y s 211 100 m -7 Y s 194 100 m -7 Y s 177 100 m -7 Y s 160 100 m -7 Y s 653 106 m -13 Y s 670 100 m -7 Y s 687 100 m -7 Y s
 gsave  710 564 23 12 C 207.448 65.3603 t 0 r /Helvetica-Bold findfont 25.6688 sf 0 0 m (0.5) show NC gr 
 gsave  710 564 23 12 C 306.909 65.3603 t 0 r /Helvetica-Bold findfont 25.6688 sf 0 0 m (1) show NC gr 
 gsave  710 564 23 12 C 377.953 65.3603 t 0 r /Helvetica-Bold findfont 25.6688 sf 0 0 m (1.5) show NC gr 
 gsave  710 564 23 12 C 474.572 65.3603 t 0 r /Helvetica-Bold findfont 25.6688 sf 0 0 m (2) show NC gr 
 gsave  710 564 23 12 C 545.616 65.3603 t 0 r /Helvetica-Bold findfont 25.6688 sf 0 0 m (2.5) show NC gr 
 gsave  710 564 23 12 C 642.236 65.3603 t 0 r /Helvetica-Bold findfont 25.6688 sf 0 0 m (3) show NC gr  143 520 m 548 X s 228 507 m 13 Y s 245 513 m 7 Y s 262 513 m 7 Y s 279 513 m 7 Y s 296 513 m 7 Y s 313 507 m 13 Y s 330 513 m 7 Y s 347 513 m 7 Y
 s 364 513 m 7 Y s 381 513 m 7 Y s 398 507 m 13 Y s 415 513 m 7 Y s 432 513 m 7 Y s 449 513 m 7 Y s 466 513 m 7 Y s 483 507 m 13 Y s 500 513 m 7 Y s 517 513 m 7 Y s 534 513 m 7 Y s 551 513 m 7 Y s 568 507 m 13 Y s 585 513 m 7 Y s 602 513 m 7 Y s 619
 513 m 7 Y s 636 513 m 7 Y s 653 507 m 13 Y s 228 507 m 13 Y s 211 513 m 7 Y s 194 513 m 7 Y s 177 513 m 7 Y s 160 513 m 7 Y s 653 507 m 13 Y s 670 513 m 7 Y s 687 513 m 7 Y s 143 93 m 427 Y s
 gsave  710 564 23 12 C 45.468 420.579 t 90 r /Helvetica-Bold findfont 28.5208 sf 0 0 m (0.0805 ) show NC gr 
 gsave  710 564 23 12 C 34.101 412.054 t 90 r /Helvetica-Bold findfont 19.9646 sf 0 0 m ( ) show NC gr 
 gsave  710 564 23 12 C 45.468 403.529 t 90 r /Helvetica-Bold findfont 28.5208 sf 0 0 m (/) show NC gr 
 gsave  710 564 23 12 C 51.1515 395.003 t 90 r /Helvetica-Bold findfont 19.9646 sf 0 0 m ( ) show NC gr 
 gsave  710 564 23 12 C 45.468 287.017 t 90 r /Helvetica-Bold findfont 28.5208 sf 0 0 m (\(1/N\) dN) show NC gr  160 93 m -17 X s 152 110 m -9 X s 152 128 m -9 X s 152 145 m -9 X s 160 162 m -17 X s 152 180 m -9 X s 152 197 m -9 X s 152 214 m -9 X s
 160 232 m -17 X s 152 249 m -9 X s 152 266 m -9 X s 152 284 m -9 X s 160 301 m -17 X s 152 318 m -9 X s 152 336 m -9 X s 152 353 m -9 X s 160 370 m -17 X s 152 388 m -9 X s 152 405 m -9 X s 152 422 m -9 X s 160 440 m -17 X s 152 457 m -9 X s 152 474
 m -9 X s 152 492 m -9 X s 160 509 m -17 X s 160 509 m -17 X s
 gsave  710 564 23 12 C 119.354 82.4108 t 0 r /Helvetica-Bold findfont 25.6688 sf 0 0 m (0) show NC gr 
 gsave  710 564 23 12 C 96.6195 153.455 t 0 r /Helvetica-Bold findfont 25.6688 sf 0 0 m (0.2) show NC gr 
 gsave  710 564 23 12 C 96.6195 221.657 t 0 r /Helvetica-Bold findfont 25.6688 sf 0 0 m (0.4) show NC gr 
 gsave  710 564 23 12 C 96.6195 289.859 t 0 r /Helvetica-Bold findfont 25.6688 sf 0 0 m (0.6) show NC gr 
 gsave  710 564 23 12 C 96.6195 360.902 t 0 r /Helvetica-Bold findfont 25.6688 sf 0 0 m (0.8) show NC gr 
 gsave  710 564 23 12 C 122.195 429.104 t 0 r /Helvetica-Bold findfont 25.6688 sf 0 0 m (1) show NC gr 
 gsave  710 564 23 12 C 96.6195 500.148 t 0 r /Helvetica-Bold findfont 25.6688 sf 0 0 m (1.2) show NC gr  691 93 m 427 Y s 674 93 m 17 X s 683 110 m 8 X s 683 128 m 8 X s 683 145 m 8 X s 674 162 m 17 X s 683 180 m 8 X s 683 197 m 8 X s 683 214 m 8 X
 s 674 232 m 17 X s 683 249 m 8 X s 683 266 m 8 X s 683 284 m 8 X s 674 301 m 17 X s 683 318 m 8 X s 683 336 m 8 X s 683 353 m 8 X s 674 370 m 17 X s 683 388 m 8 X s 683 405 m 8 X s 683 422 m 8 X s 674 440 m 17 X s 683 457 m 8 X s 683 474 m 8 X s 683
 492 m 8 X s 674 509 m 17 X s 674 509 m 17 X s 1 0 0 c 6 lw black 3 lw 1 0 0 c 691 108 m -15 -15 d s 681 113 m -20 -20 d s 677 124 m -31 -31 d s 677 139 m -46 -46 d s 677 155 m -61 -62 d s 670 163 m -69 -70 d s 663 171 m -77 -78 d s 663 186 m -92 -93
 d s 662 201 m -106 -108 d s 638 191 m -2 -2 d s 633 186 m -38 -38 d s 586 139 m -45 -46 d s 622 191 m -27 -28 d s 581 149 m -56 -56 d s 621 205 m -12 -13 d s 598 182 m -3 -4 d s 581 164 m -71 -71 d s 581 180 m -27 -28 d s 545 143 m -46 -46 d s 495
 93 m s 581 195 m -27 -28 d s 540 153 m -41 -41 d s 485 98 m -5 -5 d s 581 210 m -27 -28 d s 540 169 m -41 -42 d s 485 114 m -20 -21 d s 581 225 m -27 -27 d s 540 184 m -41 -42 d s 485 129 m -35 -36 d s 581 240 m -27 -27 d s 540 199 m -27 -28 d s 499
 158 m s 485 144 m -50 -51 d s 581 255 m -27 -27 d s 540 214 m -27 -27 d s 485 159 m -65 -66 d s 567 257 m -13 -14 d s 540 229 m -27 -27 d s 485 174 m -80 -81 d s 567 272 m -13 -14 d s 540 245 m -14 -14 d s 517 222 m -4 -5 d s 485 189 m -95 -96 d s
 558 278 m -4 -4 d s 540 260 m -14 -14 d s 485 205 m -54 -55 d s 425 144 m -50 -51 d s 540 275 m -14 -14 d s 485 220 m -13 -14 d s 467 202 m -36 -37 d s 417 151 m -57 -58 d s 540 290 m -14 -14 d s 485 235 m -13 -14 d s 458 207 m -27 -27 d s 410 159 m
 -65 -66 d s 485 250 m -13 -14 d s 452 217 m -21 -22 d s 403 168 m -74 -75 d s 485 265 m -13 -13 d s 436 215 m -5 -5 d s 403 183 m -13 -14 d s 376 155 m -62 -62 d s 485 281 m -13 -14 d s 403 198 m -13 -14 d s 376 170 m -77 -77 d s 485 296 m -13 -14 d
 s 403 213 m -13 -14 d s 376 186 m -68 -69 d s 300 109 m -16 -16 d s 481 307 m -9 -10 d s 403 228 m -13 -14 d s 376 201 m -68 -69 d s 294 118 m -25 -25 d s 403 243 m -13 -13 d s 376 216 m -55 -55 d s 309 148 m -1 -1 d s 294 133 m -40 -40 d s 391 246
 m -1 -1 d s 376 231 m -55 -55 d s 294 148 m -55 -55 d s 376 246 m -14 -14 d s 351 221 m -2 -2 d s 343 213 m -22 -22 d s 294 164 m -70 -71 d s 376 261 m -14 -13 d s 335 220 m -14 -14 d s 294 179 m -85 -86 d s 368 269 m -6 -6 d s 335 235 m -14 -14 d s
 294 194 m -100 -101 d s 335 250 m -14 -13 d s 283 198 m -104 -105 d s 335 266 m -14 -14 d s 280 211 m -27 -28 d s 240 170 m -76 -77 d s 267 213 m -1 Y s 262 208 m -9 -10 d s 239 184 m -90 -91 d s 239 200 m -96 -97 d s 239 215 m -96 -97 d s 239 230 m
 -96 -97 d s 235 241 m -37 -37 d s 185 190 m -42 -41 d s 226 247 m -28 -28 d s 185 205 m -14 -14 d s 164 184 m -21 -20 d s 214 250 m -16 -16 d s 171 207 m s 157 193 m -14 -14 d s 212 263 m -14 -14 d s 157 208 m -14 -14 d s 212 278 m -14 -13 d s 148
 213 m -5 -4 d s 203 285 m -5 -5 d s 6 lw 143 213 m 14 X -29 Y 14 X 23 Y 14 X -17 Y 13 X 95 Y 14 X -35 Y 14 X -9 Y 13 X -71 Y 14 X 38 Y 14 X 5 Y 13 X -15 Y 14 X -89 Y 14 X 39 Y 13 X 118 Y 14 X -53 Y 14 X 8 Y 13 X 48 Y 14 X -115 Y 14 X 92 Y 13 X -87 Y
 14 X -15 Y 14 X 71 Y 13 X 2 Y 14 X -15 Y 14 X 105 Y 13 X -214 Y 14 X 65 Y 14 X 64 Y 13 X 68 Y 14 X -147 Y 14 X 135 Y 13 X -23 Y 14 X -116 Y 14 X 43 Y 14 X 23 Y 13 X -19 Y 14 X 5 Y 14 X 10 Y 13 X -38 Y 14 X -50 Y 14 X s black 3 lw 143 93 m 548 X s
 228 106 m -13 Y s 245 100 m -7 Y s 262 100 m -7 Y s 279 100 m -7 Y s 296 100 m -7 Y s 313 106 m -13 Y s 330 100 m -7 Y s 347 100 m -7 Y s 364 100 m -7 Y s 381 100 m -7 Y s 398 106 m -13 Y s 415 100 m -7 Y s 432 100 m -7 Y s 449 100 m -7 Y s 466 100
 m -7 Y s 483 106 m -13 Y s 500 100 m -7 Y s 517 100 m -7 Y s 534 100 m -7 Y s 551 100 m -7 Y s 568 106 m -13 Y s 585 100 m -7 Y s 602 100 m -7 Y s 619 100 m -7 Y s 636 100 m -7 Y s 653 106 m -13 Y s 228 106 m -13 Y s 211 100 m -7 Y s 194 100 m -7 Y
 s 177 100 m -7 Y s 160 100 m -7 Y s 653 106 m -13 Y s 670 100 m -7 Y s 687 100 m -7 Y s 143 520 m 548 X s 228 507 m 13 Y s 245 513 m 7 Y s 262 513 m 7 Y s 279 513 m 7 Y s 296 513 m 7 Y s 313 507 m 13 Y s 330 513 m 7 Y s 347 513 m 7 Y s 364 513 m 7 Y
 s 381 513 m 7 Y s 398 507 m 13 Y s 415 513 m 7 Y s 432 513 m 7 Y s 449 513 m 7 Y s 466 513 m 7 Y s 483 507 m 13 Y s 500 513 m 7 Y s 517 513 m 7 Y s 534 513 m 7 Y s 551 513 m 7 Y s 568 507 m 13 Y s 585 513 m 7 Y s 602 513 m 7 Y s 619 513 m 7 Y s 636
 513 m 7 Y s 653 507 m 13 Y s 228 507 m 13 Y s 211 513 m 7 Y s 194 513 m 7 Y s 177 513 m 7 Y s 160 513 m 7 Y s 653 507 m 13 Y s 670 513 m 7 Y s 687 513 m 7 Y s 143 93 m 427 Y s 160 93 m -17 X s 152 110 m -9 X s 152 128 m -9 X s 152 145 m -9 X s 160
 162 m -17 X s 152 180 m -9 X s 152 197 m -9 X s 152 214 m -9 X s 160 232 m -17 X s 152 249 m -9 X s 152 266 m -9 X s 152 284 m -9 X s 160 301 m -17 X s 152 318 m -9 X s 152 336 m -9 X s 152 353 m -9 X s 160 370 m -17 X s 152 388 m -9 X s 152 405 m
 -9 X s 152 422 m -9 X s 160 440 m -17 X s 152 457 m -9 X s 152 474 m -9 X s 152 492 m -9 X s 160 509 m -17 X s 160 509 m -17 X s 691 93 m 427 Y s 674 93 m 17 X s 683 110 m 8 X s 683 128 m 8 X s 683 145 m 8 X s 674 162 m 17 X s 683 180 m 8 X s 683
 197 m 8 X s 683 214 m 8 X s 674 232 m 17 X s 683 249 m 8 X s 683 266 m 8 X s 683 284 m 8 X s 674 301 m 17 X s 683 318 m 8 X s 683 336 m 8 X s 683 353 m 8 X s 674 370 m 17 X s 683 388 m 8 X s 683 405 m 8 X s 683 422 m 8 X s 674 440 m 17 X s 683 457 m
 8 X s 683 474 m 8 X s 683 492 m 8 X s 674 509 m 17 X s 674 509 m 17 X s
 gsave  710 564 23 12 C 719.017 90.8246 t 90 r /Helvetica-Bold findfont 19.9646 sf 0 0 m (U/O\255flow \(S,B\): \(0.0, 0.0\)% / \(0.0, 0.0\)%) show NC gr  0.48 0.56 0.6 c 0.364706 0.419608 0.490196 c 412 38 30 536 bf 0.48 0.56 0.6 c 30 536 m 412 X s
 442 536 m 38 Y s 442 574 m -412 X s 30 574 m -38 Y s 1 1 1 c black 1 1 1 c
 gsave  710 564 23 12 C 34.101 548.458 t 0 r /Helvetica-Bold findfont 28.5208 sf 0 0 m (Input variable: abs\(dPll_MET\)) show NC gr  0.48 0.56 0.6 c 0.95 0.95 0.95 c 710 564 779 12 bf black 0.95 0.95 0.95 c 548 427 899 93 bf black 548 427 899 93 bl
 0.95 0.95 0.95 c 548 427 899 93 bf black 548 427 899 93 bl 0 0 0.933333 c 6 lw 0.49 0.6 0.82 c black 3 lw 0.49 0.6 0.82 c 899 93 m 8 Y 14 X 23 Y 14 X 21 Y 13 X 20 Y 14 X 33 Y 14 X -5 Y 13 X 38 Y 14 X 30 Y 14 X -8 Y 13 X 21 Y 14 X -174 Y 14 X -7 Y 14
 X 65 Y 13 X 150 Y 14 X 4 Y 14 X -2 Y 13 X 2 Y 14 X -10 Y 14 X 15 Y 13 X -31 Y 14 X -12 Y 14 X 22 Y 13 X -3 Y 14 X -20 Y 14 X -30 Y 13 X 19 Y 14 X -37 Y 14 X -2 Y 13 X -40 Y 14 X 9 Y 14 X -17 Y 27 X -24 Y 14 X -15 Y 13 X -18 Y 14 X -16 Y 14 X -2 Y 13
 X -6 Y 14 X 4 Y 14 X -5 Y 14 X f 6 lw 0 0 0.933333 c 0.49 0.6 0.82 c 0 0 0.933333 c 899 101 m 14 X 23 Y 14 X 21 Y 13 X 20 Y 14 X 33 Y 14 X -5 Y 13 X 38 Y 14 X 30 Y 14 X -8 Y 13 X 21 Y 14 X -174 Y 14 X -7 Y 14 X 65 Y 13 X 150 Y 14 X 4 Y 14 X -2 Y 13
 X 2 Y 14 X -10 Y 14 X 15 Y 13 X -31 Y 14 X -12 Y 14 X 22 Y 13 X -3 Y 14 X -20 Y 14 X -30 Y 13 X 19 Y 14 X -37 Y 14 X -2 Y 13 X -40 Y 14 X 9 Y 14 X -17 Y 27 X -24 Y 14 X -15 Y 13 X -18 Y 14 X -16 Y 14 X -2 Y 13 X -6 Y 14 X 4 Y 14 X -5 Y 14 X s black
 3 lw 899 93 m 548 X s
 gsave  710 564 779 12 C 1406.67 19.8923 t 0 r /Helvetica-Bold findfont 28.5208 sf 0 0 m (Mll) show NC gr  980 106 m -13 Y s 998 100 m -7 Y s 1016 100 m -7 Y s 1035 100 m -7 Y s 1053 100 m -7 Y s 1071 106 m -13 Y s 1089 100 m -7 Y s 1107 100 m -7 Y s
 1125 100 m -7 Y s 1143 100 m -7 Y s 1161 106 m -13 Y s 1179 100 m -7 Y s 1198 100 m -7 Y s 1216 100 m -7 Y s 1234 100 m -7 Y s 1252 106 m -13 Y s 1270 100 m -7 Y s 1288 100 m -7 Y s 1306 100 m -7 Y s 1324 100 m -7 Y s 1343 106 m -13 Y s 1361 100 m
 -7 Y s 1379 100 m -7 Y s 1397 100 m -7 Y s 1415 100 m -7 Y s 1433 106 m -13 Y s 980 106 m -13 Y s 962 100 m -7 Y s 944 100 m -7 Y s 926 100 m -7 Y s 908 100 m -7 Y s 1433 106 m -13 Y s
 gsave  710 564 779 12 C 963.353 65.3603 t 0 r /Helvetica-Bold findfont 25.6688 sf 0 0 m (50) show NC gr 
 gsave  710 564 779 12 C 1045.76 65.3603 t 0 r /Helvetica-Bold findfont 25.6688 sf 0 0 m (100) show NC gr 
 gsave  710 564 779 12 C 1136.7 65.3603 t 0 r /Helvetica-Bold findfont 25.6688 sf 0 0 m (150) show NC gr 
 gsave  710 564 779 12 C 1227.64 65.3603 t 0 r /Helvetica-Bold findfont 25.6688 sf 0 0 m (200) show NC gr 
 gsave  710 564 779 12 C 1318.57 65.3603 t 0 r /Helvetica-Bold findfont 25.6688 sf 0 0 m (250) show NC gr 
 gsave  710 564 779 12 C 1409.51 65.3603 t 0 r /Helvetica-Bold findfont 25.6688 sf 0 0 m (300) show NC gr  899 520 m 548 X s 980 507 m 13 Y s 998 513 m 7 Y s 1016 513 m 7 Y s 1035 513 m 7 Y s 1053 513 m 7 Y s 1071 507 m 13 Y s 1089 513 m 7 Y s 1107
 513 m 7 Y s 1125 513 m 7 Y s 1143 513 m 7 Y s 1161 507 m 13 Y s 1179 513 m 7 Y s 1198 513 m 7 Y s 1216 513 m 7 Y s 1234 513 m 7 Y s 1252 507 m 13 Y s 1270 513 m 7 Y s 1288 513 m 7 Y s 1306 513 m 7 Y s 1324 513 m 7 Y s 1343 507 m 13 Y s 1361 513 m 7
 Y s 1379 513 m 7 Y s 1397 513 m 7 Y s 1415 513 m 7 Y s 1433 507 m 13 Y s 980 507 m 13 Y s 962 513 m 7 Y s 944 513 m 7 Y s 926 513 m 7 Y s 908 513 m 7 Y s 1433 507 m 13 Y s 899 93 m 427 Y s
 gsave  710 564 779 12 C 804.215 451.838 t 90 r /Helvetica-Bold findfont 28.5208 sf 0 0 m (7.55 ) show NC gr 
 gsave  710 564 779 12 C 790.007 443.313 t 90 r /Helvetica-Bold findfont 19.9646 sf 0 0 m ( ) show NC gr 
 gsave  710 564 779 12 C 804.215 434.788 t 90 r /Helvetica-Bold findfont 28.5208 sf 0 0 m (/) show NC gr 
 gsave  710 564 779 12 C 809.899 426.263 t 90 r /Helvetica-Bold findfont 19.9646 sf 0 0 m ( ) show NC gr 
 gsave  710 564 779 12 C 804.215 318.276 t 90 r /Helvetica-Bold findfont 28.5208 sf 0 0 m (\(1/N\) dN) show NC gr  915 93 m -16 X s 907 110 m -8 X s 907 126 m -8 X s 907 143 m -8 X s 915 160 m -16 X s 907 177 m -8 X s 907 193 m -8 X s 907 210 m -8 X
 s 915 227 m -16 X s 907 243 m -8 X s 907 260 m -8 X s 907 277 m -8 X s 915 293 m -16 X s 907 310 m -8 X s 907 327 m -8 X s 907 344 m -8 X s 915 360 m -16 X s 907 377 m -8 X s 907 394 m -8 X s 907 410 m -8 X s 915 427 m -16 X s 907 444 m -8 X s 907
 460 m -8 X s 907 477 m -8 X s 915 494 m -16 X s 915 494 m -16 X s 907 510 m -8 X s
 gsave  710 564 779 12 C 875.259 82.4108 t 0 r /Helvetica-Bold findfont 25.6688 sf 0 0 m (0) show NC gr 
 gsave  710 564 779 12 C 824.107 150.613 t 0 r /Helvetica-Bold findfont 25.6688 sf 0 0 m (0.002) show NC gr 
 gsave  710 564 779 12 C 824.107 215.973 t 0 r /Helvetica-Bold findfont 25.6688 sf 0 0 m (0.004) show NC gr 
 gsave  710 564 779 12 C 824.107 284.175 t 0 r /Helvetica-Bold findfont 25.6688 sf 0 0 m (0.006) show NC gr 
 gsave  710 564 779 12 C 824.107 349.535 t 0 r /Helvetica-Bold findfont 25.6688 sf 0 0 m (0.008) show NC gr 
 gsave  710 564 779 12 C 844 417.737 t 0 r /Helvetica-Bold findfont 25.6688 sf 0 0 m (0.01) show NC gr 
 gsave  710 564 779 12 C 824.107 483.098 t 0 r /Helvetica-Bold findfont 25.6688 sf 0 0 m (0.012) show NC gr  1447 93 m 427 Y s 1430 93 m 17 X s 1438 110 m 9 X s 1438 126 m 9 X s 1438 143 m 9 X s 1430 160 m 17 X s 1438 177 m 9 X s 1438 193 m 9 X s
 1438 210 m 9 X s 1430 227 m 17 X s 1438 243 m 9 X s 1438 260 m 9 X s 1438 277 m 9 X s 1430 293 m 17 X s 1438 310 m 9 X s 1438 327 m 9 X s 1438 344 m 9 X s 1430 360 m 17 X s 1438 377 m 9 X s 1438 394 m 9 X s 1438 410 m 9 X s 1430 427 m 17 X s 1438
 444 m 9 X s 1438 460 m 9 X s 1438 477 m 9 X s 1430 494 m 17 X s 1430 494 m 17 X s 1438 510 m 9 X s 1 0 0 c 6 lw black 3 lw 1 0 0 c 1433 94 m -1 -1 d s 1433 109 m -16 -16 d s 1433 124 m -31 -31 d s 1428 134 m -9 -8 d s 1414 120 m -22 -22 d s 1387 93
 m s 1402 124 m -10 -11 d s 1377 99 m -5 -6 d s 1364 101 m -7 -8 d s 1364 116 m -13 -14 d s 1342 93 m s 1364 131 m -13 -14 d s 1327 94 m -1 Y s 1361 143 m -10 -10 d s 1323 105 m -12 -12 d s 1323 120 m -27 -27 d s 1317 129 m -36 -36 d s 1302 129 m -20
 -20 d s 1275 102 m -9 -9 d s 1293 136 m -11 -12 d s 1269 111 m -14 -14 d s 1251 93 m cl s 1269 126 m -14 -14 d s 1241 98 m -5 -5 d s 1258 130 m -3 -3 d s 1241 114 m -20 -21 d s 1241 129 m -35 -36 d s 1241 144 m -50 -51 d s 1241 159 m -65 -66 d s
 1239 172 m -78 -79 d s 1228 176 m -82 -83 d s 1228 191 m -14 -14 d s 1213 176 m -82 -83 d s 1216 194 m -2 -2 d s 1200 178 m -84 -85 d s 1197 190 m -97 -97 d s 1187 195 m -102 -102 d s 1187 210 m -117 -117 d s 1187 225 m -14 -13 d s 1169 208 m -10
 -10 d s 1157 196 m -93 -95 d s 1055 93 m s 1187 241 m -14 -14 d s 1146 199 m -82 -82 d s 1050 103 m -10 -10 d s 1180 249 m -7 -7 d s 1146 214 m -82 -82 d s 1050 118 m -25 -25 d s 1146 230 m -82 -83 d s 1050 133 m -40 -40 d s 1137 236 m -60 -60 d s
 1067 165 m -3 -3 d s 1039 138 m -44 -45 d s 1132 246 m -55 -55 d s 1036 150 m -56 -57 d s 1125 255 m -48 -49 d s 1036 165 m -71 -72 d s 1105 250 m -28 -29 d s 1036 180 m -86 -87 d s 1105 264 m -28 -27 d s 1036 195 m -101 -102 d s 1105 279 m -28 -27
 d s 1036 211 m -116 -118 d s 1105 295 m -28 -28 d s 1036 226 m -131 -133 d s 1105 310 m -28 -28 d s 1036 241 m -137 -138 d s 1105 325 m -28 -28 d s 1036 256 m -137 -138 d s 1105 340 m -28 -27 d s 1036 271 m -27 -27 d s 995 230 m -96 -97 d s 1105 355
 m -28 -27 d s 1036 286 m -27 -27 d s 995 245 m -14 -14 d s 975 225 m -76 -76 d s 1105 371 m -14 -14 d s 1078 344 m -1 -1 d s 1036 302 m -27 -28 d s 995 260 m -14 -13 d s 968 233 m -69 -69 d s 1105 386 m -14 -14 d s 1036 317 m -27 -28 d s 995 275 m
 -14 -13 d s 968 248 m -69 -69 d s 1105 401 m -14 -14 d s 1036 332 m -27 -28 d s 995 291 m -14 -14 d s 968 263 m -14 -14 d s 953 248 m -54 -54 d s 1105 416 m -14 -14 d s 1036 347 m -14 -14 d s 1014 324 m -5 -4 d s 995 306 m -14 -14 d s 968 278 m -14
 -13 d s 940 251 m -13 -14 d s 906 216 m -7 -7 d s 1105 431 m -14 -13 d s 1036 362 m -14 -13 d s 995 321 m -14 -14 d s 968 293 m -14 -13 d s 940 266 m -13 -14 d s 1105 446 m -14 -13 d s 1036 378 m -14 -14 d s 995 336 m -14 -14 d s 968 309 m -14 -14 d
 s 940 281 m -13 -14 d s 1105 462 m -14 -14 d s 1036 393 m -14 -14 d s 995 351 m -14 -13 d s 967 323 m -13 -13 d s 940 296 m -13 -13 d s 1099 472 m -8 -9 d s 1036 408 m -14 -14 d s 995 367 m -14 -14 d s 940 311 m -13 -13 d s 1036 423 m -14 -14 d s
 995 382 m -14 -14 d s 940 327 m -13 -14 d s 1036 438 m -14 -13 d s 995 397 m -14 -14 d s 940 342 m -13 -14 d s 1036 454 m -14 -14 d s 995 412 m -14 -14 d s 940 357 m -13 -14 d s 1036 469 m -14 -14 d s 995 427 m -14 -13 d s 940 372 m -13 -14 d s 1034
 481 m -12 -11 d s 995 443 m -14 -14 d s 928 375 m -1 -1 d s 995 458 m -14 -14 d s 985 463 m -4 -4 d s 6 lw 899 216 m 14 X 6 Y 14 X 153 Y 13 X -127 Y 14 X 75 Y 14 X -98 Y 13 X 238 Y 14 X -234 Y 14 X 95 Y 13 X 157 Y 14 X -343 Y 14 X -45 Y 14 X 72 Y 13
 X 179 Y 14 X 128 Y 14 X -222 Y 13 X 5 Y 14 X -19 Y 14 X -40 Y 13 X 12 Y 14 X 41 Y 14 X -59 Y 13 X -14 Y 14 X 18 Y 14 X -22 Y 13 X -79 Y 14 X 37 Y 14 X -28 Y 13 X 34 Y 14 X -7 Y 27 X -35 Y 14 X -1 Y 14 X 50 Y 13 X -44 Y 14 X -6 Y 14 X 31 Y 13 X -4 Y
 14 X 14 Y 14 X -41 Y 14 X s black 3 lw 899 93 m 548 X s 980 106 m -13 Y s 998 100 m -7 Y s 1016 100 m -7 Y s 1035 100 m -7 Y s 1053 100 m -7 Y s 1071 106 m -13 Y s 1089 100 m -7 Y s 1107 100 m -7 Y s 1125 100 m -7 Y s 1143 100 m -7 Y s 1161 106 m
 -13 Y s 1179 100 m -7 Y s 1198 100 m -7 Y s 1216 100 m -7 Y s 1234 100 m -7 Y s 1252 106 m -13 Y s 1270 100 m -7 Y s 1288 100 m -7 Y s 1306 100 m -7 Y s 1324 100 m -7 Y s 1343 106 m -13 Y s 1361 100 m -7 Y s 1379 100 m -7 Y s 1397 100 m -7 Y s 1415
 100 m -7 Y s 1433 106 m -13 Y s 980 106 m -13 Y s 962 100 m -7 Y s 944 100 m -7 Y s 926 100 m -7 Y s 908 100 m -7 Y s 1433 106 m -13 Y s 899 520 m 548 X s 980 507 m 13 Y s 998 513 m 7 Y s 1016 513 m 7 Y s 1035 513 m 7 Y s 1053 513 m 7 Y s 1071 507 m
 13 Y s 1089 513 m 7 Y s 1107 513 m 7 Y s 1125 513 m 7 Y s 1143 513 m 7 Y s 1161 507 m 13 Y s 1179 513 m 7 Y s 1198 513 m 7 Y s 1216 513 m 7 Y s 1234 513 m 7 Y s 1252 507 m 13 Y s 1270 513 m 7 Y s 1288 513 m 7 Y s 1306 513 m 7 Y s 1324 513 m 7 Y s
 1343 507 m 13 Y s 1361 513 m 7 Y s 1379 513 m 7 Y s 1397 513 m 7 Y s 1415 513 m 7 Y s 1433 507 m 13 Y s 980 507 m 13 Y s 962 513 m 7 Y s 944 513 m 7 Y s 926 513 m 7 Y s 908 513 m 7 Y s 1433 507 m 13 Y s 899 93 m 427 Y s 915 93 m -16 X s 907 110 m -8
 X s 907 126 m -8 X s 907 143 m -8 X s 915 160 m -16 X s 907 177 m -8 X s 907 193 m -8 X s 907 210 m -8 X s 915 227 m -16 X s 907 243 m -8 X s 907 260 m -8 X s 907 277 m -8 X s 915 293 m -16 X s 907 310 m -8 X s 907 327 m -8 X s 907 344 m -8 X s 915
 360 m -16 X s 907 377 m -8 X s 907 394 m -8 X s 907 410 m -8 X s 915 427 m -16 X s 907 444 m -8 X s 907 460 m -8 X s 907 477 m -8 X s 915 494 m -16 X s 915 494 m -16 X s 907 510 m -8 X s 1447 93 m 427 Y s 1430 93 m 17 X s 1438 110 m 9 X s 1438 126 m
 9 X s 1438 143 m 9 X s 1430 160 m 17 X s 1438 177 m 9 X s 1438 193 m 9 X s 1438 210 m 9 X s 1430 227 m 17 X s 1438 243 m 9 X s 1438 260 m 9 X s 1438 277 m 9 X s 1430 293 m 17 X s 1438 310 m 9 X s 1438 327 m 9 X s 1438 344 m 9 X s 1430 360 m 17 X s
 1438 377 m 9 X s 1438 394 m 9 X s 1438 410 m 9 X s 1430 427 m 17 X s 1438 444 m 9 X s 1438 460 m 9 X s 1438 477 m 9 X s 1430 494 m 17 X s 1430 494 m 17 X s 1438 510 m 9 X s
 gsave  710 564 779 12 C 1474.92 90.8246 t 90 r /Helvetica-Bold findfont 19.9646 sf 0 0 m (U/O\255flow \(S,B\): \(0.0, 0.0\)% / \(0.0, 0.0\)%) show NC gr  0.48 0.56 0.6 c 0.364706 0.419608 0.490196 c 255 38 786 536 bf 0.48 0.56 0.6 c 786 536 m 255 X
 s 1041 536 m 38 Y s 1041 574 m -255 X s 786 574 m -38 Y s 1 1 1 c black 1 1 1 c
 gsave  710 564 779 12 C 790.007 548.458 t 0 r /Helvetica-Bold findfont 28.5208 sf 0 0 m (Input variable: Mll) show NC gr  0.48 0.56 0.6 c 0.95 0.95 0.95 c 711 564 1534 12 bf black 0.95 0.95 0.95 c 547 427 1655 93 bf black 547 427 1655 93 bl 0.95
 0.95 0.95 c 547 427 1655 93 bf black 547 427 1655 93 bl 0 0 0.933333 c 6 lw 0.49 0.6 0.82 c black 3 lw 0.49 0.6 0.82 c 1655 93 m 65 Y 14 X 19 Y 14 X 10 Y 13 X 3 Y 14 X -8 Y 14 X -10 Y 13 X -11 Y 14 X -10 Y 14 X -4 Y 13 X -10 Y 14 X -8 Y 14 X -1 Y 13
 X -10 Y 14 X -5 Y 14 X -6 Y 13 X -3 Y 14 X 2 Y 14 X -5 Y 13 X 1 Y 14 X -3 Y 14 X -2 Y 14 X 2 Y 13 X -1 Y 14 X -2 Y 27 X -2 Y 14 X 1 Y 27 X -1 Y 28 X -1 Y 13 X 1 Y 28 X -1 Y 95 X f 6 lw 0 0 0.933333 c 0.49 0.6 0.82 c 0 0 0.933333 c 1655 158 m 14 X 19
 Y 14 X 10 Y 13 X 3 Y 14 X -8 Y 14 X -10 Y 13 X -11 Y 14 X -10 Y 14 X -4 Y 13 X -10 Y 14 X -8 Y 14 X -1 Y 13 X -10 Y 14 X -5 Y 14 X -6 Y 13 X -3 Y 14 X 2 Y 14 X -5 Y 13 X 1 Y 14 X -3 Y 14 X -2 Y 14 X 2 Y 13 X -1 Y 14 X -2 Y 27 X -2 Y 14 X 1 Y 27 X -1
 Y 28 X -1 Y 13 X 1 Y 28 X -1 Y 95 X s black 3 lw 1655 93 m 547 X s
 gsave  711 564 1534 12 C 2142.68 19.8923 t 0 r /Helvetica-Bold findfont 28.5208 sf 0 0 m (MET) show NC gr  1705 106 m -13 Y s 1717 100 m -7 Y s 1729 100 m -7 Y s 1742 100 m -7 Y s 1754 100 m -7 Y s 1766 106 m -13 Y s 1779 100 m -7 Y s 1791 100 m -7
 Y s 1804 100 m -7 Y s 1816 100 m -7 Y s 1828 106 m -13 Y s 1841 100 m -7 Y s 1853 100 m -7 Y s 1865 100 m -7 Y s 1878 100 m -7 Y s 1890 106 m -13 Y s 1902 100 m -7 Y s 1915 100 m -7 Y s 1927 100 m -7 Y s 1939 100 m -7 Y s 1952 106 m -13 Y s 1964 100
 m -7 Y s 1977 100 m -7 Y s 1989 100 m -7 Y s 2001 100 m -7 Y s 2014 106 m -13 Y s 2026 100 m -7 Y s 2038 100 m -7 Y s 2051 100 m -7 Y s 2063 100 m -7 Y s 2075 106 m -13 Y s 2088 100 m -7 Y s 2100 100 m -7 Y s 2112 100 m -7 Y s 2125 100 m -7 Y s 2137
 106 m -13 Y s 2149 100 m -7 Y s 2162 100 m -7 Y s 2174 100 m -7 Y s 2187 100 m -7 Y s 2199 106 m -13 Y s 1705 106 m -13 Y s 1692 100 m -7 Y s 1680 100 m -7 Y s 1668 100 m -7 Y s 2199 106 m -13 Y s
 gsave  711 564 1534 12 C 1679.47 65.3603 t 0 r /Helvetica-Bold findfont 25.6688 sf 0 0 m (100) show NC gr 
 gsave  711 564 1534 12 C 1741.99 65.3603 t 0 r /Helvetica-Bold findfont 25.6688 sf 0 0 m (200) show NC gr 
 gsave  711 564 1534 12 C 1804.51 65.3603 t 0 r /Helvetica-Bold findfont 25.6688 sf 0 0 m (300) show NC gr 
 gsave  711 564 1534 12 C 1867.03 65.3603 t 0 r /Helvetica-Bold findfont 25.6688 sf 0 0 m (400) show NC gr 
 gsave  711 564 1534 12 C 1926.71 65.3603 t 0 r /Helvetica-Bold findfont 25.6688 sf 0 0 m (500) show NC gr 
 gsave  711 564 1534 12 C 1989.22 65.3603 t 0 r /Helvetica-Bold findfont 25.6688 sf 0 0 m (600) show NC gr 
 gsave  711 564 1534 12 C 2051.74 65.3603 t 0 r /Helvetica-Bold findfont 25.6688 sf 0 0 m (700) show NC gr 
 gsave  711 564 1534 12 C 2114.26 65.3603 t 0 r /Helvetica-Bold findfont 25.6688 sf 0 0 m (800) show NC gr 
 gsave  711 564 1534 12 C 2173.94 65.3603 t 0 r /Helvetica-Bold findfont 25.6688 sf 0 0 m (900) show NC gr  1655 520 m 547 X s 1705 507 m 13 Y s 1717 513 m 7 Y s 1729 513 m 7 Y s 1742 513 m 7 Y s 1754 513 m 7 Y s 1766 507 m 13 Y s 1779 513 m 7 Y s
 1791 513 m 7 Y s 1804 513 m 7 Y s 1816 513 m 7 Y s 1828 507 m 13 Y s 1841 513 m 7 Y s 1853 513 m 7 Y s 1865 513 m 7 Y s 1878 513 m 7 Y s 1890 507 m 13 Y s 1902 513 m 7 Y s 1915 513 m 7 Y s 1927 513 m 7 Y s 1939 513 m 7 Y s 1952 507 m 13 Y s 1964 513
 m 7 Y s 1977 513 m 7 Y s 1989 513 m 7 Y s 2001 513 m 7 Y s 2014 507 m 13 Y s 2026 513 m 7 Y s 2038 513 m 7 Y s 2051 513 m 7 Y s 2063 513 m 7 Y s 2075 507 m 13 Y s 2088 513 m 7 Y s 2100 513 m 7 Y s 2112 513 m 7 Y s 2125 513 m 7 Y s 2137 507 m 13 Y s
 2149 513 m 7 Y s 2162 513 m 7 Y s 2174 513 m 7 Y s 2187 513 m 7 Y s 2199 507 m 13 Y s 1705 507 m 13 Y s 1692 513 m 7 Y s 1680 513 m 7 Y s 1668 513 m 7 Y s 2199 507 m 13 Y s 1655 93 m 427 Y s
 gsave  711 564 1534 12 C 1560.12 457.522 t 90 r /Helvetica-Bold findfont 28.5208 sf 0 0 m (22.1 ) show NC gr 
 gsave  711 564 1534 12 C 1545.91 448.997 t 90 r /Helvetica-Bold findfont 19.9646 sf 0 0 m ( ) show NC gr 
 gsave  711 564 1534 12 C 1560.12 440.471 t 90 r /Helvetica-Bold findfont 28.5208 sf 0 0 m (/) show NC gr 
 gsave  711 564 1534 12 C 1565.8 431.946 t 90 r /Helvetica-Bold findfont 19.9646 sf 0 0 m ( ) show NC gr 
 gsave  711 564 1534 12 C 1560.12 323.96 t 90 r /Helvetica-Bold findfont 28.5208 sf 0 0 m (\(1/N\) dN) show NC gr  1671 93 m -16 X s 1663 103 m -8 X s 1663 114 m -8 X s 1663 124 m -8 X s 1671 134 m -16 X s 1663 145 m -8 X s 1663 155 m -8 X s 1663 166
 m -8 X s 1671 176 m -16 X s 1663 186 m -8 X s 1663 197 m -8 X s 1663 207 m -8 X s 1671 217 m -16 X s 1663 228 m -8 X s 1663 238 m -8 X s 1663 248 m -8 X s 1671 259 m -16 X s 1663 269 m -8 X s 1663 279 m -8 X s 1663 290 m -8 X s 1671 300 m -16 X s
 1663 310 m -8 X s 1663 321 m -8 X s 1663 331 m -8 X s 1671 341 m -16 X s 1663 352 m -8 X s 1663 362 m -8 X s 1663 372 m -8 X s 1671 383 m -16 X s 1663 393 m -8 X s 1663 403 m -8 X s 1663 414 m -8 X s 1671 424 m -16 X s 1663 435 m -8 X s 1663 445 m
 -8 X s 1663 455 m -8 X s 1671 466 m -16 X s 1663 476 m -8 X s 1663 486 m -8 X s 1663 497 m -8 X s 1671 507 m -16 X s 1671 507 m -16 X s 1663 517 m -8 X s
 gsave  711 564 1534 12 C 1631.16 82.4108 t 0 r /Helvetica-Bold findfont 25.6688 sf 0 0 m (0) show NC gr 
 gsave  711 564 1534 12 C 1580.01 125.037 t 0 r /Helvetica-Bold findfont 25.6688 sf 0 0 m (0.002) show NC gr 
 gsave  711 564 1534 12 C 1580.01 164.822 t 0 r /Helvetica-Bold findfont 25.6688 sf 0 0 m (0.004) show NC gr 
 gsave  711 564 1534 12 C 1580.01 207.448 t 0 r /Helvetica-Bold findfont 25.6688 sf 0 0 m (0.006) show NC gr 
 gsave  711 564 1534 12 C 1580.01 250.074 t 0 r /Helvetica-Bold findfont 25.6688 sf 0 0 m (0.008) show NC gr 
 gsave  711 564 1534 12 C 1599.91 289.859 t 0 r /Helvetica-Bold findfont 25.6688 sf 0 0 m (0.01) show NC gr 
 gsave  711 564 1534 12 C 1580.01 332.485 t 0 r /Helvetica-Bold findfont 25.6688 sf 0 0 m (0.012) show NC gr 
 gsave  711 564 1534 12 C 1580.01 372.269 t 0 r /Helvetica-Bold findfont 25.6688 sf 0 0 m (0.014) show NC gr 
 gsave  711 564 1534 12 C 1580.01 414.896 t 0 r /Helvetica-Bold findfont 25.6688 sf 0 0 m (0.016) show NC gr 
 gsave  711 564 1534 12 C 1580.01 454.68 t 0 r /Helvetica-Bold findfont 25.6688 sf 0 0 m (0.018) show NC gr 
 gsave  711 564 1534 12 C 1594.22 497.306 t 0 r /Helvetica-Bold findfont 25.6688 sf 0 0 m (0.02) show NC gr  2202 93 m 427 Y s 2186 93 m 16 X s 2194 103 m 8 X s 2194 114 m 8 X s 2194 124 m 8 X s 2186 134 m 16 X s 2194 145 m 8 X s 2194 155 m 8 X s
 2194 166 m 8 X s 2186 176 m 16 X s 2194 186 m 8 X s 2194 197 m 8 X s 2194 207 m 8 X s 2186 217 m 16 X s 2194 228 m 8 X s 2194 238 m 8 X s 2194 248 m 8 X s 2186 259 m 16 X s 2194 269 m 8 X s 2194 279 m 8 X s 2194 290 m 8 X s 2186 300 m 16 X s 2194
 310 m 8 X s 2194 321 m 8 X s 2194 331 m 8 X s 2186 341 m 16 X s 2194 352 m 8 X s 2194 362 m 8 X s 2194 372 m 8 X s 2186 383 m 16 X s 2194 393 m 8 X s 2194 403 m 8 X s 2194 414 m 8 X s 2186 424 m 16 X s 2194 435 m 8 X s 2194 445 m 8 X s 2194 455 m 8
 X s 2186 466 m 16 X s 2194 476 m 8 X s 2194 486 m 8 X s 2194 497 m 8 X s 2186 507 m 16 X s 2186 507 m 16 X s 2194 517 m 8 X s 1 0 0 c 6 lw black 3 lw 1 0 0 c 2188 93 m s 2173 93 m s 2158 93 m s 2143 93 m s 2128 93 m s 2113 93 m s 2098 93 m s 2082 93
 m s 2067 93 m s 2052 93 m s 2037 93 m s 2022 93 m cl s 2007 93 m cl s 1992 93 m s 1977 93 m cl s 1962 93 m cl s 1947 93 m s 1932 93 m s 1917 93 m cl s 1902 93 m s 1888 94 m -1 -1 d s 1876 98 m -2 -2 d s 1871 93 m s 1856 93 m s 1847 99 m -6 -6 d s
 1826 93 m s 1812 94 m -1 -1 d s 1801 98 m -5 -5 d s 1781 93 m s 1770 97 m -4 -4 d s 1751 93 m s 1739 96 m -3 -3 d s 1737 110 m -16 -17 d s 1737 124 m -31 -31 d s 1723 126 m -32 -33 d s 1710 128 m -35 -35 d s 1710 143 m -50 -50 d s 1709 158 m -54 -55
 d s 1696 160 m -41 -42 d s 1696 175 m -41 -42 d s 1696 190 m -41 -41 d s 1696 205 m -41 -41 d s 1683 207 m -28 -28 d s 1683 222 m -28 -28 d s 1683 237 m -28 -28 d s 1683 252 m -28 -27 d s 1683 267 m -28 -27 d s 1683 283 m -28 -28 d s 1683 298 m -28
 -28 d s 1683 313 m -28 -28 d s 1683 328 m -28 -27 d s 1683 343 m -28 -27 d s 1683 358 m -28 -27 d s 1683 374 m -28 -28 d s 1672 378 m -17 -17 d s 1669 390 m -14 -14 d s 1669 405 m -14 -13 d s 1669 421 m -14 -14 d s 1669 436 m -14 -14 d s 1669 451 m
 -14 -14 d s 1669 466 m -14 -14 d s 1669 481 m -14 -13 d s 6 lw 1655 481 m 14 X -103 Y 14 X -173 Y 13 X -47 Y 14 X -32 Y 14 X -2 Y 13 X -28 Y 14 X -3 Y 14 X 4 Y 13 X -4 Y 14 X 5 Y 14 X -4 Y 13 X -1 Y 14 X 6 Y 14 X -6 Y 27 X 5 Y 14 X -5 Y 314 X s
 black 3 lw 1655 93 m 547 X s 1705 106 m -13 Y s 1717 100 m -7 Y s 1729 100 m -7 Y s 1742 100 m -7 Y s 1754 100 m -7 Y s 1766 106 m -13 Y s 1779 100 m -7 Y s 1791 100 m -7 Y s 1804 100 m -7 Y s 1816 100 m -7 Y s 1828 106 m -13 Y s 1841 100 m -7 Y s
 1853 100 m -7 Y s 1865 100 m -7 Y s 1878 100 m -7 Y s 1890 106 m -13 Y s 1902 100 m -7 Y s 1915 100 m -7 Y s 1927 100 m -7 Y s 1939 100 m -7 Y s 1952 106 m -13 Y s 1964 100 m -7 Y s 1977 100 m -7 Y s 1989 100 m -7 Y s 2001 100 m -7 Y s 2014 106 m
 -13 Y s 2026 100 m -7 Y s 2038 100 m -7 Y s 2051 100 m -7 Y s 2063 100 m -7 Y s 2075 106 m -13 Y s 2088 100 m -7 Y s 2100 100 m -7 Y s 2112 100 m -7 Y s 2125 100 m -7 Y s 2137 106 m -13 Y s 2149 100 m -7 Y s 2162 100 m -7 Y s 2174 100 m -7 Y s 2187
 100 m -7 Y s 2199 106 m -13 Y s 1705 106 m -13 Y s 1692 100 m -7 Y s 1680 100 m -7 Y s 1668 100 m -7 Y s 2199 106 m -13 Y s 1655 520 m 547 X s 1705 507 m 13 Y s 1717 513 m 7 Y s 1729 513 m 7 Y s 1742 513 m 7 Y s 1754 513 m 7 Y s 1766 507 m 13 Y s
 1779 513 m 7 Y s 1791 513 m 7 Y s 1804 513 m 7 Y s 1816 513 m 7 Y s 1828 507 m 13 Y s 1841 513 m 7 Y s 1853 513 m 7 Y s 1865 513 m 7 Y s 1878 513 m 7 Y s 1890 507 m 13 Y s 1902 513 m 7 Y s 1915 513 m 7 Y s 1927 513 m 7 Y s 1939 513 m 7 Y s 1952 507
 m 13 Y s 1964 513 m 7 Y s 1977 513 m 7 Y s 1989 513 m 7 Y s 2001 513 m 7 Y s 2014 507 m 13 Y s 2026 513 m 7 Y s 2038 513 m 7 Y s 2051 513 m 7 Y s 2063 513 m 7 Y s 2075 507 m 13 Y s 2088 513 m 7 Y s 2100 513 m 7 Y s 2112 513 m 7 Y s 2125 513 m 7 Y s
 2137 507 m 13 Y s 2149 513 m 7 Y s 2162 513 m 7 Y s 2174 513 m 7 Y s 2187 513 m 7 Y s 2199 507 m 13 Y s 1705 507 m 13 Y s 1692 513 m 7 Y s 1680 513 m 7 Y s 1668 513 m 7 Y s 2199 507 m 13 Y s 1655 93 m 427 Y s 1671 93 m -16 X s 1663 103 m -8 X s 1663
 114 m -8 X s 1663 124 m -8 X s 1671 134 m -16 X s 1663 145 m -8 X s 1663 155 m -8 X s 1663 166 m -8 X s 1671 176 m -16 X s 1663 186 m -8 X s 1663 197 m -8 X s 1663 207 m -8 X s 1671 217 m -16 X s 1663 228 m -8 X s 1663 238 m -8 X s 1663 248 m -8 X s
 1671 259 m -16 X s 1663 269 m -8 X s 1663 279 m -8 X s 1663 290 m -8 X s 1671 300 m -16 X s 1663 310 m -8 X s 1663 321 m -8 X s 1663 331 m -8 X s 1671 341 m -16 X s 1663 352 m -8 X s 1663 362 m -8 X s 1663 372 m -8 X s 1671 383 m -16 X s 1663 393 m
 -8 X s 1663 403 m -8 X s 1663 414 m -8 X s 1671 424 m -16 X s 1663 435 m -8 X s 1663 445 m -8 X s 1663 455 m -8 X s 1671 466 m -16 X s 1663 476 m -8 X s 1663 486 m -8 X s 1663 497 m -8 X s 1671 507 m -16 X s 1671 507 m -16 X s 1663 517 m -8 X s 2202
 93 m 427 Y s 2186 93 m 16 X s 2194 103 m 8 X s 2194 114 m 8 X s 2194 124 m 8 X s 2186 134 m 16 X s 2194 145 m 8 X s 2194 155 m 8 X s 2194 166 m 8 X s 2186 176 m 16 X s 2194 186 m 8 X s 2194 197 m 8 X s 2194 207 m 8 X s 2186 217 m 16 X s 2194 228 m 8
 X s 2194 238 m 8 X s 2194 248 m 8 X s 2186 259 m 16 X s 2194 269 m 8 X s 2194 279 m 8 X s 2194 290 m 8 X s 2186 300 m 16 X s 2194 310 m 8 X s 2194 321 m 8 X s 2194 331 m 8 X s 2186 341 m 16 X s 2194 352 m 8 X s 2194 362 m 8 X s 2194 372 m 8 X s 2186
 383 m 16 X s 2194 393 m 8 X s 2194 403 m 8 X s 2194 414 m 8 X s 2186 424 m 16 X s 2194 435 m 8 X s 2194 445 m 8 X s 2194 455 m 8 X s 2186 466 m 16 X s 2194 476 m 8 X s 2194 486 m 8 X s 2194 497 m 8 X s 2186 507 m 16 X s 2186 507 m 16 X s 2194 517 m
 8 X s
 gsave  711 564 1534 12 C 2230.83 90.8246 t 90 r /Helvetica-Bold findfont 19.9646 sf 0 0 m (U/O\255flow \(S,B\): \(0.0, 0.0\)% / \(0.1, 0.0\)%) show NC gr  0.48 0.56 0.6 c 0.364706 0.419608 0.490196 c 278 38 1542 536 bf 0.48 0.56 0.6 c 1542 536 m 278
 X s 1820 536 m 38 Y s 1820 574 m -278 X s 1542 574 m -38 Y s 1 1 1 c black 1 1 1 c
 gsave  711 564 1534 12 C 1545.91 548.458 t 0 r /Helvetica-Bold findfont 28.5208 sf 0 0 m (Input variable: MET) show NC gr 
 gr  gr showpage
end
%%EOF
