%!PS-Adobe-2.0 EPSF-2.0
%%BoundingBox:  0 0 567 294
%%Title: plots/variables_id_c1.eps: Input variables (training sample)
%%Creator: ROOT Version 6.04/14
%%CreationDate: Wed Oct  5 09:51:47 2016
%%DocumentNeededResources: ProcSet (FontSetInit)
%%EndComments
%%BeginProlog
80 dict begin
/s {stroke} def /l {lineto} def /m {moveto} def /t {translate} def
/r {rotate} def /rl {roll}  def /R {repeat} def
/d {rlineto} def /rm {rmoveto} def /gr {grestore} def /f {eofill} def
/c {setrgbcolor} def /black {0 setgray} def /sd {setdash} def
/cl {closepath} def /sf {scalefont setfont} def /lw {setlinewidth} def
/box {m dup 0 exch d exch 0 d 0 exch neg d cl} def
/NC{systemdict begin initclip end}def/C{NC box clip newpath}def
/bl {box s} def /bf {gsave box gsave f grestore 1 lw [] 0 sd s grestore} def /Y { 0 exch d} def /X { 0 d} def 
/K {{pop pop 0 moveto} exch kshow} bind def
/ita {/ang 15 def gsave [1 0 ang dup sin exch cos div 1 0 0] concat} def 
/mp {newpath /y exch def /x exch def} def
/side {[w .77 mul w .23 mul] .385 w mul sd w 0 l currentpoint t -144 r} def
/mr {mp x y w2 0 360 arc} def /m24 {mr s} def /m20 {mr f} def
/mb {mp x y w2 add m w2 neg 0 d 0 w neg d w 0 d 0 w d cl} def
/mt {mp x y w2 add m w2 neg w neg d w 0 d cl} def
/m21 {mb f} def /m25 {mb s} def /m22 {mt f} def /m26{mt s} def
/m23 {mp x y w2 sub m w2 w d w neg 0 d cl f} def
/m27 {mp x y w2 add m w3 neg w2 neg d w3 w2 neg d w3 w2 d cl s} def
/m28 {mp x w2 sub y w2 sub w3 add m w3 0 d  0 w3 neg d w3 0 d 0 w3 d w3 0 d  0 w3 d w3 neg 0 d 0 w3 d w3 neg 0 d 0 w3 neg d w3 neg 0 d cl s } def
/m29 {mp gsave x w2 sub y w2 add w3 sub m currentpoint t 4 {side} repeat cl fill gr} def
/m30 {mp gsave x w2 sub y w2 add w3 sub m currentpoint t 4 {side} repeat cl s gr} def
/m31 {mp x y w2 sub m 0 w d x w2 sub y m w 0 d x w2 sub y w2 add m w w neg d x w2 sub y w2 sub m w w d s} def
/m32 {mp x y w2 sub m w2 w d w neg 0 d cl s} def
/m33 {mp x y w2 add m w3 neg w2 neg d w3 w2 neg d w3 w2 d cl f} def
/m34 {mp x w2 sub y w2 sub w3 add m w3 0 d  0 w3 neg d w3 0 d 0 w3 d w3 0 d  0 w3 d w3 neg 0 d 0 w3 d w3 neg 0 d 0 w3 neg d w3 neg 0 d cl f } def
/m2 {mp x y w2 sub m 0 w d x w2 sub y m w 0 d s} def
/m5 {mp x w2 sub y w2 sub m w w d x w2 sub y w2 add m w w neg d s} def
%%IncludeResource: ProcSet (FontSetInit)
%%IncludeResource: font Times-Roman
%%IncludeResource: font Times-Italic
%%IncludeResource: font Times-Bold
%%IncludeResource: font Times-BoldItalic
%%IncludeResource: font Helvetica
%%IncludeResource: font Helvetica-Oblique
%%IncludeResource: font Helvetica-Bold
%%IncludeResource: font Helvetica-BoldOblique
%%IncludeResource: font Courier
%%IncludeResource: font Courier-Oblique
%%IncludeResource: font Courier-Bold
%%IncludeResource: font Courier-BoldOblique
%%IncludeResource: font Symbol
%%IncludeResource: font ZapfDingbats
/reEncode {exch findfont dup length dict begin {1 index /FID eq  {pop pop} {def} ifelse } forall /Encoding exch def currentdict end dup /FontName get exch definefont pop } def [/Times-Bold /Times-Italic /Times-BoldItalic /Helvetica /Helvetica-Oblique
 /Helvetica-Bold /Helvetica-BoldOblique /Courier /Courier-Oblique /Courier-Bold /Courier-BoldOblique /Times-Roman /AvantGarde-Book /AvantGarde-BookOblique /AvantGarde-Demi /AvantGarde-DemiOblique /Bookman-Demi /Bookman-DemiItalic /Bookman-Light
 /Bookman-LightItalic /Helvetica-Narrow /Helvetica-Narrow-Bold /Helvetica-Narrow-BoldOblique /Helvetica-Narrow-Oblique /NewCenturySchlbk-Roman /NewCenturySchlbk-Bold /NewCenturySchlbk-BoldItalic /NewCenturySchlbk-Italic /Palatino-Bold
 /Palatino-BoldItalic /Palatino-Italic /Palatino-Roman ] {ISOLatin1Encoding reEncode } forall
%%EndProlog
%%BeginSetup
%%EndSetup
newpath  gsave  .25 .25 scale  gsave  0 0 t 0.48 0.56 0.6 c[  ] 0 sd 3 lw 0.95 0.95 0.95 c 2268 1176 0 0 bf 0.48 0.56 0.6 c 0.95 0.95 0.95 c 710 565 23 600 bf black 0.95 0.95 0.95 c 548 427 143 681 bf black 548 427 143 681 bl 0.95 0.95 0.95 c 548 427
 143 681 bf black 548 427 143 681 bl 0 0 0.933333 c 6 lw 0.49 0.6 0.82 c black 3 lw 0.49 0.6 0.82 c 143 681 m 1 Y 14 X 8 Y 14 X -2 Y 14 X 9 Y 13 X -2 Y 14 X 6 Y 14 X 3 Y 13 X 4 Y 14 X 4 Y 14 X 2 Y 13 X 9 Y 14 X 7 Y 14 X -6 Y 13 X 13 Y 14 X -11 Y 14 X
 25 Y 13 X 20 Y 14 X 69 Y 14 X 132 Y 13 X 38 Y 14 X -157 Y 14 X -56 Y 13 X -26 Y 14 X -2 Y 14 X -7 Y 13 X -8 Y 14 X -9 Y 14 X -5 Y 13 X -12 Y 14 X 9 Y 14 X -9 Y 13 X -13 Y 14 X 9 Y 14 X -12 Y 14 X 1 Y 13 X -5 Y 14 X -4 Y 14 X 6 Y 13 X -11 Y 14 X -18
 Y 14 X f 6 lw 0 0 0.933333 c 0.49 0.6 0.82 c 0 0 0.933333 c 143 682 m 14 X 8 Y 14 X -2 Y 14 X 9 Y 13 X -2 Y 14 X 6 Y 14 X 3 Y 13 X 4 Y 14 X 4 Y 14 X 2 Y 13 X 9 Y 14 X 7 Y 14 X -6 Y 13 X 13 Y 14 X -11 Y 14 X 25 Y 13 X 20 Y 14 X 69 Y 14 X 132 Y 13 X
 38 Y 14 X -157 Y 14 X -56 Y 13 X -26 Y 14 X -2 Y 14 X -7 Y 13 X -8 Y 14 X -9 Y 14 X -5 Y 13 X -12 Y 14 X 9 Y 14 X -9 Y 13 X -13 Y 14 X 9 Y 14 X -12 Y 14 X 1 Y 13 X -5 Y 14 X -4 Y 14 X 6 Y 13 X -11 Y 14 X -18 Y 14 X s black 3 lw 143 681 m 548 X s
 gsave  710 565 23 600 C 650.761 613.818 t 0 r /Helvetica-Bold findfont 28.5208 sf 0 0 m (Mjj) show NC gr  225 694 m -13 Y s 247 688 m -7 Y s 270 688 m -7 Y s 293 688 m -7 Y s 315 694 m -13 Y s 338 688 m -7 Y s 361 688 m -7 Y s 383 688 m -7 Y s 406
 694 m -13 Y s 428 688 m -7 Y s 451 688 m -7 Y s 474 688 m -7 Y s 496 694 m -13 Y s 519 688 m -7 Y s 542 688 m -7 Y s 564 688 m -7 Y s 587 694 m -13 Y s 609 688 m -7 Y s 632 688 m -7 Y s 655 688 m -7 Y s 677 694 m -13 Y s 225 694 m -13 Y s 202 688 m
 -7 Y s 180 688 m -7 Y s 157 688 m -7 Y s 677 694 m -13 Y s
 gsave  710 565 23 600 C 201.764 653.603 t 0 r /Helvetica-Bold findfont 25.6688 sf 0 0 m (200) show NC gr 
 gsave  710 565 23 600 C 289.858 653.603 t 0 r /Helvetica-Bold findfont 25.6688 sf 0 0 m (400) show NC gr 
 gsave  710 565 23 600 C 380.794 653.603 t 0 r /Helvetica-Bold findfont 25.6688 sf 0 0 m (600) show NC gr 
 gsave  710 565 23 600 C 471.73 653.603 t 0 r /Helvetica-Bold findfont 25.6688 sf 0 0 m (800) show NC gr 
 gsave  710 565 23 600 C 556.983 653.603 t 0 r /Helvetica-Bold findfont 25.6688 sf 0 0 m (1000) show NC gr 
 gsave  710 565 23 600 C 647.919 653.603 t 0 r /Helvetica-Bold findfont 25.6688 sf 0 0 m (1200) show NC gr  143 1108 m 548 X s 225 1095 m 13 Y s 247 1102 m 6 Y s 270 1102 m 6 Y s 293 1102 m 6 Y s 315 1095 m 13 Y s 338 1102 m 6 Y s 361 1102 m 6 Y s
 383 1102 m 6 Y s 406 1095 m 13 Y s 428 1102 m 6 Y s 451 1102 m 6 Y s 474 1102 m 6 Y s 496 1095 m 13 Y s 519 1102 m 6 Y s 542 1102 m 6 Y s 564 1102 m 6 Y s 587 1095 m 13 Y s 609 1102 m 6 Y s 632 1102 m 6 Y s 655 1102 m 6 Y s 677 1095 m 13 Y s 225
 1095 m 13 Y s 202 1102 m 6 Y s 180 1102 m 6 Y s 157 1102 m 6 Y s 677 1095 m 13 Y s 143 681 m 427 Y s
 gsave  710 565 23 600 C 48.3097 1040.08 t 90 r /Helvetica-Bold findfont 28.5208 sf 0 0 m (30.2 ) show NC gr 
 gsave  710 565 23 600 C 34.101 1031.56 t 90 r /Helvetica-Bold findfont 19.9646 sf 0 0 m ( ) show NC gr 
 gsave  710 565 23 600 C 48.3097 1023.03 t 90 r /Helvetica-Bold findfont 28.5208 sf 0 0 m (/) show NC gr 
 gsave  710 565 23 600 C 53.9933 1014.5 t 90 r /Helvetica-Bold findfont 19.9646 sf 0 0 m ( ) show NC gr 
 gsave  710 565 23 600 C 45.468 906.518 t 90 r /Helvetica-Bold findfont 28.5208 sf 0 0 m (\(1/N\) dN) show NC gr  160 681 m -17 X s 152 696 m -9 X s 152 711 m -9 X s 152 726 m -9 X s 152 741 m -9 X s 160 756 m -17 X s 152 771 m -9 X s 152 786 m -9 X
 s 152 801 m -9 X s 152 816 m -9 X s 160 831 m -17 X s 152 846 m -9 X s 152 861 m -9 X s 152 876 m -9 X s 152 891 m -9 X s 160 906 m -17 X s 152 920 m -9 X s 152 935 m -9 X s 152 950 m -9 X s 152 965 m -9 X s 160 980 m -17 X s 152 995 m -9 X s 152
 1010 m -9 X s 152 1025 m -9 X s 152 1040 m -9 X s 160 1055 m -17 X s 160 1055 m -17 X s 152 1070 m -9 X s 152 1085 m -9 X s 152 1100 m -9 X s
 gsave  710 565 23 600 C 119.354 670.653 t 0 r /Helvetica-Bold findfont 25.6688 sf 0 0 m (0) show NC gr 
 gsave  710 565 23 600 C 73.8855 747.38 t 0 r /Helvetica-Bold findfont 25.6688 sf 0 0 m (0.001) show NC gr 
 gsave  710 565 23 600 C 68.202 821.266 t 0 r /Helvetica-Bold findfont 25.6688 sf 0 0 m (0.002) show NC gr 
 gsave  710 565 23 600 C 68.202 895.151 t 0 r /Helvetica-Bold findfont 25.6688 sf 0 0 m (0.003) show NC gr 
 gsave  710 565 23 600 C 68.202 969.037 t 0 r /Helvetica-Bold findfont 25.6688 sf 0 0 m (0.004) show NC gr 
 gsave  710 565 23 600 C 68.202 1045.76 t 0 r /Helvetica-Bold findfont 25.6688 sf 0 0 m (0.005) show NC gr  691 681 m 427 Y s 674 681 m 17 X s 683 696 m 8 X s 683 711 m 8 X s 683 726 m 8 X s 683 741 m 8 X s 674 756 m 17 X s 683 771 m 8 X s 683 786 m
 8 X s 683 801 m 8 X s 683 816 m 8 X s 674 831 m 17 X s 683 846 m 8 X s 683 861 m 8 X s 683 876 m 8 X s 683 891 m 8 X s 674 906 m 17 X s 683 920 m 8 X s 683 935 m 8 X s 683 950 m 8 X s 683 965 m 8 X s 674 980 m 17 X s 683 995 m 8 X s 683 1010 m 8 X s
 683 1025 m 8 X s 683 1040 m 8 X s 674 1055 m 17 X s 674 1055 m 17 X s 683 1070 m 8 X s 683 1085 m 8 X s 683 1100 m 8 X s 1 0 0 c 6 lw black 3 lw 1 0 0 c 677 682 m -1 -1 d s 670 690 m -9 -9 d s 660 695 m -10 -10 d s 646 681 m s 636 686 m -5 -5 d s
 628 694 m -6 -6 d s 619 684 m -3 -3 d s 601 681 m s 588 684 m -2 -3 d s 573 684 m -2 -3 d s 556 681 m s 554 695 m -13 -14 d s 531 687 m -6 -6 d s 526 698 m -16 -17 d s 514 701 m -15 -16 d s 495 681 m s 502 703 m -3 -3 d s 480 681 m cl s 466 683 m -1
 -2 d s 458 689 m -8 -8 d s 447 693 m -3 -2 d s 437 683 m -2 -2 d s 431 692 m -11 -11 d s 431 707 m -26 -26 d s 431 723 m -41 -42 d s 420 727 m -3 -3 d s 413 720 m -38 -39 d s 403 725 m -43 -44 d s 400 737 m -55 -56 d s 376 728 m -47 -47 d s 376 743
 m -62 -62 d s 368 750 m -6 -5 d s 356 739 m -57 -58 d s 349 746 m -65 -65 d s 344 756 m -75 -75 d s 335 763 m -14 -14 d s 318 746 m -64 -65 d s 335 778 m -14 -14 d s 308 750 m -69 -69 d s 335 793 m -14 -14 d s 308 766 m -84 -85 d s 331 804 m -10 -9
 d s 308 781 m -99 -100 d s 308 796 m -114 -115 d s 296 799 m -117 -118 d s 282 800 m -118 -119 d s 267 801 m -118 -120 d s 260 808 m -117 -117 d s 253 817 m -96 -97 d s 151 714 m -8 -7 d s 253 832 m -96 -97 d s 253 847 m -96 -96 d s 253 862 m -41
 -41 d s 198 807 m -27 -27 d s 161 770 m -4 -4 d s 253 878 m -41 -42 d s 198 822 m -27 -27 d s 253 893 m -27 -28 d s 223 863 m -11 -12 d s 198 838 m -27 -28 d s 253 908 m -27 -28 d s 198 853 m -27 -28 d s 253 923 m -27 -27 d s 185 855 m -1 Y s 176
 845 m -5 -5 d s 253 938 m -27 -27 d s 245 946 m -19 -20 d s 233 948 m -7 -7 d s 6 lw 143 714 m 14 X 56 Y 14 X 75 Y 14 X 10 Y 13 X -48 Y 14 X 56 Y 14 X 85 Y 13 X -2 Y 14 X -138 Y 14 X -7 Y 13 X -1 Y 14 X -1 Y 14 X -53 Y 13 X 58 Y 14 X -48 Y 14 X -17
 Y 13 X 11 Y 14 X -22 Y 14 X 9 Y 13 X -17 Y 14 X 7 Y 14 X -44 Y 13 X 10 Y 14 X -10 Y 14 X -2 Y 27 X 22 Y 14 X -2 Y 13 X -14 Y 14 X 9 Y 14 X -15 Y 13 X 3 Y 28 X -3 Y 14 X 3 Y 13 X 10 Y 14 X -13 Y 14 X 14 Y 13 X -5 Y 14 X -9 Y 14 X s 0.48 0.56 0.6 c 3
 lw 1 1 1 c 0.48 0.56 0.6 c 285 84 143 1024 bl 143 1024 m 285 X s 428 1024 m 84 Y s 428 1108 m -285 X s 143 1108 m -84 Y s black
 gsave  710 565 23 600 C 227.34 1079.87 t 0 r /Helvetica-Bold findfont 31.3729 sf 0 0 m (Signal) show NC gr  0.49 0.6 0.82 c 156 1072 m 60 X 30 Y -60 X f 0 0 0.933333 c 6 lw 156 1102 m 60 X s 156 1072 m 60 X s 216 1072 m 30 Y s 156 1072 m 30 Y s
 black
 gsave  710 565 23 600 C 227.34 1037.24 t 0 r /Helvetica-Bold findfont 31.3729 sf 0 0 m (Background) show NC gr  1 0 0 c 3 lw 216 1038 m -8 -8 d s 216 1053 m -23 -23 d s 207 1060 m -29 -30 d s 192 1060 m -29 -30 d s 177 1060 m -21 -22 d s 162 1060 m
 -6 -7 d s 6 lw 0 0 0.933333 c 1 0 0 c 156 1060 m 60 X s 156 1030 m 60 X s 216 1030 m 30 Y s 156 1030 m 30 Y s black 3 lw 143 681 m 548 X s 225 694 m -13 Y s 247 688 m -7 Y s 270 688 m -7 Y s 293 688 m -7 Y s 315 694 m -13 Y s 338 688 m -7 Y s 361
 688 m -7 Y s 383 688 m -7 Y s 406 694 m -13 Y s 428 688 m -7 Y s 451 688 m -7 Y s 474 688 m -7 Y s 496 694 m -13 Y s 519 688 m -7 Y s 542 688 m -7 Y s 564 688 m -7 Y s 587 694 m -13 Y s 609 688 m -7 Y s 632 688 m -7 Y s 655 688 m -7 Y s 677 694 m
 -13 Y s 225 694 m -13 Y s 202 688 m -7 Y s 180 688 m -7 Y s 157 688 m -7 Y s 677 694 m -13 Y s 143 1108 m 548 X s 225 1095 m 13 Y s 247 1102 m 6 Y s 270 1102 m 6 Y s 293 1102 m 6 Y s 315 1095 m 13 Y s 338 1102 m 6 Y s 361 1102 m 6 Y s 383 1102 m 6 Y
 s 406 1095 m 13 Y s 428 1102 m 6 Y s 451 1102 m 6 Y s 474 1102 m 6 Y s 496 1095 m 13 Y s 519 1102 m 6 Y s 542 1102 m 6 Y s 564 1102 m 6 Y s 587 1095 m 13 Y s 609 1102 m 6 Y s 632 1102 m 6 Y s 655 1102 m 6 Y s 677 1095 m 13 Y s 225 1095 m 13 Y s 202
 1102 m 6 Y s 180 1102 m 6 Y s 157 1102 m 6 Y s 677 1095 m 13 Y s 143 681 m 427 Y s 160 681 m -17 X s 152 696 m -9 X s 152 711 m -9 X s 152 726 m -9 X s 152 741 m -9 X s 160 756 m -17 X s 152 771 m -9 X s 152 786 m -9 X s 152 801 m -9 X s 152 816 m
 -9 X s 160 831 m -17 X s 152 846 m -9 X s 152 861 m -9 X s 152 876 m -9 X s 152 891 m -9 X s 160 906 m -17 X s 152 920 m -9 X s 152 935 m -9 X s 152 950 m -9 X s 152 965 m -9 X s 160 980 m -17 X s 152 995 m -9 X s 152 1010 m -9 X s 152 1025 m -9 X s
 152 1040 m -9 X s 160 1055 m -17 X s 160 1055 m -17 X s 152 1070 m -9 X s 152 1085 m -9 X s 152 1100 m -9 X s 691 681 m 427 Y s 674 681 m 17 X s 683 696 m 8 X s 683 711 m 8 X s 683 726 m 8 X s 683 741 m 8 X s 674 756 m 17 X s 683 771 m 8 X s 683 786
 m 8 X s 683 801 m 8 X s 683 816 m 8 X s 674 831 m 17 X s 683 846 m 8 X s 683 861 m 8 X s 683 876 m 8 X s 683 891 m 8 X s 674 906 m 17 X s 683 920 m 8 X s 683 935 m 8 X s 683 950 m 8 X s 683 965 m 8 X s 674 980 m 17 X s 683 995 m 8 X s 683 1010 m 8 X
 s 683 1025 m 8 X s 683 1040 m 8 X s 674 1055 m 17 X s 674 1055 m 17 X s 683 1070 m 8 X s 683 1085 m 8 X s 683 1100 m 8 X s
 gsave  710 565 23 600 C 719.017 679.067 t 90 r /Helvetica-Bold findfont 19.9646 sf 0 0 m (U/O\255flow \(S,B\): \(0.0, 0.0\)% / \(0.0, 0.0\)%) show NC gr  0.48 0.56 0.6 c 0.364706 0.419608 0.490196 c 256 38 30 1124 bf 0.48 0.56 0.6 c 30 1124 m 256 X
 s 286 1124 m 38 Y s 286 1162 m -256 X s 30 1162 m -38 Y s 1 1 1 c black 1 1 1 c
 gsave  710 565 23 600 C 34.101 1136.7 t 0 r /Helvetica-Bold findfont 28.5208 sf 0 0 m (Input variable: Mjj) show NC gr  0.48 0.56 0.6 c 0.95 0.95 0.95 c 710 565 779 600 bf black 0.95 0.95 0.95 c 548 427 899 681 bf black 548 427 899 681 bl 0.95 0.95
 0.95 c 548 427 899 681 bf black 548 427 899 681 bl 0 0 0.933333 c 6 lw 0.49 0.6 0.82 c black 3 lw 0.49 0.6 0.82 c 899 681 m 180 Y 14 X 74 Y 14 X 5 Y 13 X -8 Y 14 X 1 Y 14 X -11 Y 13 X -9 Y 14 X -61 Y 14 X -17 Y 13 X 39 Y 14 X -22 Y 14 X 14 Y 14 X -7
 Y 13 X 24 Y 14 X -7 Y 14 X 37 Y 13 X -44 Y 14 X 12 Y 14 X -22 Y 13 X 13 Y 14 X -12 Y 14 X -25 Y 13 X 21 Y 14 X -28 Y 14 X -39 Y 13 X -5 Y 14 X 6 Y 14 X -33 Y 13 X -7 Y 14 X -3 Y 14 X -22 Y 13 X -6 Y 14 X -25 Y 14 X 11 Y 13 X -9 Y 14 X -9 Y 27 X 3 Y
 14 X -7 Y 14 X -2 Y 14 X f 6 lw 0 0 0.933333 c 0.49 0.6 0.82 c 0 0 0.933333 c 899 861 m 14 X 74 Y 14 X 5 Y 13 X -8 Y 14 X 1 Y 14 X -11 Y 13 X -9 Y 14 X -61 Y 14 X -17 Y 13 X 39 Y 14 X -22 Y 14 X 14 Y 14 X -7 Y 13 X 24 Y 14 X -7 Y 14 X 37 Y 13 X -44
 Y 14 X 12 Y 14 X -22 Y 13 X 13 Y 14 X -12 Y 14 X -25 Y 13 X 21 Y 14 X -28 Y 14 X -39 Y 13 X -5 Y 14 X 6 Y 14 X -33 Y 13 X -7 Y 14 X -3 Y 14 X -22 Y 13 X -6 Y 14 X -25 Y 14 X 11 Y 13 X -9 Y 14 X -9 Y 27 X 3 Y 14 X -7 Y 14 X -2 Y 14 X s black 3 lw 899
 681 m 548 X s
 gsave  710 565 779 600 C 1383.93 610.976 t 0 r /Helvetica-Bold findfont 28.5208 sf 0 0 m (RMS) show NC gr  944 694 m -13 Y s 955 688 m -7 Y s 966 688 m -7 Y s 977 688 m -7 Y s 988 694 m -13 Y s 999 688 m -7 Y s 1010 688 m -7 Y s 1021 688 m -7 Y s
 1033 694 m -13 Y s 1044 688 m -7 Y s 1055 688 m -7 Y s 1066 688 m -7 Y s 1077 694 m -13 Y s 1088 688 m -7 Y s 1099 688 m -7 Y s 1110 688 m -7 Y s 1121 694 m -13 Y s 1132 688 m -7 Y s 1144 688 m -7 Y s 1155 688 m -7 Y s 1166 694 m -13 Y s 1177 688 m
 -7 Y s 1188 688 m -7 Y s 1199 688 m -7 Y s 1210 694 m -13 Y s 1221 688 m -7 Y s 1232 688 m -7 Y s 1243 688 m -7 Y s 1255 694 m -13 Y s 1266 688 m -7 Y s 1277 688 m -7 Y s 1288 688 m -7 Y s 1299 694 m -13 Y s 1310 688 m -7 Y s 1321 688 m -7 Y s 1332
 688 m -7 Y s 1343 694 m -13 Y s 1354 688 m -7 Y s 1366 688 m -7 Y s 1377 688 m -7 Y s 1388 694 m -13 Y s 1399 688 m -7 Y s 1410 688 m -7 Y s 1421 688 m -7 Y s 1432 694 m -13 Y s 944 694 m -13 Y s 933 688 m -7 Y s 922 688 m -7 Y s 910 688 m -7 Y s
 1432 694 m -13 Y s 1443 688 m -7 Y s
 gsave  710 565 779 600 C 923.569 653.603 t 0 r /Helvetica-Bold findfont 25.6688 sf 0 0 m (0.2) show NC gr 
 gsave  710 565 779 600 C 966.195 653.603 t 0 r /Helvetica-Bold findfont 25.6688 sf 0 0 m (0.4) show NC gr 
 gsave  710 565 779 600 C 1011.66 653.603 t 0 r /Helvetica-Bold findfont 25.6688 sf 0 0 m (0.6) show NC gr 
 gsave  710 565 779 600 C 1054.29 653.603 t 0 r /Helvetica-Bold findfont 25.6688 sf 0 0 m (0.8) show NC gr 
 gsave  710 565 779 600 C 1113.97 653.603 t 0 r /Helvetica-Bold findfont 25.6688 sf 0 0 m (1) show NC gr 
 gsave  710 565 779 600 C 1145.23 653.603 t 0 r /Helvetica-Bold findfont 25.6688 sf 0 0 m (1.2) show NC gr 
 gsave  710 565 779 600 C 1187.85 653.603 t 0 r /Helvetica-Bold findfont 25.6688 sf 0 0 m (1.4) show NC gr 
 gsave  710 565 779 600 C 1233.32 653.603 t 0 r /Helvetica-Bold findfont 25.6688 sf 0 0 m (1.6) show NC gr 
 gsave  710 565 779 600 C 1278.79 653.603 t 0 r /Helvetica-Bold findfont 25.6688 sf 0 0 m (1.8) show NC gr 
 gsave  710 565 779 600 C 1332.78 653.603 t 0 r /Helvetica-Bold findfont 25.6688 sf 0 0 m (2) show NC gr 
 gsave  710 565 779 600 C 1366.88 653.603 t 0 r /Helvetica-Bold findfont 25.6688 sf 0 0 m (2.2) show NC gr 
 gsave  710 565 779 600 C 1409.51 653.603 t 0 r /Helvetica-Bold findfont 25.6688 sf 0 0 m (2.4) show NC gr  899 1108 m 548 X s 944 1095 m 13 Y s 955 1102 m 6 Y s 966 1102 m 6 Y s 977 1102 m 6 Y s 988 1095 m 13 Y s 999 1102 m 6 Y s 1010 1102 m 6 Y s
 1021 1102 m 6 Y s 1033 1095 m 13 Y s 1044 1102 m 6 Y s 1055 1102 m 6 Y s 1066 1102 m 6 Y s 1077 1095 m 13 Y s 1088 1102 m 6 Y s 1099 1102 m 6 Y s 1110 1102 m 6 Y s 1121 1095 m 13 Y s 1132 1102 m 6 Y s 1144 1102 m 6 Y s 1155 1102 m 6 Y s 1166 1095 m
 13 Y s 1177 1102 m 6 Y s 1188 1102 m 6 Y s 1199 1102 m 6 Y s 1210 1095 m 13 Y s 1221 1102 m 6 Y s 1232 1102 m 6 Y s 1243 1102 m 6 Y s 1255 1095 m 13 Y s 1266 1102 m 6 Y s 1277 1102 m 6 Y s 1288 1102 m 6 Y s 1299 1095 m 13 Y s 1310 1102 m 6 Y s 1321
 1102 m 6 Y s 1332 1102 m 6 Y s 1343 1095 m 13 Y s 1354 1102 m 6 Y s 1366 1102 m 6 Y s 1377 1102 m 6 Y s 1388 1095 m 13 Y s 1399 1102 m 6 Y s 1410 1102 m 6 Y s 1421 1102 m 6 Y s 1432 1095 m 13 Y s 944 1095 m 13 Y s 933 1102 m 6 Y s 922 1102 m 6 Y s
 910 1102 m 6 Y s 1432 1095 m 13 Y s 1443 1102 m 6 Y s 899 681 m 427 Y s
 gsave  710 565 779 600 C 804.215 1008.82 t 90 r /Helvetica-Bold findfont 28.5208 sf 0 0 m (0.0616 ) show NC gr 
 gsave  710 565 779 600 C 790.007 1000.3 t 90 r /Helvetica-Bold findfont 19.9646 sf 0 0 m ( ) show NC gr 
 gsave  710 565 779 600 C 804.215 991.771 t 90 r /Helvetica-Bold findfont 28.5208 sf 0 0 m (/) show NC gr 
 gsave  710 565 779 600 C 809.899 983.246 t 90 r /Helvetica-Bold findfont 19.9646 sf 0 0 m ( ) show NC gr 
 gsave  710 565 779 600 C 804.215 875.259 t 90 r /Helvetica-Bold findfont 28.5208 sf 0 0 m (\(1/N\) dN) show NC gr  915 681 m -16 X s 907 698 m -8 X s 907 715 m -8 X s 907 732 m -8 X s 915 748 m -16 X s 907 765 m -8 X s 907 782 m -8 X s 907 799 m -8
 X s 915 815 m -16 X s 907 832 m -8 X s 907 849 m -8 X s 907 866 m -8 X s 915 882 m -16 X s 907 899 m -8 X s 907 916 m -8 X s 907 933 m -8 X s 915 949 m -16 X s 907 966 m -8 X s 907 983 m -8 X s 907 1000 m -8 X s 915 1016 m -16 X s 907 1033 m -8 X s
 907 1050 m -8 X s 907 1067 m -8 X s 915 1083 m -16 X s 915 1083 m -16 X s 907 1100 m -8 X s
 gsave  710 565 779 600 C 875.259 670.653 t 0 r /Helvetica-Bold findfont 25.6688 sf 0 0 m (0) show NC gr 
 gsave  710 565 779 600 C 852.525 738.855 t 0 r /Helvetica-Bold findfont 25.6688 sf 0 0 m (0.2) show NC gr 
 gsave  710 565 779 600 C 852.525 804.215 t 0 r /Helvetica-Bold findfont 25.6688 sf 0 0 m (0.4) show NC gr 
 gsave  710 565 779 600 C 852.525 872.417 t 0 r /Helvetica-Bold findfont 25.6688 sf 0 0 m (0.6) show NC gr 
 gsave  710 565 779 600 C 852.525 940.619 t 0 r /Helvetica-Bold findfont 25.6688 sf 0 0 m (0.8) show NC gr 
 gsave  710 565 779 600 C 878.101 1005.98 t 0 r /Helvetica-Bold findfont 25.6688 sf 0 0 m (1) show NC gr 
 gsave  710 565 779 600 C 852.525 1074.18 t 0 r /Helvetica-Bold findfont 25.6688 sf 0 0 m (1.2) show NC gr  1447 681 m 427 Y s 1430 681 m 17 X s 1438 698 m 9 X s 1438 715 m 9 X s 1438 732 m 9 X s 1430 748 m 17 X s 1438 765 m 9 X s 1438 782 m 9 X s
 1438 799 m 9 X s 1430 815 m 17 X s 1438 832 m 9 X s 1438 849 m 9 X s 1438 866 m 9 X s 1430 882 m 17 X s 1438 899 m 9 X s 1438 916 m 9 X s 1438 933 m 9 X s 1430 949 m 17 X s 1438 966 m 9 X s 1438 983 m 9 X s 1438 1000 m 9 X s 1430 1016 m 17 X s 1438
 1033 m 9 X s 1438 1050 m 9 X s 1438 1067 m 9 X s 1430 1083 m 17 X s 1430 1083 m 17 X s 1438 1100 m 9 X s 1 0 0 c 6 lw black 3 lw 1 0 0 c 1432 681 m s 1417 682 m -1 Y s 1402 681 m s 1387 681 m s 1378 688 m -6 -7 d s 1378 703 m -21 -22 d s 1378 718 m
 -27 -27 d s 1342 681 m s 1365 720 m -1 -1 d s 1354 709 m -3 -3 d s 1337 692 m -10 -11 d s 1337 707 m -26 -26 d s 1323 709 m -27 -28 d s 1323 724 m -42 -43 d s 1323 739 m -57 -58 d s 1323 754 m -72 -73 d s 1323 769 m -87 -88 d s 1323 784 m -102 -103
 d s 1323 800 m -27 -28 d s 1287 763 m -81 -82 d s 1316 808 m -20 -21 d s 1282 773 m -91 -92 d s 1310 816 m -14 -14 d s 1271 777 m -95 -96 d s 1310 831 m -14 -13 d s 1268 789 m -107 -108 d s 1302 838 m -6 -5 d s 1255 791 m -109 -110 d s 1255 807 m
 -124 -126 d s 1255 822 m -139 -141 d s 1255 837 m -155 -156 d s 1255 852 m -55 -55 d s 1193 790 m -108 -109 d s 1255 867 m -55 -55 d s 1187 798 m -117 -117 d s 1255 883 m -14 -14 d s 1241 868 m -41 -41 d s 1187 814 m -28 -28 d s 1156 783 m -101 -102
 d s 1255 898 m -14 -14 d s 1228 870 m -28 -27 d s 1187 829 m -28 -28 d s 1146 788 m -106 -107 d s 1255 913 m -14 -14 d s 1228 885 m -28 -27 d s 1187 844 m -28 -28 d s 1146 803 m -121 -122 d s 1255 928 m -14 -14 d s 1228 901 m -28 -28 d s 1187 859 m
 -28 -27 d s 1146 818 m -136 -137 d s 1255 943 m -14 -13 d s 1228 916 m -14 -14 d s 1212 900 m -12 -12 d s 1185 872 m -26 -25 d s 1146 833 m -151 -152 d s 1255 959 m -14 -14 d s 1228 931 m -14 -14 d s 1173 876 m -14 -14 d s 1146 848 m -166 -167 d s
 1255 974 m -14 -14 d s 1228 946 m -14 -14 d s 1169 887 m -10 -10 d s 1146 863 m -14 -13 d s 1118 836 m -13 -14 d s 1094 811 m -58 -58 d s 1031 748 m -66 -67 d s 1255 989 m -14 -14 d s 1228 961 m -14 -13 d s 1146 879 m -14 -14 d s 1118 851 m -13 -14
 d s 1091 824 m -55 -56 d s 1022 755 m -72 -74 d s 1255 1004 m -14 -14 d s 1216 965 m -2 -2 d s 1135 884 m -3 -4 d s 1091 839 m -14 -14 d s 1069 817 m -5 -6 d s 1062 809 m -26 -25 d s 1022 770 m -87 -89 d s 1255 1019 m -14 -14 d s 1091 854 m -14 -14
 d s 1050 813 m -14 -14 d s 1022 785 m -102 -104 d s 1255 1034 m -14 -13 d s 1091 869 m -14 -14 d s 1050 828 m -14 -14 d s 1022 800 m -117 -119 d s 1255 1050 m -14 -14 d s 1091 884 m -14 -14 d s 1050 843 m -14 -14 d s 1020 812 m -121 -121 d s 1255
 1065 m -14 -14 d s 1077 886 m s 1050 858 m -14 -14 d s 1009 817 m -110 -110 d s 1245 1069 m -4 -3 d s 1050 873 m -14 -13 d s 1009 832 m -55 -55 d s 942 765 m -43 -43 d s 1050 888 m -14 -13 d s 1009 847 m -55 -55 d s 940 778 m -41 -41 d s 1050 904 m
 -14 -14 d s 1009 862 m -55 -55 d s 940 793 m -41 -41 d s 1050 919 m -14 -14 d s 1009 878 m -55 -56 d s 937 805 m -38 -38 d s 1050 934 m -14 -14 d s 1006 890 m -52 -52 d s 927 810 m -14 -14 d s 1050 949 m -14 -14 d s 995 894 m -41 -41 d s 923 821 m
 -10 -10 d s 1050 964 m -14 -13 d s 995 909 m -14 -13 d s 968 882 m -14 -14 d s 1050 980 m -14 -14 d s 995 924 m -14 -13 d s 968 897 m -14 -14 d s 1039 984 m -3 -3 d s 995 940 m -14 -14 d s 968 912 m -14 -14 d s 994 953 m -13 -12 d s 968 927 m -14
 -13 d s 968 942 m -14 -13 d s 968 958 m -14 -14 d s 968 973 m -14 -14 d s 968 988 m -14 -14 d s 968 1003 m -14 -14 d s 968 1018 m -14 -13 d s 961 1027 m -7 -7 d s 6 lw 899 781 m 14 X 40 Y 14 X -16 Y 13 X -40 Y 14 X 262 Y 14 X -146 Y 13 X 72 Y 14 X
 -63 Y 14 X -78 Y 13 X -64 Y 14 X 236 Y 14 X -175 Y 14 X 8 Y 13 X 69 Y 14 X -75 Y 14 X 41 Y 13 X -17 Y 14 X 49 Y 14 X -101 Y 13 X 104 Y 14 X -15 Y 14 X -82 Y 13 X 110 Y 14 X 65 Y 14 X -97 Y 13 X 201 Y 14 X -280 Y 14 X -12 Y 13 X -14 Y 14 X 75 Y 14 X
 -30 Y 13 X -100 Y 14 X -27 Y 14 X 28 Y 13 X 11 Y 14 X -39 Y 27 X 1 Y 14 X -1 Y 28 X s black 3 lw 899 681 m 548 X s 944 694 m -13 Y s 955 688 m -7 Y s 966 688 m -7 Y s 977 688 m -7 Y s 988 694 m -13 Y s 999 688 m -7 Y s 1010 688 m -7 Y s 1021 688 m
 -7 Y s 1033 694 m -13 Y s 1044 688 m -7 Y s 1055 688 m -7 Y s 1066 688 m -7 Y s 1077 694 m -13 Y s 1088 688 m -7 Y s 1099 688 m -7 Y s 1110 688 m -7 Y s 1121 694 m -13 Y s 1132 688 m -7 Y s 1144 688 m -7 Y s 1155 688 m -7 Y s 1166 694 m -13 Y s 1177
 688 m -7 Y s 1188 688 m -7 Y s 1199 688 m -7 Y s 1210 694 m -13 Y s 1221 688 m -7 Y s 1232 688 m -7 Y s 1243 688 m -7 Y s 1255 694 m -13 Y s 1266 688 m -7 Y s 1277 688 m -7 Y s 1288 688 m -7 Y s 1299 694 m -13 Y s 1310 688 m -7 Y s 1321 688 m -7 Y s
 1332 688 m -7 Y s 1343 694 m -13 Y s 1354 688 m -7 Y s 1366 688 m -7 Y s 1377 688 m -7 Y s 1388 694 m -13 Y s 1399 688 m -7 Y s 1410 688 m -7 Y s 1421 688 m -7 Y s 1432 694 m -13 Y s 944 694 m -13 Y s 933 688 m -7 Y s 922 688 m -7 Y s 910 688 m -7 Y
 s 1432 694 m -13 Y s 1443 688 m -7 Y s 899 1108 m 548 X s 944 1095 m 13 Y s 955 1102 m 6 Y s 966 1102 m 6 Y s 977 1102 m 6 Y s 988 1095 m 13 Y s 999 1102 m 6 Y s 1010 1102 m 6 Y s 1021 1102 m 6 Y s 1033 1095 m 13 Y s 1044 1102 m 6 Y s 1055 1102 m 6
 Y s 1066 1102 m 6 Y s 1077 1095 m 13 Y s 1088 1102 m 6 Y s 1099 1102 m 6 Y s 1110 1102 m 6 Y s 1121 1095 m 13 Y s 1132 1102 m 6 Y s 1144 1102 m 6 Y s 1155 1102 m 6 Y s 1166 1095 m 13 Y s 1177 1102 m 6 Y s 1188 1102 m 6 Y s 1199 1102 m 6 Y s 1210
 1095 m 13 Y s 1221 1102 m 6 Y s 1232 1102 m 6 Y s 1243 1102 m 6 Y s 1255 1095 m 13 Y s 1266 1102 m 6 Y s 1277 1102 m 6 Y s 1288 1102 m 6 Y s 1299 1095 m 13 Y s 1310 1102 m 6 Y s 1321 1102 m 6 Y s 1332 1102 m 6 Y s 1343 1095 m 13 Y s 1354 1102 m 6 Y
 s 1366 1102 m 6 Y s 1377 1102 m 6 Y s 1388 1095 m 13 Y s 1399 1102 m 6 Y s 1410 1102 m 6 Y s 1421 1102 m 6 Y s 1432 1095 m 13 Y s 944 1095 m 13 Y s 933 1102 m 6 Y s 922 1102 m 6 Y s 910 1102 m 6 Y s 1432 1095 m 13 Y s 1443 1102 m 6 Y s 899 681 m 427
 Y s 915 681 m -16 X s 907 698 m -8 X s 907 715 m -8 X s 907 732 m -8 X s 915 748 m -16 X s 907 765 m -8 X s 907 782 m -8 X s 907 799 m -8 X s 915 815 m -16 X s 907 832 m -8 X s 907 849 m -8 X s 907 866 m -8 X s 915 882 m -16 X s 907 899 m -8 X s 907
 916 m -8 X s 907 933 m -8 X s 915 949 m -16 X s 907 966 m -8 X s 907 983 m -8 X s 907 1000 m -8 X s 915 1016 m -16 X s 907 1033 m -8 X s 907 1050 m -8 X s 907 1067 m -8 X s 915 1083 m -16 X s 915 1083 m -16 X s 907 1100 m -8 X s 1447 681 m 427 Y s
 1430 681 m 17 X s 1438 698 m 9 X s 1438 715 m 9 X s 1438 732 m 9 X s 1430 748 m 17 X s 1438 765 m 9 X s 1438 782 m 9 X s 1438 799 m 9 X s 1430 815 m 17 X s 1438 832 m 9 X s 1438 849 m 9 X s 1438 866 m 9 X s 1430 882 m 17 X s 1438 899 m 9 X s 1438
 916 m 9 X s 1438 933 m 9 X s 1430 949 m 17 X s 1438 966 m 9 X s 1438 983 m 9 X s 1438 1000 m 9 X s 1430 1016 m 17 X s 1438 1033 m 9 X s 1438 1050 m 9 X s 1438 1067 m 9 X s 1430 1083 m 17 X s 1430 1083 m 17 X s 1438 1100 m 9 X s
 gsave  710 565 779 600 C 1474.92 679.067 t 90 r /Helvetica-Bold findfont 19.9646 sf 0 0 m (U/O\255flow \(S,B\): \(0.0, 0.0\)% / \(0.0, 0.0\)%) show NC gr  0.48 0.56 0.6 c 0.364706 0.419608 0.490196 c 281 38 786 1124 bf 0.48 0.56 0.6 c 786 1124 m 281
 X s 1067 1124 m 38 Y s 1067 1162 m -281 X s 786 1162 m -38 Y s 1 1 1 c black 1 1 1 c
 gsave  710 565 779 600 C 790.007 1136.7 t 0 r /Helvetica-Bold findfont 28.5208 sf 0 0 m (Input variable: RMS) show NC gr  0.48 0.56 0.6 c 0.95 0.95 0.95 c 711 565 1534 600 bf black 0.95 0.95 0.95 c 547 427 1655 681 bf black 547 427 1655 681 bl 0.95
 0.95 0.95 c 547 427 1655 681 bf black 547 427 1655 681 bl 0 0 0.933333 c 6 lw 0.49 0.6 0.82 c black 3 lw 0.49 0.6 0.82 c 1655 681 m 3 Y 14 X 1 Y 14 X 8 Y 13 X 19 Y 14 X 24 Y 14 X 58 Y 13 X 43 Y 14 X 75 Y 14 X 35 Y 13 X 53 Y 14 X 37 Y 14 X -15 Y 13 X
 47 Y 14 X -87 Y 14 X 33 Y 13 X 8 Y 14 X -91 Y 14 X 17 Y 13 X -64 Y 14 X 15 Y 14 X -24 Y 14 X -17 Y 13 X -101 Y 14 X -38 Y 14 X -17 Y 13 X -6 Y 14 X -6 Y 14 X -8 Y 13 X 3 Y 14 X -5 Y 14 X 1 Y 13 X -1 Y 123 X f 6 lw 0 0 0.933333 c 0.49 0.6 0.82 c 0 0
 0.933333 c 1655 684 m 14 X 1 Y 14 X 8 Y 13 X 19 Y 14 X 24 Y 14 X 58 Y 13 X 43 Y 14 X 75 Y 14 X 35 Y 13 X 53 Y 14 X 37 Y 14 X -15 Y 13 X 47 Y 14 X -87 Y 14 X 33 Y 13 X 8 Y 14 X -91 Y 14 X 17 Y 13 X -64 Y 14 X 15 Y 14 X -24 Y 14 X -17 Y 13 X -101 Y 14
 X -38 Y 14 X -17 Y 13 X -6 Y 14 X -6 Y 14 X -8 Y 13 X 3 Y 14 X -5 Y 14 X 1 Y 13 X -1 Y 123 X s black 3 lw 1655 681 m 547 X s
 gsave  711 565 1534 600 C 2148.36 610.976 t 0 r /Helvetica-Bold findfont 28.5208 sf 0 0 m (dRll) show NC gr  1738 694 m -13 Y s 1758 688 m -7 Y s 1778 688 m -7 Y s 1798 688 m -7 Y s 1818 688 m -7 Y s 1838 694 m -13 Y s 1858 688 m -7 Y s 1878 688 m
 -7 Y s 1898 688 m -7 Y s 1918 688 m -7 Y s 1938 694 m -13 Y s 1958 688 m -7 Y s 1978 688 m -7 Y s 1998 688 m -7 Y s 2018 688 m -7 Y s 2038 694 m -13 Y s 2058 688 m -7 Y s 2078 688 m -7 Y s 2098 688 m -7 Y s 2118 688 m -7 Y s 2139 694 m -13 Y s 1738
 694 m -13 Y s 1718 688 m -7 Y s 1698 688 m -7 Y s 1678 688 m -7 Y s 1658 688 m -7 Y s 2139 694 m -13 Y s 2159 688 m -7 Y s 2179 688 m -7 Y s 2199 688 m -7 Y s
 gsave  711 565 1534 600 C 1730.63 653.603 t 0 r /Helvetica-Bold findfont 25.6688 sf 0 0 m (1) show NC gr 
 gsave  711 565 1534 600 C 1827.25 653.603 t 0 r /Helvetica-Bold findfont 25.6688 sf 0 0 m (2) show NC gr 
 gsave  711 565 1534 600 C 1929.55 653.603 t 0 r /Helvetica-Bold findfont 25.6688 sf 0 0 m (3) show NC gr 
 gsave  711 565 1534 600 C 2029.01 653.603 t 0 r /Helvetica-Bold findfont 25.6688 sf 0 0 m (4) show NC gr 
 gsave  711 565 1534 600 C 2128.47 653.603 t 0 r /Helvetica-Bold findfont 25.6688 sf 0 0 m (5) show NC gr  1655 1108 m 547 X s 1738 1095 m 13 Y s 1758 1102 m 6 Y s 1778 1102 m 6 Y s 1798 1102 m 6 Y s 1818 1102 m 6 Y s 1838 1095 m 13 Y s 1858 1102 m 6
 Y s 1878 1102 m 6 Y s 1898 1102 m 6 Y s 1918 1102 m 6 Y s 1938 1095 m 13 Y s 1958 1102 m 6 Y s 1978 1102 m 6 Y s 1998 1102 m 6 Y s 2018 1102 m 6 Y s 2038 1095 m 13 Y s 2058 1102 m 6 Y s 2078 1102 m 6 Y s 2098 1102 m 6 Y s 2118 1102 m 6 Y s 2139 1095
 m 13 Y s 1738 1095 m 13 Y s 1718 1102 m 6 Y s 1698 1102 m 6 Y s 1678 1102 m 6 Y s 1658 1102 m 6 Y s 2139 1095 m 13 Y s 2159 1102 m 6 Y s 2179 1102 m 6 Y s 2199 1102 m 6 Y s 1655 681 m 427 Y s
 gsave  711 565 1534 600 C 1560.12 1025.87 t 90 r /Helvetica-Bold findfont 28.5208 sf 0 0 m (0.137 ) show NC gr 
 gsave  711 565 1534 600 C 1545.91 1017.35 t 90 r /Helvetica-Bold findfont 19.9646 sf 0 0 m ( ) show NC gr 
 gsave  711 565 1534 600 C 1560.12 1008.82 t 90 r /Helvetica-Bold findfont 28.5208 sf 0 0 m (/) show NC gr 
 gsave  711 565 1534 600 C 1565.8 1000.3 t 90 r /Helvetica-Bold findfont 19.9646 sf 0 0 m ( ) show NC gr 
 gsave  711 565 1534 600 C 1560.12 892.31 t 90 r /Helvetica-Bold findfont 28.5208 sf 0 0 m (\(1/N\) dN) show NC gr  1671 681 m -16 X s 1663 694 m -8 X s 1663 707 m -8 X s 1663 720 m -8 X s 1663 733 m -8 X s 1671 746 m -16 X s 1663 759 m -8 X s 1663
 772 m -8 X s 1663 785 m -8 X s 1663 798 m -8 X s 1671 810 m -16 X s 1663 823 m -8 X s 1663 836 m -8 X s 1663 849 m -8 X s 1663 862 m -8 X s 1671 875 m -16 X s 1663 888 m -8 X s 1663 901 m -8 X s 1663 914 m -8 X s 1663 927 m -8 X s 1671 940 m -16 X s
 1663 953 m -8 X s 1663 965 m -8 X s 1663 978 m -8 X s 1663 991 m -8 X s 1671 1004 m -16 X s 1663 1017 m -8 X s 1663 1030 m -8 X s 1663 1043 m -8 X s 1663 1056 m -8 X s 1671 1069 m -16 X s 1671 1069 m -16 X s 1663 1082 m -8 X s 1663 1095 m -8 X s
 1663 1108 m -8 X s
 gsave  711 565 1534 600 C 1631.16 670.653 t 0 r /Helvetica-Bold findfont 25.6688 sf 0 0 m (0) show NC gr 
 gsave  711 565 1534 600 C 1614.11 736.013 t 0 r /Helvetica-Bold findfont 25.6688 sf 0 0 m (0.1) show NC gr 
 gsave  711 565 1534 600 C 1608.43 801.374 t 0 r /Helvetica-Bold findfont 25.6688 sf 0 0 m (0.2) show NC gr 
 gsave  711 565 1534 600 C 1608.43 863.892 t 0 r /Helvetica-Bold findfont 25.6688 sf 0 0 m (0.3) show NC gr 
 gsave  711 565 1534 600 C 1608.43 929.252 t 0 r /Helvetica-Bold findfont 25.6688 sf 0 0 m (0.4) show NC gr 
 gsave  711 565 1534 600 C 1608.43 994.613 t 0 r /Helvetica-Bold findfont 25.6688 sf 0 0 m (0.5) show NC gr 
 gsave  711 565 1534 600 C 1608.43 1059.97 t 0 r /Helvetica-Bold findfont 25.6688 sf 0 0 m (0.6) show NC gr  2202 681 m 427 Y s 2186 681 m 16 X s 2194 694 m 8 X s 2194 707 m 8 X s 2194 720 m 8 X s 2194 733 m 8 X s 2186 746 m 16 X s 2194 759 m 8 X s
 2194 772 m 8 X s 2194 785 m 8 X s 2194 798 m 8 X s 2186 810 m 16 X s 2194 823 m 8 X s 2194 836 m 8 X s 2194 849 m 8 X s 2194 862 m 8 X s 2186 875 m 16 X s 2194 888 m 8 X s 2194 901 m 8 X s 2194 914 m 8 X s 2194 927 m 8 X s 2186 940 m 16 X s 2194 953
 m 8 X s 2194 965 m 8 X s 2194 978 m 8 X s 2194 991 m 8 X s 2186 1004 m 16 X s 2194 1017 m 8 X s 2194 1030 m 8 X s 2194 1043 m 8 X s 2194 1056 m 8 X s 2186 1069 m 16 X s 2186 1069 m 16 X s 2194 1082 m 8 X s 2194 1095 m 8 X s 2194 1108 m 8 X s 1 0 0 c
 6 lw black 3 lw 1 0 0 c 2188 681 m s 2173 682 m -1 Y s 2158 681 m s 2143 681 m s 2134 688 m -6 -7 d s 2134 703 m -14 -14 d s 2113 681 m s 2134 718 m -14 -14 d s 2098 681 m s 2128 727 m -8 -8 d s 2083 682 m -1 -1 d s 2067 681 m s 2066 695 m -14 -14 d
 s 2057 701 m -20 -20 d s 2052 711 m -30 -30 d s 2052 727 m -14 -14 d s 2029 703 m -22 -22 d s 2025 714 m -33 -33 d s 2025 729 m -14 -13 d s 2003 707 m -26 -26 d s 2024 744 m -13 -13 d s 1997 717 m -35 -36 d s 1997 732 m -50 -51 d s 1997 747 m -65
 -66 d s 1997 763 m -80 -82 d s 1997 778 m -95 -97 d s 1997 793 m -13 -14 d s 1978 773 m -8 -8 d s 1963 758 m -76 -77 d s 1997 808 m -13 -14 d s 1956 767 m -85 -86 d s 1997 823 m -13 -14 d s 1956 782 m -100 -101 d s 1956 797 m -13 -14 d s 1931 772 m
 -90 -91 d s 1956 812 m -13 -14 d s 1929 785 m -103 -104 d s 1956 827 m -13 -13 d s 1929 800 m -118 -119 d s 1956 843 m -13 -14 d s 1929 815 m -133 -134 d s 1956 858 m -13 -14 d s 1929 830 m -82 -82 d s 1835 736 m -54 -55 d s 1956 873 m -13 -14 d s
 1923 839 m -76 -76 d s 1833 749 m -67 -68 d s 1956 888 m -13 -14 d s 1915 847 m -14 -14 d s 1892 823 m -45 -45 d s 1833 764 m -82 -83 d s 1956 903 m -13 -13 d s 1915 862 m -14 -14 d s 1888 834 m -41 -41 d s 1833 779 m -97 -98 d s 1915 877 m -14 -14
 d s 1888 850 m -41 -42 d s 1833 795 m -112 -114 d s 1915 892 m -14 -13 d s 1888 865 m -41 -41 d s 1833 810 m -127 -129 d s 1904 897 m -3 -3 d s 1874 866 m -27 -27 d s 1833 825 m -142 -144 d s 1874 881 m -27 -27 d s 1833 840 m -158 -159 d s 1874 897
 m -14 -14 d s 1849 871 m -2 -2 d s 1831 853 m -171 -172 d s 1872 910 m -12 -12 d s 1819 857 m -164 -166 d s 1819 872 m -164 -165 d s 1819 887 m -68 -69 d s 1737 804 m -82 -82 d s 1819 902 m -68 -69 d s 1737 820 m -13 -14 d s 1711 793 m -56 -56 d s
 1819 917 m -41 -41 d s 1776 874 m -25 -25 d s 1737 835 m -13 -14 d s 1710 807 m -55 -55 d s 1819 933 m -41 -42 d s 1765 878 m -14 -14 d s 1737 850 m -13 -14 d s 1710 822 m -27 -27 d s 1678 791 m -23 -24 d s 1819 948 m -41 -42 d s 1765 893 m -14 -14
 d s 1737 865 m -13 -14 d s 1710 838 m -27 -28 d s 1669 796 m -14 -14 d s 1819 963 m -13 -14 d s 1804 948 m -26 -26 d s 1756 899 m -5 -5 d s 1737 880 m -13 -13 d s 1710 853 m -27 -28 d s 1669 811 m -14 -13 d s 1819 978 m -13 -14 d s 1737 896 m -13
 -14 d s 1710 868 m -27 -28 d s 1669 827 m -14 -14 d s 1819 993 m -13 -13 d s 1737 911 m -13 -14 d s 1710 883 m -27 -27 d s 1668 841 m -13 -13 d s 1819 1009 m -13 -14 d s 1737 926 m -13 -14 d s 1699 887 m -16 -16 d s 1819 1024 m -13 -14 d s 1737 941
 m -13 -14 d s 1696 900 m -13 -14 d s 1819 1039 m -13 -14 d s 1737 956 m -13 -14 d s 1696 915 m -13 -14 d s 1812 1047 m -6 -7 d s 1737 971 m -13 -13 d s 1684 918 m -1 -2 d s 1734 983 m -10 -10 d s 6 lw 1655 841 m 14 X -50 Y 14 X 127 Y 13 X -31 Y 14 X
 -94 Y 14 X 190 Y 13 X -179 Y 14 X 95 Y 14 X -25 Y 13 X 63 Y 14 X 11 Y 14 X 99 Y 13 X -194 Y 14 X -117 Y 14 X 135 Y 13 X 39 Y 14 X -44 Y 14 X -43 Y 13 X 74 Y 14 X -58 Y 14 X -67 Y 14 X 132 Y 13 X -146 Y 14 X 15 Y 14 X 50 Y 13 X -116 Y 14 X 37 Y 14 X
 -41 Y 13 X 24 Y 14 X -26 Y 14 X -20 Y 13 X 1 Y 14 X -1 Y 27 X 46 Y 14 X -46 Y 27 X 1 Y 14 X -1 Y 27 X s black 3 lw 1655 681 m 547 X s 1738 694 m -13 Y s 1758 688 m -7 Y s 1778 688 m -7 Y s 1798 688 m -7 Y s 1818 688 m -7 Y s 1838 694 m -13 Y s 1858
 688 m -7 Y s 1878 688 m -7 Y s 1898 688 m -7 Y s 1918 688 m -7 Y s 1938 694 m -13 Y s 1958 688 m -7 Y s 1978 688 m -7 Y s 1998 688 m -7 Y s 2018 688 m -7 Y s 2038 694 m -13 Y s 2058 688 m -7 Y s 2078 688 m -7 Y s 2098 688 m -7 Y s 2118 688 m -7 Y s
 2139 694 m -13 Y s 1738 694 m -13 Y s 1718 688 m -7 Y s 1698 688 m -7 Y s 1678 688 m -7 Y s 1658 688 m -7 Y s 2139 694 m -13 Y s 2159 688 m -7 Y s 2179 688 m -7 Y s 2199 688 m -7 Y s 1655 1108 m 547 X s 1738 1095 m 13 Y s 1758 1102 m 6 Y s 1778 1102
 m 6 Y s 1798 1102 m 6 Y s 1818 1102 m 6 Y s 1838 1095 m 13 Y s 1858 1102 m 6 Y s 1878 1102 m 6 Y s 1898 1102 m 6 Y s 1918 1102 m 6 Y s 1938 1095 m 13 Y s 1958 1102 m 6 Y s 1978 1102 m 6 Y s 1998 1102 m 6 Y s 2018 1102 m 6 Y s 2038 1095 m 13 Y s 2058
 1102 m 6 Y s 2078 1102 m 6 Y s 2098 1102 m 6 Y s 2118 1102 m 6 Y s 2139 1095 m 13 Y s 1738 1095 m 13 Y s 1718 1102 m 6 Y s 1698 1102 m 6 Y s 1678 1102 m 6 Y s 1658 1102 m 6 Y s 2139 1095 m 13 Y s 2159 1102 m 6 Y s 2179 1102 m 6 Y s 2199 1102 m 6 Y s
 1655 681 m 427 Y s 1671 681 m -16 X s 1663 694 m -8 X s 1663 707 m -8 X s 1663 720 m -8 X s 1663 733 m -8 X s 1671 746 m -16 X s 1663 759 m -8 X s 1663 772 m -8 X s 1663 785 m -8 X s 1663 798 m -8 X s 1671 810 m -16 X s 1663 823 m -8 X s 1663 836 m
 -8 X s 1663 849 m -8 X s 1663 862 m -8 X s 1671 875 m -16 X s 1663 888 m -8 X s 1663 901 m -8 X s 1663 914 m -8 X s 1663 927 m -8 X s 1671 940 m -16 X s 1663 953 m -8 X s 1663 965 m -8 X s 1663 978 m -8 X s 1663 991 m -8 X s 1671 1004 m -16 X s 1663
 1017 m -8 X s 1663 1030 m -8 X s 1663 1043 m -8 X s 1663 1056 m -8 X s 1671 1069 m -16 X s 1671 1069 m -16 X s 1663 1082 m -8 X s 1663 1095 m -8 X s 1663 1108 m -8 X s 2202 681 m 427 Y s 2186 681 m 16 X s 2194 694 m 8 X s 2194 707 m 8 X s 2194 720 m
 8 X s 2194 733 m 8 X s 2186 746 m 16 X s 2194 759 m 8 X s 2194 772 m 8 X s 2194 785 m 8 X s 2194 798 m 8 X s 2186 810 m 16 X s 2194 823 m 8 X s 2194 836 m 8 X s 2194 849 m 8 X s 2194 862 m 8 X s 2186 875 m 16 X s 2194 888 m 8 X s 2194 901 m 8 X s
 2194 914 m 8 X s 2194 927 m 8 X s 2186 940 m 16 X s 2194 953 m 8 X s 2194 965 m 8 X s 2194 978 m 8 X s 2194 991 m 8 X s 2186 1004 m 16 X s 2194 1017 m 8 X s 2194 1030 m 8 X s 2194 1043 m 8 X s 2194 1056 m 8 X s 2186 1069 m 16 X s 2186 1069 m 16 X s
 2194 1082 m 8 X s 2194 1095 m 8 X s 2194 1108 m 8 X s
 gsave  711 565 1534 600 C 2230.83 679.067 t 90 r /Helvetica-Bold findfont 19.9646 sf 0 0 m (U/O\255flow \(S,B\): \(0.0, 0.0\)% / \(0.0, 0.0\)%) show NC gr  0.48 0.56 0.6 c 0.364706 0.419608 0.490196 c 270 38 1542 1124 bf 0.48 0.56 0.6 c 1542 1124 m
 270 X s 1812 1124 m 38 Y s 1812 1162 m -270 X s 1542 1162 m -38 Y s 1 1 1 c black 1 1 1 c
 gsave  711 565 1534 600 C 1545.91 1136.7 t 0 r /Helvetica-Bold findfont 28.5208 sf 0 0 m (Input variable: dRll) show NC gr  0.48 0.56 0.6 c 0.95 0.95 0.95 c 710 564 23 12 bf black 0.95 0.95 0.95 c 548 427 143 93 bf black 548 427 143 93 bl 0.95 0.95
 0.95 c 548 427 143 93 bf black 548 427 143 93 bl 0 0 0.933333 c 6 lw 0.49 0.6 0.82 c black 3 lw 0.49 0.6 0.82 c 143 93 m 388 Y 14 X -59 Y 14 X -18 Y 14 X -38 Y 13 X -16 Y 14 X -20 Y 14 X -41 Y 13 X -12 Y 14 X -18 Y 14 X -38 Y 13 X -7 Y 14 X 19 Y 14
 X -35 Y 13 X 1 Y 14 X -25 Y 14 X -11 Y 13 X 3 Y 14 X -24 Y 14 X 12 Y 13 X 4 Y 14 X -16 Y 14 X 3 Y 13 X -16 Y 28 X 1 Y 13 X 5 Y 14 X -8 Y 14 X 2 Y 13 X 1 Y 14 X -5 Y 14 X -4 Y 13 X 13 Y 28 X 3 Y 14 X -15 Y 13 X 13 Y 14 X -3 Y 14 X -7 Y 13 X -1 Y 14 X
 -29 Y 14 X -2 Y f 6 lw 0 0 0.933333 c 0.49 0.6 0.82 c 0 0 0.933333 c 143 481 m 14 X -59 Y 14 X -18 Y 14 X -38 Y 13 X -16 Y 14 X -20 Y 14 X -41 Y 13 X -12 Y 14 X -18 Y 14 X -38 Y 13 X -7 Y 14 X 19 Y 14 X -35 Y 13 X 1 Y 14 X -25 Y 14 X -11 Y 13 X 3 Y
 14 X -24 Y 14 X 12 Y 13 X 4 Y 14 X -16 Y 14 X 3 Y 13 X -16 Y 28 X 1 Y 13 X 5 Y 14 X -8 Y 14 X 2 Y 13 X 1 Y 14 X -5 Y 14 X -4 Y 13 X 13 Y 28 X 3 Y 14 X -15 Y 13 X 13 Y 14 X -3 Y 14 X -7 Y 13 X -1 Y 14 X -29 Y 14 X -2 Y s black 3 lw 143 93 m 548 X s
 gsave  710 564 23 12 C 494.465 22.734 t 0 r /Helvetica-Bold findfont 28.5208 sf 0 0 m (abs\(dPll_MET\)) show NC gr  228 106 m -13 Y s 245 100 m -7 Y s 262 100 m -7 Y s 279 100 m -7 Y s 296 100 m -7 Y s 313 106 m -13 Y s 330 100 m -7 Y s 347 100 m -7
 Y s 364 100 m -7 Y s 381 100 m -7 Y s 398 106 m -13 Y s 415 100 m -7 Y s 432 100 m -7 Y s 449 100 m -7 Y s 466 100 m -7 Y s 483 106 m -13 Y s 500 100 m -7 Y s 517 100 m -7 Y s 534 100 m -7 Y s 551 100 m -7 Y s 568 106 m -13 Y s 585 100 m -7 Y s 602
 100 m -7 Y s 619 100 m -7 Y s 636 100 m -7 Y s 653 106 m -13 Y s 228 106 m -13 Y s 211 100 m -7 Y s 194 100 m -7 Y s 177 100 m -7 Y s 160 100 m -7 Y s 653 106 m -13 Y s 670 100 m -7 Y s 687 100 m -7 Y s
 gsave  710 564 23 12 C 207.448 65.3603 t 0 r /Helvetica-Bold findfont 25.6688 sf 0 0 m (0.5) show NC gr 
 gsave  710 564 23 12 C 306.909 65.3603 t 0 r /Helvetica-Bold findfont 25.6688 sf 0 0 m (1) show NC gr 
 gsave  710 564 23 12 C 377.953 65.3603 t 0 r /Helvetica-Bold findfont 25.6688 sf 0 0 m (1.5) show NC gr 
 gsave  710 564 23 12 C 474.572 65.3603 t 0 r /Helvetica-Bold findfont 25.6688 sf 0 0 m (2) show NC gr 
 gsave  710 564 23 12 C 545.616 65.3603 t 0 r /Helvetica-Bold findfont 25.6688 sf 0 0 m (2.5) show NC gr 
 gsave  710 564 23 12 C 642.236 65.3603 t 0 r /Helvetica-Bold findfont 25.6688 sf 0 0 m (3) show NC gr  143 520 m 548 X s 228 507 m 13 Y s 245 513 m 7 Y s 262 513 m 7 Y s 279 513 m 7 Y s 296 513 m 7 Y s 313 507 m 13 Y s 330 513 m 7 Y s 347 513 m 7 Y
 s 364 513 m 7 Y s 381 513 m 7 Y s 398 507 m 13 Y s 415 513 m 7 Y s 432 513 m 7 Y s 449 513 m 7 Y s 466 513 m 7 Y s 483 507 m 13 Y s 500 513 m 7 Y s 517 513 m 7 Y s 534 513 m 7 Y s 551 513 m 7 Y s 568 507 m 13 Y s 585 513 m 7 Y s 602 513 m 7 Y s 619
 513 m 7 Y s 636 513 m 7 Y s 653 507 m 13 Y s 228 507 m 13 Y s 211 513 m 7 Y s 194 513 m 7 Y s 177 513 m 7 Y s 160 513 m 7 Y s 653 507 m 13 Y s 670 513 m 7 Y s 687 513 m 7 Y s 143 93 m 427 Y s
 gsave  710 564 23 12 C 45.468 420.579 t 90 r /Helvetica-Bold findfont 28.5208 sf 0 0 m (0.0805 ) show NC gr 
 gsave  710 564 23 12 C 34.101 412.054 t 90 r /Helvetica-Bold findfont 19.9646 sf 0 0 m ( ) show NC gr 
 gsave  710 564 23 12 C 45.468 403.529 t 90 r /Helvetica-Bold findfont 28.5208 sf 0 0 m (/) show NC gr 
 gsave  710 564 23 12 C 51.1515 395.003 t 90 r /Helvetica-Bold findfont 19.9646 sf 0 0 m ( ) show NC gr 
 gsave  710 564 23 12 C 45.468 287.017 t 90 r /Helvetica-Bold findfont 28.5208 sf 0 0 m (\(1/N\) dN) show NC gr  160 93 m -17 X s 152 109 m -9 X s 152 126 m -9 X s 152 142 m -9 X s 160 158 m -17 X s 152 175 m -9 X s 152 191 m -9 X s 152 207 m -9 X s
 160 224 m -17 X s 152 240 m -9 X s 152 256 m -9 X s 152 273 m -9 X s 160 289 m -17 X s 152 305 m -9 X s 152 322 m -9 X s 152 338 m -9 X s 160 354 m -17 X s 152 371 m -9 X s 152 387 m -9 X s 152 403 m -9 X s 160 420 m -17 X s 152 436 m -9 X s 152 452
 m -9 X s 152 469 m -9 X s 160 485 m -17 X s 160 485 m -17 X s 152 501 m -9 X s 152 518 m -9 X s
 gsave  710 564 23 12 C 119.354 82.4108 t 0 r /Helvetica-Bold findfont 25.6688 sf 0 0 m (0) show NC gr 
 gsave  710 564 23 12 C 96.6195 147.771 t 0 r /Helvetica-Bold findfont 25.6688 sf 0 0 m (0.2) show NC gr 
 gsave  710 564 23 12 C 96.6195 213.131 t 0 r /Helvetica-Bold findfont 25.6688 sf 0 0 m (0.4) show NC gr 
 gsave  710 564 23 12 C 96.6195 278.492 t 0 r /Helvetica-Bold findfont 25.6688 sf 0 0 m (0.6) show NC gr 
 gsave  710 564 23 12 C 96.6195 343.852 t 0 r /Helvetica-Bold findfont 25.6688 sf 0 0 m (0.8) show NC gr 
 gsave  710 564 23 12 C 122.195 409.212 t 0 r /Helvetica-Bold findfont 25.6688 sf 0 0 m (1) show NC gr 
 gsave  710 564 23 12 C 96.6195 474.572 t 0 r /Helvetica-Bold findfont 25.6688 sf 0 0 m (1.2) show NC gr  691 93 m 427 Y s 674 93 m 17 X s 683 109 m 8 X s 683 126 m 8 X s 683 142 m 8 X s 674 158 m 17 X s 683 175 m 8 X s 683 191 m 8 X s 683 207 m 8 X
 s 674 224 m 17 X s 683 240 m 8 X s 683 256 m 8 X s 683 273 m 8 X s 674 289 m 17 X s 683 305 m 8 X s 683 322 m 8 X s 683 338 m 8 X s 674 354 m 17 X s 683 371 m 8 X s 683 387 m 8 X s 683 403 m 8 X s 674 420 m 17 X s 683 436 m 8 X s 683 452 m 8 X s 683
 469 m 8 X s 674 485 m 17 X s 674 485 m 17 X s 683 501 m 8 X s 683 518 m 8 X s 1 0 0 c 6 lw black 3 lw 1 0 0 c 677 94 m -1 -1 d s 677 109 m -16 -16 d s 677 124 m -31 -31 d s 677 139 m -46 -46 d s 677 155 m -61 -62 d s 664 157 m -63 -64 d s 663 171 m
 -77 -78 d s 663 186 m -27 -27 d s 627 150 m -56 -57 d s 663 202 m -13 -14 d s 647 185 m -11 -11 d s 622 160 m -66 -67 d s 663 217 m -13 -14 d s 622 175 m -27 -27 d s 582 135 m -41 -42 d s 663 232 m -13 -14 d s 622 191 m -27 -28 d s 581 149 m -56 -56
 d s 663 247 m -13 -14 d s 622 206 m -27 -28 d s 581 164 m -55 -55 d s 521 104 m -11 -11 d s 663 262 m -13 -13 d s 622 221 m -27 -28 d s 581 180 m -55 -56 d s 513 111 m -18 -18 d s 660 275 m -10 -11 d s 614 227 m -19 -18 d s 581 195 m -55 -55 d s 513
 126 m -14 -14 d s 497 110 m -17 -17 d s 604 233 m -9 -9 d s 581 209 m -55 -54 d s 513 141 m -14 -14 d s 485 114 m -20 -21 d s 567 211 m -13 -13 d s 547 191 m -21 -21 d s 513 156 m -14 -14 d s 485 129 m -35 -36 d s 554 213 m s 540 199 m -14 -14 d s
 503 161 m -4 -3 d s 485 144 m -50 -51 d s 540 214 m -14 -14 d s 485 159 m -65 -66 d s 540 229 m -14 -13 d s 485 174 m -13 -14 d s 458 147 m -53 -54 d s 540 245 m -14 -14 d s 484 188 m -12 -12 d s 458 162 m -27 -28 d s 423 126 m -33 -33 d s 540 260 m
 -14 -14 d s 458 177 m -27 -27 d s 417 136 m -42 -43 d s 539 274 m -13 -13 d s 455 189 m -24 -24 d s 417 151 m -14 -14 d s 400 133 m -40 -40 d s 444 194 m -13 -14 d s 417 166 m -14 -14 d s 390 139 m -45 -46 d s 434 198 m -3 -3 d s 417 181 m -14 -13 d
 s 390 154 m -61 -61 d s 414 194 m -11 -11 d s 390 169 m -76 -76 d s 383 177 m -21 -20 d s 352 147 m -53 -54 d s 376 186 m -14 -14 d s 349 158 m -65 -65 d s 376 201 m -14 -14 d s 349 173 m -80 -80 d s 372 212 m -10 -10 d s 349 188 m -95 -95 d s 349
 203 m -110 -110 d s 349 219 m -96 -97 d s 244 114 m -20 -21 d s 349 234 m -41 -41 d s 300 184 m -6 -5 d s 285 170 m -32 -33 d s 239 124 m -30 -31 d s 349 249 m -41 -41 d s 280 180 m -27 -27 d s 239 139 m -45 -46 d s 347 263 m -26 -26 d s 314 229 m
 -6 -6 d s 280 195 m -27 -27 d s 239 154 m -60 -61 d s 335 266 m -14 -14 d s 278 209 m -25 -26 d s 239 169 m -75 -76 d s 267 212 m -14 -14 d s 239 184 m -90 -91 d s 267 227 m -14 -14 d s 239 200 m -96 -97 d s 255 231 m -2 -2 d s 239 215 m -96 -97 d s
 239 230 m -68 -69 d s 169 160 m -26 -27 d s 233 239 m -62 -63 d s 157 162 m -14 -13 d s 226 247 m -28 -28 d s 189 209 m -18 -18 d s 157 178 m -14 -14 d s 226 262 m -28 -28 d s 185 220 m -14 -13 d s 157 193 m -14 -14 d s 226 277 m -28 -28 d s 185 236
 m -14 -14 d s 157 208 m -14 -14 d s 215 281 m -17 -16 d s 181 247 m -10 -10 d s 157 223 m -14 -14 d s 201 282 m -3 -2 d s 157 238 m -14 -13 d s 157 254 m -14 -14 d s 157 269 m -14 -14 d s 145 272 m -2 -2 d s 6 lw 143 272 m 14 X -112 Y 14 X 87 Y 14 X
 -38 Y 13 X 73 Y 14 X -1 Y 14 X -42 Y 13 X -125 Y 14 X 117 Y 14 X -22 Y 13 X -39 Y 14 X 14 Y 14 X 45 Y 13 X 38 Y 14 X -4 Y 14 X -116 Y 13 X 65 Y 14 X -35 Y 14 X -44 Y 13 X 61 Y 14 X -68 Y 14 X 72 Y 13 X -9 Y 14 X -43 Y 14 X 42 Y 13 X -78 Y 14 X 51 Y
 14 X -57 Y 13 X 170 Y 14 X -83 Y 14 X 22 Y 13 X -4 Y 14 X -74 Y 14 X 98 Y 14 X -6 Y 13 X -77 Y 14 X 35 Y 14 X 90 Y 13 X -118 Y 14 X -64 Y 14 X s black 3 lw 143 93 m 548 X s 228 106 m -13 Y s 245 100 m -7 Y s 262 100 m -7 Y s 279 100 m -7 Y s 296 100
 m -7 Y s 313 106 m -13 Y s 330 100 m -7 Y s 347 100 m -7 Y s 364 100 m -7 Y s 381 100 m -7 Y s 398 106 m -13 Y s 415 100 m -7 Y s 432 100 m -7 Y s 449 100 m -7 Y s 466 100 m -7 Y s 483 106 m -13 Y s 500 100 m -7 Y s 517 100 m -7 Y s 534 100 m -7 Y s
 551 100 m -7 Y s 568 106 m -13 Y s 585 100 m -7 Y s 602 100 m -7 Y s 619 100 m -7 Y s 636 100 m -7 Y s 653 106 m -13 Y s 228 106 m -13 Y s 211 100 m -7 Y s 194 100 m -7 Y s 177 100 m -7 Y s 160 100 m -7 Y s 653 106 m -13 Y s 670 100 m -7 Y s 687 100
 m -7 Y s 143 520 m 548 X s 228 507 m 13 Y s 245 513 m 7 Y s 262 513 m 7 Y s 279 513 m 7 Y s 296 513 m 7 Y s 313 507 m 13 Y s 330 513 m 7 Y s 347 513 m 7 Y s 364 513 m 7 Y s 381 513 m 7 Y s 398 507 m 13 Y s 415 513 m 7 Y s 432 513 m 7 Y s 449 513 m 7
 Y s 466 513 m 7 Y s 483 507 m 13 Y s 500 513 m 7 Y s 517 513 m 7 Y s 534 513 m 7 Y s 551 513 m 7 Y s 568 507 m 13 Y s 585 513 m 7 Y s 602 513 m 7 Y s 619 513 m 7 Y s 636 513 m 7 Y s 653 507 m 13 Y s 228 507 m 13 Y s 211 513 m 7 Y s 194 513 m 7 Y s
 177 513 m 7 Y s 160 513 m 7 Y s 653 507 m 13 Y s 670 513 m 7 Y s 687 513 m 7 Y s 143 93 m 427 Y s 160 93 m -17 X s 152 109 m -9 X s 152 126 m -9 X s 152 142 m -9 X s 160 158 m -17 X s 152 175 m -9 X s 152 191 m -9 X s 152 207 m -9 X s 160 224 m -17
 X s 152 240 m -9 X s 152 256 m -9 X s 152 273 m -9 X s 160 289 m -17 X s 152 305 m -9 X s 152 322 m -9 X s 152 338 m -9 X s 160 354 m -17 X s 152 371 m -9 X s 152 387 m -9 X s 152 403 m -9 X s 160 420 m -17 X s 152 436 m -9 X s 152 452 m -9 X s 152
 469 m -9 X s 160 485 m -17 X s 160 485 m -17 X s 152 501 m -9 X s 152 518 m -9 X s 691 93 m 427 Y s 674 93 m 17 X s 683 109 m 8 X s 683 126 m 8 X s 683 142 m 8 X s 674 158 m 17 X s 683 175 m 8 X s 683 191 m 8 X s 683 207 m 8 X s 674 224 m 17 X s 683
 240 m 8 X s 683 256 m 8 X s 683 273 m 8 X s 674 289 m 17 X s 683 305 m 8 X s 683 322 m 8 X s 683 338 m 8 X s 674 354 m 17 X s 683 371 m 8 X s 683 387 m 8 X s 683 403 m 8 X s 674 420 m 17 X s 683 436 m 8 X s 683 452 m 8 X s 683 469 m 8 X s 674 485 m
 17 X s 674 485 m 17 X s 683 501 m 8 X s 683 518 m 8 X s
 gsave  710 564 23 12 C 719.017 90.8246 t 90 r /Helvetica-Bold findfont 19.9646 sf 0 0 m (U/O\255flow \(S,B\): \(0.0, 0.0\)% / \(0.0, 0.0\)%) show NC gr  0.48 0.56 0.6 c 0.364706 0.419608 0.490196 c 412 38 30 536 bf 0.48 0.56 0.6 c 30 536 m 412 X s
 442 536 m 38 Y s 442 574 m -412 X s 30 574 m -38 Y s 1 1 1 c black 1 1 1 c
 gsave  710 564 23 12 C 34.101 548.458 t 0 r /Helvetica-Bold findfont 28.5208 sf 0 0 m (Input variable: abs\(dPll_MET\)) show NC gr  0.48 0.56 0.6 c 0.95 0.95 0.95 c 710 564 779 12 bf black 0.95 0.95 0.95 c 548 427 899 93 bf black 548 427 899 93 bl
 0.95 0.95 0.95 c 548 427 899 93 bf black 548 427 899 93 bl 0 0 0.933333 c 6 lw 0.49 0.6 0.82 c black 3 lw 0.49 0.6 0.82 c 899 93 m 1 Y 14 X 6 Y 14 X 4 Y 13 X 9 Y 14 X 16 Y 14 X -36 Y 13 X 45 Y 14 X 22 Y 14 X 13 Y 13 X 10 Y 14 X 8 Y 14 X 11 Y 14 X -8
 Y 13 X 15 Y 14 X 4 Y 14 X -15 Y 13 X 5 Y 14 X -1 Y 14 X -4 Y 13 X 16 Y 14 X -8 Y 14 X -21 Y 13 X 15 Y 14 X -15 Y 14 X -5 Y 13 X 9 Y 14 X -17 Y 27 X -18 Y 14 X -2 Y 14 X -8 Y 13 X -1 Y 14 X -9 Y 14 X -7 Y 13 X -11 Y 14 X -6 Y 14 X -5 Y 13 X -9 Y 28 X
 -3 Y 14 X f 6 lw 0 0 0.933333 c 0.49 0.6 0.82 c 0 0 0.933333 c 899 94 m 14 X 6 Y 14 X 4 Y 13 X 9 Y 14 X 16 Y 14 X -36 Y 13 X 45 Y 14 X 22 Y 14 X 13 Y 13 X 10 Y 14 X 8 Y 14 X 11 Y 14 X -8 Y 13 X 15 Y 14 X 4 Y 14 X -15 Y 13 X 5 Y 14 X -1 Y 14 X -4 Y
 13 X 16 Y 14 X -8 Y 14 X -21 Y 13 X 15 Y 14 X -15 Y 14 X -5 Y 13 X 9 Y 14 X -17 Y 27 X -18 Y 14 X -2 Y 14 X -8 Y 13 X -1 Y 14 X -9 Y 14 X -7 Y 13 X -11 Y 14 X -6 Y 14 X -5 Y 13 X -9 Y 28 X -3 Y 14 X s black 3 lw 899 93 m 548 X s
 gsave  710 564 779 12 C 1406.67 19.8923 t 0 r /Helvetica-Bold findfont 28.5208 sf 0 0 m (Mll) show NC gr  984 106 m -13 Y s 1002 100 m -7 Y s 1020 100 m -7 Y s 1038 100 m -7 Y s 1056 100 m -7 Y s 1074 106 m -13 Y s 1092 100 m -7 Y s 1110 100 m -7 Y
 s 1128 100 m -7 Y s 1146 100 m -7 Y s 1164 106 m -13 Y s 1182 100 m -7 Y s 1200 100 m -7 Y s 1218 100 m -7 Y s 1236 100 m -7 Y s 1254 106 m -13 Y s 1272 100 m -7 Y s 1290 100 m -7 Y s 1308 100 m -7 Y s 1326 100 m -7 Y s 1344 106 m -13 Y s 1362 100 m
 -7 Y s 1380 100 m -7 Y s 1398 100 m -7 Y s 1416 100 m -7 Y s 1434 106 m -13 Y s 984 106 m -13 Y s 966 100 m -7 Y s 948 100 m -7 Y s 930 100 m -7 Y s 912 100 m -7 Y s 1434 106 m -13 Y s
 gsave  710 564 779 12 C 960.512 65.3603 t 0 r /Helvetica-Bold findfont 25.6688 sf 0 0 m (100) show NC gr 
 gsave  710 564 779 12 C 1051.45 65.3603 t 0 r /Helvetica-Bold findfont 25.6688 sf 0 0 m (200) show NC gr 
 gsave  710 564 779 12 C 1139.54 65.3603 t 0 r /Helvetica-Bold findfont 25.6688 sf 0 0 m (300) show NC gr 
 gsave  710 564 779 12 C 1230.48 65.3603 t 0 r /Helvetica-Bold findfont 25.6688 sf 0 0 m (400) show NC gr 
 gsave  710 564 779 12 C 1318.57 65.3603 t 0 r /Helvetica-Bold findfont 25.6688 sf 0 0 m (500) show NC gr 
 gsave  710 564 779 12 C 1409.51 65.3603 t 0 r /Helvetica-Bold findfont 25.6688 sf 0 0 m (600) show NC gr  899 520 m 548 X s 984 507 m 13 Y s 1002 513 m 7 Y s 1020 513 m 7 Y s 1038 513 m 7 Y s 1056 513 m 7 Y s 1074 507 m 13 Y s 1092 513 m 7 Y s 1110
 513 m 7 Y s 1128 513 m 7 Y s 1146 513 m 7 Y s 1164 507 m 13 Y s 1182 513 m 7 Y s 1200 513 m 7 Y s 1218 513 m 7 Y s 1236 513 m 7 Y s 1254 507 m 13 Y s 1272 513 m 7 Y s 1290 513 m 7 Y s 1308 513 m 7 Y s 1326 513 m 7 Y s 1344 507 m 13 Y s 1362 513 m 7
 Y s 1380 513 m 7 Y s 1398 513 m 7 Y s 1416 513 m 7 Y s 1434 507 m 13 Y s 984 507 m 13 Y s 966 513 m 7 Y s 948 513 m 7 Y s 930 513 m 7 Y s 912 513 m 7 Y s 1434 507 m 13 Y s 899 93 m 427 Y s
 gsave  710 564 779 12 C 804.215 451.838 t 90 r /Helvetica-Bold findfont 28.5208 sf 0 0 m (15.2 ) show NC gr 
 gsave  710 564 779 12 C 790.007 443.313 t 90 r /Helvetica-Bold findfont 19.9646 sf 0 0 m ( ) show NC gr 
 gsave  710 564 779 12 C 804.215 434.788 t 90 r /Helvetica-Bold findfont 28.5208 sf 0 0 m (/) show NC gr 
 gsave  710 564 779 12 C 809.899 426.263 t 90 r /Helvetica-Bold findfont 19.9646 sf 0 0 m ( ) show NC gr 
 gsave  710 564 779 12 C 804.215 318.276 t 90 r /Helvetica-Bold findfont 28.5208 sf 0 0 m (\(1/N\) dN) show NC gr  915 93 m -16 X s 907 112 m -8 X s 907 132 m -8 X s 907 151 m -8 X s 915 171 m -16 X s 907 190 m -8 X s 907 209 m -8 X s 907 229 m -8 X
 s 915 248 m -16 X s 907 268 m -8 X s 907 287 m -8 X s 907 306 m -8 X s 915 326 m -16 X s 907 345 m -8 X s 907 364 m -8 X s 907 384 m -8 X s 915 403 m -16 X s 907 423 m -8 X s 907 442 m -8 X s 907 461 m -8 X s 915 481 m -16 X s 915 481 m -16 X s 907
 500 m -8 X s 907 520 m -8 X s
 gsave  710 564 779 12 C 875.259 82.4108 t 0 r /Helvetica-Bold findfont 25.6688 sf 0 0 m (0) show NC gr 
 gsave  710 564 779 12 C 824.107 161.98 t 0 r /Helvetica-Bold findfont 25.6688 sf 0 0 m (0.002) show NC gr 
 gsave  710 564 779 12 C 824.107 238.707 t 0 r /Helvetica-Bold findfont 25.6688 sf 0 0 m (0.004) show NC gr 
 gsave  710 564 779 12 C 824.107 315.434 t 0 r /Helvetica-Bold findfont 25.6688 sf 0 0 m (0.006) show NC gr 
 gsave  710 564 779 12 C 824.107 392.162 t 0 r /Helvetica-Bold findfont 25.6688 sf 0 0 m (0.008) show NC gr 
 gsave  710 564 779 12 C 844 471.731 t 0 r /Helvetica-Bold findfont 25.6688 sf 0 0 m (0.01) show NC gr  1447 93 m 427 Y s 1430 93 m 17 X s 1438 112 m 9 X s 1438 132 m 9 X s 1438 151 m 9 X s 1430 171 m 17 X s 1438 190 m 9 X s 1438 209 m 9 X s 1438 229
 m 9 X s 1430 248 m 17 X s 1438 268 m 9 X s 1438 287 m 9 X s 1438 306 m 9 X s 1430 326 m 17 X s 1438 345 m 9 X s 1438 364 m 9 X s 1438 384 m 9 X s 1430 403 m 17 X s 1438 423 m 9 X s 1438 442 m 9 X s 1438 461 m 9 X s 1430 481 m 17 X s 1430 481 m 17 X
 s 1438 500 m 9 X s 1438 520 m 9 X s 1 0 0 c 6 lw black 3 lw 1 0 0 c 1444 105 m -11 -11 d s 1432 93 m s 1417 93 m s 1403 94 m -1 -1 d s 1389 95 m -2 -2 d s 1372 93 m s 1357 93 m s 1344 96 m -2 -3 d s 1337 104 m -10 -11 d s 1324 106 m -1 -1 d s 1311
 93 m s 1296 93 m s 1284 96 m -3 -3 d s 1280 107 m -11 -11 d s 1267 94 m -1 -1 d s 1255 97 m -4 -4 d s 1251 108 m -15 -15 d s 1236 108 m -15 -15 d s 1220 107 m -14 -14 d s 1204 106 m -4 -3 d s 1193 95 m -2 -2 d s 1187 104 m -11 -11 d s 1178 110 m -17
 -17 d s 1173 121 m -27 -28 d s 1173 136 m -14 -14 d s 1154 117 m -8 -9 d s 1145 108 m -14 -15 d s 1164 142 m -5 -5 d s 1132 110 m -16 -17 d s 1132 125 m -32 -32 d s 1132 140 m -14 -14 d s 1106 113 m -21 -20 d s 1129 153 m -11 -12 d s 1098 121 m -7
 -7 d s 1084 107 m -14 -14 d s 1077 115 m -22 -22 d s 1077 130 m -37 -37 d s 1077 146 m -52 -53 d s 1064 147 m -54 -54 d s 1054 152 m -59 -59 d s 1050 164 m -69 -69 d s 980 93 m s 1050 179 m -69 -69 d s 968 96 m -3 -3 d s 1050 194 m -69 -69 d s 968
 111 m -18 -18 d s 1040 199 m -59 -59 d s 968 126 m -33 -33 d s 1024 198 m -43 -43 d s 968 142 m -48 -49 d s 1022 212 m -41 -41 d s 968 157 m -63 -64 d s 1022 227 m -41 -41 d s 968 172 m -69 -69 d s 1022 242 m -41 -41 d s 968 187 m -69 -69 d s 1018
 253 m -37 -37 d s 968 202 m -69 -69 d s 1009 259 m -28 -28 d s 968 218 m -69 -69 d s 1009 274 m -28 -27 d s 968 233 m -69 -69 d s 1009 289 m -28 -27 d s 968 248 m -69 -69 d s 1009 304 m -28 -27 d s 968 263 m -69 -69 d s 1006 317 m -25 -25 d s 968
 278 m -69 -69 d s 995 321 m -14 -14 d s 968 293 m -55 -55 d s 904 229 m -5 -4 d s 990 331 m -9 -9 d s 968 309 m -41 -42 d s 924 265 m -11 -11 d s 968 324 m -41 -41 d s 968 339 m -41 -41 d s 968 354 m -41 -41 d s 968 369 m -28 -27 d s 937 339 m -10
 -11 d s 968 385 m -28 -28 d s 968 400 m -28 -28 d s 968 415 m -28 -28 d s 968 430 m -28 -27 d s 968 445 m -14 -13 d s 950 427 m -10 -9 d s 968 461 m -14 -14 d s 968 476 m -14 -14 d s 958 481 m -4 -4 d s 6 lw 899 229 m 14 X 36 Y 14 X 74 Y 13 X 88 Y
 14 X 54 Y 14 X -388 Y 13 X 238 Y 14 X -14 Y 14 X -64 Y 13 X -55 Y 14 X 1 Y 14 X -47 Y 14 X -5 Y 13 X -40 Y 14 X 14 Y 14 X -8 Y 13 X 40 Y 14 X -45 Y 14 X 9 Y 13 X 25 Y 14 X -32 Y 14 X -15 Y 13 X 11 Y 14 X 1 Y 14 X 1 Y 27 X -14 Y 14 X 13 Y 13 X -11 Y
 14 X -3 Y 27 X 13 Y 14 X -10 Y 14 X -3 Y 27 X 2 Y 14 X -1 Y 13 X -1 Y 28 X 12 Y 14 X s black 3 lw 899 93 m 548 X s 984 106 m -13 Y s 1002 100 m -7 Y s 1020 100 m -7 Y s 1038 100 m -7 Y s 1056 100 m -7 Y s 1074 106 m -13 Y s 1092 100 m -7 Y s 1110
 100 m -7 Y s 1128 100 m -7 Y s 1146 100 m -7 Y s 1164 106 m -13 Y s 1182 100 m -7 Y s 1200 100 m -7 Y s 1218 100 m -7 Y s 1236 100 m -7 Y s 1254 106 m -13 Y s 1272 100 m -7 Y s 1290 100 m -7 Y s 1308 100 m -7 Y s 1326 100 m -7 Y s 1344 106 m -13 Y s
 1362 100 m -7 Y s 1380 100 m -7 Y s 1398 100 m -7 Y s 1416 100 m -7 Y s 1434 106 m -13 Y s 984 106 m -13 Y s 966 100 m -7 Y s 948 100 m -7 Y s 930 100 m -7 Y s 912 100 m -7 Y s 1434 106 m -13 Y s 899 520 m 548 X s 984 507 m 13 Y s 1002 513 m 7 Y s
 1020 513 m 7 Y s 1038 513 m 7 Y s 1056 513 m 7 Y s 1074 507 m 13 Y s 1092 513 m 7 Y s 1110 513 m 7 Y s 1128 513 m 7 Y s 1146 513 m 7 Y s 1164 507 m 13 Y s 1182 513 m 7 Y s 1200 513 m 7 Y s 1218 513 m 7 Y s 1236 513 m 7 Y s 1254 507 m 13 Y s 1272 513
 m 7 Y s 1290 513 m 7 Y s 1308 513 m 7 Y s 1326 513 m 7 Y s 1344 507 m 13 Y s 1362 513 m 7 Y s 1380 513 m 7 Y s 1398 513 m 7 Y s 1416 513 m 7 Y s 1434 507 m 13 Y s 984 507 m 13 Y s 966 513 m 7 Y s 948 513 m 7 Y s 930 513 m 7 Y s 912 513 m 7 Y s 1434
 507 m 13 Y s 899 93 m 427 Y s 915 93 m -16 X s 907 112 m -8 X s 907 132 m -8 X s 907 151 m -8 X s 915 171 m -16 X s 907 190 m -8 X s 907 209 m -8 X s 907 229 m -8 X s 915 248 m -16 X s 907 268 m -8 X s 907 287 m -8 X s 907 306 m -8 X s 915 326 m -16
 X s 907 345 m -8 X s 907 364 m -8 X s 907 384 m -8 X s 915 403 m -16 X s 907 423 m -8 X s 907 442 m -8 X s 907 461 m -8 X s 915 481 m -16 X s 915 481 m -16 X s 907 500 m -8 X s 907 520 m -8 X s 1447 93 m 427 Y s 1430 93 m 17 X s 1438 112 m 9 X s
 1438 132 m 9 X s 1438 151 m 9 X s 1430 171 m 17 X s 1438 190 m 9 X s 1438 209 m 9 X s 1438 229 m 9 X s 1430 248 m 17 X s 1438 268 m 9 X s 1438 287 m 9 X s 1438 306 m 9 X s 1430 326 m 17 X s 1438 345 m 9 X s 1438 364 m 9 X s 1438 384 m 9 X s 1430 403
 m 17 X s 1438 423 m 9 X s 1438 442 m 9 X s 1438 461 m 9 X s 1430 481 m 17 X s 1430 481 m 17 X s 1438 500 m 9 X s 1438 520 m 9 X s
 gsave  710 564 779 12 C 1474.92 90.8246 t 90 r /Helvetica-Bold findfont 19.9646 sf 0 0 m (U/O\255flow \(S,B\): \(0.0, 0.0\)% / \(0.0, 0.0\)%) show NC gr  0.48 0.56 0.6 c 0.364706 0.419608 0.490196 c 255 38 786 536 bf 0.48 0.56 0.6 c 786 536 m 255 X
 s 1041 536 m 38 Y s 1041 574 m -255 X s 786 574 m -38 Y s 1 1 1 c black 1 1 1 c
 gsave  710 564 779 12 C 790.007 548.458 t 0 r /Helvetica-Bold findfont 28.5208 sf 0 0 m (Input variable: Mll) show NC gr  0.48 0.56 0.6 c 0.95 0.95 0.95 c 711 564 1534 12 bf black 0.95 0.95 0.95 c 547 427 1655 93 bf black 547 427 1655 93 bl 0.95
 0.95 0.95 c 547 427 1655 93 bf black 547 427 1655 93 bl 0 0 0.933333 c 6 lw 0.49 0.6 0.82 c black 3 lw 0.49 0.6 0.82 c 1655 93 m 28 Y 14 X 12 Y 14 X 11 Y 13 X 5 Y 14 X 7 Y 14 X -11 Y 13 X 2 Y 14 X -7 Y 14 X -3 Y 13 X -9 Y 14 X -4 Y 14 X -4 Y 13 X -7
 Y 14 X -3 Y 14 X -5 Y 13 X -2 Y 14 X -1 Y 14 X -3 Y 27 X -2 Y 14 X -1 Y 27 X -1 Y 28 X -1 Y 95 X -1 Y 123 X f 6 lw 0 0 0.933333 c 0.49 0.6 0.82 c 0 0 0.933333 c 1655 121 m 14 X 12 Y 14 X 11 Y 13 X 5 Y 14 X 7 Y 14 X -11 Y 13 X 2 Y 14 X -7 Y 14 X -3 Y
 13 X -9 Y 14 X -4 Y 14 X -4 Y 13 X -7 Y 14 X -3 Y 14 X -5 Y 13 X -2 Y 14 X -1 Y 14 X -3 Y 27 X -2 Y 14 X -1 Y 27 X -1 Y 28 X -1 Y 95 X -1 Y 123 X s black 3 lw 1655 93 m 547 X s
 gsave  711 564 1534 12 C 2142.68 19.8923 t 0 r /Helvetica-Bold findfont 28.5208 sf 0 0 m (MET) show NC gr  1724 106 m -13 Y s 1743 100 m -7 Y s 1762 100 m -7 Y s 1781 100 m -7 Y s 1800 106 m -13 Y s 1819 100 m -7 Y s 1838 100 m -7 Y s 1857 100 m -7
 Y s 1876 106 m -13 Y s 1895 100 m -7 Y s 1914 100 m -7 Y s 1933 100 m -7 Y s 1952 106 m -13 Y s 1971 100 m -7 Y s 1990 100 m -7 Y s 2009 100 m -7 Y s 2029 106 m -13 Y s 2048 100 m -7 Y s 2067 100 m -7 Y s 2086 100 m -7 Y s 2105 106 m -13 Y s 2124
 100 m -7 Y s 2143 100 m -7 Y s 2162 100 m -7 Y s 2181 106 m -13 Y s 1724 106 m -13 Y s 1705 100 m -7 Y s 1686 100 m -7 Y s 1667 100 m -7 Y s 2181 106 m -13 Y s 2200 100 m -7 Y s
 gsave  711 564 1534 12 C 1699.37 65.3603 t 0 r /Helvetica-Bold findfont 25.6688 sf 0 0 m (200) show NC gr 
 gsave  711 564 1534 12 C 1776.09 65.3603 t 0 r /Helvetica-Bold findfont 25.6688 sf 0 0 m (400) show NC gr 
 gsave  711 564 1534 12 C 1852.82 65.3603 t 0 r /Helvetica-Bold findfont 25.6688 sf 0 0 m (600) show NC gr 
 gsave  711 564 1534 12 C 1929.55 65.3603 t 0 r /Helvetica-Bold findfont 25.6688 sf 0 0 m (800) show NC gr 
 gsave  711 564 1534 12 C 1997.75 65.3603 t 0 r /Helvetica-Bold findfont 25.6688 sf 0 0 m (1000) show NC gr 
 gsave  711 564 1534 12 C 2074.48 65.3603 t 0 r /Helvetica-Bold findfont 25.6688 sf 0 0 m (1200) show NC gr 
 gsave  711 564 1534 12 C 2151.2 65.3603 t 0 r /Helvetica-Bold findfont 25.6688 sf 0 0 m (1400) show NC gr  1655 520 m 547 X s 1724 507 m 13 Y s 1743 513 m 7 Y s 1762 513 m 7 Y s 1781 513 m 7 Y s 1800 507 m 13 Y s 1819 513 m 7 Y s 1838 513 m 7 Y s
 1857 513 m 7 Y s 1876 507 m 13 Y s 1895 513 m 7 Y s 1914 513 m 7 Y s 1933 513 m 7 Y s 1952 507 m 13 Y s 1971 513 m 7 Y s 1990 513 m 7 Y s 2009 513 m 7 Y s 2029 507 m 13 Y s 2048 513 m 7 Y s 2067 513 m 7 Y s 2086 513 m 7 Y s 2105 507 m 13 Y s 2124
 513 m 7 Y s 2143 513 m 7 Y s 2162 513 m 7 Y s 2181 507 m 13 Y s 1724 507 m 13 Y s 1705 513 m 7 Y s 1686 513 m 7 Y s 1667 513 m 7 Y s 2181 507 m 13 Y s 2200 513 m 7 Y s 1655 93 m 427 Y s
 gsave  711 564 1534 12 C 1560.12 451.838 t 90 r /Helvetica-Bold findfont 28.5208 sf 0 0 m (35.9 ) show NC gr 
 gsave  711 564 1534 12 C 1545.91 443.313 t 90 r /Helvetica-Bold findfont 19.9646 sf 0 0 m ( ) show NC gr 
 gsave  711 564 1534 12 C 1560.12 434.788 t 90 r /Helvetica-Bold findfont 28.5208 sf 0 0 m (/) show NC gr 
 gsave  711 564 1534 12 C 1565.8 426.263 t 90 r /Helvetica-Bold findfont 19.9646 sf 0 0 m ( ) show NC gr 
 gsave  711 564 1534 12 C 1560.12 318.276 t 90 r /Helvetica-Bold findfont 28.5208 sf 0 0 m (\(1/N\) dN) show NC gr  1671 93 m -16 X s 1663 104 m -8 X s 1663 116 m -8 X s 1663 127 m -8 X s 1671 138 m -16 X s 1663 149 m -8 X s 1663 161 m -8 X s 1663
 172 m -8 X s 1671 183 m -16 X s 1663 194 m -8 X s 1663 205 m -8 X s 1663 217 m -8 X s 1671 228 m -16 X s 1663 239 m -8 X s 1663 250 m -8 X s 1663 262 m -8 X s 1671 273 m -16 X s 1663 284 m -8 X s 1663 295 m -8 X s 1663 307 m -8 X s 1671 318 m -16 X
 s 1663 329 m -8 X s 1663 340 m -8 X s 1663 352 m -8 X s 1671 363 m -16 X s 1663 374 m -8 X s 1663 385 m -8 X s 1663 396 m -8 X s 1671 408 m -16 X s 1663 419 m -8 X s 1663 430 m -8 X s 1663 441 m -8 X s 1671 453 m -16 X s 1663 464 m -8 X s 1663 475 m
 -8 X s 1663 486 m -8 X s 1671 498 m -16 X s 1671 498 m -16 X s 1663 509 m -8 X s
 gsave  711 564 1534 12 C 1631.16 82.4108 t 0 r /Helvetica-Bold findfont 25.6688 sf 0 0 m (0) show NC gr 
 gsave  711 564 1534 12 C 1580.01 127.879 t 0 r /Helvetica-Bold findfont 25.6688 sf 0 0 m (0.002) show NC gr 
 gsave  711 564 1534 12 C 1580.01 173.347 t 0 r /Helvetica-Bold findfont 25.6688 sf 0 0 m (0.004) show NC gr 
 gsave  711 564 1534 12 C 1580.01 218.815 t 0 r /Helvetica-Bold findfont 25.6688 sf 0 0 m (0.006) show NC gr 
 gsave  711 564 1534 12 C 1580.01 264.283 t 0 r /Helvetica-Bold findfont 25.6688 sf 0 0 m (0.008) show NC gr 
 gsave  711 564 1534 12 C 1599.91 306.909 t 0 r /Helvetica-Bold findfont 25.6688 sf 0 0 m (0.01) show NC gr 
 gsave  711 564 1534 12 C 1580.01 352.377 t 0 r /Helvetica-Bold findfont 25.6688 sf 0 0 m (0.012) show NC gr 
 gsave  711 564 1534 12 C 1580.01 397.845 t 0 r /Helvetica-Bold findfont 25.6688 sf 0 0 m (0.014) show NC gr 
 gsave  711 564 1534 12 C 1580.01 443.313 t 0 r /Helvetica-Bold findfont 25.6688 sf 0 0 m (0.016) show NC gr 
 gsave  711 564 1534 12 C 1580.01 488.781 t 0 r /Helvetica-Bold findfont 25.6688 sf 0 0 m (0.018) show NC gr  2202 93 m 427 Y s 2186 93 m 16 X s 2194 104 m 8 X s 2194 116 m 8 X s 2194 127 m 8 X s 2186 138 m 16 X s 2194 149 m 8 X s 2194 161 m 8 X s
 2194 172 m 8 X s 2186 183 m 16 X s 2194 194 m 8 X s 2194 205 m 8 X s 2194 217 m 8 X s 2186 228 m 16 X s 2194 239 m 8 X s 2194 250 m 8 X s 2194 262 m 8 X s 2186 273 m 16 X s 2194 284 m 8 X s 2194 295 m 8 X s 2194 307 m 8 X s 2186 318 m 16 X s 2194
 329 m 8 X s 2194 340 m 8 X s 2194 352 m 8 X s 2186 363 m 16 X s 2194 374 m 8 X s 2194 385 m 8 X s 2194 396 m 8 X s 2186 408 m 16 X s 2194 419 m 8 X s 2194 430 m 8 X s 2194 441 m 8 X s 2186 453 m 16 X s 2194 464 m 8 X s 2194 475 m 8 X s 2194 486 m 8
 X s 2186 498 m 16 X s 2186 498 m 16 X s 2194 509 m 8 X s 1 0 0 c 6 lw black 3 lw 1 0 0 c 2188 93 m s 2173 93 m s 2158 93 m s 2143 93 m s 2128 93 m s 2113 93 m s 2098 93 m s 2082 93 m s 2067 93 m s 2052 93 m s 2037 93 m s 2022 93 m cl s 2007 93 m cl
 s 1992 93 m s 1977 93 m cl s 1962 93 m s 1947 93 m s 1932 93 m s 1917 93 m s 1902 93 m s 1887 93 m s 1871 93 m s 1856 93 m s 1841 93 m s 1826 93 m s 1811 93 m s 1796 93 m s 1781 93 m s 1772 99 m -6 -6 d s 1754 96 m -3 -3 d s 1751 93 m s 1737 95 m -1
 -2 d s 1725 97 m -4 -4 d s 1717 104 m -11 -11 d s 1710 113 m -19 -20 d s 1701 119 m -26 -26 d s 1696 129 m -36 -36 d s 1696 144 m -41 -41 d s 1683 146 m -28 -28 d s 1683 161 m -28 -28 d s 1683 176 m -28 -27 d s 1683 191 m -28 -27 d s 1683 207 m -28
 -28 d s 1683 222 m -28 -28 d s 1676 230 m -21 -21 d s 1669 238 m -14 -13 d s 1669 254 m -14 -14 d s 1669 269 m -14 -14 d s 1669 284 m -14 -14 d s 1669 299 m -14 -14 d s 1669 314 m -14 -13 d s 1669 329 m -14 -13 d s 1669 345 m -14 -14 d s 1669 360 m
 -14 -14 d s 1669 375 m -14 -14 d s 1669 390 m -14 -14 d s 1669 405 m -14 -13 d s 1669 421 m -14 -14 d s 1669 436 m -14 -14 d s 1669 451 m -14 -14 d s 1669 466 m -14 -14 d s 1669 481 m -14 -13 d s 6 lw 1655 481 m 14 X -251 Y 14 X -86 Y 13 X -25 Y 14
 X -15 Y 14 X -7 Y 13 X -4 Y 14 X 3 Y 14 X 3 Y 13 X -6 Y 424 X s black 3 lw 1655 93 m 547 X s 1724 106 m -13 Y s 1743 100 m -7 Y s 1762 100 m -7 Y s 1781 100 m -7 Y s 1800 106 m -13 Y s 1819 100 m -7 Y s 1838 100 m -7 Y s 1857 100 m -7 Y s 1876 106 m
 -13 Y s 1895 100 m -7 Y s 1914 100 m -7 Y s 1933 100 m -7 Y s 1952 106 m -13 Y s 1971 100 m -7 Y s 1990 100 m -7 Y s 2009 100 m -7 Y s 2029 106 m -13 Y s 2048 100 m -7 Y s 2067 100 m -7 Y s 2086 100 m -7 Y s 2105 106 m -13 Y s 2124 100 m -7 Y s 2143
 100 m -7 Y s 2162 100 m -7 Y s 2181 106 m -13 Y s 1724 106 m -13 Y s 1705 100 m -7 Y s 1686 100 m -7 Y s 1667 100 m -7 Y s 2181 106 m -13 Y s 2200 100 m -7 Y s 1655 520 m 547 X s 1724 507 m 13 Y s 1743 513 m 7 Y s 1762 513 m 7 Y s 1781 513 m 7 Y s
 1800 507 m 13 Y s 1819 513 m 7 Y s 1838 513 m 7 Y s 1857 513 m 7 Y s 1876 507 m 13 Y s 1895 513 m 7 Y s 1914 513 m 7 Y s 1933 513 m 7 Y s 1952 507 m 13 Y s 1971 513 m 7 Y s 1990 513 m 7 Y s 2009 513 m 7 Y s 2029 507 m 13 Y s 2048 513 m 7 Y s 2067
 513 m 7 Y s 2086 513 m 7 Y s 2105 507 m 13 Y s 2124 513 m 7 Y s 2143 513 m 7 Y s 2162 513 m 7 Y s 2181 507 m 13 Y s 1724 507 m 13 Y s 1705 513 m 7 Y s 1686 513 m 7 Y s 1667 513 m 7 Y s 2181 507 m 13 Y s 2200 513 m 7 Y s 1655 93 m 427 Y s 1671 93 m
 -16 X s 1663 104 m -8 X s 1663 116 m -8 X s 1663 127 m -8 X s 1671 138 m -16 X s 1663 149 m -8 X s 1663 161 m -8 X s 1663 172 m -8 X s 1671 183 m -16 X s 1663 194 m -8 X s 1663 205 m -8 X s 1663 217 m -8 X s 1671 228 m -16 X s 1663 239 m -8 X s 1663
 250 m -8 X s 1663 262 m -8 X s 1671 273 m -16 X s 1663 284 m -8 X s 1663 295 m -8 X s 1663 307 m -8 X s 1671 318 m -16 X s 1663 329 m -8 X s 1663 340 m -8 X s 1663 352 m -8 X s 1671 363 m -16 X s 1663 374 m -8 X s 1663 385 m -8 X s 1663 396 m -8 X s
 1671 408 m -16 X s 1663 419 m -8 X s 1663 430 m -8 X s 1663 441 m -8 X s 1671 453 m -16 X s 1663 464 m -8 X s 1663 475 m -8 X s 1663 486 m -8 X s 1671 498 m -16 X s 1671 498 m -16 X s 1663 509 m -8 X s 2202 93 m 427 Y s 2186 93 m 16 X s 2194 104 m 8
 X s 2194 116 m 8 X s 2194 127 m 8 X s 2186 138 m 16 X s 2194 149 m 8 X s 2194 161 m 8 X s 2194 172 m 8 X s 2186 183 m 16 X s 2194 194 m 8 X s 2194 205 m 8 X s 2194 217 m 8 X s 2186 228 m 16 X s 2194 239 m 8 X s 2194 250 m 8 X s 2194 262 m 8 X s 2186
 273 m 16 X s 2194 284 m 8 X s 2194 295 m 8 X s 2194 307 m 8 X s 2186 318 m 16 X s 2194 329 m 8 X s 2194 340 m 8 X s 2194 352 m 8 X s 2186 363 m 16 X s 2194 374 m 8 X s 2194 385 m 8 X s 2194 396 m 8 X s 2186 408 m 16 X s 2194 419 m 8 X s 2194 430 m 8
 X s 2194 441 m 8 X s 2186 453 m 16 X s 2194 464 m 8 X s 2194 475 m 8 X s 2194 486 m 8 X s 2186 498 m 16 X s 2186 498 m 16 X s 2194 509 m 8 X s
 gsave  711 564 1534 12 C 2230.83 90.8246 t 90 r /Helvetica-Bold findfont 19.9646 sf 0 0 m (U/O\255flow \(S,B\): \(0.0, 0.0\)% / \(0.0, 0.0\)%) show NC gr  0.48 0.56 0.6 c 0.364706 0.419608 0.490196 c 278 38 1542 536 bf 0.48 0.56 0.6 c 1542 536 m 278
 X s 1820 536 m 38 Y s 1820 574 m -278 X s 1542 574 m -38 Y s 1 1 1 c black 1 1 1 c
 gsave  711 564 1534 12 C 1545.91 548.458 t 0 r /Helvetica-Bold findfont 28.5208 sf 0 0 m (Input variable: MET) show NC gr 
 gr  gr showpage
end
%%EOF
