%!PS-Adobe-2.0 EPSF-2.0
%%BoundingBox:  0 0 567 294
%%Title: plots/variables_id_c1.eps: Input variables (training sample)
%%Creator: ROOT Version 6.04/14
%%CreationDate: Wed Oct  5 09:50:46 2016
%%DocumentNeededResources: ProcSet (FontSetInit)
%%EndComments
%%BeginProlog
80 dict begin
/s {stroke} def /l {lineto} def /m {moveto} def /t {translate} def
/r {rotate} def /rl {roll}  def /R {repeat} def
/d {rlineto} def /rm {rmoveto} def /gr {grestore} def /f {eofill} def
/c {setrgbcolor} def /black {0 setgray} def /sd {setdash} def
/cl {closepath} def /sf {scalefont setfont} def /lw {setlinewidth} def
/box {m dup 0 exch d exch 0 d 0 exch neg d cl} def
/NC{systemdict begin initclip end}def/C{NC box clip newpath}def
/bl {box s} def /bf {gsave box gsave f grestore 1 lw [] 0 sd s grestore} def /Y { 0 exch d} def /X { 0 d} def 
/K {{pop pop 0 moveto} exch kshow} bind def
/ita {/ang 15 def gsave [1 0 ang dup sin exch cos div 1 0 0] concat} def 
/mp {newpath /y exch def /x exch def} def
/side {[w .77 mul w .23 mul] .385 w mul sd w 0 l currentpoint t -144 r} def
/mr {mp x y w2 0 360 arc} def /m24 {mr s} def /m20 {mr f} def
/mb {mp x y w2 add m w2 neg 0 d 0 w neg d w 0 d 0 w d cl} def
/mt {mp x y w2 add m w2 neg w neg d w 0 d cl} def
/m21 {mb f} def /m25 {mb s} def /m22 {mt f} def /m26{mt s} def
/m23 {mp x y w2 sub m w2 w d w neg 0 d cl f} def
/m27 {mp x y w2 add m w3 neg w2 neg d w3 w2 neg d w3 w2 d cl s} def
/m28 {mp x w2 sub y w2 sub w3 add m w3 0 d  0 w3 neg d w3 0 d 0 w3 d w3 0 d  0 w3 d w3 neg 0 d 0 w3 d w3 neg 0 d 0 w3 neg d w3 neg 0 d cl s } def
/m29 {mp gsave x w2 sub y w2 add w3 sub m currentpoint t 4 {side} repeat cl fill gr} def
/m30 {mp gsave x w2 sub y w2 add w3 sub m currentpoint t 4 {side} repeat cl s gr} def
/m31 {mp x y w2 sub m 0 w d x w2 sub y m w 0 d x w2 sub y w2 add m w w neg d x w2 sub y w2 sub m w w d s} def
/m32 {mp x y w2 sub m w2 w d w neg 0 d cl s} def
/m33 {mp x y w2 add m w3 neg w2 neg d w3 w2 neg d w3 w2 d cl f} def
/m34 {mp x w2 sub y w2 sub w3 add m w3 0 d  0 w3 neg d w3 0 d 0 w3 d w3 0 d  0 w3 d w3 neg 0 d 0 w3 d w3 neg 0 d 0 w3 neg d w3 neg 0 d cl f } def
/m2 {mp x y w2 sub m 0 w d x w2 sub y m w 0 d s} def
/m5 {mp x w2 sub y w2 sub m w w d x w2 sub y w2 add m w w neg d s} def
%%IncludeResource: ProcSet (FontSetInit)
%%IncludeResource: font Times-Roman
%%IncludeResource: font Times-Italic
%%IncludeResource: font Times-Bold
%%IncludeResource: font Times-BoldItalic
%%IncludeResource: font Helvetica
%%IncludeResource: font Helvetica-Oblique
%%IncludeResource: font Helvetica-Bold
%%IncludeResource: font Helvetica-BoldOblique
%%IncludeResource: font Courier
%%IncludeResource: font Courier-Oblique
%%IncludeResource: font Courier-Bold
%%IncludeResource: font Courier-BoldOblique
%%IncludeResource: font Symbol
%%IncludeResource: font ZapfDingbats
/reEncode {exch findfont dup length dict begin {1 index /FID eq  {pop pop} {def} ifelse } forall /Encoding exch def currentdict end dup /FontName get exch definefont pop } def [/Times-Bold /Times-Italic /Times-BoldItalic /Helvetica /Helvetica-Oblique
 /Helvetica-Bold /Helvetica-BoldOblique /Courier /Courier-Oblique /Courier-Bold /Courier-BoldOblique /Times-Roman /AvantGarde-Book /AvantGarde-BookOblique /AvantGarde-Demi /AvantGarde-DemiOblique /Bookman-Demi /Bookman-DemiItalic /Bookman-Light
 /Bookman-LightItalic /Helvetica-Narrow /Helvetica-Narrow-Bold /Helvetica-Narrow-BoldOblique /Helvetica-Narrow-Oblique /NewCenturySchlbk-Roman /NewCenturySchlbk-Bold /NewCenturySchlbk-BoldItalic /NewCenturySchlbk-Italic /Palatino-Bold
 /Palatino-BoldItalic /Palatino-Italic /Palatino-Roman ] {ISOLatin1Encoding reEncode } forall
%%EndProlog
%%BeginSetup
%%EndSetup
newpath  gsave  .25 .25 scale  gsave  0 0 t 0.48 0.56 0.6 c[  ] 0 sd 3 lw 0.95 0.95 0.95 c 2268 1176 0 0 bf 0.48 0.56 0.6 c 0.95 0.95 0.95 c 710 565 23 600 bf black 0.95 0.95 0.95 c 548 427 143 681 bf black 548 427 143 681 bl 0.95 0.95 0.95 c 548 427
 143 681 bf black 548 427 143 681 bl 0 0 0.933333 c 6 lw 0.49 0.6 0.82 c black 3 lw 0.49 0.6 0.82 c 143 681 m 1 Y 14 X 6 Y 14 X 1 Y 14 X 6 Y 27 X 8 Y 14 X 10 Y 13 X -5 Y 14 X 13 Y 14 X -2 Y 13 X 2 Y 14 X 11 Y 14 X -1 Y 13 X 2 Y 14 X 16 Y 14 X 13 Y 13
 X 35 Y 14 X 82 Y 14 X 131 Y 13 X -33 Y 14 X -153 Y 14 X -27 Y 13 X -21 Y 14 X -11 Y 14 X -12 Y 13 X -5 Y 14 X -3 Y 14 X 8 Y 13 X -9 Y 14 X -12 Y 14 X -2 Y 13 X -14 Y 14 X -3 Y 14 X -2 Y 14 X -3 Y 13 X 5 Y 28 X -4 Y 13 X -6 Y 14 X -19 Y 14 X -3 Y f 6
 lw 0 0 0.933333 c 0.49 0.6 0.82 c 0 0 0.933333 c 143 682 m 14 X 6 Y 14 X 1 Y 14 X 6 Y 27 X 8 Y 14 X 10 Y 13 X -5 Y 14 X 13 Y 14 X -2 Y 13 X 2 Y 14 X 11 Y 14 X -1 Y 13 X 2 Y 14 X 16 Y 14 X 13 Y 13 X 35 Y 14 X 82 Y 14 X 131 Y 13 X -33 Y 14 X -153 Y 14
 X -27 Y 13 X -21 Y 14 X -11 Y 14 X -12 Y 13 X -5 Y 14 X -3 Y 14 X 8 Y 13 X -9 Y 14 X -12 Y 14 X -2 Y 13 X -14 Y 14 X -3 Y 14 X -2 Y 14 X -3 Y 13 X 5 Y 28 X -4 Y 13 X -6 Y 14 X -19 Y 14 X s black 3 lw 143 681 m 548 X s
 gsave  710 565 23 600 C 650.761 613.818 t 0 r /Helvetica-Bold findfont 28.5208 sf 0 0 m (Mjj) show NC gr  241 694 m -13 Y s 269 688 m -7 Y s 296 688 m -7 Y s 323 688 m -7 Y s 350 694 m -13 Y s 378 688 m -7 Y s 405 688 m -7 Y s 432 688 m -7 Y s 459
 694 m -13 Y s 487 688 m -7 Y s 514 688 m -7 Y s 541 688 m -7 Y s 568 694 m -13 Y s 596 688 m -7 Y s 623 688 m -7 Y s 650 688 m -7 Y s 677 694 m -13 Y s 241 694 m -13 Y s 214 688 m -7 Y s 187 688 m -7 Y s 160 688 m -7 Y s 677 694 m -13 Y s
 gsave  710 565 23 600 C 215.973 653.603 t 0 r /Helvetica-Bold findfont 25.6688 sf 0 0 m (200) show NC gr 
 gsave  710 565 23 600 C 326.801 653.603 t 0 r /Helvetica-Bold findfont 25.6688 sf 0 0 m (400) show NC gr 
 gsave  710 565 23 600 C 434.788 653.603 t 0 r /Helvetica-Bold findfont 25.6688 sf 0 0 m (600) show NC gr 
 gsave  710 565 23 600 C 545.616 653.603 t 0 r /Helvetica-Bold findfont 25.6688 sf 0 0 m (800) show NC gr 
 gsave  710 565 23 600 C 647.919 653.603 t 0 r /Helvetica-Bold findfont 25.6688 sf 0 0 m (1000) show NC gr  143 1108 m 548 X s 241 1095 m 13 Y s 269 1102 m 6 Y s 296 1102 m 6 Y s 323 1102 m 6 Y s 350 1095 m 13 Y s 378 1102 m 6 Y s 405 1102 m 6 Y s
 432 1102 m 6 Y s 459 1095 m 13 Y s 487 1102 m 6 Y s 514 1102 m 6 Y s 541 1102 m 6 Y s 568 1095 m 13 Y s 596 1102 m 6 Y s 623 1102 m 6 Y s 650 1102 m 6 Y s 677 1095 m 13 Y s 241 1095 m 13 Y s 214 1102 m 6 Y s 187 1102 m 6 Y s 160 1102 m 6 Y s 677
 1095 m 13 Y s 143 681 m 427 Y s
 gsave  710 565 23 600 C 48.3097 1045.76 t 90 r /Helvetica-Bold findfont 28.5208 sf 0 0 m (25.1 ) show NC gr 
 gsave  710 565 23 600 C 34.101 1037.24 t 90 r /Helvetica-Bold findfont 19.9646 sf 0 0 m ( ) show NC gr 
 gsave  710 565 23 600 C 48.3097 1028.71 t 90 r /Helvetica-Bold findfont 28.5208 sf 0 0 m (/) show NC gr 
 gsave  710 565 23 600 C 53.9933 1020.19 t 90 r /Helvetica-Bold findfont 19.9646 sf 0 0 m ( ) show NC gr 
 gsave  710 565 23 600 C 45.468 912.202 t 90 r /Helvetica-Bold findfont 28.5208 sf 0 0 m (\(1/N\) dN) show NC gr  160 681 m -17 X s 152 694 m -9 X s 152 707 m -9 X s 152 720 m -9 X s 152 733 m -9 X s 160 746 m -17 X s 152 759 m -9 X s 152 772 m -9 X
 s 152 785 m -9 X s 152 798 m -9 X s 160 811 m -17 X s 152 824 m -9 X s 152 837 m -9 X s 152 850 m -9 X s 152 863 m -9 X s 160 876 m -17 X s 152 889 m -9 X s 152 902 m -9 X s 152 915 m -9 X s 152 928 m -9 X s 160 941 m -17 X s 152 954 m -9 X s 152
 967 m -9 X s 152 980 m -9 X s 152 993 m -9 X s 160 1006 m -17 X s 152 1019 m -9 X s 152 1032 m -9 X s 152 1045 m -9 X s 152 1058 m -9 X s 160 1071 m -17 X s 160 1071 m -17 X s 152 1084 m -9 X s 152 1097 m -9 X s
 gsave  710 565 23 600 C 119.354 670.653 t 0 r /Helvetica-Bold findfont 25.6688 sf 0 0 m (0) show NC gr 
 gsave  710 565 23 600 C 73.8855 736.013 t 0 r /Helvetica-Bold findfont 25.6688 sf 0 0 m (0.001) show NC gr 
 gsave  710 565 23 600 C 68.202 801.374 t 0 r /Helvetica-Bold findfont 25.6688 sf 0 0 m (0.002) show NC gr 
 gsave  710 565 23 600 C 68.202 866.734 t 0 r /Helvetica-Bold findfont 25.6688 sf 0 0 m (0.003) show NC gr 
 gsave  710 565 23 600 C 68.202 932.094 t 0 r /Helvetica-Bold findfont 25.6688 sf 0 0 m (0.004) show NC gr 
 gsave  710 565 23 600 C 68.202 994.613 t 0 r /Helvetica-Bold findfont 25.6688 sf 0 0 m (0.005) show NC gr 
 gsave  710 565 23 600 C 68.202 1059.97 t 0 r /Helvetica-Bold findfont 25.6688 sf 0 0 m (0.006) show NC gr  691 681 m 427 Y s 674 681 m 17 X s 683 694 m 8 X s 683 707 m 8 X s 683 720 m 8 X s 683 733 m 8 X s 674 746 m 17 X s 683 759 m 8 X s 683 772 m
 8 X s 683 785 m 8 X s 683 798 m 8 X s 674 811 m 17 X s 683 824 m 8 X s 683 837 m 8 X s 683 850 m 8 X s 683 863 m 8 X s 674 876 m 17 X s 683 889 m 8 X s 683 902 m 8 X s 683 915 m 8 X s 683 928 m 8 X s 674 941 m 17 X s 683 954 m 8 X s 683 967 m 8 X s
 683 980 m 8 X s 683 993 m 8 X s 674 1006 m 17 X s 683 1019 m 8 X s 683 1032 m 8 X s 683 1045 m 8 X s 683 1058 m 8 X s 674 1071 m 17 X s 674 1071 m 17 X s 683 1084 m 8 X s 683 1097 m 8 X s 1 0 0 c 6 lw black 3 lw 1 0 0 c 677 682 m -1 -1 d s 677 697 m
 -16 -16 d s 677 712 m -14 -13 d s 650 685 m -4 -4 d s 642 693 m -11 -12 d s 624 690 m -8 -9 d s 614 695 m -13 -14 d s 605 701 m -19 -20 d s 585 696 m -14 -15 d s 571 697 m -4 -4 d s 556 681 m s 554 695 m -13 -14 d s 542 698 m -2 -2 d s 539 695 m -14
 -14 d s 526 698 m -16 -17 d s 526 713 m -31 -32 d s 518 720 m -5 -6 d s 500 701 m -20 -20 d s 499 716 m -14 -14 d s 477 694 m -12 -13 d s 489 721 m -4 -4 d s 472 703 m -22 -22 d s 472 718 m -37 -37 d s 472 734 m -52 -53 d s 472 749 m -14 -14 d s 443
 719 m -38 -38 d s 465 757 m -7 -7 d s 431 723 m -41 -42 d s 431 738 m -56 -57 d s 429 751 m -69 -70 d s 417 754 m -72 -73 d s 417 770 m -14 -14 d s 402 754 m -26 -26 d s 369 721 m -40 -40 d s 407 774 m -4 -3 d s 390 757 m -14 -14 d s 362 730 m -48
 -49 d s 383 765 m -7 -6 d s 362 745 m -63 -64 d s 353 750 m -4 -4 d s 348 746 m -64 -65 d s 335 748 m -66 -67 d s 335 763 m -81 -82 d s 335 778 m -96 -97 d s 335 793 m -111 -112 d s 324 797 m -16 -16 d s 302 775 m -93 -94 d s 321 810 m -13 -14 d s
 294 782 m -100 -101 d s 280 784 m -101 -103 d s 280 799 m -116 -118 d s 267 800 m -118 -119 d s 267 815 m -124 -124 d s 267 831 m -41 -42 d s 221 785 m -23 -23 d s 196 760 m -53 -53 d s 267 846 m -41 -42 d s 212 791 m -14 -14 d s 185 763 m -28 -28 d
 s 145 723 m -2 -1 d s 267 861 m -41 -41 d s 212 806 m -14 -14 d s 185 778 m -14 -14 d s 167 761 m -10 -10 d s 267 876 m -14 -14 d s 239 849 m -13 -14 d s 212 821 m -14 -14 d s 184 793 m -13 -13 d s 264 889 m -11 -11 d s 239 864 m -13 -14 d s 207 831
 m -9 -9 d s 230 870 m -4 -5 d s 6 lw 143 723 m 14 X 38 Y 14 X 32 Y 14 X -33 Y 13 X 71 Y 14 X -46 Y 14 X 85 Y 13 X -23 Y 14 X 42 Y 14 X -90 Y 13 X -17 Y 14 X -7 Y 14 X 35 Y 13 X -13 Y 14 X -51 Y 14 X 4 Y 13 X -29 Y 14 X 44 Y 14 X -11 Y 13 X 20 Y 14 X
 -23 Y 14 X -32 Y 13 X 1 Y 14 X 37 Y 14 X -63 Y 13 X 27 Y 14 X -20 Y 14 X 19 Y 13 X -25 Y 14 X 3 Y 14 X -17 Y 13 X 16 Y 14 X -1 Y 14 X 5 Y 14 X -6 Y 13 X -5 Y 14 X 3 Y 14 X -9 Y 13 X 30 Y 14 X -33 Y 14 X s 0.48 0.56 0.6 c 3 lw 1 1 1 c 0.48 0.56 0.6 c
 285 84 143 1024 bl 143 1024 m 285 X s 428 1024 m 84 Y s 428 1108 m -285 X s 143 1108 m -84 Y s black
 gsave  710 565 23 600 C 227.34 1079.87 t 0 r /Helvetica-Bold findfont 31.3729 sf 0 0 m (Signal) show NC gr  0.49 0.6 0.82 c 156 1072 m 60 X 30 Y -60 X f 0 0 0.933333 c 6 lw 156 1102 m 60 X s 156 1072 m 60 X s 216 1072 m 30 Y s 156 1072 m 30 Y s
 black
 gsave  710 565 23 600 C 227.34 1037.24 t 0 r /Helvetica-Bold findfont 31.3729 sf 0 0 m (Background) show NC gr  1 0 0 c 3 lw 216 1038 m -8 -8 d s 216 1053 m -23 -23 d s 207 1060 m -29 -30 d s 192 1060 m -29 -30 d s 177 1060 m -21 -22 d s 162 1060 m
 -6 -7 d s 6 lw 0 0 0.933333 c 1 0 0 c 156 1060 m 60 X s 156 1030 m 60 X s 216 1030 m 30 Y s 156 1030 m 30 Y s black 3 lw 143 681 m 548 X s 241 694 m -13 Y s 269 688 m -7 Y s 296 688 m -7 Y s 323 688 m -7 Y s 350 694 m -13 Y s 378 688 m -7 Y s 405
 688 m -7 Y s 432 688 m -7 Y s 459 694 m -13 Y s 487 688 m -7 Y s 514 688 m -7 Y s 541 688 m -7 Y s 568 694 m -13 Y s 596 688 m -7 Y s 623 688 m -7 Y s 650 688 m -7 Y s 677 694 m -13 Y s 241 694 m -13 Y s 214 688 m -7 Y s 187 688 m -7 Y s 160 688 m
 -7 Y s 677 694 m -13 Y s 143 1108 m 548 X s 241 1095 m 13 Y s 269 1102 m 6 Y s 296 1102 m 6 Y s 323 1102 m 6 Y s 350 1095 m 13 Y s 378 1102 m 6 Y s 405 1102 m 6 Y s 432 1102 m 6 Y s 459 1095 m 13 Y s 487 1102 m 6 Y s 514 1102 m 6 Y s 541 1102 m 6 Y
 s 568 1095 m 13 Y s 596 1102 m 6 Y s 623 1102 m 6 Y s 650 1102 m 6 Y s 677 1095 m 13 Y s 241 1095 m 13 Y s 214 1102 m 6 Y s 187 1102 m 6 Y s 160 1102 m 6 Y s 677 1095 m 13 Y s 143 681 m 427 Y s 160 681 m -17 X s 152 694 m -9 X s 152 707 m -9 X s 152
 720 m -9 X s 152 733 m -9 X s 160 746 m -17 X s 152 759 m -9 X s 152 772 m -9 X s 152 785 m -9 X s 152 798 m -9 X s 160 811 m -17 X s 152 824 m -9 X s 152 837 m -9 X s 152 850 m -9 X s 152 863 m -9 X s 160 876 m -17 X s 152 889 m -9 X s 152 902 m -9
 X s 152 915 m -9 X s 152 928 m -9 X s 160 941 m -17 X s 152 954 m -9 X s 152 967 m -9 X s 152 980 m -9 X s 152 993 m -9 X s 160 1006 m -17 X s 152 1019 m -9 X s 152 1032 m -9 X s 152 1045 m -9 X s 152 1058 m -9 X s 160 1071 m -17 X s 160 1071 m -17
 X s 152 1084 m -9 X s 152 1097 m -9 X s 691 681 m 427 Y s 674 681 m 17 X s 683 694 m 8 X s 683 707 m 8 X s 683 720 m 8 X s 683 733 m 8 X s 674 746 m 17 X s 683 759 m 8 X s 683 772 m 8 X s 683 785 m 8 X s 683 798 m 8 X s 674 811 m 17 X s 683 824 m 8
 X s 683 837 m 8 X s 683 850 m 8 X s 683 863 m 8 X s 674 876 m 17 X s 683 889 m 8 X s 683 902 m 8 X s 683 915 m 8 X s 683 928 m 8 X s 674 941 m 17 X s 683 954 m 8 X s 683 967 m 8 X s 683 980 m 8 X s 683 993 m 8 X s 674 1006 m 17 X s 683 1019 m 8 X s
 683 1032 m 8 X s 683 1045 m 8 X s 683 1058 m 8 X s 674 1071 m 17 X s 674 1071 m 17 X s 683 1084 m 8 X s 683 1097 m 8 X s
 gsave  710 565 23 600 C 719.017 679.067 t 90 r /Helvetica-Bold findfont 19.9646 sf 0 0 m (U/O\255flow \(S,B\): \(0.0, 0.0\)% / \(0.0, 0.0\)%) show NC gr  0.48 0.56 0.6 c 0.364706 0.419608 0.490196 c 256 38 30 1124 bf 0.48 0.56 0.6 c 30 1124 m 256 X
 s 286 1124 m 38 Y s 286 1162 m -256 X s 30 1162 m -38 Y s 1 1 1 c black 1 1 1 c
 gsave  710 565 23 600 C 34.101 1136.7 t 0 r /Helvetica-Bold findfont 28.5208 sf 0 0 m (Input variable: Mjj) show NC gr  0.48 0.56 0.6 c 0.95 0.95 0.95 c 710 565 779 600 bf black 0.95 0.95 0.95 c 548 427 899 681 bf black 548 427 899 681 bl 0.95 0.95
 0.95 c 548 427 899 681 bf black 548 427 899 681 bl 0 0 0.933333 c 6 lw 0.49 0.6 0.82 c black 3 lw 0.49 0.6 0.82 c 899 681 m 268 Y 14 X 116 Y 14 X -7 Y 13 X -52 Y 14 X 19 Y 14 X -82 Y 13 X 13 Y 14 X 4 Y 14 X -74 Y 13 X 47 Y 14 X -7 Y 14 X -44 Y 14 X
 30 Y 13 X -12 Y 14 X 28 Y 14 X -6 Y 13 X 18 Y 14 X -14 Y 14 X -12 Y 13 X 8 Y 14 X -24 Y 14 X -36 Y 13 X 8 Y 14 X -32 Y 14 X -12 Y 13 X -23 Y 14 X -21 Y 14 X -8 Y 13 X -35 Y 14 X -19 Y 14 X 21 Y 13 X -35 Y 14 X -1 Y 14 X -5 Y 13 X -15 Y 14 X 4 Y 14 X
 -5 Y 13 X -2 Y 14 X -1 Y 28 X f 6 lw 0 0 0.933333 c 0.49 0.6 0.82 c 0 0 0.933333 c 899 949 m 14 X 116 Y 14 X -7 Y 13 X -52 Y 14 X 19 Y 14 X -82 Y 13 X 13 Y 14 X 4 Y 14 X -74 Y 13 X 47 Y 14 X -7 Y 14 X -44 Y 14 X 30 Y 13 X -12 Y 14 X 28 Y 14 X -6 Y
 13 X 18 Y 14 X -14 Y 14 X -12 Y 13 X 8 Y 14 X -24 Y 14 X -36 Y 13 X 8 Y 14 X -32 Y 14 X -12 Y 13 X -23 Y 14 X -21 Y 14 X -8 Y 13 X -35 Y 14 X -19 Y 14 X 21 Y 13 X -35 Y 14 X -1 Y 14 X -5 Y 13 X -15 Y 14 X 4 Y 14 X -5 Y 13 X -2 Y 14 X -1 Y 28 X s
 black 3 lw 899 681 m 548 X s
 gsave  710 565 779 600 C 1383.93 610.976 t 0 r /Helvetica-Bold findfont 28.5208 sf 0 0 m (RMS) show NC gr  1006 694 m -13 Y s 1028 688 m -7 Y s 1049 688 m -7 Y s 1070 688 m -7 Y s 1092 688 m -7 Y s 1113 694 m -13 Y s 1135 688 m -7 Y s 1156 688 m -7
 Y s 1177 688 m -7 Y s 1199 688 m -7 Y s 1220 694 m -13 Y s 1242 688 m -7 Y s 1263 688 m -7 Y s 1284 688 m -7 Y s 1306 688 m -7 Y s 1327 694 m -13 Y s 1348 688 m -7 Y s 1370 688 m -7 Y s 1391 688 m -7 Y s 1413 688 m -7 Y s 1434 694 m -13 Y s 1006 694
 m -13 Y s 985 688 m -7 Y s 963 688 m -7 Y s 942 688 m -7 Y s 921 688 m -7 Y s 1434 694 m -13 Y s
 gsave  710 565 779 600 C 986.087 653.603 t 0 r /Helvetica-Bold findfont 25.6688 sf 0 0 m (0.5) show NC gr 
 gsave  710 565 779 600 C 1105.44 653.603 t 0 r /Helvetica-Bold findfont 25.6688 sf 0 0 m (1) show NC gr 
 gsave  710 565 779 600 C 1199.22 653.603 t 0 r /Helvetica-Bold findfont 25.6688 sf 0 0 m (1.5) show NC gr 
 gsave  710 565 779 600 C 1315.73 653.603 t 0 r /Helvetica-Bold findfont 25.6688 sf 0 0 m (2) show NC gr 
 gsave  710 565 779 600 C 1412.35 653.603 t 0 r /Helvetica-Bold findfont 25.6688 sf 0 0 m (2.5) show NC gr  899 1108 m 548 X s 1006 1095 m 13 Y s 1028 1102 m 6 Y s 1049 1102 m 6 Y s 1070 1102 m 6 Y s 1092 1102 m 6 Y s 1113 1095 m 13 Y s 1135 1102 m 6
 Y s 1156 1102 m 6 Y s 1177 1102 m 6 Y s 1199 1102 m 6 Y s 1220 1095 m 13 Y s 1242 1102 m 6 Y s 1263 1102 m 6 Y s 1284 1102 m 6 Y s 1306 1102 m 6 Y s 1327 1095 m 13 Y s 1348 1102 m 6 Y s 1370 1102 m 6 Y s 1391 1102 m 6 Y s 1413 1102 m 6 Y s 1434 1095
 m 13 Y s 1006 1095 m 13 Y s 985 1102 m 6 Y s 963 1102 m 6 Y s 942 1102 m 6 Y s 921 1102 m 6 Y s 1434 1095 m 13 Y s 899 681 m 427 Y s
 gsave  710 565 779 600 C 804.215 1008.82 t 90 r /Helvetica-Bold findfont 28.5208 sf 0 0 m (0.0639 ) show NC gr 
 gsave  710 565 779 600 C 790.007 1000.3 t 90 r /Helvetica-Bold findfont 19.9646 sf 0 0 m ( ) show NC gr 
 gsave  710 565 779 600 C 804.215 991.771 t 90 r /Helvetica-Bold findfont 28.5208 sf 0 0 m (/) show NC gr 
 gsave  710 565 779 600 C 809.899 983.246 t 90 r /Helvetica-Bold findfont 19.9646 sf 0 0 m ( ) show NC gr 
 gsave  710 565 779 600 C 804.215 875.259 t 90 r /Helvetica-Bold findfont 28.5208 sf 0 0 m (\(1/N\) dN) show NC gr  915 681 m -16 X s 907 690 m -8 X s 907 699 m -8 X s 907 707 m -8 X s 907 716 m -8 X s 915 725 m -16 X s 907 733 m -8 X s 907 742 m -8
 X s 907 751 m -8 X s 907 759 m -8 X s 915 768 m -16 X s 907 776 m -8 X s 907 785 m -8 X s 907 794 m -8 X s 907 802 m -8 X s 915 811 m -16 X s 907 820 m -8 X s 907 828 m -8 X s 907 837 m -8 X s 907 846 m -8 X s 915 854 m -16 X s 907 863 m -8 X s 907
 872 m -8 X s 907 880 m -8 X s 907 889 m -8 X s 915 898 m -16 X s 907 906 m -8 X s 907 915 m -8 X s 907 924 m -8 X s 907 932 m -8 X s 915 941 m -16 X s 907 950 m -8 X s 907 958 m -8 X s 907 967 m -8 X s 907 975 m -8 X s 915 984 m -16 X s 907 993 m -8
 X s 907 1001 m -8 X s 907 1010 m -8 X s 907 1019 m -8 X s 915 1027 m -16 X s 907 1036 m -8 X s 907 1045 m -8 X s 907 1053 m -8 X s 907 1062 m -8 X s 915 1071 m -16 X s 915 1071 m -16 X s 907 1079 m -8 X s 907 1088 m -8 X s 907 1097 m -8 X s 907 1105
 m -8 X s
 gsave  710 565 779 600 C 875.259 670.653 t 0 r /Helvetica-Bold findfont 25.6688 sf 0 0 m (0) show NC gr 
 gsave  710 565 779 600 C 858.208 713.279 t 0 r /Helvetica-Bold findfont 25.6688 sf 0 0 m (0.1) show NC gr 
 gsave  710 565 779 600 C 852.525 758.747 t 0 r /Helvetica-Bold findfont 25.6688 sf 0 0 m (0.2) show NC gr 
 gsave  710 565 779 600 C 852.525 801.374 t 0 r /Helvetica-Bold findfont 25.6688 sf 0 0 m (0.3) show NC gr 
 gsave  710 565 779 600 C 852.525 844 t 0 r /Helvetica-Bold findfont 25.6688 sf 0 0 m (0.4) show NC gr 
 gsave  710 565 779 600 C 852.525 886.626 t 0 r /Helvetica-Bold findfont 25.6688 sf 0 0 m (0.5) show NC gr 
 gsave  710 565 779 600 C 852.525 932.094 t 0 r /Helvetica-Bold findfont 25.6688 sf 0 0 m (0.6) show NC gr 
 gsave  710 565 779 600 C 852.525 974.72 t 0 r /Helvetica-Bold findfont 25.6688 sf 0 0 m (0.7) show NC gr 
 gsave  710 565 779 600 C 852.525 1017.35 t 0 r /Helvetica-Bold findfont 25.6688 sf 0 0 m (0.8) show NC gr 
 gsave  710 565 779 600 C 852.525 1059.97 t 0 r /Helvetica-Bold findfont 25.6688 sf 0 0 m (0.9) show NC gr  1447 681 m 427 Y s 1430 681 m 17 X s 1438 690 m 9 X s 1438 699 m 9 X s 1438 707 m 9 X s 1438 716 m 9 X s 1430 725 m 17 X s 1438 733 m 9 X s
 1438 742 m 9 X s 1438 751 m 9 X s 1438 759 m 9 X s 1430 768 m 17 X s 1438 776 m 9 X s 1438 785 m 9 X s 1438 794 m 9 X s 1438 802 m 9 X s 1430 811 m 17 X s 1438 820 m 9 X s 1438 828 m 9 X s 1438 837 m 9 X s 1438 846 m 9 X s 1430 854 m 17 X s 1438 863
 m 9 X s 1438 872 m 9 X s 1438 880 m 9 X s 1438 889 m 9 X s 1430 898 m 17 X s 1438 906 m 9 X s 1438 915 m 9 X s 1438 924 m 9 X s 1438 932 m 9 X s 1430 941 m 17 X s 1438 950 m 9 X s 1438 958 m 9 X s 1438 967 m 9 X s 1438 975 m 9 X s 1430 984 m 17 X s
 1438 993 m 9 X s 1438 1001 m 9 X s 1438 1010 m 9 X s 1438 1019 m 9 X s 1430 1027 m 17 X s 1438 1036 m 9 X s 1438 1045 m 9 X s 1438 1053 m 9 X s 1438 1062 m 9 X s 1430 1071 m 17 X s 1430 1071 m 17 X s 1438 1079 m 9 X s 1438 1088 m 9 X s 1438 1097 m 9
 X s 1438 1105 m 9 X s 1 0 0 c 6 lw black 3 lw 1 0 0 c 1432 681 m s 1418 683 m -1 -2 d s 1403 682 m -1 -1 d s 1387 681 m s 1372 681 m s 1364 689 m -7 -8 d s 1364 704 m -22 -23 d s 1364 719 m -37 -38 d s 1364 735 m -53 -54 d s 1364 750 m -13 -14 d s
 1337 722 m -41 -41 d s 1361 762 m -10 -11 d s 1337 737 m -56 -56 d s 1337 753 m -27 -28 d s 1299 714 m -33 -33 d s 1324 754 m -14 -14 d s 1296 727 m -45 -46 d s 1296 742 m -60 -61 d s 1296 757 m -75 -76 d s 1296 772 m -90 -91 d s 1296 787 m -41 -41
 d s 1250 741 m -59 -60 d s 1296 802 m -41 -41 d s 1241 747 m -65 -66 d s 1296 818 m -41 -42 d s 1241 763 m -80 -82 d s 1296 833 m -41 -42 d s 1241 778 m -95 -97 d s 1296 848 m -41 -41 d s 1241 793 m -110 -112 d s 1296 863 m -41 -41 d s 1241 808 m
 -125 -127 d s 1296 878 m -41 -41 d s 1241 823 m -141 -142 d s 1296 894 m -41 -42 d s 1241 838 m -27 -27 d s 1210 807 m -125 -126 d s 1292 904 m -10 -9 d s 1272 884 m -17 -17 d s 1241 854 m -27 -28 d s 1200 812 m -130 -131 d s 1265 892 m -10 -9 d s
 1241 869 m -27 -28 d s 1200 827 m -145 -146 d s 1241 884 m -27 -28 d s 1200 843 m -95 -97 d s 1100 742 m -60 -61 d s 1241 899 m -27 -27 d s 1200 858 m -95 -97 d s 1091 748 m -66 -67 d s 1241 914 m -13 -13 d s 1227 900 m -13 -13 d s 1200 873 m -95
 -96 d s 1091 763 m -81 -82 d s 1241 930 m -13 -14 d s 1200 888 m -95 -96 d s 1091 778 m -27 -28 d s 1057 744 m -62 -63 d s 1241 945 m -13 -14 d s 1188 891 m -83 -84 d s 1091 793 m -27 -27 d s 1050 752 m -70 -71 d s 1241 960 m -13 -14 d s 1187 905 m
 -82 -83 d s 1091 808 m -27 -27 d s 1050 767 m -85 -86 d s 1241 975 m -13 -14 d s 1177 910 m -72 -73 d s 1091 824 m -27 -28 d s 1050 782 m -100 -101 d s 1241 990 m -13 -13 d s 1173 921 m -68 -69 d s 1091 839 m -27 -28 d s 1050 797 m -115 -116 d s
 1241 1005 m -13 -13 d s 1173 937 m -55 -56 d s 1109 873 m -4 -5 d s 1080 843 m -16 -17 d s 1050 813 m -130 -132 d s 1241 1021 m -13 -14 d s 1173 952 m -55 -55 d s 1077 855 m -13 -13 d s 1050 828 m -145 -147 d s 1241 1036 m -13 -14 d s 1173 967 m -55
 -55 d s 1077 870 m -13 -13 d s 1050 843 m -151 -152 d s 1241 1051 m -13 -14 d s 1173 982 m -55 -55 d s 1077 886 m -13 -14 d s 1050 858 m -151 -151 d s 1241 1066 m -13 -14 d s 1169 994 m -51 -52 d s 1077 901 m -13 -14 d s 1050 873 m -55 -55 d s 993
 816 m -94 -94 d s 1229 1069 m -1 -1 d s 1158 997 m -40 -40 d s 1066 905 m -2 -3 d s 1050 888 m -55 -55 d s 981 820 m -82 -83 d s 1132 986 m -14 -13 d s 1050 904 m -41 -42 d s 1000 853 m -5 -4 d s 981 835 m -82 -83 d s 1124 994 m -6 -6 d s 1050 919 m
 -41 -41 d s 981 850 m -82 -83 d s 1050 934 m -41 -41 d s 981 865 m -82 -83 d s 1050 949 m -14 -14 d s 1030 929 m -21 -21 d s 981 880 m -13 -13 d s 968 866 m -69 -68 d s 1050 964 m -14 -13 d s 1022 937 m -13 -14 d s 981 896 m -13 -14 d s 954 868 m
 -55 -55 d s 1050 980 m -14 -14 d s 1016 945 m -7 -7 d s 981 911 m -13 -14 d s 954 883 m -55 -55 d s 1050 995 m -14 -14 d s 981 926 m -13 -14 d s 954 898 m -55 -55 d s 1050 1010 m -14 -14 d s 981 941 m -13 -14 d s 954 914 m -55 -56 d s 1048 1023 m
 -12 -12 d s 981 956 m -13 -14 d s 940 915 m -41 -41 d s 981 971 m -13 -13 d s 940 930 m -27 -27 d s 911 900 m -12 -11 d s 981 987 m -13 -14 d s 940 945 m -27 -27 d s 940 960 m -27 -27 d s 935 970 m -8 -8 d s 914 949 m -1 -1 d s 6 lw 899 900 m 14 X
 49 Y 14 X 21 Y 13 X -56 Y 14 X -48 Y 14 X 121 Y 13 X -171 Y 14 X 37 Y 14 X 92 Y 13 X -16 Y 14 X 94 Y 14 X -279 Y 14 X 161 Y 13 X -62 Y 14 X -101 Y 14 X 131 Y 13 X 121 Y 14 X -8 Y 14 X 11 Y 13 X -3 Y 14 X -84 Y 14 X -19 Y 13 X -84 Y 14 X 93 Y 14 X
 169 Y 13 X -328 Y 14 X 151 Y 14 X -8 Y 13 X 20 Y 14 X -190 Y 14 X 41 Y 13 X -1 Y 14 X -32 Y 14 X 40 Y 13 X -81 Y 28 X 1 Y 13 X 1 Y 14 X -2 Y 28 X s black 3 lw 899 681 m 548 X s 1006 694 m -13 Y s 1028 688 m -7 Y s 1049 688 m -7 Y s 1070 688 m -7 Y s
 1092 688 m -7 Y s 1113 694 m -13 Y s 1135 688 m -7 Y s 1156 688 m -7 Y s 1177 688 m -7 Y s 1199 688 m -7 Y s 1220 694 m -13 Y s 1242 688 m -7 Y s 1263 688 m -7 Y s 1284 688 m -7 Y s 1306 688 m -7 Y s 1327 694 m -13 Y s 1348 688 m -7 Y s 1370 688 m
 -7 Y s 1391 688 m -7 Y s 1413 688 m -7 Y s 1434 694 m -13 Y s 1006 694 m -13 Y s 985 688 m -7 Y s 963 688 m -7 Y s 942 688 m -7 Y s 921 688 m -7 Y s 1434 694 m -13 Y s 899 1108 m 548 X s 1006 1095 m 13 Y s 1028 1102 m 6 Y s 1049 1102 m 6 Y s 1070
 1102 m 6 Y s 1092 1102 m 6 Y s 1113 1095 m 13 Y s 1135 1102 m 6 Y s 1156 1102 m 6 Y s 1177 1102 m 6 Y s 1199 1102 m 6 Y s 1220 1095 m 13 Y s 1242 1102 m 6 Y s 1263 1102 m 6 Y s 1284 1102 m 6 Y s 1306 1102 m 6 Y s 1327 1095 m 13 Y s 1348 1102 m 6 Y s
 1370 1102 m 6 Y s 1391 1102 m 6 Y s 1413 1102 m 6 Y s 1434 1095 m 13 Y s 1006 1095 m 13 Y s 985 1102 m 6 Y s 963 1102 m 6 Y s 942 1102 m 6 Y s 921 1102 m 6 Y s 1434 1095 m 13 Y s 899 681 m 427 Y s 915 681 m -16 X s 907 690 m -8 X s 907 699 m -8 X s
 907 707 m -8 X s 907 716 m -8 X s 915 725 m -16 X s 907 733 m -8 X s 907 742 m -8 X s 907 751 m -8 X s 907 759 m -8 X s 915 768 m -16 X s 907 776 m -8 X s 907 785 m -8 X s 907 794 m -8 X s 907 802 m -8 X s 915 811 m -16 X s 907 820 m -8 X s 907 828
 m -8 X s 907 837 m -8 X s 907 846 m -8 X s 915 854 m -16 X s 907 863 m -8 X s 907 872 m -8 X s 907 880 m -8 X s 907 889 m -8 X s 915 898 m -16 X s 907 906 m -8 X s 907 915 m -8 X s 907 924 m -8 X s 907 932 m -8 X s 915 941 m -16 X s 907 950 m -8 X s
 907 958 m -8 X s 907 967 m -8 X s 907 975 m -8 X s 915 984 m -16 X s 907 993 m -8 X s 907 1001 m -8 X s 907 1010 m -8 X s 907 1019 m -8 X s 915 1027 m -16 X s 907 1036 m -8 X s 907 1045 m -8 X s 907 1053 m -8 X s 907 1062 m -8 X s 915 1071 m -16 X s
 915 1071 m -16 X s 907 1079 m -8 X s 907 1088 m -8 X s 907 1097 m -8 X s 907 1105 m -8 X s 1447 681 m 427 Y s 1430 681 m 17 X s 1438 690 m 9 X s 1438 699 m 9 X s 1438 707 m 9 X s 1438 716 m 9 X s 1430 725 m 17 X s 1438 733 m 9 X s 1438 742 m 9 X s
 1438 751 m 9 X s 1438 759 m 9 X s 1430 768 m 17 X s 1438 776 m 9 X s 1438 785 m 9 X s 1438 794 m 9 X s 1438 802 m 9 X s 1430 811 m 17 X s 1438 820 m 9 X s 1438 828 m 9 X s 1438 837 m 9 X s 1438 846 m 9 X s 1430 854 m 17 X s 1438 863 m 9 X s 1438 872
 m 9 X s 1438 880 m 9 X s 1438 889 m 9 X s 1430 898 m 17 X s 1438 906 m 9 X s 1438 915 m 9 X s 1438 924 m 9 X s 1438 932 m 9 X s 1430 941 m 17 X s 1438 950 m 9 X s 1438 958 m 9 X s 1438 967 m 9 X s 1438 975 m 9 X s 1430 984 m 17 X s 1438 993 m 9 X s
 1438 1001 m 9 X s 1438 1010 m 9 X s 1438 1019 m 9 X s 1430 1027 m 17 X s 1438 1036 m 9 X s 1438 1045 m 9 X s 1438 1053 m 9 X s 1438 1062 m 9 X s 1430 1071 m 17 X s 1430 1071 m 17 X s 1438 1079 m 9 X s 1438 1088 m 9 X s 1438 1097 m 9 X s 1438 1105 m
 9 X s
 gsave  710 565 779 600 C 1474.92 679.067 t 90 r /Helvetica-Bold findfont 19.9646 sf 0 0 m (U/O\255flow \(S,B\): \(0.0, 0.0\)% / \(0.0, 0.0\)%) show NC gr  0.48 0.56 0.6 c 0.364706 0.419608 0.490196 c 281 38 786 1124 bf 0.48 0.56 0.6 c 786 1124 m 281
 X s 1067 1124 m 38 Y s 1067 1162 m -281 X s 786 1162 m -38 Y s 1 1 1 c black 1 1 1 c
 gsave  710 565 779 600 C 790.007 1136.7 t 0 r /Helvetica-Bold findfont 28.5208 sf 0 0 m (Input variable: RMS) show NC gr  0.48 0.56 0.6 c 0.95 0.95 0.95 c 711 565 1534 600 bf black 0.95 0.95 0.95 c 547 427 1655 681 bf black 547 427 1655 681 bl 0.95
 0.95 0.95 c 547 427 1655 681 bf black 547 427 1655 681 bl 0 0 0.933333 c 6 lw 0.49 0.6 0.82 c black 3 lw 0.49 0.6 0.82 c 1655 681 m 10 Y 14 X -1 Y 14 X 15 Y 13 X 25 Y 14 X 45 Y 14 X 43 Y 13 X 99 Y 14 X 29 Y 14 X 15 Y 13 X 51 Y 14 X 36 Y 14 X 4 Y 13
 X -16 Y 14 X 33 Y 14 X -25 Y 13 X -36 Y 14 X -49 Y 14 X -1 Y 13 X -19 Y 14 X -25 Y 28 X -40 Y 13 X -18 Y 14 X -22 Y 14 X -76 Y 13 X -26 Y 14 X -20 Y 14 X -18 Y 27 X -4 Y 14 X -8 Y 27 X 2 Y 14 X -2 Y 13 X -1 Y 82 X f 6 lw 0 0 0.933333 c 0.49 0.6 0.82
 c 0 0 0.933333 c 1655 691 m 14 X -1 Y 14 X 15 Y 13 X 25 Y 14 X 45 Y 14 X 43 Y 13 X 99 Y 14 X 29 Y 14 X 15 Y 13 X 51 Y 14 X 36 Y 14 X 4 Y 13 X -16 Y 14 X 33 Y 14 X -25 Y 13 X -36 Y 14 X -49 Y 14 X -1 Y 13 X -19 Y 14 X -25 Y 28 X -40 Y 13 X -18 Y 14 X
 -22 Y 14 X -76 Y 13 X -26 Y 14 X -20 Y 14 X -18 Y 27 X -4 Y 14 X -8 Y 27 X 2 Y 14 X -2 Y 13 X -1 Y 82 X s black 3 lw 1655 681 m 547 X s
 gsave  711 565 1534 600 C 2148.36 610.976 t 0 r /Helvetica-Bold findfont 28.5208 sf 0 0 m (dRll) show NC gr  1745 694 m -13 Y s 1767 688 m -7 Y s 1789 688 m -7 Y s 1811 688 m -7 Y s 1833 688 m -7 Y s 1854 694 m -13 Y s 1876 688 m -7 Y s 1898 688 m
 -7 Y s 1920 688 m -7 Y s 1942 688 m -7 Y s 1964 694 m -13 Y s 1985 688 m -7 Y s 2007 688 m -7 Y s 2029 688 m -7 Y s 2051 688 m -7 Y s 2073 694 m -13 Y s 2094 688 m -7 Y s 2116 688 m -7 Y s 2138 688 m -7 Y s 2160 688 m -7 Y s 2182 694 m -13 Y s 1745
 694 m -13 Y s 1724 688 m -7 Y s 1702 688 m -7 Y s 1680 688 m -7 Y s 1658 688 m -7 Y s 2182 694 m -13 Y s
 gsave  711 565 1534 600 C 1739.15 653.603 t 0 r /Helvetica-Bold findfont 25.6688 sf 0 0 m (1) show NC gr 
 gsave  711 565 1534 600 C 1844.3 653.603 t 0 r /Helvetica-Bold findfont 25.6688 sf 0 0 m (2) show NC gr 
 gsave  711 565 1534 600 C 1952.28 653.603 t 0 r /Helvetica-Bold findfont 25.6688 sf 0 0 m (3) show NC gr 
 gsave  711 565 1534 600 C 2063.11 653.603 t 0 r /Helvetica-Bold findfont 25.6688 sf 0 0 m (4) show NC gr 
 gsave  711 565 1534 600 C 2171.1 653.603 t 0 r /Helvetica-Bold findfont 25.6688 sf 0 0 m (5) show NC gr  1655 1108 m 547 X s 1745 1095 m 13 Y s 1767 1102 m 6 Y s 1789 1102 m 6 Y s 1811 1102 m 6 Y s 1833 1102 m 6 Y s 1854 1095 m 13 Y s 1876 1102 m 6
 Y s 1898 1102 m 6 Y s 1920 1102 m 6 Y s 1942 1102 m 6 Y s 1964 1095 m 13 Y s 1985 1102 m 6 Y s 2007 1102 m 6 Y s 2029 1102 m 6 Y s 2051 1102 m 6 Y s 2073 1095 m 13 Y s 2094 1102 m 6 Y s 2116 1102 m 6 Y s 2138 1102 m 6 Y s 2160 1102 m 6 Y s 2182 1095
 m 13 Y s 1745 1095 m 13 Y s 1724 1102 m 6 Y s 1702 1102 m 6 Y s 1680 1102 m 6 Y s 1658 1102 m 6 Y s 2182 1095 m 13 Y s 1655 681 m 427 Y s
 gsave  711 565 1534 600 C 1560.12 1025.87 t 90 r /Helvetica-Bold findfont 28.5208 sf 0 0 m (0.125 ) show NC gr 
 gsave  711 565 1534 600 C 1545.91 1017.35 t 90 r /Helvetica-Bold findfont 19.9646 sf 0 0 m ( ) show NC gr 
 gsave  711 565 1534 600 C 1560.12 1008.82 t 90 r /Helvetica-Bold findfont 28.5208 sf 0 0 m (/) show NC gr 
 gsave  711 565 1534 600 C 1565.8 1000.3 t 90 r /Helvetica-Bold findfont 19.9646 sf 0 0 m ( ) show NC gr 
 gsave  711 565 1534 600 C 1560.12 892.31 t 90 r /Helvetica-Bold findfont 28.5208 sf 0 0 m (\(1/N\) dN) show NC gr  1671 681 m -16 X s 1663 695 m -8 X s 1663 709 m -8 X s 1663 723 m -8 X s 1663 737 m -8 X s 1671 751 m -16 X s 1663 765 m -8 X s 1663
 780 m -8 X s 1663 794 m -8 X s 1663 808 m -8 X s 1671 822 m -16 X s 1663 836 m -8 X s 1663 850 m -8 X s 1663 864 m -8 X s 1663 878 m -8 X s 1671 892 m -16 X s 1663 906 m -8 X s 1663 920 m -8 X s 1663 934 m -8 X s 1663 948 m -8 X s 1671 962 m -16 X s
 1663 976 m -8 X s 1663 990 m -8 X s 1663 1004 m -8 X s 1663 1018 m -8 X s 1671 1032 m -16 X s 1663 1046 m -8 X s 1663 1060 m -8 X s 1663 1074 m -8 X s 1663 1088 m -8 X s 1671 1102 m -16 X s 1671 1102 m -16 X s
 gsave  711 565 1534 600 C 1631.16 670.653 t 0 r /Helvetica-Bold findfont 25.6688 sf 0 0 m (0) show NC gr 
 gsave  711 565 1534 600 C 1614.11 741.697 t 0 r /Helvetica-Bold findfont 25.6688 sf 0 0 m (0.1) show NC gr 
 gsave  711 565 1534 600 C 1608.43 812.741 t 0 r /Helvetica-Bold findfont 25.6688 sf 0 0 m (0.2) show NC gr 
 gsave  711 565 1534 600 C 1608.43 880.943 t 0 r /Helvetica-Bold findfont 25.6688 sf 0 0 m (0.3) show NC gr 
 gsave  711 565 1534 600 C 1608.43 951.986 t 0 r /Helvetica-Bold findfont 25.6688 sf 0 0 m (0.4) show NC gr 
 gsave  711 565 1534 600 C 1608.43 1023.03 t 0 r /Helvetica-Bold findfont 25.6688 sf 0 0 m (0.5) show NC gr 
 gsave  711 565 1534 600 C 1608.43 1091.23 t 0 r /Helvetica-Bold findfont 25.6688 sf 0 0 m (0.6) show NC gr  2202 681 m 427 Y s 2186 681 m 16 X s 2194 695 m 8 X s 2194 709 m 8 X s 2194 723 m 8 X s 2194 737 m 8 X s 2186 751 m 16 X s 2194 765 m 8 X s
 2194 780 m 8 X s 2194 794 m 8 X s 2194 808 m 8 X s 2186 822 m 16 X s 2194 836 m 8 X s 2194 850 m 8 X s 2194 864 m 8 X s 2194 878 m 8 X s 2186 892 m 16 X s 2194 906 m 8 X s 2194 920 m 8 X s 2194 934 m 8 X s 2194 948 m 8 X s 2186 962 m 16 X s 2194 976
 m 8 X s 2194 990 m 8 X s 2194 1004 m 8 X s 2194 1018 m 8 X s 2186 1032 m 16 X s 2194 1046 m 8 X s 2194 1060 m 8 X s 2194 1074 m 8 X s 2194 1088 m 8 X s 2186 1102 m 16 X s 2186 1102 m 16 X s 1 0 0 c 6 lw black 3 lw 1 0 0 c 2188 681 m s 2175 683 m -2
 -2 d s 2175 699 m -14 -14 d s 2158 681 m s 2174 712 m -13 -12 d s 2143 681 m s 2128 681 m s 2113 681 m s 2098 681 m s 2093 692 m -11 -11 d s 2081 695 m -14 -14 d s 2079 709 m -13 -14 d s 2052 681 m s 2079 724 m -13 -14 d s 2052 696 m -15 -15 d s
 2079 739 m -13 -14 d s 2052 711 m -14 -13 d s 2025 684 m -3 -3 d s 2074 748 m -8 -8 d s 2052 727 m -14 -14 d s 2025 699 m -18 -18 d s 2052 742 m -14 -14 d s 2025 714 m -33 -33 d s 2041 745 m -3 -2 d s 2025 729 m -48 -48 d s 2025 745 m -63 -64 d s
 2025 760 m -78 -79 d s 2025 775 m -93 -94 d s 2025 790 m -108 -109 d s 2025 805 m -28 -27 d s 1997 778 m -54 -55 d s 1936 716 m -34 -35 d s 2025 820 m -28 -27 d s 1984 779 m -41 -41 d s 1929 724 m -42 -43 d s 2025 836 m -28 -28 d s 1984 794 m -41
 -41 d s 1929 739 m -58 -58 d s 2025 851 m -28 -28 d s 1984 809 m -41 -41 d s 1929 754 m -73 -73 d s 2022 864 m -25 -26 d s 1984 825 m -41 -42 d s 1929 770 m -88 -89 d s 2002 859 m -5 -5 d s 1984 840 m -41 -42 d s 1929 785 m -103 -104 d s 1984 855 m
 -28 -28 d s 1946 817 m -3 -3 d s 1929 800 m -118 -119 d s 1984 870 m -28 -27 d s 1929 815 m -14 -14 d s 1903 789 m -29 -29 d s 1872 758 m -76 -77 d s 1984 885 m -28 -27 d s 1929 830 m -14 -14 d s 1901 803 m -27 -28 d s 1860 761 m -79 -80 d s 1984
 901 m -28 -28 d s 1929 845 m -14 -13 d s 1901 818 m -27 -28 d s 1860 777 m -94 -96 d s 1984 916 m -28 -28 d s 1929 861 m -14 -14 d s 1901 833 m -27 -27 d s 1860 792 m -109 -111 d s 1984 931 m -28 -28 d s 1929 876 m -14 -14 d s 1901 848 m -27 -27 d s
 1860 807 m -124 -126 d s 1984 946 m -28 -27 d s 1929 891 m -14 -14 d s 1901 863 m -27 -27 d s 1860 822 m -139 -141 d s 1975 952 m -19 -18 d s 1929 906 m -14 -14 d s 1901 879 m -13 -14 d s 1882 859 m -8 -8 d s 1860 837 m -154 -156 d s 1970 963 m -14
 -14 d s 1929 921 m -14 -13 d s 1901 894 m -13 -14 d s 1860 852 m -169 -171 d s 1970 978 m -14 -14 d s 1929 937 m -14 -14 d s 1901 909 m -13 -14 d s 1860 868 m -185 -187 d s 1970 993 m -14 -14 d s 1923 946 m -8 -8 d s 1901 924 m -13 -14 d s 1860 882
 m -200 -201 d s 1970 1008 m -14 -13 d s 1901 939 m -13 -13 d s 1847 884 m -192 -193 d s 1970 1023 m -14 -13 d s 1901 955 m -13 -14 d s 1847 899 m -192 -192 d s 1970 1039 m -14 -14 d s 1899 967 m -11 -11 d s 1847 915 m -192 -193 d s 1970 1054 m -14
 -14 d s 1847 930 m -28 -28 d s 1811 894 m -33 -33 d s 1775 858 m -120 -121 d s 1958 1057 m -2 -2 d s 1847 945 m -28 -28 d s 1806 904 m -14 -14 d s 1791 888 m -13 -12 d s 1765 862 m -110 -110 d s 1847 960 m -28 -27 d s 1794 907 m -2 -2 d s 1765 878 m
 -14 -14 d s 1745 858 m -90 -91 d s 1847 975 m -14 -13 d s 1833 961 m -14 -13 d s 1765 893 m -14 -14 d s 1737 865 m -13 -14 d s 1711 839 m -56 -57 d s 1765 908 m -14 -14 d s 1737 880 m -13 -13 d s 1710 853 m -55 -55 d s 1765 923 m -14 -14 d s 1737
 896 m -13 -14 d s 1710 868 m -41 -41 d s 1757 931 m -6 -7 d s 1737 911 m -13 -14 d s 1710 883 m -27 -27 d s 1737 926 m -13 -14 d s 1710 898 m -27 -27 d s 1737 941 m -13 -14 d s 1710 914 m -27 -28 d s 1726 945 m -2 -3 d s 1710 929 m -27 -28 d s 1710
 944 m -27 -28 d s 1701 950 m -5 -5 d s 1688 937 m -5 -6 d s 6 lw 1655 812 m 14 X 29 Y 14 X 96 Y 13 X 13 Y 14 X -111 Y 14 X 106 Y 13 X -87 Y 14 X 73 Y 14 X -73 Y 13 X 30 Y 14 X 19 Y 14 X -13 Y 13 X 67 Y 14 X 15 Y 14 X -94 Y 13 X -124 Y 14 X 101 Y 14
 X 108 Y 13 X -178 Y 14 X 157 Y 14 X -230 Y 14 X 101 Y 13 X 240 Y 14 X -105 Y 14 X -174 Y 13 X 81 Y 14 X 5 Y 14 X -180 Y 13 X 61 Y 14 X -64 Y 14 X 67 Y 13 X -53 Y 14 X -14 Y 68 X 31 Y 14 X -31 Y 27 X s black 3 lw 1655 681 m 547 X s 1745 694 m -13 Y s
 1767 688 m -7 Y s 1789 688 m -7 Y s 1811 688 m -7 Y s 1833 688 m -7 Y s 1854 694 m -13 Y s 1876 688 m -7 Y s 1898 688 m -7 Y s 1920 688 m -7 Y s 1942 688 m -7 Y s 1964 694 m -13 Y s 1985 688 m -7 Y s 2007 688 m -7 Y s 2029 688 m -7 Y s 2051 688 m -7
 Y s 2073 694 m -13 Y s 2094 688 m -7 Y s 2116 688 m -7 Y s 2138 688 m -7 Y s 2160 688 m -7 Y s 2182 694 m -13 Y s 1745 694 m -13 Y s 1724 688 m -7 Y s 1702 688 m -7 Y s 1680 688 m -7 Y s 1658 688 m -7 Y s 2182 694 m -13 Y s 1655 1108 m 547 X s 1745
 1095 m 13 Y s 1767 1102 m 6 Y s 1789 1102 m 6 Y s 1811 1102 m 6 Y s 1833 1102 m 6 Y s 1854 1095 m 13 Y s 1876 1102 m 6 Y s 1898 1102 m 6 Y s 1920 1102 m 6 Y s 1942 1102 m 6 Y s 1964 1095 m 13 Y s 1985 1102 m 6 Y s 2007 1102 m 6 Y s 2029 1102 m 6 Y s
 2051 1102 m 6 Y s 2073 1095 m 13 Y s 2094 1102 m 6 Y s 2116 1102 m 6 Y s 2138 1102 m 6 Y s 2160 1102 m 6 Y s 2182 1095 m 13 Y s 1745 1095 m 13 Y s 1724 1102 m 6 Y s 1702 1102 m 6 Y s 1680 1102 m 6 Y s 1658 1102 m 6 Y s 2182 1095 m 13 Y s 1655 681 m
 427 Y s 1671 681 m -16 X s 1663 695 m -8 X s 1663 709 m -8 X s 1663 723 m -8 X s 1663 737 m -8 X s 1671 751 m -16 X s 1663 765 m -8 X s 1663 780 m -8 X s 1663 794 m -8 X s 1663 808 m -8 X s 1671 822 m -16 X s 1663 836 m -8 X s 1663 850 m -8 X s 1663
 864 m -8 X s 1663 878 m -8 X s 1671 892 m -16 X s 1663 906 m -8 X s 1663 920 m -8 X s 1663 934 m -8 X s 1663 948 m -8 X s 1671 962 m -16 X s 1663 976 m -8 X s 1663 990 m -8 X s 1663 1004 m -8 X s 1663 1018 m -8 X s 1671 1032 m -16 X s 1663 1046 m -8
 X s 1663 1060 m -8 X s 1663 1074 m -8 X s 1663 1088 m -8 X s 1671 1102 m -16 X s 1671 1102 m -16 X s 2202 681 m 427 Y s 2186 681 m 16 X s 2194 695 m 8 X s 2194 709 m 8 X s 2194 723 m 8 X s 2194 737 m 8 X s 2186 751 m 16 X s 2194 765 m 8 X s 2194 780
 m 8 X s 2194 794 m 8 X s 2194 808 m 8 X s 2186 822 m 16 X s 2194 836 m 8 X s 2194 850 m 8 X s 2194 864 m 8 X s 2194 878 m 8 X s 2186 892 m 16 X s 2194 906 m 8 X s 2194 920 m 8 X s 2194 934 m 8 X s 2194 948 m 8 X s 2186 962 m 16 X s 2194 976 m 8 X s
 2194 990 m 8 X s 2194 1004 m 8 X s 2194 1018 m 8 X s 2186 1032 m 16 X s 2194 1046 m 8 X s 2194 1060 m 8 X s 2194 1074 m 8 X s 2194 1088 m 8 X s 2186 1102 m 16 X s 2186 1102 m 16 X s
 gsave  711 565 1534 600 C 2230.83 679.067 t 90 r /Helvetica-Bold findfont 19.9646 sf 0 0 m (U/O\255flow \(S,B\): \(0.0, 0.0\)% / \(0.0, 0.0\)%) show NC gr  0.48 0.56 0.6 c 0.364706 0.419608 0.490196 c 270 38 1542 1124 bf 0.48 0.56 0.6 c 1542 1124 m
 270 X s 1812 1124 m 38 Y s 1812 1162 m -270 X s 1542 1162 m -38 Y s 1 1 1 c black 1 1 1 c
 gsave  711 565 1534 600 C 1545.91 1136.7 t 0 r /Helvetica-Bold findfont 28.5208 sf 0 0 m (Input variable: dRll) show NC gr  0.48 0.56 0.6 c 0.95 0.95 0.95 c 710 564 23 12 bf black 0.95 0.95 0.95 c 548 427 143 93 bf black 548 427 143 93 bl 0.95 0.95
 0.95 c 548 427 143 93 bf black 548 427 143 93 bl 0 0 0.933333 c 6 lw 0.49 0.6 0.82 c black 3 lw 0.49 0.6 0.82 c 143 93 m 388 Y 14 X -48 Y 14 X -22 Y 14 X -25 Y 13 X -41 Y 14 X -12 Y 14 X -21 Y 13 X -25 Y 14 X -35 Y 14 X -10 Y 13 X -10 Y 14 X -17 Y
 14 X -11 Y 13 X -7 Y 14 X -24 Y 14 X 8 Y 13 X -4 Y 14 X -28 Y 14 X -3 Y 13 X 11 Y 14 X -21 Y 14 X 8 Y 13 X -14 Y 14 X 18 Y 14 X -14 Y 13 X -8 Y 14 X 7 Y 14 X -2 Y 13 X 2 Y 14 X -12 Y 14 X 8 Y 13 X -8 Y 14 X 4 Y 28 X 7 Y 13 X -3 Y 28 X 9 Y 13 X 6 Y
 14 X -51 Y 14 X f 6 lw 0 0 0.933333 c 0.49 0.6 0.82 c 0 0 0.933333 c 143 481 m 14 X -48 Y 14 X -22 Y 14 X -25 Y 13 X -41 Y 14 X -12 Y 14 X -21 Y 13 X -25 Y 14 X -35 Y 14 X -10 Y 13 X -10 Y 14 X -17 Y 14 X -11 Y 13 X -7 Y 14 X -24 Y 14 X 8 Y 13 X -4
 Y 14 X -28 Y 14 X -3 Y 13 X 11 Y 14 X -21 Y 14 X 8 Y 13 X -14 Y 14 X 18 Y 14 X -14 Y 13 X -8 Y 14 X 7 Y 14 X -2 Y 13 X 2 Y 14 X -12 Y 14 X 8 Y 13 X -8 Y 14 X 4 Y 28 X 7 Y 13 X -3 Y 28 X 9 Y 13 X 6 Y 14 X -51 Y 14 X s black 3 lw 143 93 m 548 X s
 gsave  710 564 23 12 C 494.465 22.734 t 0 r /Helvetica-Bold findfont 28.5208 sf 0 0 m (abs\(dPll_MET\)) show NC gr  228 106 m -13 Y s 245 100 m -7 Y s 262 100 m -7 Y s 279 100 m -7 Y s 296 100 m -7 Y s 313 106 m -13 Y s 330 100 m -7 Y s 347 100 m -7
 Y s 364 100 m -7 Y s 381 100 m -7 Y s 398 106 m -13 Y s 415 100 m -7 Y s 432 100 m -7 Y s 449 100 m -7 Y s 466 100 m -7 Y s 483 106 m -13 Y s 500 100 m -7 Y s 517 100 m -7 Y s 534 100 m -7 Y s 551 100 m -7 Y s 568 106 m -13 Y s 585 100 m -7 Y s 602
 100 m -7 Y s 619 100 m -7 Y s 636 100 m -7 Y s 653 106 m -13 Y s 228 106 m -13 Y s 211 100 m -7 Y s 194 100 m -7 Y s 177 100 m -7 Y s 160 100 m -7 Y s 653 106 m -13 Y s 670 100 m -7 Y s 687 100 m -7 Y s
 gsave  710 564 23 12 C 207.448 65.3603 t 0 r /Helvetica-Bold findfont 25.6688 sf 0 0 m (0.5) show NC gr 
 gsave  710 564 23 12 C 306.909 65.3603 t 0 r /Helvetica-Bold findfont 25.6688 sf 0 0 m (1) show NC gr 
 gsave  710 564 23 12 C 377.953 65.3603 t 0 r /Helvetica-Bold findfont 25.6688 sf 0 0 m (1.5) show NC gr 
 gsave  710 564 23 12 C 474.572 65.3603 t 0 r /Helvetica-Bold findfont 25.6688 sf 0 0 m (2) show NC gr 
 gsave  710 564 23 12 C 545.616 65.3603 t 0 r /Helvetica-Bold findfont 25.6688 sf 0 0 m (2.5) show NC gr 
 gsave  710 564 23 12 C 642.236 65.3603 t 0 r /Helvetica-Bold findfont 25.6688 sf 0 0 m (3) show NC gr  143 520 m 548 X s 228 507 m 13 Y s 245 513 m 7 Y s 262 513 m 7 Y s 279 513 m 7 Y s 296 513 m 7 Y s 313 507 m 13 Y s 330 513 m 7 Y s 347 513 m 7 Y
 s 364 513 m 7 Y s 381 513 m 7 Y s 398 507 m 13 Y s 415 513 m 7 Y s 432 513 m 7 Y s 449 513 m 7 Y s 466 513 m 7 Y s 483 507 m 13 Y s 500 513 m 7 Y s 517 513 m 7 Y s 534 513 m 7 Y s 551 513 m 7 Y s 568 507 m 13 Y s 585 513 m 7 Y s 602 513 m 7 Y s 619
 513 m 7 Y s 636 513 m 7 Y s 653 507 m 13 Y s 228 507 m 13 Y s 211 513 m 7 Y s 194 513 m 7 Y s 177 513 m 7 Y s 160 513 m 7 Y s 653 507 m 13 Y s 670 513 m 7 Y s 687 513 m 7 Y s 143 93 m 427 Y s
 gsave  710 564 23 12 C 45.468 420.579 t 90 r /Helvetica-Bold findfont 28.5208 sf 0 0 m (0.0805 ) show NC gr 
 gsave  710 564 23 12 C 34.101 412.054 t 90 r /Helvetica-Bold findfont 19.9646 sf 0 0 m ( ) show NC gr 
 gsave  710 564 23 12 C 45.468 403.529 t 90 r /Helvetica-Bold findfont 28.5208 sf 0 0 m (/) show NC gr 
 gsave  710 564 23 12 C 51.1515 395.003 t 90 r /Helvetica-Bold findfont 19.9646 sf 0 0 m ( ) show NC gr 
 gsave  710 564 23 12 C 45.468 287.017 t 90 r /Helvetica-Bold findfont 28.5208 sf 0 0 m (\(1/N\) dN) show NC gr  160 93 m -17 X s 152 110 m -9 X s 152 127 m -9 X s 152 144 m -9 X s 160 161 m -17 X s 152 177 m -9 X s 152 194 m -9 X s 152 211 m -9 X s
 160 228 m -17 X s 152 245 m -9 X s 152 262 m -9 X s 152 279 m -9 X s 160 296 m -17 X s 152 312 m -9 X s 152 329 m -9 X s 152 346 m -9 X s 160 363 m -17 X s 152 380 m -9 X s 152 397 m -9 X s 152 414 m -9 X s 160 431 m -17 X s 152 447 m -9 X s 152 464
 m -9 X s 152 481 m -9 X s 160 498 m -17 X s 160 498 m -17 X s 152 515 m -9 X s
 gsave  710 564 23 12 C 119.354 82.4108 t 0 r /Helvetica-Bold findfont 25.6688 sf 0 0 m (0) show NC gr 
 gsave  710 564 23 12 C 96.6195 150.613 t 0 r /Helvetica-Bold findfont 25.6688 sf 0 0 m (0.2) show NC gr 
 gsave  710 564 23 12 C 96.6195 218.815 t 0 r /Helvetica-Bold findfont 25.6688 sf 0 0 m (0.4) show NC gr 
 gsave  710 564 23 12 C 96.6195 287.017 t 0 r /Helvetica-Bold findfont 25.6688 sf 0 0 m (0.6) show NC gr 
 gsave  710 564 23 12 C 96.6195 352.377 t 0 r /Helvetica-Bold findfont 25.6688 sf 0 0 m (0.8) show NC gr 
 gsave  710 564 23 12 C 122.195 420.579 t 0 r /Helvetica-Bold findfont 25.6688 sf 0 0 m (1) show NC gr 
 gsave  710 564 23 12 C 96.6195 488.781 t 0 r /Helvetica-Bold findfont 25.6688 sf 0 0 m (1.2) show NC gr  691 93 m 427 Y s 674 93 m 17 X s 683 110 m 8 X s 683 127 m 8 X s 683 144 m 8 X s 674 161 m 17 X s 683 177 m 8 X s 683 194 m 8 X s 683 211 m 8 X
 s 674 228 m 17 X s 683 245 m 8 X s 683 262 m 8 X s 683 279 m 8 X s 674 296 m 17 X s 683 312 m 8 X s 683 329 m 8 X s 683 346 m 8 X s 674 363 m 17 X s 683 380 m 8 X s 683 397 m 8 X s 683 414 m 8 X s 674 431 m 17 X s 683 447 m 8 X s 683 464 m 8 X s 683
 481 m 8 X s 674 498 m 17 X s 674 498 m 17 X s 683 515 m 8 X s 1 0 0 c 6 lw black 3 lw 1 0 0 c 677 94 m -1 -1 d s 677 109 m -16 -16 d s 677 124 m -31 -31 d s 677 139 m -46 -46 d s 677 155 m -61 -62 d s 674 167 m -73 -74 d s 663 171 m -13 -14 d s 643
 151 m -57 -58 d s 663 186 m -13 -13 d s 636 159 m -65 -66 d s 663 202 m -13 -14 d s 636 174 m -80 -81 d s 663 217 m -13 -14 d s 636 189 m -95 -96 d s 663 232 m -13 -14 d s 636 204 m -111 -111 d s 663 247 m -13 -14 d s 625 209 m -16 -17 d s 599 182 m
 -4 -4 d s 590 173 m -23 -22 d s 563 146 m -53 -53 d s 663 262 m -13 -13 d s 581 180 m -14 -14 d s 554 152 m -28 -28 d s 522 120 m -27 -27 d s 663 277 m -13 -13 d s 581 195 m -14 -14 d s 554 167 m -28 -27 d s 513 126 m -14 -14 d s 490 103 m -10 -10 d
 s 662 292 m -12 -13 d s 581 210 m -14 -14 d s 554 182 m -28 -27 d s 513 141 m -14 -14 d s 485 114 m -20 -21 d s 581 225 m -14 -14 d s 554 198 m -28 -28 d s 513 156 m -14 -14 d s 485 129 m -35 -36 d s 575 234 m -8 -7 d s 554 213 m -28 -28 d s 513 171
 m -14 -13 d s 485 144 m -50 -51 d s 554 228 m -14 -14 d s 532 206 m -6 -6 d s 508 181 m -9 -8 d s 485 159 m -65 -66 d s 552 241 m -12 -12 d s 485 174 m -80 -81 d s 485 189 m -13 -13 d s 463 167 m -32 -33 d s 429 133 m -39 -40 d s 485 205 m -13 -14 d
 s 454 173 m -23 -23 d s 417 136 m -42 -43 d s 485 220 m -13 -14 d s 444 178 m -13 -13 d s 417 151 m -57 -58 d s 485 235 m -13 -14 d s 444 194 m -13 -14 d s 417 166 m -72 -73 d s 485 250 m -13 -14 d s 444 209 m -13 -14 d s 403 168 m -74 -75 d s 485
 265 m -13 -13 d s 444 224 m -13 -14 d s 403 183 m -89 -90 d s 485 281 m -13 -14 d s 442 237 m -11 -12 d s 403 198 m -104 -105 d s 485 296 m -13 -14 d s 403 213 m -119 -120 d s 399 224 m -9 -10 d s 387 212 m -11 -11 d s 369 194 m -7 -7 d s 351 175 m
 -57 -57 d s 283 107 m -14 -14 d s 349 188 m -55 -55 d s 280 119 m -26 -26 d s 349 203 m -28 -27 d s 316 171 m -22 -23 d s 280 135 m -41 -42 d s 341 211 m -20 -20 d s 308 177 m -14 -13 d s 280 150 m -56 -57 d s 335 220 m -14 -14 d s 308 193 m -14 -14
 d s 280 165 m -71 -72 d s 335 235 m -14 -14 d s 304 204 m -10 -10 d s 280 180 m -86 -87 d s 330 245 m -9 -8 d s 280 195 m -13 -13 d s 260 174 m -7 -6 d s 244 158 m -65 -65 d s 280 211 m -13 -14 d s 239 169 m -75 -76 d s 280 226 m -13 -14 d s 239 184
 m -90 -91 d s 280 241 m -13 -14 d s 239 200 m -96 -97 d s 280 256 m -13 -14 d s 228 203 m -2 -2 d s 223 199 m -80 -81 d s 280 271 m -13 -14 d s 212 202 m -69 -69 d s 274 280 m -7 -7 d s 199 204 m -56 -55 d s 198 219 m -55 -55 d s 198 234 m -55 -55 d
 s 198 249 m -27 -27 d s 170 221 m -27 -27 d s 198 265 m -13 -14 d s 173 239 m -2 -2 d s 157 223 m -14 -14 d s 198 280 m -13 -14 d s 157 238 m -14 -13 d s 198 295 m -13 -14 d s 157 254 m -14 -14 d s 198 310 m -13 -14 d s 157 269 m -14 -14 d s 185 312
 m -1 Y s 157 284 m -14 -14 d s 157 299 m -14 -14 d s 149 306 m -6 -5 d s 6 lw 143 306 m 14 X -85 Y 14 X 18 Y 14 X 73 Y 13 X -108 Y 14 X -5 Y 14 X 4 Y 13 X -45 Y 14 X 16 Y 14 X 106 Y 13 X -173 Y 14 X 97 Y 14 X -33 Y 13 X 74 Y 14 X -34 Y 14 X -36 Y 13
 X 19 Y 14 X 18 Y 14 X 12 Y 13 X -56 Y 14 X -35 Y 14 X 104 Y 13 X -64 Y 14 X -6 Y 14 X 129 Y 13 X -193 Y 14 X 78 Y 14 X -61 Y 13 X 86 Y 14 X 35 Y 14 X -95 Y 13 X 88 Y 14 X -61 Y 14 X 9 Y 14 X 24 Y 13 X 3 Y 14 X -58 Y 14 X 141 Y 13 X -125 Y 14 X -74 Y
 14 X s black 3 lw 143 93 m 548 X s 228 106 m -13 Y s 245 100 m -7 Y s 262 100 m -7 Y s 279 100 m -7 Y s 296 100 m -7 Y s 313 106 m -13 Y s 330 100 m -7 Y s 347 100 m -7 Y s 364 100 m -7 Y s 381 100 m -7 Y s 398 106 m -13 Y s 415 100 m -7 Y s 432 100
 m -7 Y s 449 100 m -7 Y s 466 100 m -7 Y s 483 106 m -13 Y s 500 100 m -7 Y s 517 100 m -7 Y s 534 100 m -7 Y s 551 100 m -7 Y s 568 106 m -13 Y s 585 100 m -7 Y s 602 100 m -7 Y s 619 100 m -7 Y s 636 100 m -7 Y s 653 106 m -13 Y s 228 106 m -13 Y
 s 211 100 m -7 Y s 194 100 m -7 Y s 177 100 m -7 Y s 160 100 m -7 Y s 653 106 m -13 Y s 670 100 m -7 Y s 687 100 m -7 Y s 143 520 m 548 X s 228 507 m 13 Y s 245 513 m 7 Y s 262 513 m 7 Y s 279 513 m 7 Y s 296 513 m 7 Y s 313 507 m 13 Y s 330 513 m 7
 Y s 347 513 m 7 Y s 364 513 m 7 Y s 381 513 m 7 Y s 398 507 m 13 Y s 415 513 m 7 Y s 432 513 m 7 Y s 449 513 m 7 Y s 466 513 m 7 Y s 483 507 m 13 Y s 500 513 m 7 Y s 517 513 m 7 Y s 534 513 m 7 Y s 551 513 m 7 Y s 568 507 m 13 Y s 585 513 m 7 Y s
 602 513 m 7 Y s 619 513 m 7 Y s 636 513 m 7 Y s 653 507 m 13 Y s 228 507 m 13 Y s 211 513 m 7 Y s 194 513 m 7 Y s 177 513 m 7 Y s 160 513 m 7 Y s 653 507 m 13 Y s 670 513 m 7 Y s 687 513 m 7 Y s 143 93 m 427 Y s 160 93 m -17 X s 152 110 m -9 X s 152
 127 m -9 X s 152 144 m -9 X s 160 161 m -17 X s 152 177 m -9 X s 152 194 m -9 X s 152 211 m -9 X s 160 228 m -17 X s 152 245 m -9 X s 152 262 m -9 X s 152 279 m -9 X s 160 296 m -17 X s 152 312 m -9 X s 152 329 m -9 X s 152 346 m -9 X s 160 363 m
 -17 X s 152 380 m -9 X s 152 397 m -9 X s 152 414 m -9 X s 160 431 m -17 X s 152 447 m -9 X s 152 464 m -9 X s 152 481 m -9 X s 160 498 m -17 X s 160 498 m -17 X s 152 515 m -9 X s 691 93 m 427 Y s 674 93 m 17 X s 683 110 m 8 X s 683 127 m 8 X s 683
 144 m 8 X s 674 161 m 17 X s 683 177 m 8 X s 683 194 m 8 X s 683 211 m 8 X s 674 228 m 17 X s 683 245 m 8 X s 683 262 m 8 X s 683 279 m 8 X s 674 296 m 17 X s 683 312 m 8 X s 683 329 m 8 X s 683 346 m 8 X s 674 363 m 17 X s 683 380 m 8 X s 683 397 m
 8 X s 683 414 m 8 X s 674 431 m 17 X s 683 447 m 8 X s 683 464 m 8 X s 683 481 m 8 X s 674 498 m 17 X s 674 498 m 17 X s 683 515 m 8 X s
 gsave  710 564 23 12 C 719.017 90.8246 t 90 r /Helvetica-Bold findfont 19.9646 sf 0 0 m (U/O\255flow \(S,B\): \(0.0, 0.0\)% / \(0.0, 0.0\)%) show NC gr  0.48 0.56 0.6 c 0.364706 0.419608 0.490196 c 412 38 30 536 bf 0.48 0.56 0.6 c 30 536 m 412 X s
 442 536 m 38 Y s 442 574 m -412 X s 30 574 m -38 Y s 1 1 1 c black 1 1 1 c
 gsave  710 564 23 12 C 34.101 548.458 t 0 r /Helvetica-Bold findfont 28.5208 sf 0 0 m (Input variable: abs\(dPll_MET\)) show NC gr  0.48 0.56 0.6 c 0.95 0.95 0.95 c 710 564 779 12 bf black 0.95 0.95 0.95 c 548 427 899 93 bf black 548 427 899 93 bl
 0.95 0.95 0.95 c 548 427 899 93 bf black 548 427 899 93 bl 0 0 0.933333 c 6 lw 0.49 0.6 0.82 c black 3 lw 0.49 0.6 0.82 c 899 93 m 2 Y 14 X 5 Y 14 X 2 Y 13 X 17 Y 14 X 6 Y 14 X 6 Y 13 X -38 Y 14 X 32 Y 14 X 35 Y 13 X 16 Y 14 X -5 Y 14 X 12 Y 14 X -2
 Y 13 X 4 Y 14 X 15 Y 14 X -18 Y 13 X 12 Y 14 X -13 Y 14 X 15 Y 13 X -13 Y 14 X -3 Y 27 X -7 Y 14 X 5 Y 14 X -9 Y 13 X 3 Y 14 X -14 Y 14 X -1 Y 13 X -7 Y 14 X 6 Y 14 X -12 Y 13 X -11 Y 14 X -3 Y 14 X -5 Y 13 X -6 Y 14 X -9 Y 14 X -6 Y 13 X -5 Y 14 X
 -5 Y 14 X -1 Y 14 X f 6 lw 0 0 0.933333 c 0.49 0.6 0.82 c 0 0 0.933333 c 899 95 m 14 X 5 Y 14 X 2 Y 13 X 17 Y 14 X 6 Y 14 X 6 Y 13 X -38 Y 14 X 32 Y 14 X 35 Y 13 X 16 Y 14 X -5 Y 14 X 12 Y 14 X -2 Y 13 X 4 Y 14 X 15 Y 14 X -18 Y 13 X 12 Y 14 X -13 Y
 14 X 15 Y 13 X -13 Y 14 X -3 Y 27 X -7 Y 14 X 5 Y 14 X -9 Y 13 X 3 Y 14 X -14 Y 14 X -1 Y 13 X -7 Y 14 X 6 Y 14 X -12 Y 13 X -11 Y 14 X -3 Y 14 X -5 Y 13 X -6 Y 14 X -9 Y 14 X -6 Y 13 X -5 Y 14 X -5 Y 14 X -1 Y 14 X s black 3 lw 899 93 m 548 X s
 gsave  710 564 779 12 C 1406.67 19.8923 t 0 r /Helvetica-Bold findfont 28.5208 sf 0 0 m (Mll) show NC gr  1001 106 m -13 Y s 1023 100 m -7 Y s 1045 100 m -7 Y s 1066 100 m -7 Y s 1088 100 m -7 Y s 1110 106 m -13 Y s 1131 100 m -7 Y s 1153 100 m -7 Y
 s 1175 100 m -7 Y s 1196 100 m -7 Y s 1218 106 m -13 Y s 1240 100 m -7 Y s 1261 100 m -7 Y s 1283 100 m -7 Y s 1305 100 m -7 Y s 1326 106 m -13 Y s 1348 100 m -7 Y s 1369 100 m -7 Y s 1391 100 m -7 Y s 1413 100 m -7 Y s 1434 106 m -13 Y s 1001 106 m
 -13 Y s 980 100 m -7 Y s 958 100 m -7 Y s 936 100 m -7 Y s 915 100 m -7 Y s 1434 106 m -13 Y s
 gsave  710 564 779 12 C 977.562 65.3603 t 0 r /Helvetica-Bold findfont 25.6688 sf 0 0 m (100) show NC gr 
 gsave  710 564 779 12 C 1085.55 65.3603 t 0 r /Helvetica-Bold findfont 25.6688 sf 0 0 m (200) show NC gr 
 gsave  710 564 779 12 C 1193.54 65.3603 t 0 r /Helvetica-Bold findfont 25.6688 sf 0 0 m (300) show NC gr 
 gsave  710 564 779 12 C 1301.52 65.3603 t 0 r /Helvetica-Bold findfont 25.6688 sf 0 0 m (400) show NC gr 
 gsave  710 564 779 12 C 1409.51 65.3603 t 0 r /Helvetica-Bold findfont 25.6688 sf 0 0 m (500) show NC gr  899 520 m 548 X s 1001 507 m 13 Y s 1023 513 m 7 Y s 1045 513 m 7 Y s 1066 513 m 7 Y s 1088 513 m 7 Y s 1110 507 m 13 Y s 1131 513 m 7 Y s 1153
 513 m 7 Y s 1175 513 m 7 Y s 1196 513 m 7 Y s 1218 507 m 13 Y s 1240 513 m 7 Y s 1261 513 m 7 Y s 1283 513 m 7 Y s 1305 513 m 7 Y s 1326 507 m 13 Y s 1348 513 m 7 Y s 1369 513 m 7 Y s 1391 513 m 7 Y s 1413 513 m 7 Y s 1434 507 m 13 Y s 1001 507 m 13
 Y s 980 513 m 7 Y s 958 513 m 7 Y s 936 513 m 7 Y s 915 513 m 7 Y s 1434 507 m 13 Y s 899 93 m 427 Y s
 gsave  710 564 779 12 C 804.215 451.838 t 90 r /Helvetica-Bold findfont 28.5208 sf 0 0 m (12.6 ) show NC gr 
 gsave  710 564 779 12 C 790.007 443.313 t 90 r /Helvetica-Bold findfont 19.9646 sf 0 0 m ( ) show NC gr 
 gsave  710 564 779 12 C 804.215 434.788 t 90 r /Helvetica-Bold findfont 28.5208 sf 0 0 m (/) show NC gr 
 gsave  710 564 779 12 C 809.899 426.263 t 90 r /Helvetica-Bold findfont 19.9646 sf 0 0 m ( ) show NC gr 
 gsave  710 564 779 12 C 804.215 318.276 t 90 r /Helvetica-Bold findfont 28.5208 sf 0 0 m (\(1/N\) dN) show NC gr  915 93 m -16 X s 907 107 m -8 X s 907 121 m -8 X s 907 134 m -8 X s 915 148 m -16 X s 907 162 m -8 X s 907 176 m -8 X s 907 190 m -8 X
 s 915 203 m -16 X s 907 217 m -8 X s 907 231 m -8 X s 907 245 m -8 X s 915 259 m -16 X s 907 272 m -8 X s 907 286 m -8 X s 907 300 m -8 X s 915 314 m -16 X s 907 327 m -8 X s 907 341 m -8 X s 907 355 m -8 X s 915 369 m -16 X s 907 383 m -8 X s 907
 396 m -8 X s 907 410 m -8 X s 915 424 m -16 X s 907 438 m -8 X s 907 452 m -8 X s 907 465 m -8 X s 915 479 m -16 X s 915 479 m -16 X s 907 493 m -8 X s 907 507 m -8 X s
 gsave  710 564 779 12 C 875.259 82.4108 t 0 r /Helvetica-Bold findfont 25.6688 sf 0 0 m (0) show NC gr 
 gsave  710 564 779 12 C 824.107 139.246 t 0 r /Helvetica-Bold findfont 25.6688 sf 0 0 m (0.002) show NC gr 
 gsave  710 564 779 12 C 824.107 193.239 t 0 r /Helvetica-Bold findfont 25.6688 sf 0 0 m (0.004) show NC gr 
 gsave  710 564 779 12 C 824.107 247.232 t 0 r /Helvetica-Bold findfont 25.6688 sf 0 0 m (0.006) show NC gr 
 gsave  710 564 779 12 C 824.107 304.067 t 0 r /Helvetica-Bold findfont 25.6688 sf 0 0 m (0.008) show NC gr 
 gsave  710 564 779 12 C 844 358.061 t 0 r /Helvetica-Bold findfont 25.6688 sf 0 0 m (0.01) show NC gr 
 gsave  710 564 779 12 C 824.107 414.896 t 0 r /Helvetica-Bold findfont 25.6688 sf 0 0 m (0.012) show NC gr 
 gsave  710 564 779 12 C 824.107 468.889 t 0 r /Helvetica-Bold findfont 25.6688 sf 0 0 m (0.014) show NC gr  1447 93 m 427 Y s 1430 93 m 17 X s 1438 107 m 9 X s 1438 121 m 9 X s 1438 134 m 9 X s 1430 148 m 17 X s 1438 162 m 9 X s 1438 176 m 9 X s
 1438 190 m 9 X s 1430 203 m 17 X s 1438 217 m 9 X s 1438 231 m 9 X s 1438 245 m 9 X s 1430 259 m 17 X s 1438 272 m 9 X s 1438 286 m 9 X s 1438 300 m 9 X s 1430 314 m 17 X s 1438 327 m 9 X s 1438 341 m 9 X s 1438 355 m 9 X s 1430 369 m 17 X s 1438
 383 m 9 X s 1438 396 m 9 X s 1438 410 m 9 X s 1430 424 m 17 X s 1438 438 m 9 X s 1438 452 m 9 X s 1438 465 m 9 X s 1430 479 m 17 X s 1430 479 m 17 X s 1438 493 m 9 X s 1438 507 m 9 X s 1 0 0 c 6 lw black 3 lw 1 0 0 c 1432 93 m s 1417 93 m s 1403 94
 m -1 -1 d s 1387 93 m s 1378 99 m -6 -6 d s 1365 101 m -8 -8 d s 1354 106 m -12 -13 d s 1341 107 m -4 -3 d s 1328 95 m -1 -2 d s 1323 105 m -12 -12 d s 1310 107 m -1 Y s 1308 105 m -12 -12 d s 1296 108 m -15 -15 d s 1293 121 m -11 -12 d s 1269 96 m
 -3 -3 d s 1259 101 m -8 -8 d s 1244 101 m -3 -3 d s 1236 93 m cl s 1228 100 m -7 -7 d s 1222 109 m -16 -16 d s 1214 116 m -23 -23 d s 1208 126 m -8 -8 d s 1193 110 m -17 -17 d s 1178 110 m -5 -5 d s 1172 104 m -11 -11 d s 1159 107 m -13 -14 d s 1159
 122 m -28 -29 d s 1159 137 m -13 -14 d s 1134 112 m -2 -2 d s 1130 108 m -14 -15 d s 1159 152 m -13 -13 d s 1118 111 m -18 -18 d s 1159 168 m -13 -14 d s 1117 125 m -32 -32 d s 1153 176 m -7 -7 d s 1105 128 m -35 -35 d s 1105 143 m -50 -50 d s 1105
 158 m -65 -65 d s 1105 173 m -14 -14 d s 1083 151 m -58 -58 d s 1092 176 m -1 -1 d s 1066 150 m -56 -57 d s 1064 162 m -69 -69 d s 995 93 m s 1060 174 m -65 -66 d s 981 95 m -1 -2 d s 1048 177 m -53 -53 d s 981 110 m -16 -17 d s 1036 180 m -41 -41 d
 s 981 125 m -31 -32 d s 1036 195 m -41 -41 d s 981 140 m -46 -47 d s 1036 211 m -27 -28 d s 998 172 m -3 -3 d s 981 155 m -61 -62 d s 1031 220 m -22 -22 d s 981 171 m -76 -78 d s 1022 227 m -13 -14 d s 981 186 m -82 -83 d s 1022 242 m -13 -13 d s
 981 201 m -82 -83 d s 1022 257 m -13 -13 d s 981 216 m -82 -83 d s 1022 273 m -13 -14 d s 981 231 m -13 -13 d s 962 212 m -63 -63 d s 1022 287 m -13 -13 d s 981 247 m -13 -14 d s 954 219 m -55 -55 d s 981 262 m -13 -14 d s 954 234 m -14 -14 d s 932
 212 m -19 -19 d s 907 187 m -8 -8 d s 981 277 m -13 -14 d s 954 249 m -14 -13 d s 927 222 m -14 -14 d s 981 292 m -13 -14 d s 954 265 m -14 -14 d s 924 234 m -11 -11 d s 981 307 m -13 -14 d s 954 280 m -14 -14 d s 981 322 m -13 -13 d s 954 295 m -14
 -14 d s 981 338 m -13 -14 d s 953 309 m -13 -13 d s 981 353 m -13 -14 d s 981 368 m -13 -14 d s 981 383 m -13 -14 d s 981 398 m -13 -13 d s 981 414 m -13 -14 d s 981 429 m -13 -14 d s 981 444 m -13 -14 d s 981 459 m -13 -14 d s 981 474 m -13 -13 d s
 973 481 m -5 -5 d s 6 lw 899 187 m 14 X 47 Y 14 X -22 Y 13 X 97 Y 14 X -97 Y 14 X 269 Y 13 X -388 Y 14 X 79 Y 14 X 115 Y 13 X -67 Y 14 X -43 Y 14 X -3 Y 14 X -24 Y 13 X 1 Y 14 X 25 Y 14 X -51 Y 13 X -17 Y 14 X 4 Y 14 X 64 Y 13 X -72 Y 14 X 6 Y 27 X
 16 Y 14 X -17 Y 14 X -16 Y 13 X 8 Y 28 X -5 Y 13 X 25 Y 14 X -16 Y 14 X 2 Y 13 X -12 Y 14 X 12 Y 14 X -1 Y 13 X -5 Y 14 X -8 Y 14 X 1 Y 13 X -1 Y 42 X s black 3 lw 899 93 m 548 X s 1001 106 m -13 Y s 1023 100 m -7 Y s 1045 100 m -7 Y s 1066 100 m -7
 Y s 1088 100 m -7 Y s 1110 106 m -13 Y s 1131 100 m -7 Y s 1153 100 m -7 Y s 1175 100 m -7 Y s 1196 100 m -7 Y s 1218 106 m -13 Y s 1240 100 m -7 Y s 1261 100 m -7 Y s 1283 100 m -7 Y s 1305 100 m -7 Y s 1326 106 m -13 Y s 1348 100 m -7 Y s 1369 100
 m -7 Y s 1391 100 m -7 Y s 1413 100 m -7 Y s 1434 106 m -13 Y s 1001 106 m -13 Y s 980 100 m -7 Y s 958 100 m -7 Y s 936 100 m -7 Y s 915 100 m -7 Y s 1434 106 m -13 Y s 899 520 m 548 X s 1001 507 m 13 Y s 1023 513 m 7 Y s 1045 513 m 7 Y s 1066 513
 m 7 Y s 1088 513 m 7 Y s 1110 507 m 13 Y s 1131 513 m 7 Y s 1153 513 m 7 Y s 1175 513 m 7 Y s 1196 513 m 7 Y s 1218 507 m 13 Y s 1240 513 m 7 Y s 1261 513 m 7 Y s 1283 513 m 7 Y s 1305 513 m 7 Y s 1326 507 m 13 Y s 1348 513 m 7 Y s 1369 513 m 7 Y s
 1391 513 m 7 Y s 1413 513 m 7 Y s 1434 507 m 13 Y s 1001 507 m 13 Y s 980 513 m 7 Y s 958 513 m 7 Y s 936 513 m 7 Y s 915 513 m 7 Y s 1434 507 m 13 Y s 899 93 m 427 Y s 915 93 m -16 X s 907 107 m -8 X s 907 121 m -8 X s 907 134 m -8 X s 915 148 m
 -16 X s 907 162 m -8 X s 907 176 m -8 X s 907 190 m -8 X s 915 203 m -16 X s 907 217 m -8 X s 907 231 m -8 X s 907 245 m -8 X s 915 259 m -16 X s 907 272 m -8 X s 907 286 m -8 X s 907 300 m -8 X s 915 314 m -16 X s 907 327 m -8 X s 907 341 m -8 X s
 907 355 m -8 X s 915 369 m -16 X s 907 383 m -8 X s 907 396 m -8 X s 907 410 m -8 X s 915 424 m -16 X s 907 438 m -8 X s 907 452 m -8 X s 907 465 m -8 X s 915 479 m -16 X s 915 479 m -16 X s 907 493 m -8 X s 907 507 m -8 X s 1447 93 m 427 Y s 1430
 93 m 17 X s 1438 107 m 9 X s 1438 121 m 9 X s 1438 134 m 9 X s 1430 148 m 17 X s 1438 162 m 9 X s 1438 176 m 9 X s 1438 190 m 9 X s 1430 203 m 17 X s 1438 217 m 9 X s 1438 231 m 9 X s 1438 245 m 9 X s 1430 259 m 17 X s 1438 272 m 9 X s 1438 286 m 9
 X s 1438 300 m 9 X s 1430 314 m 17 X s 1438 327 m 9 X s 1438 341 m 9 X s 1438 355 m 9 X s 1430 369 m 17 X s 1438 383 m 9 X s 1438 396 m 9 X s 1438 410 m 9 X s 1430 424 m 17 X s 1438 438 m 9 X s 1438 452 m 9 X s 1438 465 m 9 X s 1430 479 m 17 X s
 1430 479 m 17 X s 1438 493 m 9 X s 1438 507 m 9 X s
 gsave  710 564 779 12 C 1474.92 90.8246 t 90 r /Helvetica-Bold findfont 19.9646 sf 0 0 m (U/O\255flow \(S,B\): \(0.0, 0.0\)% / \(0.0, 0.0\)%) show NC gr  0.48 0.56 0.6 c 0.364706 0.419608 0.490196 c 255 38 786 536 bf 0.48 0.56 0.6 c 786 536 m 255 X
 s 1041 536 m 38 Y s 1041 574 m -255 X s 786 574 m -38 Y s 1 1 1 c black 1 1 1 c
 gsave  710 564 779 12 C 790.007 548.458 t 0 r /Helvetica-Bold findfont 28.5208 sf 0 0 m (Input variable: Mll) show NC gr  0.48 0.56 0.6 c 0.95 0.95 0.95 c 711 564 1534 12 bf black 0.95 0.95 0.95 c 547 427 1655 93 bf black 547 427 1655 93 bl 0.95
 0.95 0.95 c 547 427 1655 93 bf black 547 427 1655 93 bl 0 0 0.933333 c 6 lw 0.49 0.6 0.82 c black 3 lw 0.49 0.6 0.82 c 1655 93 m 31 Y 14 X 25 Y 14 X 8 Y 13 X -1 Y 14 X 4 Y 14 X -3 Y 13 X -5 Y 14 X -5 Y 14 X -16 Y 13 X -2 Y 14 X -8 Y 14 X -7 Y 13 X
 -2 Y 14 X -6 Y 14 X 1 Y 13 X -6 Y 14 X 1 Y 14 X -4 Y 13 X 1 Y 14 X -2 Y 28 X -1 Y 13 X -1 Y 14 X 1 Y 14 X -1 Y 13 X -1 Y 82 X -1 Y 14 X 1 Y 14 X -1 Y 95 X f 6 lw 0 0 0.933333 c 0.49 0.6 0.82 c 0 0 0.933333 c 1655 124 m 14 X 25 Y 14 X 8 Y 13 X -1 Y
 14 X 4 Y 14 X -3 Y 13 X -5 Y 14 X -5 Y 14 X -16 Y 13 X -2 Y 14 X -8 Y 14 X -7 Y 13 X -2 Y 14 X -6 Y 14 X 1 Y 13 X -6 Y 14 X 1 Y 14 X -4 Y 13 X 1 Y 14 X -2 Y 28 X -1 Y 13 X -1 Y 14 X 1 Y 14 X -1 Y 13 X -1 Y 82 X -1 Y 14 X 1 Y 14 X -1 Y 95 X s black 3
 lw 1655 93 m 547 X s
 gsave  711 564 1534 12 C 2142.68 19.8923 t 0 r /Helvetica-Bold findfont 28.5208 sf 0 0 m (MET) show NC gr  1731 106 m -13 Y s 1752 100 m -7 Y s 1773 100 m -7 Y s 1793 100 m -7 Y s 1814 106 m -13 Y s 1835 100 m -7 Y s 1856 100 m -7 Y s 1877 100 m -7
 Y s 1898 106 m -13 Y s 1919 100 m -7 Y s 1940 100 m -7 Y s 1961 100 m -7 Y s 1982 106 m -13 Y s 2003 100 m -7 Y s 2024 100 m -7 Y s 2045 100 m -7 Y s 2066 106 m -13 Y s 2087 100 m -7 Y s 2108 100 m -7 Y s 2128 100 m -7 Y s 2149 106 m -13 Y s 1731
 106 m -13 Y s 1710 100 m -7 Y s 1689 100 m -7 Y s 1668 100 m -7 Y s 2149 106 m -13 Y s 2170 100 m -7 Y s 2191 100 m -7 Y s
 gsave  711 564 1534 12 C 1707.89 65.3603 t 0 r /Helvetica-Bold findfont 25.6688 sf 0 0 m (200) show NC gr 
 gsave  711 564 1534 12 C 1790.3 65.3603 t 0 r /Helvetica-Bold findfont 25.6688 sf 0 0 m (400) show NC gr 
 gsave  711 564 1534 12 C 1872.71 65.3603 t 0 r /Helvetica-Bold findfont 25.6688 sf 0 0 m (600) show NC gr 
 gsave  711 564 1534 12 C 1957.97 65.3603 t 0 r /Helvetica-Bold findfont 25.6688 sf 0 0 m (800) show NC gr 
 gsave  711 564 1534 12 C 2034.69 65.3603 t 0 r /Helvetica-Bold findfont 25.6688 sf 0 0 m (1000) show NC gr 
 gsave  711 564 1534 12 C 2119.95 65.3603 t 0 r /Helvetica-Bold findfont 25.6688 sf 0 0 m (1200) show NC gr  1655 520 m 547 X s 1731 507 m 13 Y s 1752 513 m 7 Y s 1773 513 m 7 Y s 1793 513 m 7 Y s 1814 507 m 13 Y s 1835 513 m 7 Y s 1856 513 m 7 Y s
 1877 513 m 7 Y s 1898 507 m 13 Y s 1919 513 m 7 Y s 1940 513 m 7 Y s 1961 513 m 7 Y s 1982 507 m 13 Y s 2003 513 m 7 Y s 2024 513 m 7 Y s 2045 513 m 7 Y s 2066 507 m 13 Y s 2087 513 m 7 Y s 2108 513 m 7 Y s 2128 513 m 7 Y s 2149 507 m 13 Y s 1731
 507 m 13 Y s 1710 513 m 7 Y s 1689 513 m 7 Y s 1668 513 m 7 Y s 2149 507 m 13 Y s 2170 513 m 7 Y s 2191 513 m 7 Y s 1655 93 m 427 Y s
 gsave  711 564 1534 12 C 1560.12 451.838 t 90 r /Helvetica-Bold findfont 28.5208 sf 0 0 m (32.7 ) show NC gr 
 gsave  711 564 1534 12 C 1545.91 443.313 t 90 r /Helvetica-Bold findfont 19.9646 sf 0 0 m ( ) show NC gr 
 gsave  711 564 1534 12 C 1560.12 434.788 t 90 r /Helvetica-Bold findfont 28.5208 sf 0 0 m (/) show NC gr 
 gsave  711 564 1534 12 C 1565.8 426.263 t 90 r /Helvetica-Bold findfont 19.9646 sf 0 0 m ( ) show NC gr 
 gsave  711 564 1534 12 C 1560.12 318.276 t 90 r /Helvetica-Bold findfont 28.5208 sf 0 0 m (\(1/N\) dN) show NC gr  1671 93 m -16 X s 1663 104 m -8 X s 1663 115 m -8 X s 1663 126 m -8 X s 1671 137 m -16 X s 1663 148 m -8 X s 1663 159 m -8 X s 1663
 170 m -8 X s 1671 181 m -16 X s 1663 193 m -8 X s 1663 204 m -8 X s 1663 215 m -8 X s 1671 226 m -16 X s 1663 237 m -8 X s 1663 248 m -8 X s 1663 259 m -8 X s 1671 270 m -16 X s 1663 281 m -8 X s 1663 292 m -8 X s 1663 303 m -8 X s 1671 314 m -16 X
 s 1663 325 m -8 X s 1663 336 m -8 X s 1663 347 m -8 X s 1671 358 m -16 X s 1663 369 m -8 X s 1663 380 m -8 X s 1663 391 m -8 X s 1671 402 m -16 X s 1663 413 m -8 X s 1663 424 m -8 X s 1663 436 m -8 X s 1671 447 m -16 X s 1663 458 m -8 X s 1663 469 m
 -8 X s 1663 480 m -8 X s 1671 491 m -16 X s 1671 491 m -16 X s 1663 502 m -8 X s 1663 513 m -8 X s
 gsave  711 564 1534 12 C 1631.16 82.4108 t 0 r /Helvetica-Bold findfont 25.6688 sf 0 0 m (0) show NC gr 
 gsave  711 564 1534 12 C 1580.01 127.879 t 0 r /Helvetica-Bold findfont 25.6688 sf 0 0 m (0.002) show NC gr 
 gsave  711 564 1534 12 C 1580.01 170.505 t 0 r /Helvetica-Bold findfont 25.6688 sf 0 0 m (0.004) show NC gr 
 gsave  711 564 1534 12 C 1580.01 215.973 t 0 r /Helvetica-Bold findfont 25.6688 sf 0 0 m (0.006) show NC gr 
 gsave  711 564 1534 12 C 1580.01 258.599 t 0 r /Helvetica-Bold findfont 25.6688 sf 0 0 m (0.008) show NC gr 
 gsave  711 564 1534 12 C 1599.91 304.067 t 0 r /Helvetica-Bold findfont 25.6688 sf 0 0 m (0.01) show NC gr 
 gsave  711 564 1534 12 C 1580.01 349.535 t 0 r /Helvetica-Bold findfont 25.6688 sf 0 0 m (0.012) show NC gr 
 gsave  711 564 1534 12 C 1580.01 392.162 t 0 r /Helvetica-Bold findfont 25.6688 sf 0 0 m (0.014) show NC gr 
 gsave  711 564 1534 12 C 1580.01 437.63 t 0 r /Helvetica-Bold findfont 25.6688 sf 0 0 m (0.016) show NC gr 
 gsave  711 564 1534 12 C 1580.01 480.256 t 0 r /Helvetica-Bold findfont 25.6688 sf 0 0 m (0.018) show NC gr  2202 93 m 427 Y s 2186 93 m 16 X s 2194 104 m 8 X s 2194 115 m 8 X s 2194 126 m 8 X s 2186 137 m 16 X s 2194 148 m 8 X s 2194 159 m 8 X s
 2194 170 m 8 X s 2186 181 m 16 X s 2194 193 m 8 X s 2194 204 m 8 X s 2194 215 m 8 X s 2186 226 m 16 X s 2194 237 m 8 X s 2194 248 m 8 X s 2194 259 m 8 X s 2186 270 m 16 X s 2194 281 m 8 X s 2194 292 m 8 X s 2194 303 m 8 X s 2186 314 m 16 X s 2194
 325 m 8 X s 2194 336 m 8 X s 2194 347 m 8 X s 2186 358 m 16 X s 2194 369 m 8 X s 2194 380 m 8 X s 2194 391 m 8 X s 2186 402 m 16 X s 2194 413 m 8 X s 2194 424 m 8 X s 2194 436 m 8 X s 2186 447 m 16 X s 2194 458 m 8 X s 2194 469 m 8 X s 2194 480 m 8
 X s 2186 491 m 16 X s 2186 491 m 16 X s 2194 502 m 8 X s 2194 513 m 8 X s 1 0 0 c 6 lw black 3 lw 1 0 0 c 2188 93 m s 2173 93 m s 2158 93 m s 2143 93 m s 2128 93 m s 2113 93 m s 2098 93 m s 2082 93 m s 2067 93 m s 2052 93 m s 2037 93 m s 2022 93 m s
 2007 93 m s 1992 93 m s 1977 93 m cl s 1962 93 m s 1947 93 m s 1932 93 m s 1917 93 m s 1902 93 m s 1887 93 m s 1871 93 m s 1856 93 m cl s 1841 93 m s 1826 93 m s 1812 94 m -1 -1 d s 1797 94 m -1 -1 d s 1785 97 m -4 -4 d s 1773 100 m -7 -7 d s 1761
 103 m -10 -10 d s 1751 93 m s 1736 93 m s 1724 96 m -3 -3 d s 1717 104 m -11 -11 d s 1710 113 m -19 -20 d s 1705 123 m -30 -30 d s 1696 129 m -36 -36 d s 1696 144 m -41 -41 d s 1696 160 m -41 -42 d s 1683 161 m -28 -28 d s 1683 176 m -28 -27 d s
 1683 191 m -28 -27 d s 1683 207 m -28 -28 d s 1683 222 m -28 -28 d s 1683 237 m -28 -28 d s 1683 252 m -28 -27 d s 1669 254 m -14 -14 d s 1669 269 m -14 -14 d s 1669 284 m -14 -14 d s 1669 299 m -14 -14 d s 1669 314 m -14 -13 d s 1669 329 m -14 -13
 d s 1669 345 m -14 -14 d s 1669 360 m -14 -14 d s 1669 375 m -14 -14 d s 1669 390 m -14 -14 d s 1669 405 m -14 -13 d s 1669 421 m -14 -14 d s 1669 436 m -14 -14 d s 1669 451 m -14 -14 d s 1669 466 m -14 -14 d s 1669 481 m -14 -13 d s 6 lw 1655 481 m
 14 X -228 Y 14 X -93 Y 13 X -37 Y 14 X -19 Y 14 X -11 Y 27 X 10 Y 14 X -3 Y 13 X -3 Y 14 X -3 Y 27 X -1 Y 383 X s black 3 lw 1655 93 m 547 X s 1731 106 m -13 Y s 1752 100 m -7 Y s 1773 100 m -7 Y s 1793 100 m -7 Y s 1814 106 m -13 Y s 1835 100 m -7
 Y s 1856 100 m -7 Y s 1877 100 m -7 Y s 1898 106 m -13 Y s 1919 100 m -7 Y s 1940 100 m -7 Y s 1961 100 m -7 Y s 1982 106 m -13 Y s 2003 100 m -7 Y s 2024 100 m -7 Y s 2045 100 m -7 Y s 2066 106 m -13 Y s 2087 100 m -7 Y s 2108 100 m -7 Y s 2128 100
 m -7 Y s 2149 106 m -13 Y s 1731 106 m -13 Y s 1710 100 m -7 Y s 1689 100 m -7 Y s 1668 100 m -7 Y s 2149 106 m -13 Y s 2170 100 m -7 Y s 2191 100 m -7 Y s 1655 520 m 547 X s 1731 507 m 13 Y s 1752 513 m 7 Y s 1773 513 m 7 Y s 1793 513 m 7 Y s 1814
 507 m 13 Y s 1835 513 m 7 Y s 1856 513 m 7 Y s 1877 513 m 7 Y s 1898 507 m 13 Y s 1919 513 m 7 Y s 1940 513 m 7 Y s 1961 513 m 7 Y s 1982 507 m 13 Y s 2003 513 m 7 Y s 2024 513 m 7 Y s 2045 513 m 7 Y s 2066 507 m 13 Y s 2087 513 m 7 Y s 2108 513 m 7
 Y s 2128 513 m 7 Y s 2149 507 m 13 Y s 1731 507 m 13 Y s 1710 513 m 7 Y s 1689 513 m 7 Y s 1668 513 m 7 Y s 2149 507 m 13 Y s 2170 513 m 7 Y s 2191 513 m 7 Y s 1655 93 m 427 Y s 1671 93 m -16 X s 1663 104 m -8 X s 1663 115 m -8 X s 1663 126 m -8 X s
 1671 137 m -16 X s 1663 148 m -8 X s 1663 159 m -8 X s 1663 170 m -8 X s 1671 181 m -16 X s 1663 193 m -8 X s 1663 204 m -8 X s 1663 215 m -8 X s 1671 226 m -16 X s 1663 237 m -8 X s 1663 248 m -8 X s 1663 259 m -8 X s 1671 270 m -16 X s 1663 281 m
 -8 X s 1663 292 m -8 X s 1663 303 m -8 X s 1671 314 m -16 X s 1663 325 m -8 X s 1663 336 m -8 X s 1663 347 m -8 X s 1671 358 m -16 X s 1663 369 m -8 X s 1663 380 m -8 X s 1663 391 m -8 X s 1671 402 m -16 X s 1663 413 m -8 X s 1663 424 m -8 X s 1663
 436 m -8 X s 1671 447 m -16 X s 1663 458 m -8 X s 1663 469 m -8 X s 1663 480 m -8 X s 1671 491 m -16 X s 1671 491 m -16 X s 1663 502 m -8 X s 1663 513 m -8 X s 2202 93 m 427 Y s 2186 93 m 16 X s 2194 104 m 8 X s 2194 115 m 8 X s 2194 126 m 8 X s
 2186 137 m 16 X s 2194 148 m 8 X s 2194 159 m 8 X s 2194 170 m 8 X s 2186 181 m 16 X s 2194 193 m 8 X s 2194 204 m 8 X s 2194 215 m 8 X s 2186 226 m 16 X s 2194 237 m 8 X s 2194 248 m 8 X s 2194 259 m 8 X s 2186 270 m 16 X s 2194 281 m 8 X s 2194
 292 m 8 X s 2194 303 m 8 X s 2186 314 m 16 X s 2194 325 m 8 X s 2194 336 m 8 X s 2194 347 m 8 X s 2186 358 m 16 X s 2194 369 m 8 X s 2194 380 m 8 X s 2194 391 m 8 X s 2186 402 m 16 X s 2194 413 m 8 X s 2194 424 m 8 X s 2194 436 m 8 X s 2186 447 m 16
 X s 2194 458 m 8 X s 2194 469 m 8 X s 2194 480 m 8 X s 2186 491 m 16 X s 2186 491 m 16 X s 2194 502 m 8 X s 2194 513 m 8 X s
 gsave  711 564 1534 12 C 2230.83 90.8246 t 90 r /Helvetica-Bold findfont 19.9646 sf 0 0 m (U/O\255flow \(S,B\): \(0.0, 0.0\)% / \(0.0, 0.0\)%) show NC gr  0.48 0.56 0.6 c 0.364706 0.419608 0.490196 c 278 38 1542 536 bf 0.48 0.56 0.6 c 1542 536 m 278
 X s 1820 536 m 38 Y s 1820 574 m -278 X s 1542 574 m -38 Y s 1 1 1 c black 1 1 1 c
 gsave  711 564 1534 12 C 1545.91 548.458 t 0 r /Helvetica-Bold findfont 28.5208 sf 0 0 m (Input variable: MET) show NC gr 
 gr  gr showpage
end
%%EOF
