%!PS-Adobe-2.0 EPSF-2.0
%%BoundingBox:  0 0 567 294
%%Title: plots/variables_id_c1.eps: Input variables (training sample)
%%Creator: ROOT Version 6.04/14
%%CreationDate: Wed Oct  5 09:26:09 2016
%%DocumentNeededResources: ProcSet (FontSetInit)
%%EndComments
%%BeginProlog
80 dict begin
/s {stroke} def /l {lineto} def /m {moveto} def /t {translate} def
/r {rotate} def /rl {roll}  def /R {repeat} def
/d {rlineto} def /rm {rmoveto} def /gr {grestore} def /f {eofill} def
/c {setrgbcolor} def /black {0 setgray} def /sd {setdash} def
/cl {closepath} def /sf {scalefont setfont} def /lw {setlinewidth} def
/box {m dup 0 exch d exch 0 d 0 exch neg d cl} def
/NC{systemdict begin initclip end}def/C{NC box clip newpath}def
/bl {box s} def /bf {gsave box gsave f grestore 1 lw [] 0 sd s grestore} def /Y { 0 exch d} def /X { 0 d} def 
/K {{pop pop 0 moveto} exch kshow} bind def
/ita {/ang 15 def gsave [1 0 ang dup sin exch cos div 1 0 0] concat} def 
/mp {newpath /y exch def /x exch def} def
/side {[w .77 mul w .23 mul] .385 w mul sd w 0 l currentpoint t -144 r} def
/mr {mp x y w2 0 360 arc} def /m24 {mr s} def /m20 {mr f} def
/mb {mp x y w2 add m w2 neg 0 d 0 w neg d w 0 d 0 w d cl} def
/mt {mp x y w2 add m w2 neg w neg d w 0 d cl} def
/m21 {mb f} def /m25 {mb s} def /m22 {mt f} def /m26{mt s} def
/m23 {mp x y w2 sub m w2 w d w neg 0 d cl f} def
/m27 {mp x y w2 add m w3 neg w2 neg d w3 w2 neg d w3 w2 d cl s} def
/m28 {mp x w2 sub y w2 sub w3 add m w3 0 d  0 w3 neg d w3 0 d 0 w3 d w3 0 d  0 w3 d w3 neg 0 d 0 w3 d w3 neg 0 d 0 w3 neg d w3 neg 0 d cl s } def
/m29 {mp gsave x w2 sub y w2 add w3 sub m currentpoint t 4 {side} repeat cl fill gr} def
/m30 {mp gsave x w2 sub y w2 add w3 sub m currentpoint t 4 {side} repeat cl s gr} def
/m31 {mp x y w2 sub m 0 w d x w2 sub y m w 0 d x w2 sub y w2 add m w w neg d x w2 sub y w2 sub m w w d s} def
/m32 {mp x y w2 sub m w2 w d w neg 0 d cl s} def
/m33 {mp x y w2 add m w3 neg w2 neg d w3 w2 neg d w3 w2 d cl f} def
/m34 {mp x w2 sub y w2 sub w3 add m w3 0 d  0 w3 neg d w3 0 d 0 w3 d w3 0 d  0 w3 d w3 neg 0 d 0 w3 d w3 neg 0 d 0 w3 neg d w3 neg 0 d cl f } def
/m2 {mp x y w2 sub m 0 w d x w2 sub y m w 0 d s} def
/m5 {mp x w2 sub y w2 sub m w w d x w2 sub y w2 add m w w neg d s} def
%%IncludeResource: ProcSet (FontSetInit)
%%IncludeResource: font Times-Roman
%%IncludeResource: font Times-Italic
%%IncludeResource: font Times-Bold
%%IncludeResource: font Times-BoldItalic
%%IncludeResource: font Helvetica
%%IncludeResource: font Helvetica-Oblique
%%IncludeResource: font Helvetica-Bold
%%IncludeResource: font Helvetica-BoldOblique
%%IncludeResource: font Courier
%%IncludeResource: font Courier-Oblique
%%IncludeResource: font Courier-Bold
%%IncludeResource: font Courier-BoldOblique
%%IncludeResource: font Symbol
%%IncludeResource: font ZapfDingbats
/reEncode {exch findfont dup length dict begin {1 index /FID eq  {pop pop} {def} ifelse } forall /Encoding exch def currentdict end dup /FontName get exch definefont pop } def [/Times-Bold /Times-Italic /Times-BoldItalic /Helvetica /Helvetica-Oblique
 /Helvetica-Bold /Helvetica-BoldOblique /Courier /Courier-Oblique /Courier-Bold /Courier-BoldOblique /Times-Roman /AvantGarde-Book /AvantGarde-BookOblique /AvantGarde-Demi /AvantGarde-DemiOblique /Bookman-Demi /Bookman-DemiItalic /Bookman-Light
 /Bookman-LightItalic /Helvetica-Narrow /Helvetica-Narrow-Bold /Helvetica-Narrow-BoldOblique /Helvetica-Narrow-Oblique /NewCenturySchlbk-Roman /NewCenturySchlbk-Bold /NewCenturySchlbk-BoldItalic /NewCenturySchlbk-Italic /Palatino-Bold
 /Palatino-BoldItalic /Palatino-Italic /Palatino-Roman ] {ISOLatin1Encoding reEncode } forall
%%EndProlog
%%BeginSetup
%%EndSetup
newpath  gsave  .25 .25 scale  gsave  0 0 t 0.48 0.56 0.6 c[  ] 0 sd 3 lw 0.95 0.95 0.95 c 2268 1176 0 0 bf 0.48 0.56 0.6 c 0.95 0.95 0.95 c 710 565 23 600 bf black 0.95 0.95 0.95 c 548 427 143 681 bf black 548 427 143 681 bl 0.95 0.95 0.95 c 548 427
 143 681 bf black 548 427 143 681 bl 0 0 0.933333 c 6 lw 0.49 0.6 0.82 c black 3 lw 0.49 0.6 0.82 c 143 681 m 4 Y 14 X 22 Y 14 X 41 Y 14 X 68 Y 13 X 63 Y 14 X 124 Y 14 X 7 Y 13 X -83 Y 14 X -143 Y 14 X -20 Y 13 X -4 Y 14 X 6 Y 14 X -27 Y 13 X -2 Y 14
 X 11 Y 14 X -7 Y 13 X -7 Y 14 X -8 Y 14 X -4 Y 13 X 1 Y 14 X -17 Y 14 X 11 Y 13 X -18 Y 14 X -1 Y 14 X 3 Y 13 X -1 Y 14 X -1 Y 27 X -6 Y 14 X 4 Y 14 X -8 Y 13 X 1 Y 14 X 1 Y 14 X 3 Y 14 X -6 Y 27 X 3 Y 14 X -5 Y 27 X -5 Y 14 X f 6 lw 0 0 0.933333 c
 0.49 0.6 0.82 c 0 0 0.933333 c 143 685 m 14 X 22 Y 14 X 41 Y 14 X 68 Y 13 X 63 Y 14 X 124 Y 14 X 7 Y 13 X -83 Y 14 X -143 Y 14 X -20 Y 13 X -4 Y 14 X 6 Y 14 X -27 Y 13 X -2 Y 14 X 11 Y 14 X -7 Y 13 X -7 Y 14 X -8 Y 14 X -4 Y 13 X 1 Y 14 X -17 Y 14 X
 11 Y 13 X -18 Y 14 X -1 Y 14 X 3 Y 13 X -1 Y 14 X -1 Y 27 X -6 Y 14 X 4 Y 14 X -8 Y 13 X 1 Y 14 X 1 Y 14 X 3 Y 14 X -6 Y 27 X 3 Y 14 X -5 Y 27 X -5 Y 14 X s black 3 lw 143 681 m 548 X s
 gsave  710 565 23 600 C 650.761 613.818 t 0 r /Helvetica-Bold findfont 28.5208 sf 0 0 m (Mjj) show NC gr  241 694 m -13 Y s 269 688 m -7 Y s 296 688 m -7 Y s 323 688 m -7 Y s 350 694 m -13 Y s 378 688 m -7 Y s 405 688 m -7 Y s 432 688 m -7 Y s 459
 694 m -13 Y s 487 688 m -7 Y s 514 688 m -7 Y s 541 688 m -7 Y s 568 694 m -13 Y s 596 688 m -7 Y s 623 688 m -7 Y s 650 688 m -7 Y s 678 694 m -13 Y s 241 694 m -13 Y s 214 688 m -7 Y s 187 688 m -7 Y s 160 688 m -7 Y s 678 694 m -13 Y s
 gsave  710 565 23 600 C 215.973 653.603 t 0 r /Helvetica-Bold findfont 25.6688 sf 0 0 m (200) show NC gr 
 gsave  710 565 23 600 C 326.801 653.603 t 0 r /Helvetica-Bold findfont 25.6688 sf 0 0 m (400) show NC gr 
 gsave  710 565 23 600 C 434.788 653.603 t 0 r /Helvetica-Bold findfont 25.6688 sf 0 0 m (600) show NC gr 
 gsave  710 565 23 600 C 545.616 653.603 t 0 r /Helvetica-Bold findfont 25.6688 sf 0 0 m (800) show NC gr 
 gsave  710 565 23 600 C 647.919 653.603 t 0 r /Helvetica-Bold findfont 25.6688 sf 0 0 m (1000) show NC gr  143 1108 m 548 X s 241 1095 m 13 Y s 269 1102 m 6 Y s 296 1102 m 6 Y s 323 1102 m 6 Y s 350 1095 m 13 Y s 378 1102 m 6 Y s 405 1102 m 6 Y s
 432 1102 m 6 Y s 459 1095 m 13 Y s 487 1102 m 6 Y s 514 1102 m 6 Y s 541 1102 m 6 Y s 568 1095 m 13 Y s 596 1102 m 6 Y s 623 1102 m 6 Y s 650 1102 m 6 Y s 678 1095 m 13 Y s 241 1095 m 13 Y s 214 1102 m 6 Y s 187 1102 m 6 Y s 160 1102 m 6 Y s 678
 1095 m 13 Y s 143 681 m 427 Y s
 gsave  710 565 23 600 C 48.3097 1045.76 t 90 r /Helvetica-Bold findfont 28.5208 sf 0 0 m (25.1 ) show NC gr 
 gsave  710 565 23 600 C 34.101 1037.24 t 90 r /Helvetica-Bold findfont 19.9646 sf 0 0 m ( ) show NC gr 
 gsave  710 565 23 600 C 48.3097 1028.71 t 90 r /Helvetica-Bold findfont 28.5208 sf 0 0 m (/) show NC gr 
 gsave  710 565 23 600 C 53.9933 1020.19 t 90 r /Helvetica-Bold findfont 19.9646 sf 0 0 m ( ) show NC gr 
 gsave  710 565 23 600 C 45.468 912.202 t 90 r /Helvetica-Bold findfont 28.5208 sf 0 0 m (\(1/N\) dN) show NC gr  160 681 m -17 X s 152 693 m -9 X s 152 705 m -9 X s 152 717 m -9 X s 152 729 m -9 X s 160 741 m -17 X s 152 752 m -9 X s 152 764 m -9 X
 s 152 776 m -9 X s 152 788 m -9 X s 160 800 m -17 X s 152 812 m -9 X s 152 824 m -9 X s 152 835 m -9 X s 152 847 m -9 X s 160 859 m -17 X s 152 871 m -9 X s 152 883 m -9 X s 152 895 m -9 X s 152 907 m -9 X s 160 918 m -17 X s 152 930 m -9 X s 152
 942 m -9 X s 152 954 m -9 X s 152 966 m -9 X s 160 978 m -17 X s 152 989 m -9 X s 152 1001 m -9 X s 152 1013 m -9 X s 152 1025 m -9 X s 160 1037 m -17 X s 152 1049 m -9 X s 152 1061 m -9 X s 152 1072 m -9 X s 152 1084 m -9 X s 160 1096 m -17 X s 160
 1096 m -17 X s 152 1108 m -9 X s
 gsave  710 565 23 600 C 119.354 670.653 t 0 r /Helvetica-Bold findfont 25.6688 sf 0 0 m (0) show NC gr 
 gsave  710 565 23 600 C 73.8855 730.33 t 0 r /Helvetica-Bold findfont 25.6688 sf 0 0 m (0.001) show NC gr 
 gsave  710 565 23 600 C 68.202 790.007 t 0 r /Helvetica-Bold findfont 25.6688 sf 0 0 m (0.002) show NC gr 
 gsave  710 565 23 600 C 68.202 849.683 t 0 r /Helvetica-Bold findfont 25.6688 sf 0 0 m (0.003) show NC gr 
 gsave  710 565 23 600 C 68.202 909.36 t 0 r /Helvetica-Bold findfont 25.6688 sf 0 0 m (0.004) show NC gr 
 gsave  710 565 23 600 C 68.202 969.037 t 0 r /Helvetica-Bold findfont 25.6688 sf 0 0 m (0.005) show NC gr 
 gsave  710 565 23 600 C 68.202 1025.87 t 0 r /Helvetica-Bold findfont 25.6688 sf 0 0 m (0.006) show NC gr 
 gsave  710 565 23 600 C 68.202 1085.55 t 0 r /Helvetica-Bold findfont 25.6688 sf 0 0 m (0.007) show NC gr  691 681 m 427 Y s 674 681 m 17 X s 683 693 m 8 X s 683 705 m 8 X s 683 717 m 8 X s 683 729 m 8 X s 674 741 m 17 X s 683 752 m 8 X s 683 764 m
 8 X s 683 776 m 8 X s 683 788 m 8 X s 674 800 m 17 X s 683 812 m 8 X s 683 824 m 8 X s 683 835 m 8 X s 683 847 m 8 X s 674 859 m 17 X s 683 871 m 8 X s 683 883 m 8 X s 683 895 m 8 X s 683 907 m 8 X s 674 918 m 17 X s 683 930 m 8 X s 683 942 m 8 X s
 683 954 m 8 X s 683 966 m 8 X s 674 978 m 17 X s 683 989 m 8 X s 683 1001 m 8 X s 683 1013 m 8 X s 683 1025 m 8 X s 674 1037 m 17 X s 683 1049 m 8 X s 683 1061 m 8 X s 683 1072 m 8 X s 683 1084 m 8 X s 674 1096 m 17 X s 674 1096 m 17 X s 683 1108 m
 8 X s 1 0 0 c 6 lw black 3 lw 1 0 0 c 677 682 m -1 -1 d s 677 697 m -16 -16 d s 648 683 m -2 -2 d s 636 686 m -5 -5 d s 632 697 m -10 -9 d s 616 682 m -1 Y s 607 688 m -6 -7 d s 595 691 m -9 -10 d s 588 699 m -7 -7 d s 580 691 m -9 -10 d s 556 681 m
 s 549 690 m -8 -9 d s 539 695 m -14 -14 d s 526 698 m -16 -17 d s 522 709 m -9 -10 d s 508 695 m -13 -14 d s 499 700 m -14 -13 d s 482 683 m -2 -2 d s 492 709 m -7 -7 d s 472 688 m -7 -7 d s 472 703 m -22 -22 d s 472 718 m -37 -37 d s 472 734 m -52
 -53 d s 468 745 m -10 -10 d s 452 729 m -47 -48 d s 442 734 m -11 -11 d s 417 709 m -27 -28 d s 417 724 m -42 -43 d s 417 739 m -57 -58 d s 417 754 m -72 -73 d s 411 764 m -8 -8 d s 395 747 m -66 -66 d s 390 757 m -76 -76 d s 390 772 m -14 -13 d s
 371 753 m -72 -72 d s 362 760 m -27 -28 d s 328 726 m -44 -45 d s 362 775 m -27 -27 d s 321 734 m -52 -53 d s 355 783 m -20 -20 d s 321 749 m -67 -68 d s 346 789 m -11 -11 d s 321 764 m -82 -83 d s 309 767 m -85 -86 d s 301 775 m -21 -22 d s 269 742
 m -60 -61 d s 294 782 m -14 -14 d s 267 755 m -73 -74 d s 294 797 m -14 -13 d s 267 770 m -88 -89 d s 294 813 m -14 -14 d s 267 785 m -28 -28 d s 226 744 m -62 -63 d s 284 818 m -4 -4 d s 267 800 m -28 -27 d s 226 759 m -77 -78 d s 267 815 m -28 -27
 d s 226 774 m -69 -69 d s 152 700 m -9 -9 d s 267 831 m -28 -28 d s 226 789 m -28 -27 d s 189 752 m -32 -32 d s 267 846 m -28 -28 d s 226 804 m -28 -27 d s 185 763 m -28 -28 d s 264 858 m -11 -11 d s 248 843 m -9 -10 d s 226 820 m -28 -28 d s 185
 778 m -28 -27 d s 226 835 m -28 -28 d s 185 793 m -28 -27 d s 212 836 m -14 -14 d s 185 809 m -28 -28 d s 203 842 m -5 -4 d s 171 810 m -14 -14 d s 162 816 m -5 -5 d s 6 lw 143 700 m 14 X 116 Y 14 X -6 Y 14 X -58 Y 13 X 90 Y 14 X -6 Y 14 X -93 Y 13
 X 100 Y 14 X 15 Y 14 X -116 Y 13 X 76 Y 14 X -43 Y 14 X -8 Y 13 X -41 Y 14 X 63 Y 14 X -6 Y 13 X -30 Y 14 X 20 Y 14 X -26 Y 13 X 17 Y 14 X -56 Y 14 X 26 Y 13 X -5 Y 14 X 16 Y 14 X -62 Y 13 X 26 Y 14 X -14 Y 14 X 14 Y 13 X -14 Y 14 X -5 Y 14 X -9 Y
 13 X 10 Y 14 X 8 Y 14 X -11 Y 14 X -6 Y 13 X 15 Y 14 X -14 Y 14 X 1 Y 13 X 13 Y 14 X -16 Y 14 X s 0.48 0.56 0.6 c 3 lw 1 1 1 c 0.48 0.56 0.6 c 285 84 143 1024 bl 143 1024 m 285 X s 428 1024 m 84 Y s 428 1108 m -285 X s 143 1108 m -84 Y s black
 gsave  710 565 23 600 C 227.34 1079.87 t 0 r /Helvetica-Bold findfont 31.3729 sf 0 0 m (Signal) show NC gr  0.49 0.6 0.82 c 156 1072 m 60 X 30 Y -60 X f 0 0 0.933333 c 6 lw 156 1102 m 60 X s 156 1072 m 60 X s 216 1072 m 30 Y s 156 1072 m 30 Y s
 black
 gsave  710 565 23 600 C 227.34 1037.24 t 0 r /Helvetica-Bold findfont 31.3729 sf 0 0 m (Background) show NC gr  1 0 0 c 3 lw 216 1038 m -8 -8 d s 216 1053 m -23 -23 d s 207 1060 m -29 -30 d s 192 1060 m -29 -30 d s 177 1060 m -21 -22 d s 162 1060 m
 -6 -7 d s 6 lw 0 0 0.933333 c 1 0 0 c 156 1060 m 60 X s 156 1030 m 60 X s 216 1030 m 30 Y s 156 1030 m 30 Y s black 3 lw 143 681 m 548 X s 241 694 m -13 Y s 269 688 m -7 Y s 296 688 m -7 Y s 323 688 m -7 Y s 350 694 m -13 Y s 378 688 m -7 Y s 405
 688 m -7 Y s 432 688 m -7 Y s 459 694 m -13 Y s 487 688 m -7 Y s 514 688 m -7 Y s 541 688 m -7 Y s 568 694 m -13 Y s 596 688 m -7 Y s 623 688 m -7 Y s 650 688 m -7 Y s 678 694 m -13 Y s 241 694 m -13 Y s 214 688 m -7 Y s 187 688 m -7 Y s 160 688 m
 -7 Y s 678 694 m -13 Y s 143 1108 m 548 X s 241 1095 m 13 Y s 269 1102 m 6 Y s 296 1102 m 6 Y s 323 1102 m 6 Y s 350 1095 m 13 Y s 378 1102 m 6 Y s 405 1102 m 6 Y s 432 1102 m 6 Y s 459 1095 m 13 Y s 487 1102 m 6 Y s 514 1102 m 6 Y s 541 1102 m 6 Y
 s 568 1095 m 13 Y s 596 1102 m 6 Y s 623 1102 m 6 Y s 650 1102 m 6 Y s 678 1095 m 13 Y s 241 1095 m 13 Y s 214 1102 m 6 Y s 187 1102 m 6 Y s 160 1102 m 6 Y s 678 1095 m 13 Y s 143 681 m 427 Y s 160 681 m -17 X s 152 693 m -9 X s 152 705 m -9 X s 152
 717 m -9 X s 152 729 m -9 X s 160 741 m -17 X s 152 752 m -9 X s 152 764 m -9 X s 152 776 m -9 X s 152 788 m -9 X s 160 800 m -17 X s 152 812 m -9 X s 152 824 m -9 X s 152 835 m -9 X s 152 847 m -9 X s 160 859 m -17 X s 152 871 m -9 X s 152 883 m -9
 X s 152 895 m -9 X s 152 907 m -9 X s 160 918 m -17 X s 152 930 m -9 X s 152 942 m -9 X s 152 954 m -9 X s 152 966 m -9 X s 160 978 m -17 X s 152 989 m -9 X s 152 1001 m -9 X s 152 1013 m -9 X s 152 1025 m -9 X s 160 1037 m -17 X s 152 1049 m -9 X s
 152 1061 m -9 X s 152 1072 m -9 X s 152 1084 m -9 X s 160 1096 m -17 X s 160 1096 m -17 X s 152 1108 m -9 X s 691 681 m 427 Y s 674 681 m 17 X s 683 693 m 8 X s 683 705 m 8 X s 683 717 m 8 X s 683 729 m 8 X s 674 741 m 17 X s 683 752 m 8 X s 683 764
 m 8 X s 683 776 m 8 X s 683 788 m 8 X s 674 800 m 17 X s 683 812 m 8 X s 683 824 m 8 X s 683 835 m 8 X s 683 847 m 8 X s 674 859 m 17 X s 683 871 m 8 X s 683 883 m 8 X s 683 895 m 8 X s 683 907 m 8 X s 674 918 m 17 X s 683 930 m 8 X s 683 942 m 8 X
 s 683 954 m 8 X s 683 966 m 8 X s 674 978 m 17 X s 683 989 m 8 X s 683 1001 m 8 X s 683 1013 m 8 X s 683 1025 m 8 X s 674 1037 m 17 X s 683 1049 m 8 X s 683 1061 m 8 X s 683 1072 m 8 X s 683 1084 m 8 X s 674 1096 m 17 X s 674 1096 m 17 X s 683 1108
 m 8 X s
 gsave  710 565 23 600 C 719.017 679.067 t 90 r /Helvetica-Bold findfont 19.9646 sf 0 0 m (U/O\255flow \(S,B\): \(0.0, 0.0\)% / \(0.0, 0.0\)%) show NC gr  0.48 0.56 0.6 c 0.364706 0.419608 0.490196 c 256 38 30 1124 bf 0.48 0.56 0.6 c 30 1124 m 256 X
 s 286 1124 m 38 Y s 286 1162 m -256 X s 30 1162 m -38 Y s 1 1 1 c black 1 1 1 c
 gsave  710 565 23 600 C 34.101 1136.7 t 0 r /Helvetica-Bold findfont 28.5208 sf 0 0 m (Input variable: Mjj) show NC gr  0.48 0.56 0.6 c 0.95 0.95 0.95 c 710 565 779 600 bf black 0.95 0.95 0.95 c 548 427 899 681 bf black 548 427 899 681 bl 0.95 0.95
 0.95 c 548 427 899 681 bf black 548 427 899 681 bl 0 0 0.933333 c 6 lw 0.49 0.6 0.82 c black 3 lw 0.49 0.6 0.82 c 899 681 m 331 Y 14 X 57 Y 14 X -116 Y 13 X -68 Y 14 X -22 Y 14 X -41 Y 13 X -4 Y 14 X -15 Y 14 X 22 Y 13 X -46 Y 14 X 8 Y 14 X 1 Y 14 X
 -36 Y 13 X 27 Y 14 X -19 Y 14 X -18 Y 13 X 15 Y 14 X -17 Y 14 X -4 Y 13 X -4 Y 14 X 13 Y 14 X -4 Y 13 X 8 Y 14 X -6 Y 14 X -20 Y 13 X 8 Y 14 X -7 Y 14 X -2 Y 13 X -10 Y 14 X -6 Y 14 X -5 Y 13 X -4 Y 14 X -6 Y 14 X -5 Y 13 X -2 Y 14 X -1 Y 14 X -1 Y
 13 X -1 Y 42 X f 6 lw 0 0 0.933333 c 0.49 0.6 0.82 c 0 0 0.933333 c 899 1012 m 14 X 57 Y 14 X -116 Y 13 X -68 Y 14 X -22 Y 14 X -41 Y 13 X -4 Y 14 X -15 Y 14 X 22 Y 13 X -46 Y 14 X 8 Y 14 X 1 Y 14 X -36 Y 13 X 27 Y 14 X -19 Y 14 X -18 Y 13 X 15 Y 14
 X -17 Y 14 X -4 Y 13 X -4 Y 14 X 13 Y 14 X -4 Y 13 X 8 Y 14 X -6 Y 14 X -20 Y 13 X 8 Y 14 X -7 Y 14 X -2 Y 13 X -10 Y 14 X -6 Y 14 X -5 Y 13 X -4 Y 14 X -6 Y 14 X -5 Y 13 X -2 Y 14 X -1 Y 14 X -1 Y 13 X -1 Y 42 X s black 3 lw 899 681 m 548 X s
 gsave  710 565 779 600 C 1383.93 610.976 t 0 r /Helvetica-Bold findfont 28.5208 sf 0 0 m (RMS) show NC gr  944 694 m -13 Y s 955 688 m -7 Y s 966 688 m -7 Y s 977 688 m -7 Y s 988 694 m -13 Y s 1000 688 m -7 Y s 1011 688 m -7 Y s 1022 688 m -7 Y s
 1033 694 m -13 Y s 1044 688 m -7 Y s 1055 688 m -7 Y s 1066 688 m -7 Y s 1077 694 m -13 Y s 1089 688 m -7 Y s 1100 688 m -7 Y s 1111 688 m -7 Y s 1122 694 m -13 Y s 1133 688 m -7 Y s 1144 688 m -7 Y s 1155 688 m -7 Y s 1167 694 m -13 Y s 1178 688 m
 -7 Y s 1189 688 m -7 Y s 1200 688 m -7 Y s 1211 694 m -13 Y s 1222 688 m -7 Y s 1233 688 m -7 Y s 1244 688 m -7 Y s 1256 694 m -13 Y s 1267 688 m -7 Y s 1278 688 m -7 Y s 1289 688 m -7 Y s 1300 694 m -13 Y s 1311 688 m -7 Y s 1322 688 m -7 Y s 1334
 688 m -7 Y s 1345 694 m -13 Y s 1356 688 m -7 Y s 1367 688 m -7 Y s 1378 688 m -7 Y s 1389 694 m -13 Y s 1400 688 m -7 Y s 1411 688 m -7 Y s 1423 688 m -7 Y s 1434 694 m -13 Y s 944 694 m -13 Y s 933 688 m -7 Y s 922 688 m -7 Y s 910 688 m -7 Y s
 1434 694 m -13 Y s 1445 688 m -7 Y s
 gsave  710 565 779 600 C 923.569 653.603 t 0 r /Helvetica-Bold findfont 25.6688 sf 0 0 m (0.2) show NC gr 
 gsave  710 565 779 600 C 966.195 653.603 t 0 r /Helvetica-Bold findfont 25.6688 sf 0 0 m (0.4) show NC gr 
 gsave  710 565 779 600 C 1011.66 653.603 t 0 r /Helvetica-Bold findfont 25.6688 sf 0 0 m (0.6) show NC gr 
 gsave  710 565 779 600 C 1057.13 653.603 t 0 r /Helvetica-Bold findfont 25.6688 sf 0 0 m (0.8) show NC gr 
 gsave  710 565 779 600 C 1113.97 653.603 t 0 r /Helvetica-Bold findfont 25.6688 sf 0 0 m (1) show NC gr 
 gsave  710 565 779 600 C 1145.23 653.603 t 0 r /Helvetica-Bold findfont 25.6688 sf 0 0 m (1.2) show NC gr 
 gsave  710 565 779 600 C 1190.69 653.603 t 0 r /Helvetica-Bold findfont 25.6688 sf 0 0 m (1.4) show NC gr 
 gsave  710 565 779 600 C 1233.32 653.603 t 0 r /Helvetica-Bold findfont 25.6688 sf 0 0 m (1.6) show NC gr 
 gsave  710 565 779 600 C 1278.79 653.603 t 0 r /Helvetica-Bold findfont 25.6688 sf 0 0 m (1.8) show NC gr 
 gsave  710 565 779 600 C 1335.62 653.603 t 0 r /Helvetica-Bold findfont 25.6688 sf 0 0 m (2) show NC gr 
 gsave  710 565 779 600 C 1366.88 653.603 t 0 r /Helvetica-Bold findfont 25.6688 sf 0 0 m (2.2) show NC gr 
 gsave  710 565 779 600 C 1412.35 653.603 t 0 r /Helvetica-Bold findfont 25.6688 sf 0 0 m (2.4) show NC gr  899 1108 m 548 X s 944 1095 m 13 Y s 955 1102 m 6 Y s 966 1102 m 6 Y s 977 1102 m 6 Y s 988 1095 m 13 Y s 1000 1102 m 6 Y s 1011 1102 m 6 Y s
 1022 1102 m 6 Y s 1033 1095 m 13 Y s 1044 1102 m 6 Y s 1055 1102 m 6 Y s 1066 1102 m 6 Y s 1077 1095 m 13 Y s 1089 1102 m 6 Y s 1100 1102 m 6 Y s 1111 1102 m 6 Y s 1122 1095 m 13 Y s 1133 1102 m 6 Y s 1144 1102 m 6 Y s 1155 1102 m 6 Y s 1167 1095 m
 13 Y s 1178 1102 m 6 Y s 1189 1102 m 6 Y s 1200 1102 m 6 Y s 1211 1095 m 13 Y s 1222 1102 m 6 Y s 1233 1102 m 6 Y s 1244 1102 m 6 Y s 1256 1095 m 13 Y s 1267 1102 m 6 Y s 1278 1102 m 6 Y s 1289 1102 m 6 Y s 1300 1095 m 13 Y s 1311 1102 m 6 Y s 1322
 1102 m 6 Y s 1334 1102 m 6 Y s 1345 1095 m 13 Y s 1356 1102 m 6 Y s 1367 1102 m 6 Y s 1378 1102 m 6 Y s 1389 1095 m 13 Y s 1400 1102 m 6 Y s 1411 1102 m 6 Y s 1423 1102 m 6 Y s 1434 1095 m 13 Y s 944 1095 m 13 Y s 933 1102 m 6 Y s 922 1102 m 6 Y s
 910 1102 m 6 Y s 1434 1095 m 13 Y s 1445 1102 m 6 Y s 899 681 m 427 Y s
 gsave  710 565 779 600 C 804.215 1008.82 t 90 r /Helvetica-Bold findfont 28.5208 sf 0 0 m (0.0614 ) show NC gr 
 gsave  710 565 779 600 C 790.007 1000.3 t 90 r /Helvetica-Bold findfont 19.9646 sf 0 0 m ( ) show NC gr 
 gsave  710 565 779 600 C 804.215 991.771 t 90 r /Helvetica-Bold findfont 28.5208 sf 0 0 m (/) show NC gr 
 gsave  710 565 779 600 C 809.899 983.246 t 90 r /Helvetica-Bold findfont 19.9646 sf 0 0 m ( ) show NC gr 
 gsave  710 565 779 600 C 804.215 875.259 t 90 r /Helvetica-Bold findfont 28.5208 sf 0 0 m (\(1/N\) dN) show NC gr  915 681 m -16 X s 907 692 m -8 X s 907 702 m -8 X s 907 712 m -8 X s 915 722 m -16 X s 907 732 m -8 X s 907 742 m -8 X s 907 753 m -8
 X s 915 763 m -16 X s 907 773 m -8 X s 907 783 m -8 X s 907 793 m -8 X s 915 804 m -16 X s 907 814 m -8 X s 907 824 m -8 X s 907 834 m -8 X s 915 844 m -16 X s 907 854 m -8 X s 907 865 m -8 X s 907 875 m -8 X s 915 885 m -16 X s 907 895 m -8 X s 907
 905 m -8 X s 907 916 m -8 X s 915 926 m -16 X s 907 936 m -8 X s 907 946 m -8 X s 907 956 m -8 X s 915 966 m -16 X s 907 977 m -8 X s 907 987 m -8 X s 907 997 m -8 X s 915 1007 m -16 X s 907 1017 m -8 X s 907 1028 m -8 X s 907 1038 m -8 X s 915 1048
 m -16 X s 907 1058 m -8 X s 907 1068 m -8 X s 907 1078 m -8 X s 915 1089 m -16 X s 915 1089 m -16 X s 907 1099 m -8 X s
 gsave  710 565 779 600 C 875.259 670.653 t 0 r /Helvetica-Bold findfont 25.6688 sf 0 0 m (0) show NC gr 
 gsave  710 565 779 600 C 852.525 713.279 t 0 r /Helvetica-Bold findfont 25.6688 sf 0 0 m (0.2) show NC gr 
 gsave  710 565 779 600 C 852.525 753.064 t 0 r /Helvetica-Bold findfont 25.6688 sf 0 0 m (0.4) show NC gr 
 gsave  710 565 779 600 C 852.525 792.848 t 0 r /Helvetica-Bold findfont 25.6688 sf 0 0 m (0.6) show NC gr 
 gsave  710 565 779 600 C 852.525 835.475 t 0 r /Helvetica-Bold findfont 25.6688 sf 0 0 m (0.8) show NC gr 
 gsave  710 565 779 600 C 878.101 875.259 t 0 r /Helvetica-Bold findfont 25.6688 sf 0 0 m (1) show NC gr 
 gsave  710 565 779 600 C 852.525 915.044 t 0 r /Helvetica-Bold findfont 25.6688 sf 0 0 m (1.2) show NC gr 
 gsave  710 565 779 600 C 852.525 957.67 t 0 r /Helvetica-Bold findfont 25.6688 sf 0 0 m (1.4) show NC gr 
 gsave  710 565 779 600 C 852.525 997.454 t 0 r /Helvetica-Bold findfont 25.6688 sf 0 0 m (1.6) show NC gr 
 gsave  710 565 779 600 C 852.525 1037.24 t 0 r /Helvetica-Bold findfont 25.6688 sf 0 0 m (1.8) show NC gr 
 gsave  710 565 779 600 C 875.259 1079.87 t 0 r /Helvetica-Bold findfont 25.6688 sf 0 0 m (2) show NC gr  1447 681 m 427 Y s 1430 681 m 17 X s 1438 692 m 9 X s 1438 702 m 9 X s 1438 712 m 9 X s 1430 722 m 17 X s 1438 732 m 9 X s 1438 742 m 9 X s 1438
 753 m 9 X s 1430 763 m 17 X s 1438 773 m 9 X s 1438 783 m 9 X s 1438 793 m 9 X s 1430 804 m 17 X s 1438 814 m 9 X s 1438 824 m 9 X s 1438 834 m 9 X s 1430 844 m 17 X s 1438 854 m 9 X s 1438 865 m 9 X s 1438 875 m 9 X s 1430 885 m 17 X s 1438 895 m 9
 X s 1438 905 m 9 X s 1438 916 m 9 X s 1430 926 m 17 X s 1438 936 m 9 X s 1438 946 m 9 X s 1438 956 m 9 X s 1430 966 m 17 X s 1438 977 m 9 X s 1438 987 m 9 X s 1438 997 m 9 X s 1430 1007 m 17 X s 1438 1017 m 9 X s 1438 1028 m 9 X s 1438 1038 m 9 X s
 1430 1048 m 17 X s 1438 1058 m 9 X s 1438 1068 m 9 X s 1438 1078 m 9 X s 1430 1089 m 17 X s 1430 1089 m 17 X s 1438 1099 m 9 X s 1 0 0 c 6 lw black 3 lw 1 0 0 c 1432 681 m s 1418 682 m -1 -1 d s 1405 685 m -3 -4 d s 1405 700 m -13 -14 d s 1388 683 m
 -1 -2 d s 1378 688 m -6 -7 d s 1378 703 m -21 -22 d s 1377 717 m -13 -13 d s 1357 697 m -15 -16 d s 1351 706 m -24 -25 d s 1347 717 m -36 -36 d s 1337 722 m -14 -13 d s 1310 695 m -14 -14 d s 1327 727 m -4 -3 d s 1310 710 m -29 -29 d s 1310 725 m
 -44 -44 d s 1310 740 m -14 -13 d s 1285 716 m -34 -35 d s 1296 742 m s 1282 728 m -13 -14 d s 1265 710 m -29 -29 d s 1282 743 m -13 -14 d s 1255 716 m -34 -35 d s 1282 758 m -13 -13 d s 1255 731 m -49 -50 d s 1275 766 m -6 -6 d s 1255 746 m -64 -65
 d s 1255 761 m -14 -14 d s 1232 738 m -56 -57 d s 1255 776 m -14 -13 d s 1228 749 m -67 -68 d s 1255 791 m -14 -13 d s 1228 764 m -82 -83 d s 1255 807 m -14 -14 d s 1221 773 m -90 -92 d s 1255 822 m -14 -14 d s 1214 780 m -98 -99 d s 1255 837 m -14
 -14 d s 1214 796 m -55 -55 d s 1157 738 m -57 -57 d s 1255 852 m -14 -14 d s 1214 811 m -14 -14 d s 1196 792 m -37 -36 d s 1146 742 m -61 -61 d s 1255 867 m -14 -13 d s 1205 817 m -5 -5 d s 1187 798 m -28 -27 d s 1146 757 m -76 -76 d s 1255 883 m
 -14 -14 d s 1177 804 m -18 -18 d s 1135 762 m -80 -81 d s 1255 898 m -14 -14 d s 1173 815 m -14 -14 d s 1132 774 m -92 -93 d s 1245 902 m -4 -3 d s 1161 818 m -2 -2 d s 1121 778 m -3 -3 d s 1109 766 m -84 -85 d s 1105 777 m -14 -14 d s 1080 751 m
 -70 -70 d s 1104 792 m -13 -14 d s 1077 764 m -82 -83 d s 1077 779 m -97 -98 d s 1077 795 m -112 -114 d s 1072 804 m -63 -63 d s 995 727 m -45 -46 d s 1064 811 m -28 -27 d s 1030 778 m -21 -22 d s 995 742 m -60 -61 d s 1064 826 m -28 -27 d s 1022
 785 m -13 -14 d s 995 757 m -75 -76 d s 1052 830 m -2 -2 d s 1039 817 m -3 -3 d s 1022 800 m -13 -14 d s 995 773 m -90 -92 d s 1022 815 m -13 -13 d s 995 788 m -41 -42 d s 953 745 m -54 -54 d s 1022 831 m -13 -14 d s 995 803 m -41 -41 d s 940 748 m
 -27 -28 d s 902 709 m -3 -2 d s 1012 835 m -3 -3 d s 995 818 m -41 -41 d s 940 763 m -27 -28 d s 995 833 m -41 -41 d s 940 778 m -27 -27 d s 981 835 m -27 -28 d s 940 793 m -13 -13 d s 918 771 m -5 -5 d s 981 850 m -27 -28 d s 940 809 m -13 -14 d s
 978 862 m -24 -24 d s 936 820 m -9 -10 d s 968 867 m -14 -14 d s 968 882 m -14 -14 d s 964 893 m -10 -10 d s 6 lw 899 709 m 14 X 62 Y 14 X 49 Y 13 X -75 Y 14 X 148 Y 14 X -31 Y 13 X -29 Y 14 X -107 Y 14 X 109 Y 13 X -57 Y 14 X 39 Y 14 X 13 Y 14 X
 -26 Y 13 X -53 Y 14 X 41 Y 14 X -26 Y 13 X 12 Y 14 X -16 Y 14 X -24 Y 13 X 80 Y 14 X -14 Y 14 X -12 Y 13 X 25 Y 14 X -44 Y 14 X -35 Y 13 X 164 Y 14 X -192 Y 14 X 56 Y 13 X -50 Y 14 X 26 Y 14 X -47 Y 13 X 32 Y 14 X -10 Y 14 X -20 Y 13 X 20 Y 14 X -34
 Y 14 X 17 Y 13 X -18 Y 14 X -1 Y 28 X s black 3 lw 899 681 m 548 X s 944 694 m -13 Y s 955 688 m -7 Y s 966 688 m -7 Y s 977 688 m -7 Y s 988 694 m -13 Y s 1000 688 m -7 Y s 1011 688 m -7 Y s 1022 688 m -7 Y s 1033 694 m -13 Y s 1044 688 m -7 Y s
 1055 688 m -7 Y s 1066 688 m -7 Y s 1077 694 m -13 Y s 1089 688 m -7 Y s 1100 688 m -7 Y s 1111 688 m -7 Y s 1122 694 m -13 Y s 1133 688 m -7 Y s 1144 688 m -7 Y s 1155 688 m -7 Y s 1167 694 m -13 Y s 1178 688 m -7 Y s 1189 688 m -7 Y s 1200 688 m
 -7 Y s 1211 694 m -13 Y s 1222 688 m -7 Y s 1233 688 m -7 Y s 1244 688 m -7 Y s 1256 694 m -13 Y s 1267 688 m -7 Y s 1278 688 m -7 Y s 1289 688 m -7 Y s 1300 694 m -13 Y s 1311 688 m -7 Y s 1322 688 m -7 Y s 1334 688 m -7 Y s 1345 694 m -13 Y s 1356
 688 m -7 Y s 1367 688 m -7 Y s 1378 688 m -7 Y s 1389 694 m -13 Y s 1400 688 m -7 Y s 1411 688 m -7 Y s 1423 688 m -7 Y s 1434 694 m -13 Y s 944 694 m -13 Y s 933 688 m -7 Y s 922 688 m -7 Y s 910 688 m -7 Y s 1434 694 m -13 Y s 1445 688 m -7 Y s
 899 1108 m 548 X s 944 1095 m 13 Y s 955 1102 m 6 Y s 966 1102 m 6 Y s 977 1102 m 6 Y s 988 1095 m 13 Y s 1000 1102 m 6 Y s 1011 1102 m 6 Y s 1022 1102 m 6 Y s 1033 1095 m 13 Y s 1044 1102 m 6 Y s 1055 1102 m 6 Y s 1066 1102 m 6 Y s 1077 1095 m 13 Y
 s 1089 1102 m 6 Y s 1100 1102 m 6 Y s 1111 1102 m 6 Y s 1122 1095 m 13 Y s 1133 1102 m 6 Y s 1144 1102 m 6 Y s 1155 1102 m 6 Y s 1167 1095 m 13 Y s 1178 1102 m 6 Y s 1189 1102 m 6 Y s 1200 1102 m 6 Y s 1211 1095 m 13 Y s 1222 1102 m 6 Y s 1233 1102
 m 6 Y s 1244 1102 m 6 Y s 1256 1095 m 13 Y s 1267 1102 m 6 Y s 1278 1102 m 6 Y s 1289 1102 m 6 Y s 1300 1095 m 13 Y s 1311 1102 m 6 Y s 1322 1102 m 6 Y s 1334 1102 m 6 Y s 1345 1095 m 13 Y s 1356 1102 m 6 Y s 1367 1102 m 6 Y s 1378 1102 m 6 Y s 1389
 1095 m 13 Y s 1400 1102 m 6 Y s 1411 1102 m 6 Y s 1423 1102 m 6 Y s 1434 1095 m 13 Y s 944 1095 m 13 Y s 933 1102 m 6 Y s 922 1102 m 6 Y s 910 1102 m 6 Y s 1434 1095 m 13 Y s 1445 1102 m 6 Y s 899 681 m 427 Y s 915 681 m -16 X s 907 692 m -8 X s 907
 702 m -8 X s 907 712 m -8 X s 915 722 m -16 X s 907 732 m -8 X s 907 742 m -8 X s 907 753 m -8 X s 915 763 m -16 X s 907 773 m -8 X s 907 783 m -8 X s 907 793 m -8 X s 915 804 m -16 X s 907 814 m -8 X s 907 824 m -8 X s 907 834 m -8 X s 915 844 m
 -16 X s 907 854 m -8 X s 907 865 m -8 X s 907 875 m -8 X s 915 885 m -16 X s 907 895 m -8 X s 907 905 m -8 X s 907 916 m -8 X s 915 926 m -16 X s 907 936 m -8 X s 907 946 m -8 X s 907 956 m -8 X s 915 966 m -16 X s 907 977 m -8 X s 907 987 m -8 X s
 907 997 m -8 X s 915 1007 m -16 X s 907 1017 m -8 X s 907 1028 m -8 X s 907 1038 m -8 X s 915 1048 m -16 X s 907 1058 m -8 X s 907 1068 m -8 X s 907 1078 m -8 X s 915 1089 m -16 X s 915 1089 m -16 X s 907 1099 m -8 X s 1447 681 m 427 Y s 1430 681 m
 17 X s 1438 692 m 9 X s 1438 702 m 9 X s 1438 712 m 9 X s 1430 722 m 17 X s 1438 732 m 9 X s 1438 742 m 9 X s 1438 753 m 9 X s 1430 763 m 17 X s 1438 773 m 9 X s 1438 783 m 9 X s 1438 793 m 9 X s 1430 804 m 17 X s 1438 814 m 9 X s 1438 824 m 9 X s
 1438 834 m 9 X s 1430 844 m 17 X s 1438 854 m 9 X s 1438 865 m 9 X s 1438 875 m 9 X s 1430 885 m 17 X s 1438 895 m 9 X s 1438 905 m 9 X s 1438 916 m 9 X s 1430 926 m 17 X s 1438 936 m 9 X s 1438 946 m 9 X s 1438 956 m 9 X s 1430 966 m 17 X s 1438
 977 m 9 X s 1438 987 m 9 X s 1438 997 m 9 X s 1430 1007 m 17 X s 1438 1017 m 9 X s 1438 1028 m 9 X s 1438 1038 m 9 X s 1430 1048 m 17 X s 1438 1058 m 9 X s 1438 1068 m 9 X s 1438 1078 m 9 X s 1430 1089 m 17 X s 1430 1089 m 17 X s 1438 1099 m 9 X s
 gsave  710 565 779 600 C 1474.92 679.067 t 90 r /Helvetica-Bold findfont 19.9646 sf 0 0 m (U/O\255flow \(S,B\): \(0.0, 0.0\)% / \(0.0, 0.0\)%) show NC gr  0.48 0.56 0.6 c 0.364706 0.419608 0.490196 c 281 38 786 1124 bf 0.48 0.56 0.6 c 786 1124 m 281
 X s 1067 1124 m 38 Y s 1067 1162 m -281 X s 786 1162 m -38 Y s 1 1 1 c black 1 1 1 c
 gsave  710 565 779 600 C 790.007 1136.7 t 0 r /Helvetica-Bold findfont 28.5208 sf 0 0 m (Input variable: RMS) show NC gr  0.48 0.56 0.6 c 0.95 0.95 0.95 c 711 565 1534 600 bf black 0.95 0.95 0.95 c 547 427 1655 681 bf black 547 427 1655 681 bl 0.95
 0.95 0.95 c 547 427 1655 681 bf black 547 427 1655 681 bl 0 0 0.933333 c 6 lw 0.49 0.6 0.82 c black 3 lw 0.49 0.6 0.82 c 1655 681 m 208 Y 14 X 130 Y 14 X 20 Y 13 X 22 Y 14 X -59 Y 14 X 67 Y 13 X -53 Y 14 X -33 Y 14 X -42 Y 13 X -4 Y 14 X -47 Y 14 X
 -26 Y 13 X -24 Y 14 X -23 Y 14 X -10 Y 13 X -28 Y 14 X -6 Y 14 X -34 Y 13 X 11 Y 14 X -20 Y 28 X 3 Y 13 X -8 Y 14 X -10 Y 14 X 4 Y 13 X 8 Y 14 X -13 Y 14 X -20 Y 13 X -3 Y 14 X -2 Y 14 X -5 Y 13 X -3 Y 28 X 3 Y 13 X -3 Y 82 X f 6 lw 0 0 0.933333 c
 0.49 0.6 0.82 c 0 0 0.933333 c 1655 889 m 14 X 130 Y 14 X 20 Y 13 X 22 Y 14 X -59 Y 14 X 67 Y 13 X -53 Y 14 X -33 Y 14 X -42 Y 13 X -4 Y 14 X -47 Y 14 X -26 Y 13 X -24 Y 14 X -23 Y 14 X -10 Y 13 X -28 Y 14 X -6 Y 14 X -34 Y 13 X 11 Y 14 X -20 Y 28 X
 3 Y 13 X -8 Y 14 X -10 Y 14 X 4 Y 13 X 8 Y 14 X -13 Y 14 X -20 Y 13 X -3 Y 14 X -2 Y 14 X -5 Y 13 X -3 Y 28 X 3 Y 13 X -3 Y 82 X s black 3 lw 1655 681 m 547 X s
 gsave  711 565 1534 600 C 2148.36 610.976 t 0 r /Helvetica-Bold findfont 28.5208 sf 0 0 m (dRll) show NC gr  1693 694 m -13 Y s 1705 688 m -7 Y s 1718 688 m -7 Y s 1730 688 m -7 Y s 1743 688 m -7 Y s 1755 694 m -13 Y s 1767 688 m -7 Y s 1780 688 m
 -7 Y s 1792 688 m -7 Y s 1804 688 m -7 Y s 1817 694 m -13 Y s 1829 688 m -7 Y s 1842 688 m -7 Y s 1854 688 m -7 Y s 1866 688 m -7 Y s 1879 694 m -13 Y s 1891 688 m -7 Y s 1904 688 m -7 Y s 1916 688 m -7 Y s 1928 688 m -7 Y s 1941 694 m -13 Y s 1953
 688 m -7 Y s 1965 688 m -7 Y s 1978 688 m -7 Y s 1990 688 m -7 Y s 2003 694 m -13 Y s 2015 688 m -7 Y s 2027 688 m -7 Y s 2040 688 m -7 Y s 2052 688 m -7 Y s 2064 694 m -13 Y s 2077 688 m -7 Y s 2089 688 m -7 Y s 2102 688 m -7 Y s 2114 688 m -7 Y s
 2126 694 m -13 Y s 2139 688 m -7 Y s 2151 688 m -7 Y s 2164 688 m -7 Y s 2176 688 m -7 Y s 2188 694 m -13 Y s 1693 694 m -13 Y s 1681 688 m -7 Y s 1668 688 m -7 Y s 1656 688 m -7 Y s 2188 694 m -13 Y s 2201 688 m -7 Y s
 gsave  711 565 1534 600 C 1670.95 653.603 t 0 r /Helvetica-Bold findfont 25.6688 sf 0 0 m (0.5) show NC gr 
 gsave  711 565 1534 600 C 1747.68 653.603 t 0 r /Helvetica-Bold findfont 25.6688 sf 0 0 m (1) show NC gr 
 gsave  711 565 1534 600 C 1795.99 653.603 t 0 r /Helvetica-Bold findfont 25.6688 sf 0 0 m (1.5) show NC gr 
 gsave  711 565 1534 600 C 1869.87 653.603 t 0 r /Helvetica-Bold findfont 25.6688 sf 0 0 m (2) show NC gr 
 gsave  711 565 1534 600 C 1918.18 653.603 t 0 r /Helvetica-Bold findfont 25.6688 sf 0 0 m (2.5) show NC gr 
 gsave  711 565 1534 600 C 1992.07 653.603 t 0 r /Helvetica-Bold findfont 25.6688 sf 0 0 m (3) show NC gr 
 gsave  711 565 1534 600 C 2043.22 653.603 t 0 r /Helvetica-Bold findfont 25.6688 sf 0 0 m (3.5) show NC gr 
 gsave  711 565 1534 600 C 2117.1 653.603 t 0 r /Helvetica-Bold findfont 25.6688 sf 0 0 m (4) show NC gr 
 gsave  711 565 1534 600 C 2168.26 653.603 t 0 r /Helvetica-Bold findfont 25.6688 sf 0 0 m (4.5) show NC gr  1655 1108 m 547 X s 1693 1095 m 13 Y s 1705 1102 m 6 Y s 1718 1102 m 6 Y s 1730 1102 m 6 Y s 1743 1102 m 6 Y s 1755 1095 m 13 Y s 1767 1102 m
 6 Y s 1780 1102 m 6 Y s 1792 1102 m 6 Y s 1804 1102 m 6 Y s 1817 1095 m 13 Y s 1829 1102 m 6 Y s 1842 1102 m 6 Y s 1854 1102 m 6 Y s 1866 1102 m 6 Y s 1879 1095 m 13 Y s 1891 1102 m 6 Y s 1904 1102 m 6 Y s 1916 1102 m 6 Y s 1928 1102 m 6 Y s 1941
 1095 m 13 Y s 1953 1102 m 6 Y s 1965 1102 m 6 Y s 1978 1102 m 6 Y s 1990 1102 m 6 Y s 2003 1095 m 13 Y s 2015 1102 m 6 Y s 2027 1102 m 6 Y s 2040 1102 m 6 Y s 2052 1102 m 6 Y s 2064 1095 m 13 Y s 2077 1102 m 6 Y s 2089 1102 m 6 Y s 2102 1102 m 6 Y s
 2114 1102 m 6 Y s 2126 1095 m 13 Y s 2139 1102 m 6 Y s 2151 1102 m 6 Y s 2164 1102 m 6 Y s 2176 1102 m 6 Y s 2188 1095 m 13 Y s 1693 1095 m 13 Y s 1681 1102 m 6 Y s 1668 1102 m 6 Y s 1656 1102 m 6 Y s 2188 1095 m 13 Y s 2201 1102 m 6 Y s 1655 681 m
 427 Y s
 gsave  711 565 1534 600 C 1560.12 1045.76 t 90 r /Helvetica-Bold findfont 28.5208 sf 0 0 m (0.11 ) show NC gr 
 gsave  711 565 1534 600 C 1545.91 1037.24 t 90 r /Helvetica-Bold findfont 19.9646 sf 0 0 m ( ) show NC gr 
 gsave  711 565 1534 600 C 1560.12 1028.71 t 90 r /Helvetica-Bold findfont 28.5208 sf 0 0 m (/) show NC gr 
 gsave  711 565 1534 600 C 1565.8 1020.19 t 90 r /Helvetica-Bold findfont 19.9646 sf 0 0 m ( ) show NC gr 
 gsave  711 565 1534 600 C 1560.12 912.202 t 90 r /Helvetica-Bold findfont 28.5208 sf 0 0 m (\(1/N\) dN) show NC gr  1671 681 m -16 X s 1663 692 m -8 X s 1663 702 m -8 X s 1663 712 m -8 X s 1663 722 m -8 X s 1671 733 m -16 X s 1663 743 m -8 X s 1663
 753 m -8 X s 1663 763 m -8 X s 1663 774 m -8 X s 1671 784 m -16 X s 1663 794 m -8 X s 1663 805 m -8 X s 1663 815 m -8 X s 1663 825 m -8 X s 1671 835 m -16 X s 1663 846 m -8 X s 1663 856 m -8 X s 1663 866 m -8 X s 1663 876 m -8 X s 1671 887 m -16 X s
 1663 897 m -8 X s 1663 907 m -8 X s 1663 917 m -8 X s 1663 928 m -8 X s 1671 938 m -16 X s 1663 948 m -8 X s 1663 959 m -8 X s 1663 969 m -8 X s 1663 979 m -8 X s 1671 989 m -16 X s 1663 1000 m -8 X s 1663 1010 m -8 X s 1663 1020 m -8 X s 1663 1030
 m -8 X s 1671 1041 m -16 X s 1663 1051 m -8 X s 1663 1061 m -8 X s 1663 1071 m -8 X s 1663 1082 m -8 X s 1671 1092 m -16 X s 1671 1092 m -16 X s 1663 1102 m -8 X s
 gsave  711 565 1534 600 C 1631.16 670.653 t 0 r /Helvetica-Bold findfont 25.6688 sf 0 0 m (0) show NC gr 
 gsave  711 565 1534 600 C 1614.11 721.805 t 0 r /Helvetica-Bold findfont 25.6688 sf 0 0 m (0.1) show NC gr 
 gsave  711 565 1534 600 C 1608.43 772.956 t 0 r /Helvetica-Bold findfont 25.6688 sf 0 0 m (0.2) show NC gr 
 gsave  711 565 1534 600 C 1608.43 824.108 t 0 r /Helvetica-Bold findfont 25.6688 sf 0 0 m (0.3) show NC gr 
 gsave  711 565 1534 600 C 1608.43 878.101 t 0 r /Helvetica-Bold findfont 25.6688 sf 0 0 m (0.4) show NC gr 
 gsave  711 565 1534 600 C 1608.43 929.252 t 0 r /Helvetica-Bold findfont 25.6688 sf 0 0 m (0.5) show NC gr 
 gsave  711 565 1534 600 C 1608.43 980.404 t 0 r /Helvetica-Bold findfont 25.6688 sf 0 0 m (0.6) show NC gr 
 gsave  711 565 1534 600 C 1608.43 1031.56 t 0 r /Helvetica-Bold findfont 25.6688 sf 0 0 m (0.7) show NC gr 
 gsave  711 565 1534 600 C 1608.43 1082.71 t 0 r /Helvetica-Bold findfont 25.6688 sf 0 0 m (0.8) show NC gr  2202 681 m 427 Y s 2186 681 m 16 X s 2194 692 m 8 X s 2194 702 m 8 X s 2194 712 m 8 X s 2194 722 m 8 X s 2186 733 m 16 X s 2194 743 m 8 X s
 2194 753 m 8 X s 2194 763 m 8 X s 2194 774 m 8 X s 2186 784 m 16 X s 2194 794 m 8 X s 2194 805 m 8 X s 2194 815 m 8 X s 2194 825 m 8 X s 2186 835 m 16 X s 2194 846 m 8 X s 2194 856 m 8 X s 2194 866 m 8 X s 2194 876 m 8 X s 2186 887 m 16 X s 2194 897
 m 8 X s 2194 907 m 8 X s 2194 917 m 8 X s 2194 928 m 8 X s 2186 938 m 16 X s 2194 948 m 8 X s 2194 959 m 8 X s 2194 969 m 8 X s 2194 979 m 8 X s 2186 989 m 16 X s 2194 1000 m 8 X s 2194 1010 m 8 X s 2194 1020 m 8 X s 2194 1030 m 8 X s 2186 1041 m 16
 X s 2194 1051 m 8 X s 2194 1061 m 8 X s 2194 1071 m 8 X s 2194 1082 m 8 X s 2186 1092 m 16 X s 2186 1092 m 16 X s 2194 1102 m 8 X s 1 0 0 c 6 lw black 3 lw 1 0 0 c 2188 681 m s 2173 682 m -1 Y s 2158 681 m s 2143 682 m -1 Y s 2128 681 m s 2113 681 m
 s 2107 691 m -9 -10 d s 2104 703 m -22 -22 d s 2085 699 m -6 -6 d s 2069 683 m -2 -2 d s 2066 695 m -14 -14 d s 2066 710 m -28 -28 d s 2037 681 m s 2066 725 m -28 -27 d s 2025 684 m -3 -3 d s 2066 740 m -28 -27 d s 2025 699 m -18 -18 d s 2066 755 m
 -28 -27 d s 2025 714 m -33 -33 d s 2052 757 m -14 -14 d s 2025 729 m -48 -48 d s 2052 772 m -14 -14 d s 2025 745 m -63 -64 d s 2052 787 m -14 -14 d s 2025 760 m -78 -79 d s 2052 802 m -14 -13 d s 2025 775 m -93 -94 d s 2043 808 m -5 -4 d s 2025 790
 m -108 -109 d s 2025 805 m -28 -27 d s 1988 769 m -4 -5 d s 1980 760 m -78 -79 d s 2025 820 m -28 -27 d s 1970 765 m -83 -84 d s 2025 836 m -28 -28 d s 1970 780 m -27 -27 d s 1936 746 m -65 -65 d s 2025 851 m -28 -28 d s 1970 796 m -14 -14 d s 1947
 773 m -4 -5 d s 1929 754 m -73 -73 d s 2025 866 m -28 -28 d s 1970 811 m -14 -14 d s 1929 770 m -88 -89 d s 2025 881 m -28 -27 d s 1970 826 m -14 -14 d s 1929 785 m -14 -14 d s 1908 764 m -7 -7 d s 1899 754 m -73 -73 d s 2025 896 m -28 -27 d s 1970
 841 m -14 -14 d s 1929 800 m -14 -14 d s 1876 746 m -65 -65 d s 2025 912 m -28 -28 d s 1957 844 m -1 -1 d s 1929 815 m -14 -14 d s 1874 760 m -78 -79 d s 2018 920 m -7 -7 d s 2003 905 m -6 -6 d s 1929 830 m -14 -14 d s 1874 775 m -93 -94 d s 1929
 845 m -14 -13 d s 1874 790 m -108 -109 d s 1929 861 m -14 -14 d s 1874 806 m -123 -125 d s 1929 876 m -14 -14 d s 1874 821 m -138 -140 d s 1929 891 m -14 -14 d s 1873 835 m -152 -154 d s 1929 906 m -14 -14 d s 1860 837 m -154 -156 d s 1929 921 m -14
 -13 d s 1860 852 m -169 -171 d s 1925 932 m -10 -9 d s 1860 868 m -185 -187 d s 1847 869 m -187 -188 d s 1847 884 m -14 -14 d s 1833 870 m -14 -13 d s 1806 843 m -151 -152 d s 1847 899 m -14 -13 d s 1806 858 m -28 -27 d s 1767 819 m -112 -112 d s
 1842 910 m -9 -9 d s 1796 863 m -18 -17 d s 1765 832 m -28 -28 d s 1731 798 m -76 -76 d s 1792 875 m -14 -14 d s 1765 847 m -28 -27 d s 1724 806 m -69 -69 d s 1792 890 m -14 -14 d s 1765 862 m -28 -27 d s 1724 821 m -69 -69 d s 1792 905 m -14 -14 d
 s 1758 871 m -21 -21 d s 1724 836 m -69 -69 d s 1751 879 m -14 -14 d s 1724 851 m -55 -55 d s 1662 789 m -7 -7 d s 1751 894 m -14 -14 d s 1724 867 m -55 -56 d s 1738 897 m -1 -1 d s 1724 882 m -28 -28 d s 1693 851 m -24 -24 d s 1724 897 m -14 -14 d
 s 1707 880 m -11 -11 d s 1683 856 m -14 -14 d s 1724 912 m -14 -14 d s 1672 860 m -3 -3 d s 1724 927 m -14 -13 d s 1724 942 m -14 -13 d s 1724 958 m -14 -14 d s 1724 973 m -14 -14 d s 1724 988 m -14 -14 d s 1724 1003 m -14 -14 d s 1724 1018 m -14
 -13 d s 1724 1034 m -14 -14 d s 1712 1037 m -2 -2 d s 6 lw 1655 789 m 14 X 71 Y 14 X -9 Y 13 X 29 Y 14 X 157 Y 14 X -239 Y 13 X 99 Y 14 X -26 Y 14 X -52 Y 13 X 86 Y 14 X -42 Y 14 X -21 Y 13 X 28 Y 14 X 40 Y 14 X -42 Y 13 X -33 Y 14 X -89 Y 14 X 8 Y
 13 X 10 Y 14 X 168 Y 14 X -186 Y 14 X 27 Y 13 X 71 Y 14 X -84 Y 14 X 9 Y 13 X 136 Y 14 X 15 Y 14 X -239 Y 13 X 127 Y 14 X -51 Y 14 X -74 Y 13 X 16 Y 14 X 4 Y 14 X -22 Y 27 X 1 Y 14 X -1 Y 13 X 1 Y 14 X -1 Y 14 X 1 Y 13 X s black 3 lw 1655 681 m 547
 X s 1693 694 m -13 Y s 1705 688 m -7 Y s 1718 688 m -7 Y s 1730 688 m -7 Y s 1743 688 m -7 Y s 1755 694 m -13 Y s 1767 688 m -7 Y s 1780 688 m -7 Y s 1792 688 m -7 Y s 1804 688 m -7 Y s 1817 694 m -13 Y s 1829 688 m -7 Y s 1842 688 m -7 Y s 1854 688
 m -7 Y s 1866 688 m -7 Y s 1879 694 m -13 Y s 1891 688 m -7 Y s 1904 688 m -7 Y s 1916 688 m -7 Y s 1928 688 m -7 Y s 1941 694 m -13 Y s 1953 688 m -7 Y s 1965 688 m -7 Y s 1978 688 m -7 Y s 1990 688 m -7 Y s 2003 694 m -13 Y s 2015 688 m -7 Y s
 2027 688 m -7 Y s 2040 688 m -7 Y s 2052 688 m -7 Y s 2064 694 m -13 Y s 2077 688 m -7 Y s 2089 688 m -7 Y s 2102 688 m -7 Y s 2114 688 m -7 Y s 2126 694 m -13 Y s 2139 688 m -7 Y s 2151 688 m -7 Y s 2164 688 m -7 Y s 2176 688 m -7 Y s 2188 694 m
 -13 Y s 1693 694 m -13 Y s 1681 688 m -7 Y s 1668 688 m -7 Y s 1656 688 m -7 Y s 2188 694 m -13 Y s 2201 688 m -7 Y s 1655 1108 m 547 X s 1693 1095 m 13 Y s 1705 1102 m 6 Y s 1718 1102 m 6 Y s 1730 1102 m 6 Y s 1743 1102 m 6 Y s 1755 1095 m 13 Y s
 1767 1102 m 6 Y s 1780 1102 m 6 Y s 1792 1102 m 6 Y s 1804 1102 m 6 Y s 1817 1095 m 13 Y s 1829 1102 m 6 Y s 1842 1102 m 6 Y s 1854 1102 m 6 Y s 1866 1102 m 6 Y s 1879 1095 m 13 Y s 1891 1102 m 6 Y s 1904 1102 m 6 Y s 1916 1102 m 6 Y s 1928 1102 m 6
 Y s 1941 1095 m 13 Y s 1953 1102 m 6 Y s 1965 1102 m 6 Y s 1978 1102 m 6 Y s 1990 1102 m 6 Y s 2003 1095 m 13 Y s 2015 1102 m 6 Y s 2027 1102 m 6 Y s 2040 1102 m 6 Y s 2052 1102 m 6 Y s 2064 1095 m 13 Y s 2077 1102 m 6 Y s 2089 1102 m 6 Y s 2102
 1102 m 6 Y s 2114 1102 m 6 Y s 2126 1095 m 13 Y s 2139 1102 m 6 Y s 2151 1102 m 6 Y s 2164 1102 m 6 Y s 2176 1102 m 6 Y s 2188 1095 m 13 Y s 1693 1095 m 13 Y s 1681 1102 m 6 Y s 1668 1102 m 6 Y s 1656 1102 m 6 Y s 2188 1095 m 13 Y s 2201 1102 m 6 Y
 s 1655 681 m 427 Y s 1671 681 m -16 X s 1663 692 m -8 X s 1663 702 m -8 X s 1663 712 m -8 X s 1663 722 m -8 X s 1671 733 m -16 X s 1663 743 m -8 X s 1663 753 m -8 X s 1663 763 m -8 X s 1663 774 m -8 X s 1671 784 m -16 X s 1663 794 m -8 X s 1663 805
 m -8 X s 1663 815 m -8 X s 1663 825 m -8 X s 1671 835 m -16 X s 1663 846 m -8 X s 1663 856 m -8 X s 1663 866 m -8 X s 1663 876 m -8 X s 1671 887 m -16 X s 1663 897 m -8 X s 1663 907 m -8 X s 1663 917 m -8 X s 1663 928 m -8 X s 1671 938 m -16 X s
 1663 948 m -8 X s 1663 959 m -8 X s 1663 969 m -8 X s 1663 979 m -8 X s 1671 989 m -16 X s 1663 1000 m -8 X s 1663 1010 m -8 X s 1663 1020 m -8 X s 1663 1030 m -8 X s 1671 1041 m -16 X s 1663 1051 m -8 X s 1663 1061 m -8 X s 1663 1071 m -8 X s 1663
 1082 m -8 X s 1671 1092 m -16 X s 1671 1092 m -16 X s 1663 1102 m -8 X s 2202 681 m 427 Y s 2186 681 m 16 X s 2194 692 m 8 X s 2194 702 m 8 X s 2194 712 m 8 X s 2194 722 m 8 X s 2186 733 m 16 X s 2194 743 m 8 X s 2194 753 m 8 X s 2194 763 m 8 X s
 2194 774 m 8 X s 2186 784 m 16 X s 2194 794 m 8 X s 2194 805 m 8 X s 2194 815 m 8 X s 2194 825 m 8 X s 2186 835 m 16 X s 2194 846 m 8 X s 2194 856 m 8 X s 2194 866 m 8 X s 2194 876 m 8 X s 2186 887 m 16 X s 2194 897 m 8 X s 2194 907 m 8 X s 2194 917
 m 8 X s 2194 928 m 8 X s 2186 938 m 16 X s 2194 948 m 8 X s 2194 959 m 8 X s 2194 969 m 8 X s 2194 979 m 8 X s 2186 989 m 16 X s 2194 1000 m 8 X s 2194 1010 m 8 X s 2194 1020 m 8 X s 2194 1030 m 8 X s 2186 1041 m 16 X s 2194 1051 m 8 X s 2194 1061 m
 8 X s 2194 1071 m 8 X s 2194 1082 m 8 X s 2186 1092 m 16 X s 2186 1092 m 16 X s 2194 1102 m 8 X s
 gsave  711 565 1534 600 C 2230.83 679.067 t 90 r /Helvetica-Bold findfont 19.9646 sf 0 0 m (U/O\255flow \(S,B\): \(0.0, 0.0\)% / \(0.0, 0.0\)%) show NC gr  0.48 0.56 0.6 c 0.364706 0.419608 0.490196 c 270 38 1542 1124 bf 0.48 0.56 0.6 c 1542 1124 m
 270 X s 1812 1124 m 38 Y s 1812 1162 m -270 X s 1542 1162 m -38 Y s 1 1 1 c black 1 1 1 c
 gsave  711 565 1534 600 C 1545.91 1136.7 t 0 r /Helvetica-Bold findfont 28.5208 sf 0 0 m (Input variable: dRll) show NC gr  0.48 0.56 0.6 c 0.95 0.95 0.95 c 710 564 23 12 bf black 0.95 0.95 0.95 c 548 427 143 93 bf black 548 427 143 93 bl 0.95 0.95
 0.95 c 548 427 143 93 bf black 548 427 143 93 bl 0 0 0.933333 c 6 lw 0.49 0.6 0.82 c black 3 lw 0.49 0.6 0.82 c 143 93 m 388 Y 14 X -7 Y 14 X -26 Y 14 X -56 Y 13 X 5 Y 14 X -30 Y 14 X -67 Y 13 X 24 Y 14 X 22 Y 14 X -73 Y 13 X -40 Y 14 X 23 Y 14 X
 -31 Y 13 X -26 Y 14 X 8 Y 14 X -5 Y 13 X -22 Y 14 X 6 Y 14 X -23 Y 13 X -3 Y 14 X -2 Y 14 X -25 Y 13 X 11 Y 14 X 9 Y 14 X -10 Y 13 X -8 Y 14 X -5 Y 14 X 17 Y 13 X -18 Y 14 X -4 Y 14 X 17 Y 13 X -18 Y 14 X 13 Y 14 X -11 Y 14 X 5 Y 13 X 9 Y 14 X -3 Y
 14 X 6 Y 13 X 13 Y 14 X -62 Y 14 X -1 Y f 6 lw 0 0 0.933333 c 0.49 0.6 0.82 c 0 0 0.933333 c 143 481 m 14 X -7 Y 14 X -26 Y 14 X -56 Y 13 X 5 Y 14 X -30 Y 14 X -67 Y 13 X 24 Y 14 X 22 Y 14 X -73 Y 13 X -40 Y 14 X 23 Y 14 X -31 Y 13 X -26 Y 14 X 8 Y
 14 X -5 Y 13 X -22 Y 14 X 6 Y 14 X -23 Y 13 X -3 Y 14 X -2 Y 14 X -25 Y 13 X 11 Y 14 X 9 Y 14 X -10 Y 13 X -8 Y 14 X -5 Y 14 X 17 Y 13 X -18 Y 14 X -4 Y 14 X 17 Y 13 X -18 Y 14 X 13 Y 14 X -11 Y 14 X 5 Y 13 X 9 Y 14 X -3 Y 14 X 6 Y 13 X 13 Y 14 X
 -62 Y 14 X s black 3 lw 143 93 m 548 X s
 gsave  710 564 23 12 C 494.465 22.734 t 0 r /Helvetica-Bold findfont 28.5208 sf 0 0 m (abs\(dPll_MET\)) show NC gr  228 106 m -13 Y s 245 100 m -7 Y s 262 100 m -7 Y s 279 100 m -7 Y s 296 100 m -7 Y s 313 106 m -13 Y s 330 100 m -7 Y s 347 100 m -7
 Y s 364 100 m -7 Y s 381 100 m -7 Y s 398 106 m -13 Y s 415 100 m -7 Y s 432 100 m -7 Y s 449 100 m -7 Y s 466 100 m -7 Y s 483 106 m -13 Y s 500 100 m -7 Y s 517 100 m -7 Y s 534 100 m -7 Y s 551 100 m -7 Y s 568 106 m -13 Y s 585 100 m -7 Y s 602
 100 m -7 Y s 619 100 m -7 Y s 636 100 m -7 Y s 653 106 m -13 Y s 228 106 m -13 Y s 211 100 m -7 Y s 194 100 m -7 Y s 177 100 m -7 Y s 160 100 m -7 Y s 653 106 m -13 Y s 670 100 m -7 Y s 687 100 m -7 Y s
 gsave  710 564 23 12 C 207.448 65.3603 t 0 r /Helvetica-Bold findfont 25.6688 sf 0 0 m (0.5) show NC gr 
 gsave  710 564 23 12 C 306.909 65.3603 t 0 r /Helvetica-Bold findfont 25.6688 sf 0 0 m (1) show NC gr 
 gsave  710 564 23 12 C 377.953 65.3603 t 0 r /Helvetica-Bold findfont 25.6688 sf 0 0 m (1.5) show NC gr 
 gsave  710 564 23 12 C 474.572 65.3603 t 0 r /Helvetica-Bold findfont 25.6688 sf 0 0 m (2) show NC gr 
 gsave  710 564 23 12 C 545.616 65.3603 t 0 r /Helvetica-Bold findfont 25.6688 sf 0 0 m (2.5) show NC gr 
 gsave  710 564 23 12 C 642.236 65.3603 t 0 r /Helvetica-Bold findfont 25.6688 sf 0 0 m (3) show NC gr  143 520 m 548 X s 228 507 m 13 Y s 245 513 m 7 Y s 262 513 m 7 Y s 279 513 m 7 Y s 296 513 m 7 Y s 313 507 m 13 Y s 330 513 m 7 Y s 347 513 m 7 Y
 s 364 513 m 7 Y s 381 513 m 7 Y s 398 507 m 13 Y s 415 513 m 7 Y s 432 513 m 7 Y s 449 513 m 7 Y s 466 513 m 7 Y s 483 507 m 13 Y s 500 513 m 7 Y s 517 513 m 7 Y s 534 513 m 7 Y s 551 513 m 7 Y s 568 507 m 13 Y s 585 513 m 7 Y s 602 513 m 7 Y s 619
 513 m 7 Y s 636 513 m 7 Y s 653 507 m 13 Y s 228 507 m 13 Y s 211 513 m 7 Y s 194 513 m 7 Y s 177 513 m 7 Y s 160 513 m 7 Y s 653 507 m 13 Y s 670 513 m 7 Y s 687 513 m 7 Y s 143 93 m 427 Y s
 gsave  710 564 23 12 C 45.468 420.579 t 90 r /Helvetica-Bold findfont 28.5208 sf 0 0 m (0.0805 ) show NC gr 
 gsave  710 564 23 12 C 34.101 412.054 t 90 r /Helvetica-Bold findfont 19.9646 sf 0 0 m ( ) show NC gr 
 gsave  710 564 23 12 C 45.468 403.529 t 90 r /Helvetica-Bold findfont 28.5208 sf 0 0 m (/) show NC gr 
 gsave  710 564 23 12 C 51.1515 395.003 t 90 r /Helvetica-Bold findfont 19.9646 sf 0 0 m ( ) show NC gr 
 gsave  710 564 23 12 C 45.468 287.017 t 90 r /Helvetica-Bold findfont 28.5208 sf 0 0 m (\(1/N\) dN) show NC gr  160 93 m -17 X s 152 112 m -9 X s 152 132 m -9 X s 152 151 m -9 X s 160 171 m -17 X s 152 190 m -9 X s 152 209 m -9 X s 152 229 m -9 X s
 160 248 m -17 X s 152 267 m -9 X s 152 287 m -9 X s 152 306 m -9 X s 160 326 m -17 X s 152 345 m -9 X s 152 364 m -9 X s 152 384 m -9 X s 160 403 m -17 X s 152 423 m -9 X s 152 442 m -9 X s 152 461 m -9 X s 160 481 m -17 X s 160 481 m -17 X s 152
 500 m -9 X s 152 519 m -9 X s
 gsave  710 564 23 12 C 119.354 82.4108 t 0 r /Helvetica-Bold findfont 25.6688 sf 0 0 m (0) show NC gr 
 gsave  710 564 23 12 C 96.6195 161.98 t 0 r /Helvetica-Bold findfont 25.6688 sf 0 0 m (0.2) show NC gr 
 gsave  710 564 23 12 C 96.6195 238.707 t 0 r /Helvetica-Bold findfont 25.6688 sf 0 0 m (0.4) show NC gr 
 gsave  710 564 23 12 C 96.6195 315.434 t 0 r /Helvetica-Bold findfont 25.6688 sf 0 0 m (0.6) show NC gr 
 gsave  710 564 23 12 C 96.6195 392.162 t 0 r /Helvetica-Bold findfont 25.6688 sf 0 0 m (0.8) show NC gr 
 gsave  710 564 23 12 C 122.195 471.731 t 0 r /Helvetica-Bold findfont 25.6688 sf 0 0 m (1) show NC gr  691 93 m 427 Y s 674 93 m 17 X s 683 112 m 8 X s 683 132 m 8 X s 683 151 m 8 X s 674 171 m 17 X s 683 190 m 8 X s 683 209 m 8 X s 683 229 m 8 X s
 674 248 m 17 X s 683 267 m 8 X s 683 287 m 8 X s 683 306 m 8 X s 674 326 m 17 X s 683 345 m 8 X s 683 364 m 8 X s 683 384 m 8 X s 674 403 m 17 X s 683 423 m 8 X s 683 442 m 8 X s 683 461 m 8 X s 674 481 m 17 X s 674 481 m 17 X s 683 500 m 8 X s 683
 519 m 8 X s 1 0 0 c 6 lw black 3 lw 1 0 0 c 677 94 m -1 -1 d s 677 109 m -16 -16 d s 677 124 m -31 -31 d s 677 139 m -46 -46 d s 677 155 m -61 -62 d s 677 170 m -76 -77 d s 677 185 m -91 -92 d s 677 200 m -106 -107 d s 677 215 m -96 -96 d s 569 106
 m -13 -13 d s 667 221 m -86 -87 d s 567 120 m -26 -27 d s 663 232 m -13 -14 d s 636 205 m -41 -42 d s 567 135 m -42 -42 d s 663 247 m -13 -14 d s 636 220 m -14 -14 d s 609 193 m -14 -15 d s 567 151 m -57 -58 d s 663 262 m -13 -13 d s 636 235 m -14
 -14 d s 609 207 m -14 -14 d s 567 166 m -68 -69 d s 497 95 m -2 -2 d s 663 277 m -13 -13 d s 623 236 m -1 X s 609 222 m -14 -13 d s 567 181 m -13 -14 d s 544 157 m -18 -17 d s 515 129 m -16 -17 d s 485 98 m -5 -5 d s 663 293 m -13 -14 d s 609 238 m
 -14 -14 d s 567 196 m -13 -14 d s 540 169 m -14 -14 d s 513 141 m -14 -14 d s 485 114 m -20 -21 d s 663 308 m -13 -14 d s 609 253 m -14 -14 d s 567 211 m -13 -13 d s 540 184 m -14 -14 d s 513 156 m -14 -14 d s 485 129 m -35 -36 d s 663 323 m -13 -14
 d s 602 262 m -7 -8 d s 567 227 m -13 -14 d s 540 199 m -14 -14 d s 513 171 m -14 -13 d s 485 144 m -50 -51 d s 655 330 m -5 -6 d s 540 214 m -14 -14 d s 513 187 m -14 -14 d s 485 159 m -65 -66 d s 540 229 m -14 -13 d s 502 190 m -3 -2 d s 485 174 m
 -54 -55 d s 417 105 m -12 -12 d s 540 245 m -14 -14 d s 485 189 m -54 -55 d s 417 121 m -27 -28 d s 540 260 m -14 -14 d s 485 205 m -54 -55 d s 417 136 m -42 -43 d s 540 275 m -14 -14 d s 485 220 m -54 -55 d s 417 151 m -57 -58 d s 535 285 m -9 -9 d
 s 485 235 m -27 -28 d s 456 205 m -25 -25 d s 417 166 m -72 -73 d s 483 248 m -11 -12 d s 466 231 m -8 -8 d s 444 209 m -13 -14 d s 403 168 m -74 -75 d s 444 224 m -13 -14 d s 403 183 m -13 -14 d s 388 167 m -74 -74 d s 444 239 m -13 -14 d s 403 198
 m -13 -14 d s 376 170 m -77 -77 d s 403 213 m -13 -14 d s 376 186 m -92 -93 d s 403 228 m -13 -14 d s 370 195 m -8 -8 d s 350 174 m -81 -81 d s 349 188 m -95 -95 d s 349 203 m -110 -110 d s 349 219 m -125 -126 d s 349 234 m -28 -28 d s 305 189 m -96
 -96 d s 349 249 m -28 -28 d s 294 194 m -100 -101 d s 349 264 m -28 -27 d s 291 206 m -112 -113 d s 349 279 m -28 -27 d s 280 211 m -13 -14 d s 266 196 m -13 -13 d s 239 169 m -75 -76 d s 349 295 m -28 -28 d s 280 226 m -13 -14 d s 239 184 m -90 -91
 d s 349 310 m -28 -28 d s 280 241 m -13 -14 d s 239 200 m -96 -97 d s 345 321 m -24 -24 d s 280 256 m -13 -14 d s 235 210 m -92 -92 d s 335 326 m -14 -13 d s 280 271 m -13 -14 d s 226 216 m -83 -83 d s 335 342 m -14 -14 d s 280 286 m -13 -13 d s 226
 231 m -83 -82 d s 335 357 m -14 -14 d s 276 297 m -9 -9 d s 226 247 m -14 -14 d s 206 227 m -63 -63 d s 335 372 m -14 -14 d s 226 262 m -14 -14 d s 198 234 m -41 -41 d s 152 187 m -9 -8 d s 335 387 m -14 -14 d s 226 277 m -14 -14 d s 188 239 m -31
 -31 d s 335 402 m -14 -13 d s 226 292 m -14 -14 d s 180 246 m -23 -23 d s 335 418 m -14 -14 d s 226 307 m -14 -14 d s 171 252 m -14 -14 d s 335 433 m -14 -14 d s 217 314 m -5 -5 d s 335 448 m -14 -14 d s 330 458 m -9 -9 d s 6 lw 143 187 m 14 X 66 Y
 14 X -7 Y 14 X -7 Y 13 X -12 Y 14 X 87 Y 14 X -104 Y 13 X -41 Y 14 X 27 Y 14 X 101 Y 13 X -91 Y 14 X -17 Y 14 X 2 Y 13 X 267 Y 14 X -137 Y 14 X -147 Y 13 X 21 Y 14 X -28 Y 14 X 62 Y 13 X -61 Y 14 X -63 Y 14 X 135 Y 13 X -35 Y 14 X 26 Y 14 X 17 Y 13
 X -153 Y 14 X 95 Y 14 X -61 Y 13 X 156 Y 14 X -128 Y 14 X 70 Y 13 X -121 Y 14 X 42 Y 14 X 114 Y 14 X -69 Y 13 X 43 Y 14 X -31 Y 14 X 125 Y 13 X -109 Y 14 X -128 Y 14 X s black 3 lw 143 93 m 548 X s 228 106 m -13 Y s 245 100 m -7 Y s 262 100 m -7 Y s
 279 100 m -7 Y s 296 100 m -7 Y s 313 106 m -13 Y s 330 100 m -7 Y s 347 100 m -7 Y s 364 100 m -7 Y s 381 100 m -7 Y s 398 106 m -13 Y s 415 100 m -7 Y s 432 100 m -7 Y s 449 100 m -7 Y s 466 100 m -7 Y s 483 106 m -13 Y s 500 100 m -7 Y s 517 100
 m -7 Y s 534 100 m -7 Y s 551 100 m -7 Y s 568 106 m -13 Y s 585 100 m -7 Y s 602 100 m -7 Y s 619 100 m -7 Y s 636 100 m -7 Y s 653 106 m -13 Y s 228 106 m -13 Y s 211 100 m -7 Y s 194 100 m -7 Y s 177 100 m -7 Y s 160 100 m -7 Y s 653 106 m -13 Y
 s 670 100 m -7 Y s 687 100 m -7 Y s 143 520 m 548 X s 228 507 m 13 Y s 245 513 m 7 Y s 262 513 m 7 Y s 279 513 m 7 Y s 296 513 m 7 Y s 313 507 m 13 Y s 330 513 m 7 Y s 347 513 m 7 Y s 364 513 m 7 Y s 381 513 m 7 Y s 398 507 m 13 Y s 415 513 m 7 Y s
 432 513 m 7 Y s 449 513 m 7 Y s 466 513 m 7 Y s 483 507 m 13 Y s 500 513 m 7 Y s 517 513 m 7 Y s 534 513 m 7 Y s 551 513 m 7 Y s 568 507 m 13 Y s 585 513 m 7 Y s 602 513 m 7 Y s 619 513 m 7 Y s 636 513 m 7 Y s 653 507 m 13 Y s 228 507 m 13 Y s 211
 513 m 7 Y s 194 513 m 7 Y s 177 513 m 7 Y s 160 513 m 7 Y s 653 507 m 13 Y s 670 513 m 7 Y s 687 513 m 7 Y s 143 93 m 427 Y s 160 93 m -17 X s 152 112 m -9 X s 152 132 m -9 X s 152 151 m -9 X s 160 171 m -17 X s 152 190 m -9 X s 152 209 m -9 X s 152
 229 m -9 X s 160 248 m -17 X s 152 267 m -9 X s 152 287 m -9 X s 152 306 m -9 X s 160 326 m -17 X s 152 345 m -9 X s 152 364 m -9 X s 152 384 m -9 X s 160 403 m -17 X s 152 423 m -9 X s 152 442 m -9 X s 152 461 m -9 X s 160 481 m -17 X s 160 481 m
 -17 X s 152 500 m -9 X s 152 519 m -9 X s 691 93 m 427 Y s 674 93 m 17 X s 683 112 m 8 X s 683 132 m 8 X s 683 151 m 8 X s 674 171 m 17 X s 683 190 m 8 X s 683 209 m 8 X s 683 229 m 8 X s 674 248 m 17 X s 683 267 m 8 X s 683 287 m 8 X s 683 306 m 8
 X s 674 326 m 17 X s 683 345 m 8 X s 683 364 m 8 X s 683 384 m 8 X s 674 403 m 17 X s 683 423 m 8 X s 683 442 m 8 X s 683 461 m 8 X s 674 481 m 17 X s 674 481 m 17 X s 683 500 m 8 X s 683 519 m 8 X s
 gsave  710 564 23 12 C 719.017 90.8246 t 90 r /Helvetica-Bold findfont 19.9646 sf 0 0 m (U/O\255flow \(S,B\): \(0.0, 0.0\)% / \(0.0, 0.0\)%) show NC gr  0.48 0.56 0.6 c 0.364706 0.419608 0.490196 c 412 38 30 536 bf 0.48 0.56 0.6 c 30 536 m 412 X s
 442 536 m 38 Y s 442 574 m -412 X s 30 574 m -38 Y s 1 1 1 c black 1 1 1 c
 gsave  710 564 23 12 C 34.101 548.458 t 0 r /Helvetica-Bold findfont 28.5208 sf 0 0 m (Input variable: abs\(dPll_MET\)) show NC gr  0.48 0.56 0.6 c 0.95 0.95 0.95 c 710 564 779 12 bf black 0.95 0.95 0.95 c 548 427 899 93 bf black 548 427 899 93 bl
 0.95 0.95 0.95 c 548 427 899 93 bf black 548 427 899 93 bl 0 0 0.933333 c 6 lw 0.49 0.6 0.82 c black 3 lw 0.49 0.6 0.82 c 899 93 m 7 Y 14 X 46 Y 14 X 29 Y 13 X 61 Y 14 X 55 Y 14 X 27 Y 13 X 61 Y 14 X -44 Y 14 X 15 Y 13 X 66 Y 14 X -54 Y 14 X 9 Y 14
 X 41 Y 13 X 21 Y 14 X -53 Y 14 X -233 Y 13 X -54 Y 41 X 211 Y 14 X 4 Y 14 X 32 Y 13 X -55 Y 14 X -16 Y 14 X 5 Y 13 X -47 Y 14 X -13 Y 14 X -20 Y 13 X -29 Y 14 X -31 Y 14 X -26 Y 13 X -7 Y 14 X -3 Y 14 X -1 Y 13 X -4 Y 14 X 1 Y 14 X 3 Y 27 X 1 Y 14 X
 -5 Y 14 X f 6 lw 0 0 0.933333 c 0.49 0.6 0.82 c 0 0 0.933333 c 899 100 m 14 X 46 Y 14 X 29 Y 13 X 61 Y 14 X 55 Y 14 X 27 Y 13 X 61 Y 14 X -44 Y 14 X 15 Y 13 X 66 Y 14 X -54 Y 14 X 9 Y 14 X 41 Y 13 X 21 Y 14 X -53 Y 14 X -233 Y 13 X -54 Y 41 X 211 Y
 14 X 4 Y 14 X 32 Y 13 X -55 Y 14 X -16 Y 14 X 5 Y 13 X -47 Y 14 X -13 Y 14 X -20 Y 13 X -29 Y 14 X -31 Y 14 X -26 Y 13 X -7 Y 14 X -3 Y 14 X -1 Y 13 X -4 Y 14 X 1 Y 14 X 3 Y 27 X 1 Y 14 X -5 Y 14 X s black 3 lw 899 93 m 548 X s
 gsave  710 564 779 12 C 1406.67 19.8923 t 0 r /Helvetica-Bold findfont 28.5208 sf 0 0 m (Mll) show NC gr  939 106 m -13 Y s 953 100 m -7 Y s 967 100 m -7 Y s 981 100 m -7 Y s 994 106 m -13 Y s 1008 100 m -7 Y s 1022 100 m -7 Y s 1035 100 m -7 Y s
 1049 106 m -13 Y s 1063 100 m -7 Y s 1077 100 m -7 Y s 1090 100 m -7 Y s 1104 106 m -13 Y s 1118 100 m -7 Y s 1132 100 m -7 Y s 1145 100 m -7 Y s 1159 106 m -13 Y s 1173 100 m -7 Y s 1187 100 m -7 Y s 1200 100 m -7 Y s 1214 106 m -13 Y s 1228 100 m
 -7 Y s 1241 100 m -7 Y s 1255 100 m -7 Y s 1269 106 m -13 Y s 1283 100 m -7 Y s 1296 100 m -7 Y s 1310 100 m -7 Y s 1324 106 m -13 Y s 1338 100 m -7 Y s 1351 100 m -7 Y s 1365 100 m -7 Y s 1379 106 m -13 Y s 1393 100 m -7 Y s 1406 100 m -7 Y s 1420
 100 m -7 Y s 1434 106 m -13 Y s 939 106 m -13 Y s 926 100 m -7 Y s 912 100 m -7 Y s 1434 106 m -13 Y s
 gsave  710 564 779 12 C 923.569 65.3603 t 0 r /Helvetica-Bold findfont 25.6688 sf 0 0 m (20) show NC gr 
 gsave  710 564 779 12 C 977.562 65.3603 t 0 r /Helvetica-Bold findfont 25.6688 sf 0 0 m (40) show NC gr 
 gsave  710 564 779 12 C 1034.4 65.3603 t 0 r /Helvetica-Bold findfont 25.6688 sf 0 0 m (60) show NC gr 
 gsave  710 564 779 12 C 1088.39 65.3603 t 0 r /Helvetica-Bold findfont 25.6688 sf 0 0 m (80) show NC gr 
 gsave  710 564 779 12 C 1133.86 65.3603 t 0 r /Helvetica-Bold findfont 25.6688 sf 0 0 m (100) show NC gr 
 gsave  710 564 779 12 C 1190.69 65.3603 t 0 r /Helvetica-Bold findfont 25.6688 sf 0 0 m (120) show NC gr 
 gsave  710 564 779 12 C 1244.69 65.3603 t 0 r /Helvetica-Bold findfont 25.6688 sf 0 0 m (140) show NC gr 
 gsave  710 564 779 12 C 1298.68 65.3603 t 0 r /Helvetica-Bold findfont 25.6688 sf 0 0 m (160) show NC gr 
 gsave  710 564 779 12 C 1355.51 65.3603 t 0 r /Helvetica-Bold findfont 25.6688 sf 0 0 m (180) show NC gr 
 gsave  710 564 779 12 C 1409.51 65.3603 t 0 r /Helvetica-Bold findfont 25.6688 sf 0 0 m (200) show NC gr  899 520 m 548 X s 939 507 m 13 Y s 953 513 m 7 Y s 967 513 m 7 Y s 981 513 m 7 Y s 994 507 m 13 Y s 1008 513 m 7 Y s 1022 513 m 7 Y s 1035 513
 m 7 Y s 1049 507 m 13 Y s 1063 513 m 7 Y s 1077 513 m 7 Y s 1090 513 m 7 Y s 1104 507 m 13 Y s 1118 513 m 7 Y s 1132 513 m 7 Y s 1145 513 m 7 Y s 1159 507 m 13 Y s 1173 513 m 7 Y s 1187 513 m 7 Y s 1200 513 m 7 Y s 1214 507 m 13 Y s 1228 513 m 7 Y s
 1241 513 m 7 Y s 1255 513 m 7 Y s 1269 507 m 13 Y s 1283 513 m 7 Y s 1296 513 m 7 Y s 1310 513 m 7 Y s 1324 507 m 13 Y s 1338 513 m 7 Y s 1351 513 m 7 Y s 1365 513 m 7 Y s 1379 507 m 13 Y s 1393 513 m 7 Y s 1406 513 m 7 Y s 1420 513 m 7 Y s 1434 507
 m 13 Y s 939 507 m 13 Y s 926 513 m 7 Y s 912 513 m 7 Y s 1434 507 m 13 Y s 899 93 m 427 Y s
 gsave  710 564 779 12 C 804.215 451.838 t 90 r /Helvetica-Bold findfont 28.5208 sf 0 0 m (4.98 ) show NC gr 
 gsave  710 564 779 12 C 790.007 443.313 t 90 r /Helvetica-Bold findfont 19.9646 sf 0 0 m ( ) show NC gr 
 gsave  710 564 779 12 C 804.215 434.788 t 90 r /Helvetica-Bold findfont 28.5208 sf 0 0 m (/) show NC gr 
 gsave  710 564 779 12 C 809.899 426.263 t 90 r /Helvetica-Bold findfont 19.9646 sf 0 0 m ( ) show NC gr 
 gsave  710 564 779 12 C 804.215 318.276 t 90 r /Helvetica-Bold findfont 28.5208 sf 0 0 m (\(1/N\) dN) show NC gr  915 93 m -16 X s 907 106 m -8 X s 907 118 m -8 X s 907 131 m -8 X s 915 144 m -16 X s 907 157 m -8 X s 907 169 m -8 X s 907 182 m -8 X
 s 915 195 m -16 X s 907 207 m -8 X s 907 220 m -8 X s 907 233 m -8 X s 915 245 m -16 X s 907 258 m -8 X s 907 271 m -8 X s 907 283 m -8 X s 915 296 m -16 X s 907 309 m -8 X s 907 321 m -8 X s 907 334 m -8 X s 915 347 m -16 X s 907 360 m -8 X s 907
 372 m -8 X s 907 385 m -8 X s 915 398 m -16 X s 907 410 m -8 X s 907 423 m -8 X s 907 436 m -8 X s 915 448 m -16 X s 907 461 m -8 X s 907 474 m -8 X s 907 486 m -8 X s 915 499 m -16 X s 915 499 m -16 X s 907 512 m -8 X s
 gsave  710 564 779 12 C 875.259 82.4108 t 0 r /Helvetica-Bold findfont 25.6688 sf 0 0 m (0) show NC gr 
 gsave  710 564 779 12 C 824.107 133.562 t 0 r /Helvetica-Bold findfont 25.6688 sf 0 0 m (0.002) show NC gr 
 gsave  710 564 779 12 C 824.107 184.714 t 0 r /Helvetica-Bold findfont 25.6688 sf 0 0 m (0.004) show NC gr 
 gsave  710 564 779 12 C 824.107 235.865 t 0 r /Helvetica-Bold findfont 25.6688 sf 0 0 m (0.006) show NC gr 
 gsave  710 564 779 12 C 824.107 287.017 t 0 r /Helvetica-Bold findfont 25.6688 sf 0 0 m (0.008) show NC gr 
 gsave  710 564 779 12 C 844 338.168 t 0 r /Helvetica-Bold findfont 25.6688 sf 0 0 m (0.01) show NC gr 
 gsave  710 564 779 12 C 824.107 386.478 t 0 r /Helvetica-Bold findfont 25.6688 sf 0 0 m (0.012) show NC gr 
 gsave  710 564 779 12 C 824.107 437.63 t 0 r /Helvetica-Bold findfont 25.6688 sf 0 0 m (0.014) show NC gr 
 gsave  710 564 779 12 C 824.107 488.781 t 0 r /Helvetica-Bold findfont 25.6688 sf 0 0 m (0.016) show NC gr  1447 93 m 427 Y s 1430 93 m 17 X s 1438 106 m 9 X s 1438 118 m 9 X s 1438 131 m 9 X s 1430 144 m 17 X s 1438 157 m 9 X s 1438 169 m 9 X s
 1438 182 m 9 X s 1430 195 m 17 X s 1438 207 m 9 X s 1438 220 m 9 X s 1438 233 m 9 X s 1430 245 m 17 X s 1438 258 m 9 X s 1438 271 m 9 X s 1438 283 m 9 X s 1430 296 m 17 X s 1438 309 m 9 X s 1438 321 m 9 X s 1438 334 m 9 X s 1430 347 m 17 X s 1438
 360 m 9 X s 1438 372 m 9 X s 1438 385 m 9 X s 1430 398 m 17 X s 1438 410 m 9 X s 1438 423 m 9 X s 1438 436 m 9 X s 1430 448 m 17 X s 1438 461 m 9 X s 1438 474 m 9 X s 1438 486 m 9 X s 1430 499 m 17 X s 1430 499 m 17 X s 1438 512 m 9 X s 1 0 0 c 6 lw
 black 3 lw 1 0 0 c 1432 93 m s 1419 95 m -2 -2 d s 1419 110 m -17 -17 d s 1419 126 m -32 -33 d s 1419 141 m -47 -48 d s 1409 146 m -52 -53 d s 1405 157 m -13 -13 d s 1387 139 m -45 -46 d s 1405 173 m -13 -14 d s 1378 145 m -51 -52 d s 1398 180 m -6
 -6 d s 1378 160 m -41 -41 d s 1328 109 m -17 -16 d s 1378 175 m -14 -13 d s 1361 158 m -24 -24 d s 1323 120 m -27 -27 d s 1351 163 m -14 -14 d s 1323 135 m -42 -42 d s 1351 178 m -14 -14 d s 1323 151 m -57 -58 d s 1347 189 m -10 -9 d s 1323 166 m
 -41 -42 d s 1282 124 m -31 -31 d s 1318 175 m -36 -35 d s 1269 126 m -33 -33 d s 1310 182 m -28 -27 d s 1269 141 m -48 -48 d s 1309 197 m -27 -27 d s 1269 156 m -63 -63 d s 1291 194 m -9 -9 d s 1269 171 m -78 -78 d s 1269 187 m -93 -94 d s 1269 202
 m -108 -109 d s 1269 217 m -110 -110 d s 1146 93 m s 1269 232 m -110 -110 d s 1131 93 m cl s 1269 247 m -28 -27 d s 1235 213 m -76 -76 d s 1118 96 m -2 -3 d s 1269 263 m -14 -14 d s 1246 240 m -5 -5 d s 1217 211 m -58 -59 d s 1118 111 m -18 -18 d s
 1269 278 m -14 -14 d s 1204 213 m -45 -45 d s 1118 126 m -33 -33 d s 1269 293 m -14 -14 d s 1200 224 m -41 -41 d s 1118 141 m -48 -48 d s 1259 298 m -4 -4 d s 1200 239 m -41 -41 d s 1118 157 m -63 -64 d s 1200 254 m -41 -41 d s 1118 172 m -78 -79 d
 s 1200 270 m -41 -42 d s 1118 187 m -93 -94 d s 1200 285 m -13 -14 d s 1178 262 m -19 -19 d s 1118 202 m -108 -109 d s 1200 300 m -13 -14 d s 1173 272 m -14 -13 d s 1118 217 m -123 -124 d s 1200 315 m -13 -14 d s 1173 288 m -14 -14 d s 1106 220 m
 -126 -127 d s 1200 330 m -13 -13 d s 1173 303 m -14 -14 d s 1105 234 m -83 -83 d s 1015 144 m -50 -51 d s 1200 346 m -13 -14 d s 1173 318 m -14 -14 d s 1105 249 m -41 -41 d s 1052 196 m -30 -30 d s 1009 153 m -59 -60 d s 1200 361 m -13 -14 d s 1168
 328 m -9 -9 d s 1105 264 m -41 -41 d s 1050 209 m -28 -27 d s 1009 168 m -74 -75 d s 1200 376 m -13 -14 d s 1105 279 m -41 -41 d s 1050 224 m -28 -27 d s 1009 183 m -89 -90 d s 1200 391 m -13 -14 d s 1105 295 m -41 -42 d s 1050 239 m -28 -27 d s
 1009 198 m -104 -105 d s 1200 406 m -13 -14 d s 1105 310 m -41 -42 d s 1050 255 m -28 -28 d s 1009 213 m -110 -110 d s 1200 421 m -13 -13 d s 1105 325 m -41 -41 d s 1050 270 m -28 -28 d s 1009 229 m -96 -97 d s 905 124 m -6 -6 d s 1200 437 m -13 -14
 d s 1105 340 m -41 -41 d s 1050 285 m -28 -28 d s 1009 244 m -28 -28 d s 969 204 m -56 -57 d s 1200 452 m -13 -14 d s 1105 355 m -14 -13 d s 1078 328 m -14 -14 d s 1050 300 m -28 -27 d s 1009 259 m -28 -28 d s 968 218 m -55 -56 d s 1200 467 m -13
 -14 d s 1105 371 m -14 -14 d s 1077 343 m -13 -14 d s 1050 315 m -28 -27 d s 1009 274 m -28 -27 d s 968 233 m -55 -55 d s 1199 481 m -12 -13 d s 1097 378 m -6 -6 d s 1077 358 m -13 -14 d s 1050 331 m -28 -28 d s 1005 286 m -10 -11 d s 983 264 m -2
 -2 d s 968 248 m -41 -41 d s 924 204 m -11 -11 d s 1077 373 m -13 -13 d s 1050 346 m -28 -28 d s 961 256 m -34 -34 d s 1066 377 m -2 -2 d s 1050 361 m -14 -14 d s 1034 345 m -12 -12 d s 954 265 m -27 -28 d s 1050 376 m -14 -14 d s 954 280 m -27 -28
 d s 1043 385 m -7 -7 d s 954 295 m -14 -14 d s 927 267 m s 954 310 m -14 -14 d s 954 325 m -14 -14 d s 954 340 m -14 -13 d s 948 350 m -8 -8 d s 6 lw 899 124 m 14 X 80 Y 14 X 63 Y 13 X 83 Y 14 X -94 Y 14 X -52 Y 13 X 60 Y 14 X 22 Y 14 X -142 Y 13 X
 201 Y 14 X 40 Y 14 X -189 Y 14 X 181 Y 13 X -49 Y 14 X 50 Y 14 X -158 Y 13 X -127 Y 41 X 235 Y 14 X -66 Y 14 X 219 Y 13 X -268 Y 14 X -2 Y 14 X 2 Y 13 X 27 Y 14 X 58 Y 14 X -174 Y 13 X 70 Y 14 X 3 Y 14 X -22 Y 13 X -66 Y 14 X 80 Y 14 X -31 Y 13 X 17
 Y 14 X -36 Y 14 X 41 Y 13 X -34 Y 14 X -53 Y 28 X s black 3 lw 899 93 m 548 X s 939 106 m -13 Y s 953 100 m -7 Y s 967 100 m -7 Y s 981 100 m -7 Y s 994 106 m -13 Y s 1008 100 m -7 Y s 1022 100 m -7 Y s 1035 100 m -7 Y s 1049 106 m -13 Y s 1063 100
 m -7 Y s 1077 100 m -7 Y s 1090 100 m -7 Y s 1104 106 m -13 Y s 1118 100 m -7 Y s 1132 100 m -7 Y s 1145 100 m -7 Y s 1159 106 m -13 Y s 1173 100 m -7 Y s 1187 100 m -7 Y s 1200 100 m -7 Y s 1214 106 m -13 Y s 1228 100 m -7 Y s 1241 100 m -7 Y s
 1255 100 m -7 Y s 1269 106 m -13 Y s 1283 100 m -7 Y s 1296 100 m -7 Y s 1310 100 m -7 Y s 1324 106 m -13 Y s 1338 100 m -7 Y s 1351 100 m -7 Y s 1365 100 m -7 Y s 1379 106 m -13 Y s 1393 100 m -7 Y s 1406 100 m -7 Y s 1420 100 m -7 Y s 1434 106 m
 -13 Y s 939 106 m -13 Y s 926 100 m -7 Y s 912 100 m -7 Y s 1434 106 m -13 Y s 899 520 m 548 X s 939 507 m 13 Y s 953 513 m 7 Y s 967 513 m 7 Y s 981 513 m 7 Y s 994 507 m 13 Y s 1008 513 m 7 Y s 1022 513 m 7 Y s 1035 513 m 7 Y s 1049 507 m 13 Y s
 1063 513 m 7 Y s 1077 513 m 7 Y s 1090 513 m 7 Y s 1104 507 m 13 Y s 1118 513 m 7 Y s 1132 513 m 7 Y s 1145 513 m 7 Y s 1159 507 m 13 Y s 1173 513 m 7 Y s 1187 513 m 7 Y s 1200 513 m 7 Y s 1214 507 m 13 Y s 1228 513 m 7 Y s 1241 513 m 7 Y s 1255 513
 m 7 Y s 1269 507 m 13 Y s 1283 513 m 7 Y s 1296 513 m 7 Y s 1310 513 m 7 Y s 1324 507 m 13 Y s 1338 513 m 7 Y s 1351 513 m 7 Y s 1365 513 m 7 Y s 1379 507 m 13 Y s 1393 513 m 7 Y s 1406 513 m 7 Y s 1420 513 m 7 Y s 1434 507 m 13 Y s 939 507 m 13 Y s
 926 513 m 7 Y s 912 513 m 7 Y s 1434 507 m 13 Y s 899 93 m 427 Y s 915 93 m -16 X s 907 106 m -8 X s 907 118 m -8 X s 907 131 m -8 X s 915 144 m -16 X s 907 157 m -8 X s 907 169 m -8 X s 907 182 m -8 X s 915 195 m -16 X s 907 207 m -8 X s 907 220 m
 -8 X s 907 233 m -8 X s 915 245 m -16 X s 907 258 m -8 X s 907 271 m -8 X s 907 283 m -8 X s 915 296 m -16 X s 907 309 m -8 X s 907 321 m -8 X s 907 334 m -8 X s 915 347 m -16 X s 907 360 m -8 X s 907 372 m -8 X s 907 385 m -8 X s 915 398 m -16 X s
 907 410 m -8 X s 907 423 m -8 X s 907 436 m -8 X s 915 448 m -16 X s 907 461 m -8 X s 907 474 m -8 X s 907 486 m -8 X s 915 499 m -16 X s 915 499 m -16 X s 907 512 m -8 X s 1447 93 m 427 Y s 1430 93 m 17 X s 1438 106 m 9 X s 1438 118 m 9 X s 1438
 131 m 9 X s 1430 144 m 17 X s 1438 157 m 9 X s 1438 169 m 9 X s 1438 182 m 9 X s 1430 195 m 17 X s 1438 207 m 9 X s 1438 220 m 9 X s 1438 233 m 9 X s 1430 245 m 17 X s 1438 258 m 9 X s 1438 271 m 9 X s 1438 283 m 9 X s 1430 296 m 17 X s 1438 309 m 9
 X s 1438 321 m 9 X s 1438 334 m 9 X s 1430 347 m 17 X s 1438 360 m 9 X s 1438 372 m 9 X s 1438 385 m 9 X s 1430 398 m 17 X s 1438 410 m 9 X s 1438 423 m 9 X s 1438 436 m 9 X s 1430 448 m 17 X s 1438 461 m 9 X s 1438 474 m 9 X s 1438 486 m 9 X s 1430
 499 m 17 X s 1430 499 m 17 X s 1438 512 m 9 X s
 gsave  710 564 779 12 C 1474.92 90.8246 t 90 r /Helvetica-Bold findfont 19.9646 sf 0 0 m (U/O\255flow \(S,B\): \(0.0, 0.0\)% / \(0.0, 0.0\)%) show NC gr  0.48 0.56 0.6 c 0.364706 0.419608 0.490196 c 255 38 786 536 bf 0.48 0.56 0.6 c 786 536 m 255 X
 s 1041 536 m 38 Y s 1041 574 m -255 X s 786 574 m -38 Y s 1 1 1 c black 1 1 1 c
 gsave  710 564 779 12 C 790.007 548.458 t 0 r /Helvetica-Bold findfont 28.5208 sf 0 0 m (Input variable: Mll) show NC gr  0.48 0.56 0.6 c 0.95 0.95 0.95 c 711 564 1534 12 bf black 0.95 0.95 0.95 c 547 427 1655 93 bf black 547 427 1655 93 bl 0.95
 0.95 0.95 c 547 427 1655 93 bf black 547 427 1655 93 bl 0 0 0.933333 c 6 lw 0.49 0.6 0.82 c black 3 lw 0.49 0.6 0.82 c 1655 93 m 82 Y 14 X 29 Y 14 X 11 Y 13 X -18 Y 14 X 2 Y 14 X -11 Y 13 X -17 Y 14 X -10 Y 14 X -10 Y 13 X -8 Y 14 X -9 Y 14 X -5 Y
 13 X -12 Y 14 X -2 Y 14 X -3 Y 13 X -6 Y 14 X 6 Y 14 X -6 Y 13 X -6 Y 14 X 1 Y 14 X -4 Y 14 X 5 Y 13 X -5 Y 14 X -1 Y 55 X -2 Y 68 X -1 Y 27 X 1 Y 41 X -1 Y 41 X f 6 lw 0 0 0.933333 c 0.49 0.6 0.82 c 0 0 0.933333 c 1655 175 m 14 X 29 Y 14 X 11 Y 13
 X -18 Y 14 X 2 Y 14 X -11 Y 13 X -17 Y 14 X -10 Y 14 X -10 Y 13 X -8 Y 14 X -9 Y 14 X -5 Y 13 X -12 Y 14 X -2 Y 14 X -3 Y 13 X -6 Y 14 X 6 Y 14 X -6 Y 13 X -6 Y 14 X 1 Y 14 X -4 Y 14 X 5 Y 13 X -5 Y 14 X -1 Y 55 X -2 Y 68 X -1 Y 27 X 1 Y 41 X -1 Y
 41 X s black 3 lw 1655 93 m 547 X s
 gsave  711 564 1534 12 C 2142.68 19.8923 t 0 r /Helvetica-Bold findfont 28.5208 sf 0 0 m (MET) show NC gr  1722 106 m -13 Y s 1739 100 m -7 Y s 1755 100 m -7 Y s 1772 100 m -7 Y s 1789 100 m -7 Y s 1805 106 m -13 Y s 1822 100 m -7 Y s 1839 100 m -7
 Y s 1855 100 m -7 Y s 1872 100 m -7 Y s 1889 106 m -13 Y s 1905 100 m -7 Y s 1922 100 m -7 Y s 1939 100 m -7 Y s 1955 100 m -7 Y s 1972 106 m -13 Y s 1989 100 m -7 Y s 2005 100 m -7 Y s 2022 100 m -7 Y s 2039 100 m -7 Y s 2055 106 m -13 Y s 2072 100
 m -7 Y s 2089 100 m -7 Y s 2106 100 m -7 Y s 2122 100 m -7 Y s 2139 106 m -13 Y s 1722 106 m -13 Y s 1705 100 m -7 Y s 1689 100 m -7 Y s 1672 100 m -7 Y s 2139 106 m -13 Y s 2156 100 m -7 Y s 2172 100 m -7 Y s 2189 100 m -7 Y s
 gsave  711 564 1534 12 C 1696.52 65.3603 t 0 r /Helvetica-Bold findfont 25.6688 sf 0 0 m (100) show NC gr 
 gsave  711 564 1534 12 C 1781.78 65.3603 t 0 r /Helvetica-Bold findfont 25.6688 sf 0 0 m (200) show NC gr 
 gsave  711 564 1534 12 C 1864.19 65.3603 t 0 r /Helvetica-Bold findfont 25.6688 sf 0 0 m (300) show NC gr 
 gsave  711 564 1534 12 C 1946.6 65.3603 t 0 r /Helvetica-Bold findfont 25.6688 sf 0 0 m (400) show NC gr 
 gsave  711 564 1534 12 C 2031.85 65.3603 t 0 r /Helvetica-Bold findfont 25.6688 sf 0 0 m (500) show NC gr 
 gsave  711 564 1534 12 C 2114.26 65.3603 t 0 r /Helvetica-Bold findfont 25.6688 sf 0 0 m (600) show NC gr  1655 520 m 547 X s 1722 507 m 13 Y s 1739 513 m 7 Y s 1755 513 m 7 Y s 1772 513 m 7 Y s 1789 513 m 7 Y s 1805 507 m 13 Y s 1822 513 m 7 Y s
 1839 513 m 7 Y s 1855 513 m 7 Y s 1872 513 m 7 Y s 1889 507 m 13 Y s 1905 513 m 7 Y s 1922 513 m 7 Y s 1939 513 m 7 Y s 1955 513 m 7 Y s 1972 507 m 13 Y s 1989 513 m 7 Y s 2005 513 m 7 Y s 2022 513 m 7 Y s 2039 513 m 7 Y s 2055 507 m 13 Y s 2072 513
 m 7 Y s 2089 513 m 7 Y s 2106 513 m 7 Y s 2122 513 m 7 Y s 2139 507 m 13 Y s 1722 507 m 13 Y s 1705 513 m 7 Y s 1689 513 m 7 Y s 1672 513 m 7 Y s 2139 507 m 13 Y s 2156 513 m 7 Y s 2172 513 m 7 Y s 2189 513 m 7 Y s 1655 93 m 427 Y s
 gsave  711 564 1534 12 C 1560.12 451.838 t 90 r /Helvetica-Bold findfont 28.5208 sf 0 0 m (16.4 ) show NC gr 
 gsave  711 564 1534 12 C 1545.91 443.313 t 90 r /Helvetica-Bold findfont 19.9646 sf 0 0 m ( ) show NC gr 
 gsave  711 564 1534 12 C 1560.12 434.788 t 90 r /Helvetica-Bold findfont 28.5208 sf 0 0 m (/) show NC gr 
 gsave  711 564 1534 12 C 1565.8 426.263 t 90 r /Helvetica-Bold findfont 19.9646 sf 0 0 m ( ) show NC gr 
 gsave  711 564 1534 12 C 1560.12 318.276 t 90 r /Helvetica-Bold findfont 28.5208 sf 0 0 m (\(1/N\) dN) show NC gr  1671 93 m -16 X s 1663 102 m -8 X s 1663 111 m -8 X s 1663 120 m -8 X s 1671 130 m -16 X s 1663 139 m -8 X s 1663 148 m -8 X s 1663
 157 m -8 X s 1671 166 m -16 X s 1663 175 m -8 X s 1663 184 m -8 X s 1663 193 m -8 X s 1671 202 m -16 X s 1663 212 m -8 X s 1663 221 m -8 X s 1663 230 m -8 X s 1671 239 m -16 X s 1663 248 m -8 X s 1663 257 m -8 X s 1663 266 m -8 X s 1671 275 m -16 X
 s 1663 285 m -8 X s 1663 294 m -8 X s 1663 303 m -8 X s 1671 312 m -16 X s 1663 321 m -8 X s 1663 330 m -8 X s 1663 339 m -8 X s 1671 348 m -16 X s 1663 358 m -8 X s 1663 367 m -8 X s 1663 376 m -8 X s 1671 385 m -16 X s 1663 394 m -8 X s 1663 403 m
 -8 X s 1663 412 m -8 X s 1671 421 m -16 X s 1663 430 m -8 X s 1663 440 m -8 X s 1663 449 m -8 X s 1671 458 m -16 X s 1663 467 m -8 X s 1663 476 m -8 X s 1663 485 m -8 X s 1671 494 m -16 X s 1671 494 m -16 X s 1663 503 m -8 X s 1663 513 m -8 X s
 gsave  711 564 1534 12 C 1631.16 82.4108 t 0 r /Helvetica-Bold findfont 25.6688 sf 0 0 m (0) show NC gr 
 gsave  711 564 1534 12 C 1580.01 119.354 t 0 r /Helvetica-Bold findfont 25.6688 sf 0 0 m (0.002) show NC gr 
 gsave  711 564 1534 12 C 1580.01 156.296 t 0 r /Helvetica-Bold findfont 25.6688 sf 0 0 m (0.004) show NC gr 
 gsave  711 564 1534 12 C 1580.01 193.239 t 0 r /Helvetica-Bold findfont 25.6688 sf 0 0 m (0.006) show NC gr 
 gsave  711 564 1534 12 C 1580.01 230.182 t 0 r /Helvetica-Bold findfont 25.6688 sf 0 0 m (0.008) show NC gr 
 gsave  711 564 1534 12 C 1599.91 264.283 t 0 r /Helvetica-Bold findfont 25.6688 sf 0 0 m (0.01) show NC gr 
 gsave  711 564 1534 12 C 1580.01 301.226 t 0 r /Helvetica-Bold findfont 25.6688 sf 0 0 m (0.012) show NC gr 
 gsave  711 564 1534 12 C 1580.01 338.168 t 0 r /Helvetica-Bold findfont 25.6688 sf 0 0 m (0.014) show NC gr 
 gsave  711 564 1534 12 C 1580.01 375.111 t 0 r /Helvetica-Bold findfont 25.6688 sf 0 0 m (0.016) show NC gr 
 gsave  711 564 1534 12 C 1580.01 412.054 t 0 r /Helvetica-Bold findfont 25.6688 sf 0 0 m (0.018) show NC gr 
 gsave  711 564 1534 12 C 1594.22 448.997 t 0 r /Helvetica-Bold findfont 25.6688 sf 0 0 m (0.02) show NC gr 
 gsave  711 564 1534 12 C 1580.01 483.098 t 0 r /Helvetica-Bold findfont 25.6688 sf 0 0 m (0.022) show NC gr  2202 93 m 427 Y s 2186 93 m 16 X s 2194 102 m 8 X s 2194 111 m 8 X s 2194 120 m 8 X s 2186 130 m 16 X s 2194 139 m 8 X s 2194 148 m 8 X s
 2194 157 m 8 X s 2186 166 m 16 X s 2194 175 m 8 X s 2194 184 m 8 X s 2194 193 m 8 X s 2186 202 m 16 X s 2194 212 m 8 X s 2194 221 m 8 X s 2194 230 m 8 X s 2186 239 m 16 X s 2194 248 m 8 X s 2194 257 m 8 X s 2194 266 m 8 X s 2186 275 m 16 X s 2194
 285 m 8 X s 2194 294 m 8 X s 2194 303 m 8 X s 2186 312 m 16 X s 2194 321 m 8 X s 2194 330 m 8 X s 2194 339 m 8 X s 2186 348 m 16 X s 2194 358 m 8 X s 2194 367 m 8 X s 2194 376 m 8 X s 2186 385 m 16 X s 2194 394 m 8 X s 2194 403 m 8 X s 2194 412 m 8
 X s 2186 421 m 16 X s 2194 430 m 8 X s 2194 440 m 8 X s 2194 449 m 8 X s 2186 458 m 16 X s 2194 467 m 8 X s 2194 476 m 8 X s 2194 485 m 8 X s 2186 494 m 16 X s 2186 494 m 16 X s 2194 503 m 8 X s 2194 513 m 8 X s 1 0 0 c 6 lw black 3 lw 1 0 0 c 2188
 93 m s 2173 93 m s 2158 93 m s 2143 93 m s 2128 93 m s 2113 93 m s 2098 93 m s 2082 93 m s 2067 93 m s 2052 93 m s 2037 93 m s 2022 93 m s 2007 93 m s 1992 93 m s 1977 93 m s 1962 93 m s 1947 93 m s 1932 93 m s 1917 93 m s 1907 99 m -5 -6 d s 1892
 99 m -4 -5 d s 1887 93 m s 1874 96 m -3 -3 d s 1862 99 m -6 -6 d s 1841 93 m s 1827 94 m -1 -1 d s 1811 93 m s 1796 93 m s 1792 104 m -11 -11 d s 1766 93 m s 1765 107 m -14 -14 d s 1751 109 m -15 -16 d s 1751 124 m -30 -31 d s 1739 127 m -33 -34 d s
 1724 126 m -33 -33 d s 1724 142 m -49 -49 d s 1724 157 m -64 -64 d s 1710 158 m -55 -55 d s 1710 173 m -55 -55 d s 1710 189 m -55 -56 d s 1701 194 m -46 -45 d s 1696 205 m -41 -41 d s 1696 220 m -41 -41 d s 1696 236 m -41 -42 d s 1696 251 m -41 -42
 d s 1696 266 m -41 -41 d s 1687 272 m -32 -32 d s 1683 283 m -28 -28 d s 1683 298 m -28 -28 d s 1683 313 m -28 -28 d s 1683 328 m -28 -27 d s 1683 343 m -28 -27 d s 1683 358 m -28 -27 d s 1671 362 m -16 -16 d s 1669 375 m -14 -14 d s 1669 390 m -14
 -14 d s 1669 405 m -14 -13 d s 1669 421 m -14 -14 d s 1669 436 m -14 -14 d s 1669 451 m -14 -14 d s 1669 466 m -14 -14 d s 1669 481 m -14 -13 d s 6 lw 1655 481 m 14 X -119 Y 14 X -90 Y 13 X -78 Y 14 X -37 Y 14 X -32 Y 13 X 2 Y 14 X -18 Y 14 X -16 Y
 13 X 11 Y 14 X -11 Y 27 X 1 Y 14 X -1 Y 14 X 4 Y 13 X 2 Y 14 X -6 Y 14 X 6 Y 27 X -6 Y 287 X s black 3 lw 1655 93 m 547 X s 1722 106 m -13 Y s 1739 100 m -7 Y s 1755 100 m -7 Y s 1772 100 m -7 Y s 1789 100 m -7 Y s 1805 106 m -13 Y s 1822 100 m -7 Y
 s 1839 100 m -7 Y s 1855 100 m -7 Y s 1872 100 m -7 Y s 1889 106 m -13 Y s 1905 100 m -7 Y s 1922 100 m -7 Y s 1939 100 m -7 Y s 1955 100 m -7 Y s 1972 106 m -13 Y s 1989 100 m -7 Y s 2005 100 m -7 Y s 2022 100 m -7 Y s 2039 100 m -7 Y s 2055 106 m
 -13 Y s 2072 100 m -7 Y s 2089 100 m -7 Y s 2106 100 m -7 Y s 2122 100 m -7 Y s 2139 106 m -13 Y s 1722 106 m -13 Y s 1705 100 m -7 Y s 1689 100 m -7 Y s 1672 100 m -7 Y s 2139 106 m -13 Y s 2156 100 m -7 Y s 2172 100 m -7 Y s 2189 100 m -7 Y s 1655
 520 m 547 X s 1722 507 m 13 Y s 1739 513 m 7 Y s 1755 513 m 7 Y s 1772 513 m 7 Y s 1789 513 m 7 Y s 1805 507 m 13 Y s 1822 513 m 7 Y s 1839 513 m 7 Y s 1855 513 m 7 Y s 1872 513 m 7 Y s 1889 507 m 13 Y s 1905 513 m 7 Y s 1922 513 m 7 Y s 1939 513 m
 7 Y s 1955 513 m 7 Y s 1972 507 m 13 Y s 1989 513 m 7 Y s 2005 513 m 7 Y s 2022 513 m 7 Y s 2039 513 m 7 Y s 2055 507 m 13 Y s 2072 513 m 7 Y s 2089 513 m 7 Y s 2106 513 m 7 Y s 2122 513 m 7 Y s 2139 507 m 13 Y s 1722 507 m 13 Y s 1705 513 m 7 Y s
 1689 513 m 7 Y s 1672 513 m 7 Y s 2139 507 m 13 Y s 2156 513 m 7 Y s 2172 513 m 7 Y s 2189 513 m 7 Y s 1655 93 m 427 Y s 1671 93 m -16 X s 1663 102 m -8 X s 1663 111 m -8 X s 1663 120 m -8 X s 1671 130 m -16 X s 1663 139 m -8 X s 1663 148 m -8 X s
 1663 157 m -8 X s 1671 166 m -16 X s 1663 175 m -8 X s 1663 184 m -8 X s 1663 193 m -8 X s 1671 202 m -16 X s 1663 212 m -8 X s 1663 221 m -8 X s 1663 230 m -8 X s 1671 239 m -16 X s 1663 248 m -8 X s 1663 257 m -8 X s 1663 266 m -8 X s 1671 275 m
 -16 X s 1663 285 m -8 X s 1663 294 m -8 X s 1663 303 m -8 X s 1671 312 m -16 X s 1663 321 m -8 X s 1663 330 m -8 X s 1663 339 m -8 X s 1671 348 m -16 X s 1663 358 m -8 X s 1663 367 m -8 X s 1663 376 m -8 X s 1671 385 m -16 X s 1663 394 m -8 X s 1663
 403 m -8 X s 1663 412 m -8 X s 1671 421 m -16 X s 1663 430 m -8 X s 1663 440 m -8 X s 1663 449 m -8 X s 1671 458 m -16 X s 1663 467 m -8 X s 1663 476 m -8 X s 1663 485 m -8 X s 1671 494 m -16 X s 1671 494 m -16 X s 1663 503 m -8 X s 1663 513 m -8 X
 s 2202 93 m 427 Y s 2186 93 m 16 X s 2194 102 m 8 X s 2194 111 m 8 X s 2194 120 m 8 X s 2186 130 m 16 X s 2194 139 m 8 X s 2194 148 m 8 X s 2194 157 m 8 X s 2186 166 m 16 X s 2194 175 m 8 X s 2194 184 m 8 X s 2194 193 m 8 X s 2186 202 m 16 X s 2194
 212 m 8 X s 2194 221 m 8 X s 2194 230 m 8 X s 2186 239 m 16 X s 2194 248 m 8 X s 2194 257 m 8 X s 2194 266 m 8 X s 2186 275 m 16 X s 2194 285 m 8 X s 2194 294 m 8 X s 2194 303 m 8 X s 2186 312 m 16 X s 2194 321 m 8 X s 2194 330 m 8 X s 2194 339 m 8
 X s 2186 348 m 16 X s 2194 358 m 8 X s 2194 367 m 8 X s 2194 376 m 8 X s 2186 385 m 16 X s 2194 394 m 8 X s 2194 403 m 8 X s 2194 412 m 8 X s 2186 421 m 16 X s 2194 430 m 8 X s 2194 440 m 8 X s 2194 449 m 8 X s 2186 458 m 16 X s 2194 467 m 8 X s
 2194 476 m 8 X s 2194 485 m 8 X s 2186 494 m 16 X s 2186 494 m 16 X s 2194 503 m 8 X s 2194 513 m 8 X s
 gsave  711 564 1534 12 C 2230.83 90.8246 t 90 r /Helvetica-Bold findfont 19.9646 sf 0 0 m (U/O\255flow \(S,B\): \(0.0, 0.0\)% / \(0.1, 0.0\)%) show NC gr  0.48 0.56 0.6 c 0.364706 0.419608 0.490196 c 278 38 1542 536 bf 0.48 0.56 0.6 c 1542 536 m 278
 X s 1820 536 m 38 Y s 1820 574 m -278 X s 1542 574 m -38 Y s 1 1 1 c black 1 1 1 c
 gsave  711 564 1534 12 C 1545.91 548.458 t 0 r /Helvetica-Bold findfont 28.5208 sf 0 0 m (Input variable: MET) show NC gr 
 gr  gr showpage
end
%%EOF
