%!PS-Adobe-2.0 EPSF-2.0
%%BoundingBox:  0 0 567 294
%%Title: plots/variables_id_c1.eps: Input variables (training sample)
%%Creator: ROOT Version 6.04/14
%%CreationDate: Wed Oct  5 09:54:26 2016
%%DocumentNeededResources: ProcSet (FontSetInit)
%%EndComments
%%BeginProlog
80 dict begin
/s {stroke} def /l {lineto} def /m {moveto} def /t {translate} def
/r {rotate} def /rl {roll}  def /R {repeat} def
/d {rlineto} def /rm {rmoveto} def /gr {grestore} def /f {eofill} def
/c {setrgbcolor} def /black {0 setgray} def /sd {setdash} def
/cl {closepath} def /sf {scalefont setfont} def /lw {setlinewidth} def
/box {m dup 0 exch d exch 0 d 0 exch neg d cl} def
/NC{systemdict begin initclip end}def/C{NC box clip newpath}def
/bl {box s} def /bf {gsave box gsave f grestore 1 lw [] 0 sd s grestore} def /Y { 0 exch d} def /X { 0 d} def 
/K {{pop pop 0 moveto} exch kshow} bind def
/ita {/ang 15 def gsave [1 0 ang dup sin exch cos div 1 0 0] concat} def 
/mp {newpath /y exch def /x exch def} def
/side {[w .77 mul w .23 mul] .385 w mul sd w 0 l currentpoint t -144 r} def
/mr {mp x y w2 0 360 arc} def /m24 {mr s} def /m20 {mr f} def
/mb {mp x y w2 add m w2 neg 0 d 0 w neg d w 0 d 0 w d cl} def
/mt {mp x y w2 add m w2 neg w neg d w 0 d cl} def
/m21 {mb f} def /m25 {mb s} def /m22 {mt f} def /m26{mt s} def
/m23 {mp x y w2 sub m w2 w d w neg 0 d cl f} def
/m27 {mp x y w2 add m w3 neg w2 neg d w3 w2 neg d w3 w2 d cl s} def
/m28 {mp x w2 sub y w2 sub w3 add m w3 0 d  0 w3 neg d w3 0 d 0 w3 d w3 0 d  0 w3 d w3 neg 0 d 0 w3 d w3 neg 0 d 0 w3 neg d w3 neg 0 d cl s } def
/m29 {mp gsave x w2 sub y w2 add w3 sub m currentpoint t 4 {side} repeat cl fill gr} def
/m30 {mp gsave x w2 sub y w2 add w3 sub m currentpoint t 4 {side} repeat cl s gr} def
/m31 {mp x y w2 sub m 0 w d x w2 sub y m w 0 d x w2 sub y w2 add m w w neg d x w2 sub y w2 sub m w w d s} def
/m32 {mp x y w2 sub m w2 w d w neg 0 d cl s} def
/m33 {mp x y w2 add m w3 neg w2 neg d w3 w2 neg d w3 w2 d cl f} def
/m34 {mp x w2 sub y w2 sub w3 add m w3 0 d  0 w3 neg d w3 0 d 0 w3 d w3 0 d  0 w3 d w3 neg 0 d 0 w3 d w3 neg 0 d 0 w3 neg d w3 neg 0 d cl f } def
/m2 {mp x y w2 sub m 0 w d x w2 sub y m w 0 d s} def
/m5 {mp x w2 sub y w2 sub m w w d x w2 sub y w2 add m w w neg d s} def
%%IncludeResource: ProcSet (FontSetInit)
%%IncludeResource: font Times-Roman
%%IncludeResource: font Times-Italic
%%IncludeResource: font Times-Bold
%%IncludeResource: font Times-BoldItalic
%%IncludeResource: font Helvetica
%%IncludeResource: font Helvetica-Oblique
%%IncludeResource: font Helvetica-Bold
%%IncludeResource: font Helvetica-BoldOblique
%%IncludeResource: font Courier
%%IncludeResource: font Courier-Oblique
%%IncludeResource: font Courier-Bold
%%IncludeResource: font Courier-BoldOblique
%%IncludeResource: font Symbol
%%IncludeResource: font ZapfDingbats
/reEncode {exch findfont dup length dict begin {1 index /FID eq  {pop pop} {def} ifelse } forall /Encoding exch def currentdict end dup /FontName get exch definefont pop } def [/Times-Bold /Times-Italic /Times-BoldItalic /Helvetica /Helvetica-Oblique
 /Helvetica-Bold /Helvetica-BoldOblique /Courier /Courier-Oblique /Courier-Bold /Courier-BoldOblique /Times-Roman /AvantGarde-Book /AvantGarde-BookOblique /AvantGarde-Demi /AvantGarde-DemiOblique /Bookman-Demi /Bookman-DemiItalic /Bookman-Light
 /Bookman-LightItalic /Helvetica-Narrow /Helvetica-Narrow-Bold /Helvetica-Narrow-BoldOblique /Helvetica-Narrow-Oblique /NewCenturySchlbk-Roman /NewCenturySchlbk-Bold /NewCenturySchlbk-BoldItalic /NewCenturySchlbk-Italic /Palatino-Bold
 /Palatino-BoldItalic /Palatino-Italic /Palatino-Roman ] {ISOLatin1Encoding reEncode } forall
%%EndProlog
%%BeginSetup
%%EndSetup
newpath  gsave  .25 .25 scale  gsave  0 0 t 0.48 0.56 0.6 c[  ] 0 sd 3 lw 0.95 0.95 0.95 c 2268 1176 0 0 bf 0.48 0.56 0.6 c 0.95 0.95 0.95 c 710 565 23 600 bf black 0.95 0.95 0.95 c 548 427 143 681 bf black 548 427 143 681 bl 0.95 0.95 0.95 c 548 427
 143 681 bf black 548 427 143 681 bl 0 0 0.933333 c 6 lw 0.49 0.6 0.82 c black 3 lw 0.49 0.6 0.82 c 143 681 m 4 Y 14 X 1 Y 14 X -2 Y 14 X 8 Y 13 X 5 Y 14 X 7 Y 14 X 2 Y 13 X 1 Y 14 X 2 Y 14 X -1 Y 13 X 5 Y 14 X 10 Y 41 X 5 Y 14 X 3 Y 13 X 24 Y 14 X
 66 Y 14 X 164 Y 13 X 25 Y 14 X -155 Y 14 X -48 Y 13 X -31 Y 28 X -19 Y 13 X 8 Y 14 X -13 Y 14 X -14 Y 13 X -1 Y 14 X -9 Y 14 X 1 Y 13 X -16 Y 14 X 5 Y 14 X -5 Y 14 X -9 Y 13 X 1 Y 28 X -4 Y 13 X -2 Y 14 X -17 Y 14 X -1 Y f 6 lw 0 0 0.933333 c 0.49
 0.6 0.82 c 0 0 0.933333 c 143 685 m 14 X 1 Y 14 X -2 Y 14 X 8 Y 13 X 5 Y 14 X 7 Y 14 X 2 Y 13 X 1 Y 14 X 2 Y 14 X -1 Y 13 X 5 Y 14 X 10 Y 41 X 5 Y 14 X 3 Y 13 X 24 Y 14 X 66 Y 14 X 164 Y 13 X 25 Y 14 X -155 Y 14 X -48 Y 13 X -31 Y 28 X -19 Y 13 X 8
 Y 14 X -13 Y 14 X -14 Y 13 X -1 Y 14 X -9 Y 14 X 1 Y 13 X -16 Y 14 X 5 Y 14 X -5 Y 14 X -9 Y 13 X 1 Y 28 X -4 Y 13 X -2 Y 14 X -17 Y 14 X s black 3 lw 143 681 m 548 X s
 gsave  710 565 23 600 C 650.761 613.818 t 0 r /Helvetica-Bold findfont 28.5208 sf 0 0 m (Mjj) show NC gr  210 694 m -13 Y s 229 688 m -7 Y s 249 688 m -7 Y s 268 688 m -7 Y s 288 694 m -13 Y s 307 688 m -7 Y s 327 688 m -7 Y s 346 688 m -7 Y s 366
 694 m -13 Y s 385 688 m -7 Y s 405 688 m -7 Y s 424 688 m -7 Y s 444 694 m -13 Y s 463 688 m -7 Y s 483 688 m -7 Y s 502 688 m -7 Y s 522 694 m -13 Y s 541 688 m -7 Y s 561 688 m -7 Y s 580 688 m -7 Y s 600 694 m -13 Y s 619 688 m -7 Y s 638 688 m
 -7 Y s 658 688 m -7 Y s 677 694 m -13 Y s 210 694 m -13 Y s 190 688 m -7 Y s 171 688 m -7 Y s 151 688 m -7 Y s 677 694 m -13 Y s
 gsave  710 565 23 600 C 184.714 653.603 t 0 r /Helvetica-Bold findfont 25.6688 sf 0 0 m (200) show NC gr 
 gsave  710 565 23 600 C 264.283 653.603 t 0 r /Helvetica-Bold findfont 25.6688 sf 0 0 m (400) show NC gr 
 gsave  710 565 23 600 C 341.01 653.603 t 0 r /Helvetica-Bold findfont 25.6688 sf 0 0 m (600) show NC gr 
 gsave  710 565 23 600 C 420.579 653.603 t 0 r /Helvetica-Bold findfont 25.6688 sf 0 0 m (800) show NC gr 
 gsave  710 565 23 600 C 491.623 653.603 t 0 r /Helvetica-Bold findfont 25.6688 sf 0 0 m (1000) show NC gr 
 gsave  710 565 23 600 C 568.35 653.603 t 0 r /Helvetica-Bold findfont 25.6688 sf 0 0 m (1200) show NC gr 
 gsave  710 565 23 600 C 647.919 653.603 t 0 r /Helvetica-Bold findfont 25.6688 sf 0 0 m (1400) show NC gr  143 1108 m 548 X s 210 1095 m 13 Y s 229 1102 m 6 Y s 249 1102 m 6 Y s 268 1102 m 6 Y s 288 1095 m 13 Y s 307 1102 m 6 Y s 327 1102 m 6 Y s
 346 1102 m 6 Y s 366 1095 m 13 Y s 385 1102 m 6 Y s 405 1102 m 6 Y s 424 1102 m 6 Y s 444 1095 m 13 Y s 463 1102 m 6 Y s 483 1102 m 6 Y s 502 1102 m 6 Y s 522 1095 m 13 Y s 541 1102 m 6 Y s 561 1102 m 6 Y s 580 1102 m 6 Y s 600 1095 m 13 Y s 619
 1102 m 6 Y s 638 1102 m 6 Y s 658 1102 m 6 Y s 677 1095 m 13 Y s 210 1095 m 13 Y s 190 1102 m 6 Y s 171 1102 m 6 Y s 151 1102 m 6 Y s 677 1095 m 13 Y s 143 681 m 427 Y s
 gsave  710 565 23 600 C 48.3097 1045.76 t 90 r /Helvetica-Bold findfont 28.5208 sf 0 0 m (35.1 ) show NC gr 
 gsave  710 565 23 600 C 34.101 1037.24 t 90 r /Helvetica-Bold findfont 19.9646 sf 0 0 m ( ) show NC gr 
 gsave  710 565 23 600 C 48.3097 1028.71 t 90 r /Helvetica-Bold findfont 28.5208 sf 0 0 m (/) show NC gr 
 gsave  710 565 23 600 C 53.9933 1020.19 t 90 r /Helvetica-Bold findfont 19.9646 sf 0 0 m ( ) show NC gr 
 gsave  710 565 23 600 C 45.468 912.202 t 90 r /Helvetica-Bold findfont 28.5208 sf 0 0 m (\(1/N\) dN) show NC gr  160 681 m -17 X s 152 698 m -9 X s 152 715 m -9 X s 152 732 m -9 X s 152 749 m -9 X s 160 765 m -17 X s 152 782 m -9 X s 152 799 m -9 X
 s 152 816 m -9 X s 152 833 m -9 X s 160 850 m -17 X s 152 866 m -9 X s 152 883 m -9 X s 152 900 m -9 X s 152 917 m -9 X s 160 934 m -17 X s 152 950 m -9 X s 152 967 m -9 X s 152 984 m -9 X s 152 1001 m -9 X s 160 1018 m -17 X s 152 1035 m -9 X s 152
 1051 m -9 X s 152 1068 m -9 X s 152 1085 m -9 X s 160 1102 m -17 X s 160 1102 m -17 X s
 gsave  710 565 23 600 C 119.354 670.653 t 0 r /Helvetica-Bold findfont 25.6688 sf 0 0 m (0) show NC gr 
 gsave  710 565 23 600 C 73.8855 755.906 t 0 r /Helvetica-Bold findfont 25.6688 sf 0 0 m (0.001) show NC gr 
 gsave  710 565 23 600 C 68.202 838.316 t 0 r /Helvetica-Bold findfont 25.6688 sf 0 0 m (0.002) show NC gr 
 gsave  710 565 23 600 C 68.202 923.569 t 0 r /Helvetica-Bold findfont 25.6688 sf 0 0 m (0.003) show NC gr 
 gsave  710 565 23 600 C 68.202 1008.82 t 0 r /Helvetica-Bold findfont 25.6688 sf 0 0 m (0.004) show NC gr 
 gsave  710 565 23 600 C 68.202 1091.23 t 0 r /Helvetica-Bold findfont 25.6688 sf 0 0 m (0.005) show NC gr  691 681 m 427 Y s 674 681 m 17 X s 683 698 m 8 X s 683 715 m 8 X s 683 732 m 8 X s 683 749 m 8 X s 674 765 m 17 X s 683 782 m 8 X s 683 799 m
 8 X s 683 816 m 8 X s 683 833 m 8 X s 674 850 m 17 X s 683 866 m 8 X s 683 883 m 8 X s 683 900 m 8 X s 683 917 m 8 X s 674 934 m 17 X s 683 950 m 8 X s 683 967 m 8 X s 683 984 m 8 X s 683 1001 m 8 X s 674 1018 m 17 X s 683 1035 m 8 X s 683 1051 m 8
 X s 683 1068 m 8 X s 683 1085 m 8 X s 674 1102 m 17 X s 674 1102 m 17 X s 1 0 0 c 6 lw black 3 lw 1 0 0 c 676 681 m s 661 681 m s 646 681 m s 634 685 m -3 -4 d s 622 688 m -6 -7 d s 614 695 m -13 -14 d s 598 694 m -3 -3 d s 586 681 m s 571 682 m -1
 Y s 556 682 m -1 Y s 548 689 m -7 -8 d s 540 696 m -15 -15 d s 534 705 m -8 -7 d s 515 686 m -5 -5 d s 513 699 m -18 -18 d s 499 700 m s 483 684 m -3 -3 d s 472 688 m -7 -7 d s 465 696 m -15 -15 d s 444 691 m s 440 686 m -5 -5 d s 427 689 m -7 -8 d
 s 417 694 m -12 -13 d s 415 706 m -25 -25 d s 390 696 m -15 -15 d s 390 712 m -30 -31 d s 376 713 m -31 -32 d s 376 728 m -47 -47 d s 376 743 m -62 -62 d s 376 759 m -77 -78 d s 366 763 m -82 -82 d s 350 762 m -1 -1 d s 336 748 m -67 -67 d s 335 763
 m -81 -82 d s 335 778 m -27 -28 d s 300 743 m -61 -62 d s 328 786 m -7 -7 d s 316 774 m -8 -8 d s 294 752 m -70 -71 d s 294 767 m -85 -86 d s 294 782 m -14 -14 d s 279 767 m -85 -86 d s 294 797 m -14 -13 d s 267 770 m -88 -89 d s 294 813 m -14 -14 d
 s 267 785 m -103 -104 d s 281 814 m -1 X s 267 800 m -118 -119 d s 267 815 m -124 -124 d s 267 831 m -124 -124 d s 267 846 m -14 -14 d s 245 824 m -102 -102 d s 254 848 m -1 -1 d s 239 833 m -54 -55 d s 184 778 m -41 -41 d s 239 849 m -54 -56 d s
 171 780 m -14 -14 d s 154 763 m -11 -11 d s 239 864 m -54 -55 d s 170 794 m -13 -13 d s 237 877 m -52 -53 d s 226 880 m -41 -41 d s 226 896 m -28 -28 d s 185 855 m -1 Y s 226 911 m -28 -28 d s 226 926 m -28 -28 d s 226 941 m -28 -27 d s 222 952 m
 -10 -10 d s 208 939 m -10 -10 d s 6 lw 143 763 m 14 X 31 Y 14 X -16 Y 14 X 77 Y 13 X 84 Y 14 X 13 Y 14 X -75 Y 13 X -53 Y 14 X 24 Y 14 X -81 Y 13 X 47 Y 14 X -71 Y 14 X 31 Y 13 X 12 Y 14 X -38 Y 14 X 14 Y 13 X 1 Y 14 X -51 Y 14 X -16 Y 13 X 10 Y 14
 X -17 Y 14 X -3 Y 13 X 5 Y 14 X 5 Y 14 X -12 Y 13 X 2 Y 14 X 14 Y 14 X -14 Y 13 X 19 Y 14 X -16 Y 14 X -7 Y 27 X -1 Y 14 X 13 Y 14 X 1 Y 13 X -10 Y 14 X -4 Y 55 X s 0.48 0.56 0.6 c 3 lw 1 1 1 c 0.48 0.56 0.6 c 285 84 143 1024 bl 143 1024 m 285 X s
 428 1024 m 84 Y s 428 1108 m -285 X s 143 1108 m -84 Y s black
 gsave  710 565 23 600 C 227.34 1079.87 t 0 r /Helvetica-Bold findfont 31.3729 sf 0 0 m (Signal) show NC gr  0.49 0.6 0.82 c 156 1072 m 60 X 30 Y -60 X f 0 0 0.933333 c 6 lw 156 1102 m 60 X s 156 1072 m 60 X s 216 1072 m 30 Y s 156 1072 m 30 Y s
 black
 gsave  710 565 23 600 C 227.34 1037.24 t 0 r /Helvetica-Bold findfont 31.3729 sf 0 0 m (Background) show NC gr  1 0 0 c 3 lw 216 1038 m -8 -8 d s 216 1053 m -23 -23 d s 207 1060 m -29 -30 d s 192 1060 m -29 -30 d s 177 1060 m -21 -22 d s 162 1060 m
 -6 -7 d s 6 lw 0 0 0.933333 c 1 0 0 c 156 1060 m 60 X s 156 1030 m 60 X s 216 1030 m 30 Y s 156 1030 m 30 Y s black 3 lw 143 681 m 548 X s 210 694 m -13 Y s 229 688 m -7 Y s 249 688 m -7 Y s 268 688 m -7 Y s 288 694 m -13 Y s 307 688 m -7 Y s 327
 688 m -7 Y s 346 688 m -7 Y s 366 694 m -13 Y s 385 688 m -7 Y s 405 688 m -7 Y s 424 688 m -7 Y s 444 694 m -13 Y s 463 688 m -7 Y s 483 688 m -7 Y s 502 688 m -7 Y s 522 694 m -13 Y s 541 688 m -7 Y s 561 688 m -7 Y s 580 688 m -7 Y s 600 694 m
 -13 Y s 619 688 m -7 Y s 638 688 m -7 Y s 658 688 m -7 Y s 677 694 m -13 Y s 210 694 m -13 Y s 190 688 m -7 Y s 171 688 m -7 Y s 151 688 m -7 Y s 677 694 m -13 Y s 143 1108 m 548 X s 210 1095 m 13 Y s 229 1102 m 6 Y s 249 1102 m 6 Y s 268 1102 m 6 Y
 s 288 1095 m 13 Y s 307 1102 m 6 Y s 327 1102 m 6 Y s 346 1102 m 6 Y s 366 1095 m 13 Y s 385 1102 m 6 Y s 405 1102 m 6 Y s 424 1102 m 6 Y s 444 1095 m 13 Y s 463 1102 m 6 Y s 483 1102 m 6 Y s 502 1102 m 6 Y s 522 1095 m 13 Y s 541 1102 m 6 Y s 561
 1102 m 6 Y s 580 1102 m 6 Y s 600 1095 m 13 Y s 619 1102 m 6 Y s 638 1102 m 6 Y s 658 1102 m 6 Y s 677 1095 m 13 Y s 210 1095 m 13 Y s 190 1102 m 6 Y s 171 1102 m 6 Y s 151 1102 m 6 Y s 677 1095 m 13 Y s 143 681 m 427 Y s 160 681 m -17 X s 152 698 m
 -9 X s 152 715 m -9 X s 152 732 m -9 X s 152 749 m -9 X s 160 765 m -17 X s 152 782 m -9 X s 152 799 m -9 X s 152 816 m -9 X s 152 833 m -9 X s 160 850 m -17 X s 152 866 m -9 X s 152 883 m -9 X s 152 900 m -9 X s 152 917 m -9 X s 160 934 m -17 X s
 152 950 m -9 X s 152 967 m -9 X s 152 984 m -9 X s 152 1001 m -9 X s 160 1018 m -17 X s 152 1035 m -9 X s 152 1051 m -9 X s 152 1068 m -9 X s 152 1085 m -9 X s 160 1102 m -17 X s 160 1102 m -17 X s 691 681 m 427 Y s 674 681 m 17 X s 683 698 m 8 X s
 683 715 m 8 X s 683 732 m 8 X s 683 749 m 8 X s 674 765 m 17 X s 683 782 m 8 X s 683 799 m 8 X s 683 816 m 8 X s 683 833 m 8 X s 674 850 m 17 X s 683 866 m 8 X s 683 883 m 8 X s 683 900 m 8 X s 683 917 m 8 X s 674 934 m 17 X s 683 950 m 8 X s 683
 967 m 8 X s 683 984 m 8 X s 683 1001 m 8 X s 674 1018 m 17 X s 683 1035 m 8 X s 683 1051 m 8 X s 683 1068 m 8 X s 683 1085 m 8 X s 674 1102 m 17 X s 674 1102 m 17 X s
 gsave  710 565 23 600 C 719.017 679.067 t 90 r /Helvetica-Bold findfont 19.9646 sf 0 0 m (U/O\255flow \(S,B\): \(0.0, 0.0\)% / \(0.0, 0.0\)%) show NC gr  0.48 0.56 0.6 c 0.364706 0.419608 0.490196 c 256 38 30 1124 bf 0.48 0.56 0.6 c 30 1124 m 256 X
 s 286 1124 m 38 Y s 286 1162 m -256 X s 30 1162 m -38 Y s 1 1 1 c black 1 1 1 c
 gsave  710 565 23 600 C 34.101 1136.7 t 0 r /Helvetica-Bold findfont 28.5208 sf 0 0 m (Input variable: Mjj) show NC gr  0.48 0.56 0.6 c 0.95 0.95 0.95 c 710 565 779 600 bf black 0.95 0.95 0.95 c 548 427 899 681 bf black 548 427 899 681 bl 0.95 0.95
 0.95 c 548 427 899 681 bf black 548 427 899 681 bl 0 0 0.933333 c 6 lw 0.49 0.6 0.82 c black 3 lw 0.49 0.6 0.82 c 899 681 m 151 Y 14 X 99 Y 14 X -7 Y 13 X -2 Y 14 X -33 Y 14 X -5 Y 13 X 7 Y 14 X -4 Y 14 X -50 Y 13 X 22 Y 14 X 16 Y 14 X 4 Y 14 X -11
 Y 13 X 24 Y 14 X -4 Y 14 X 19 Y 13 X -26 Y 14 X 18 Y 14 X -10 Y 13 X -13 Y 14 X -18 Y 14 X 22 Y 13 X -39 Y 14 X -20 Y 14 X -25 Y 13 X -29 Y 14 X 2 Y 14 X -19 Y 13 X -13 Y 28 X -21 Y 13 X 2 Y 14 X -16 Y 14 X -10 Y 27 X -6 Y 14 X 1 Y 13 X -2 Y 14 X -4
 Y 28 X f 6 lw 0 0 0.933333 c 0.49 0.6 0.82 c 0 0 0.933333 c 899 832 m 14 X 99 Y 14 X -7 Y 13 X -2 Y 14 X -33 Y 14 X -5 Y 13 X 7 Y 14 X -4 Y 14 X -50 Y 13 X 22 Y 14 X 16 Y 14 X 4 Y 14 X -11 Y 13 X 24 Y 14 X -4 Y 14 X 19 Y 13 X -26 Y 14 X 18 Y 14 X
 -10 Y 13 X -13 Y 14 X -18 Y 14 X 22 Y 13 X -39 Y 14 X -20 Y 14 X -25 Y 13 X -29 Y 14 X 2 Y 14 X -19 Y 13 X -13 Y 28 X -21 Y 13 X 2 Y 14 X -16 Y 14 X -10 Y 27 X -6 Y 14 X 1 Y 13 X -2 Y 14 X -4 Y 28 X s black 3 lw 899 681 m 548 X s
 gsave  710 565 779 600 C 1383.93 610.976 t 0 r /Helvetica-Bold findfont 28.5208 sf 0 0 m (RMS) show NC gr  1006 694 m -13 Y s 1028 688 m -7 Y s 1049 688 m -7 Y s 1070 688 m -7 Y s 1092 688 m -7 Y s 1113 694 m -13 Y s 1135 688 m -7 Y s 1156 688 m -7
 Y s 1177 688 m -7 Y s 1199 688 m -7 Y s 1220 694 m -13 Y s 1242 688 m -7 Y s 1263 688 m -7 Y s 1284 688 m -7 Y s 1306 688 m -7 Y s 1327 694 m -13 Y s 1348 688 m -7 Y s 1370 688 m -7 Y s 1391 688 m -7 Y s 1413 688 m -7 Y s 1434 694 m -13 Y s 1006 694
 m -13 Y s 985 688 m -7 Y s 963 688 m -7 Y s 942 688 m -7 Y s 921 688 m -7 Y s 1434 694 m -13 Y s
 gsave  710 565 779 600 C 986.087 653.603 t 0 r /Helvetica-Bold findfont 25.6688 sf 0 0 m (0.5) show NC gr 
 gsave  710 565 779 600 C 1105.44 653.603 t 0 r /Helvetica-Bold findfont 25.6688 sf 0 0 m (1) show NC gr 
 gsave  710 565 779 600 C 1199.22 653.603 t 0 r /Helvetica-Bold findfont 25.6688 sf 0 0 m (1.5) show NC gr 
 gsave  710 565 779 600 C 1315.73 653.603 t 0 r /Helvetica-Bold findfont 25.6688 sf 0 0 m (2) show NC gr 
 gsave  710 565 779 600 C 1412.35 653.603 t 0 r /Helvetica-Bold findfont 25.6688 sf 0 0 m (2.5) show NC gr  899 1108 m 548 X s 1006 1095 m 13 Y s 1028 1102 m 6 Y s 1049 1102 m 6 Y s 1070 1102 m 6 Y s 1092 1102 m 6 Y s 1113 1095 m 13 Y s 1135 1102 m 6
 Y s 1156 1102 m 6 Y s 1177 1102 m 6 Y s 1199 1102 m 6 Y s 1220 1095 m 13 Y s 1242 1102 m 6 Y s 1263 1102 m 6 Y s 1284 1102 m 6 Y s 1306 1102 m 6 Y s 1327 1095 m 13 Y s 1348 1102 m 6 Y s 1370 1102 m 6 Y s 1391 1102 m 6 Y s 1413 1102 m 6 Y s 1434 1095
 m 13 Y s 1006 1095 m 13 Y s 985 1102 m 6 Y s 963 1102 m 6 Y s 942 1102 m 6 Y s 921 1102 m 6 Y s 1434 1095 m 13 Y s 899 681 m 427 Y s
 gsave  710 565 779 600 C 804.215 1008.82 t 90 r /Helvetica-Bold findfont 28.5208 sf 0 0 m (0.0639 ) show NC gr 
 gsave  710 565 779 600 C 790.007 1000.3 t 90 r /Helvetica-Bold findfont 19.9646 sf 0 0 m ( ) show NC gr 
 gsave  710 565 779 600 C 804.215 991.771 t 90 r /Helvetica-Bold findfont 28.5208 sf 0 0 m (/) show NC gr 
 gsave  710 565 779 600 C 809.899 983.246 t 90 r /Helvetica-Bold findfont 19.9646 sf 0 0 m ( ) show NC gr 
 gsave  710 565 779 600 C 804.215 875.259 t 90 r /Helvetica-Bold findfont 28.5208 sf 0 0 m (\(1/N\) dN) show NC gr  915 681 m -16 X s 907 698 m -8 X s 907 716 m -8 X s 907 733 m -8 X s 915 750 m -16 X s 907 767 m -8 X s 907 784 m -8 X s 907 801 m -8
 X s 915 818 m -16 X s 907 835 m -8 X s 907 853 m -8 X s 907 870 m -8 X s 915 887 m -16 X s 907 904 m -8 X s 907 921 m -8 X s 907 938 m -8 X s 915 955 m -16 X s 907 972 m -8 X s 907 990 m -8 X s 907 1007 m -8 X s 915 1024 m -16 X s 907 1041 m -8 X s
 907 1058 m -8 X s 907 1075 m -8 X s 915 1092 m -16 X s 915 1092 m -16 X s
 gsave  710 565 779 600 C 875.259 670.653 t 0 r /Helvetica-Bold findfont 25.6688 sf 0 0 m (0) show NC gr 
 gsave  710 565 779 600 C 852.525 738.855 t 0 r /Helvetica-Bold findfont 25.6688 sf 0 0 m (0.2) show NC gr 
 gsave  710 565 779 600 C 852.525 807.057 t 0 r /Helvetica-Bold findfont 25.6688 sf 0 0 m (0.4) show NC gr 
 gsave  710 565 779 600 C 852.525 878.101 t 0 r /Helvetica-Bold findfont 25.6688 sf 0 0 m (0.6) show NC gr 
 gsave  710 565 779 600 C 852.525 946.303 t 0 r /Helvetica-Bold findfont 25.6688 sf 0 0 m (0.8) show NC gr 
 gsave  710 565 779 600 C 878.101 1014.5 t 0 r /Helvetica-Bold findfont 25.6688 sf 0 0 m (1) show NC gr 
 gsave  710 565 779 600 C 852.525 1082.71 t 0 r /Helvetica-Bold findfont 25.6688 sf 0 0 m (1.2) show NC gr  1447 681 m 427 Y s 1430 681 m 17 X s 1438 698 m 9 X s 1438 716 m 9 X s 1438 733 m 9 X s 1430 750 m 17 X s 1438 767 m 9 X s 1438 784 m 9 X s
 1438 801 m 9 X s 1430 818 m 17 X s 1438 835 m 9 X s 1438 853 m 9 X s 1438 870 m 9 X s 1430 887 m 17 X s 1438 904 m 9 X s 1438 921 m 9 X s 1438 938 m 9 X s 1430 955 m 17 X s 1438 972 m 9 X s 1438 990 m 9 X s 1438 1007 m 9 X s 1430 1024 m 17 X s 1438
 1041 m 9 X s 1438 1058 m 9 X s 1438 1075 m 9 X s 1430 1092 m 17 X s 1430 1092 m 17 X s 1 0 0 c 6 lw black 3 lw 1 0 0 c 1432 681 m s 1417 681 m s 1402 681 m s 1388 682 m -1 -1 d s 1378 688 m -6 -7 d s 1378 703 m -14 -14 d s 1358 683 m -1 -2 d s 1367
 707 m -3 -3 d s 1342 682 m -1 Y s 1337 692 m -10 -11 d s 1337 707 m -26 -26 d s 1327 712 m -4 -3 d s 1310 695 m -14 -14 d s 1310 710 m -29 -29 d s 1310 725 m -44 -44 d s 1310 740 m -14 -13 d s 1288 719 m -37 -38 d s 1310 755 m -14 -13 d s 1282 728 m
 -46 -47 d s 1310 771 m -14 -14 d s 1282 743 m -61 -62 d s 1310 786 m -14 -14 d s 1282 758 m -76 -77 d s 1282 773 m -27 -27 d s 1246 737 m -55 -56 d s 1282 789 m -27 -28 d s 1241 747 m -65 -66 d s 1278 799 m -23 -23 d s 1241 763 m -80 -82 d s 1269
 805 m -14 -14 d s 1241 778 m -95 -97 d s 1255 807 m s 1241 793 m -110 -112 d s 1241 808 m -125 -127 d s 1241 823 m -141 -142 d s 1241 838 m -13 -13 d s 1214 811 m -129 -130 d s 1241 854 m -13 -14 d s 1214 826 m -144 -145 d s 1241 869 m -13 -14 d s
 1214 841 m -159 -160 d s 1241 884 m -13 -14 d s 1214 856 m -27 -27 d s 1173 815 m -68 -69 d s 1103 744 m -63 -63 d s 1241 899 m -13 -14 d s 1214 872 m -27 -28 d s 1173 830 m -41 -41 d s 1119 776 m -14 -15 d s 1091 748 m -66 -67 d s 1241 914 m -13
 -13 d s 1214 887 m -27 -28 d s 1173 845 m -41 -41 d s 1118 790 m -13 -13 d s 1091 763 m -81 -82 d s 1241 930 m -13 -14 d s 1214 902 m -27 -28 d s 1173 861 m -41 -42 d s 1118 806 m -13 -14 d s 1091 778 m -96 -97 d s 1241 945 m -13 -14 d s 1214 917 m
 -14 -14 d s 1200 903 m -13 -13 d s 1173 876 m -41 -42 d s 1118 821 m -13 -14 d s 1091 793 m -111 -112 d s 1241 960 m -13 -14 d s 1173 891 m -14 -14 d s 1158 876 m -26 -26 d s 1118 836 m -13 -14 d s 1091 808 m -126 -127 d s 1241 975 m -13 -14 d s
 1173 906 m -14 -14 d s 1146 879 m -14 -14 d s 1118 851 m -13 -14 d s 1077 810 m -127 -129 d s 1241 990 m -13 -13 d s 1173 921 m -14 -13 d s 1146 894 m -14 -14 d s 1116 864 m -11 -12 d s 1077 825 m -142 -144 d s 1241 1005 m -13 -13 d s 1173 937 m -14
 -14 d s 1146 909 m -14 -14 d s 1077 840 m -157 -159 d s 1241 1021 m -13 -14 d s 1173 952 m -14 -14 d s 1146 924 m -14 -14 d s 1077 855 m -172 -174 d s 1241 1036 m -13 -14 d s 1173 967 m -14 -14 d s 1144 938 m -12 -12 d s 1077 870 m -82 -82 d s 983
 776 m -84 -85 d s 1241 1051 m -13 -14 d s 1173 982 m -14 -14 d s 1077 886 m -82 -83 d s 981 789 m -82 -82 d s 1241 1066 m -13 -14 d s 1166 990 m -7 -6 d s 1077 901 m -27 -28 d s 1048 871 m -53 -53 d s 981 804 m -41 -41 d s 930 753 m -31 -31 d s 1229
 1069 m -1 -1 d s 1077 916 m -27 -28 d s 1036 875 m -41 -42 d s 981 820 m -41 -42 d s 927 764 m -28 -27 d s 1077 931 m -13 -14 d s 1036 890 m -41 -41 d s 981 835 m -41 -42 d s 927 780 m -28 -28 d s 1077 946 m -13 -13 d s 1036 905 m -27 -27 d s 1001
 869 m -6 -5 d s 981 850 m -41 -41 d s 927 795 m -28 -28 d s 1077 962 m -13 -14 d s 1036 920 m -14 -14 d s 1009 893 m s 981 865 m -41 -41 d s 901 784 m -2 -2 d s 1077 977 m -13 -14 d s 1036 935 m -14 -13 d s 981 880 m -41 -41 d s 1036 951 m -14 -14 d
 s 981 896 m -41 -42 d s 1036 966 m -14 -14 d s 981 911 m -41 -42 d s 1030 975 m -8 -8 d s 981 926 m -27 -28 d s 942 886 m -2 -1 d s 981 941 m -13 -14 d s 954 914 m s 981 956 m -13 -14 d s 980 970 m -12 -12 d s 6 lw 899 784 m 14 X 12 Y 14 X -43 Y 13
 X 133 Y 14 X 28 Y 14 X 56 Y 13 X -194 Y 14 X 93 Y 14 X 24 Y 13 X 82 Y 14 X -104 Y 14 X 32 Y 14 X 75 Y 13 X -169 Y 14 X -65 Y 14 X 120 Y 13 X -88 Y 14 X 162 Y 14 X -62 Y 13 X 114 Y 14 X -175 Y 14 X 88 Y 13 X 15 Y 14 X -107 Y 14 X 258 Y 13 X -332 Y 14
 X 70 Y 14 X -8 Y 13 X -80 Y 14 X 67 Y 14 X -93 Y 13 X 19 Y 14 X -30 Y 14 X 1 Y 13 X 24 Y 14 X -25 Y 14 X -1 Y 55 X s black 3 lw 899 681 m 548 X s 1006 694 m -13 Y s 1028 688 m -7 Y s 1049 688 m -7 Y s 1070 688 m -7 Y s 1092 688 m -7 Y s 1113 694 m
 -13 Y s 1135 688 m -7 Y s 1156 688 m -7 Y s 1177 688 m -7 Y s 1199 688 m -7 Y s 1220 694 m -13 Y s 1242 688 m -7 Y s 1263 688 m -7 Y s 1284 688 m -7 Y s 1306 688 m -7 Y s 1327 694 m -13 Y s 1348 688 m -7 Y s 1370 688 m -7 Y s 1391 688 m -7 Y s 1413
 688 m -7 Y s 1434 694 m -13 Y s 1006 694 m -13 Y s 985 688 m -7 Y s 963 688 m -7 Y s 942 688 m -7 Y s 921 688 m -7 Y s 1434 694 m -13 Y s 899 1108 m 548 X s 1006 1095 m 13 Y s 1028 1102 m 6 Y s 1049 1102 m 6 Y s 1070 1102 m 6 Y s 1092 1102 m 6 Y s
 1113 1095 m 13 Y s 1135 1102 m 6 Y s 1156 1102 m 6 Y s 1177 1102 m 6 Y s 1199 1102 m 6 Y s 1220 1095 m 13 Y s 1242 1102 m 6 Y s 1263 1102 m 6 Y s 1284 1102 m 6 Y s 1306 1102 m 6 Y s 1327 1095 m 13 Y s 1348 1102 m 6 Y s 1370 1102 m 6 Y s 1391 1102 m
 6 Y s 1413 1102 m 6 Y s 1434 1095 m 13 Y s 1006 1095 m 13 Y s 985 1102 m 6 Y s 963 1102 m 6 Y s 942 1102 m 6 Y s 921 1102 m 6 Y s 1434 1095 m 13 Y s 899 681 m 427 Y s 915 681 m -16 X s 907 698 m -8 X s 907 716 m -8 X s 907 733 m -8 X s 915 750 m -16
 X s 907 767 m -8 X s 907 784 m -8 X s 907 801 m -8 X s 915 818 m -16 X s 907 835 m -8 X s 907 853 m -8 X s 907 870 m -8 X s 915 887 m -16 X s 907 904 m -8 X s 907 921 m -8 X s 907 938 m -8 X s 915 955 m -16 X s 907 972 m -8 X s 907 990 m -8 X s 907
 1007 m -8 X s 915 1024 m -16 X s 907 1041 m -8 X s 907 1058 m -8 X s 907 1075 m -8 X s 915 1092 m -16 X s 915 1092 m -16 X s 1447 681 m 427 Y s 1430 681 m 17 X s 1438 698 m 9 X s 1438 716 m 9 X s 1438 733 m 9 X s 1430 750 m 17 X s 1438 767 m 9 X s
 1438 784 m 9 X s 1438 801 m 9 X s 1430 818 m 17 X s 1438 835 m 9 X s 1438 853 m 9 X s 1438 870 m 9 X s 1430 887 m 17 X s 1438 904 m 9 X s 1438 921 m 9 X s 1438 938 m 9 X s 1430 955 m 17 X s 1438 972 m 9 X s 1438 990 m 9 X s 1438 1007 m 9 X s 1430
 1024 m 17 X s 1438 1041 m 9 X s 1438 1058 m 9 X s 1438 1075 m 9 X s 1430 1092 m 17 X s 1430 1092 m 17 X s
 gsave  710 565 779 600 C 1474.92 679.067 t 90 r /Helvetica-Bold findfont 19.9646 sf 0 0 m (U/O\255flow \(S,B\): \(0.0, 0.0\)% / \(0.0, 0.0\)%) show NC gr  0.48 0.56 0.6 c 0.364706 0.419608 0.490196 c 281 38 786 1124 bf 0.48 0.56 0.6 c 786 1124 m 281
 X s 1067 1124 m 38 Y s 1067 1162 m -281 X s 786 1162 m -38 Y s 1 1 1 c black 1 1 1 c
 gsave  710 565 779 600 C 790.007 1136.7 t 0 r /Helvetica-Bold findfont 28.5208 sf 0 0 m (Input variable: RMS) show NC gr  0.48 0.56 0.6 c 0.95 0.95 0.95 c 711 565 1534 600 bf black 0.95 0.95 0.95 c 547 427 1655 681 bf black 547 427 1655 681 bl 0.95
 0.95 0.95 c 547 427 1655 681 bf black 547 427 1655 681 bl 0 0 0.933333 c 6 lw 0.49 0.6 0.82 c black 3 lw 0.49 0.6 0.82 c 1655 681 m 3 Y 14 X 2 Y 14 X 8 Y 13 X 6 Y 14 X 28 Y 14 X 50 Y 13 X 41 Y 14 X 44 Y 14 X 43 Y 13 X 67 Y 14 X 65 Y 14 X -1 Y 13 X
 32 Y 14 X -34 Y 14 X -11 Y 13 X -29 Y 14 X -27 Y 14 X -24 Y 13 X -25 Y 14 X -6 Y 14 X -18 Y 14 X -25 Y 13 X -98 Y 14 X -51 Y 14 X -17 Y 13 X -9 Y 14 X -5 Y 14 X -1 Y 13 X -3 Y 14 X -1 Y 14 X -3 Y 27 X -1 Y 14 X 4 Y 13 X -4 Y 82 X f 6 lw 0 0 0.933333
 c 0.49 0.6 0.82 c 0 0 0.933333 c 1655 684 m 14 X 2 Y 14 X 8 Y 13 X 6 Y 14 X 28 Y 14 X 50 Y 13 X 41 Y 14 X 44 Y 14 X 43 Y 13 X 67 Y 14 X 65 Y 14 X -1 Y 13 X 32 Y 14 X -34 Y 14 X -11 Y 13 X -29 Y 14 X -27 Y 14 X -24 Y 13 X -25 Y 14 X -6 Y 14 X -18 Y
 14 X -25 Y 13 X -98 Y 14 X -51 Y 14 X -17 Y 13 X -9 Y 14 X -5 Y 14 X -1 Y 13 X -3 Y 14 X -1 Y 14 X -3 Y 27 X -1 Y 14 X 4 Y 13 X -4 Y 82 X s black 3 lw 1655 681 m 547 X s
 gsave  711 565 1534 600 C 2148.36 610.976 t 0 r /Helvetica-Bold findfont 28.5208 sf 0 0 m (dRll) show NC gr  1736 694 m -13 Y s 1756 688 m -7 Y s 1776 688 m -7 Y s 1796 688 m -7 Y s 1817 688 m -7 Y s 1837 694 m -13 Y s 1857 688 m -7 Y s 1877 688 m
 -7 Y s 1897 688 m -7 Y s 1917 688 m -7 Y s 1937 694 m -13 Y s 1957 688 m -7 Y s 1977 688 m -7 Y s 1998 688 m -7 Y s 2018 688 m -7 Y s 2038 694 m -13 Y s 2058 688 m -7 Y s 2078 688 m -7 Y s 2098 688 m -7 Y s 2118 688 m -7 Y s 2138 694 m -13 Y s 1736
 694 m -13 Y s 1716 688 m -7 Y s 1696 688 m -7 Y s 1676 688 m -7 Y s 1656 688 m -7 Y s 2138 694 m -13 Y s 2158 688 m -7 Y s 2179 688 m -7 Y s 2199 688 m -7 Y s
 gsave  711 565 1534 600 C 1727.78 653.603 t 0 r /Helvetica-Bold findfont 25.6688 sf 0 0 m (1) show NC gr 
 gsave  711 565 1534 600 C 1827.25 653.603 t 0 r /Helvetica-Bold findfont 25.6688 sf 0 0 m (2) show NC gr 
 gsave  711 565 1534 600 C 1926.71 653.603 t 0 r /Helvetica-Bold findfont 25.6688 sf 0 0 m (3) show NC gr 
 gsave  711 565 1534 600 C 2029.01 653.603 t 0 r /Helvetica-Bold findfont 25.6688 sf 0 0 m (4) show NC gr 
 gsave  711 565 1534 600 C 2128.47 653.603 t 0 r /Helvetica-Bold findfont 25.6688 sf 0 0 m (5) show NC gr  1655 1108 m 547 X s 1736 1095 m 13 Y s 1756 1102 m 6 Y s 1776 1102 m 6 Y s 1796 1102 m 6 Y s 1817 1102 m 6 Y s 1837 1095 m 13 Y s 1857 1102 m 6
 Y s 1877 1102 m 6 Y s 1897 1102 m 6 Y s 1917 1102 m 6 Y s 1937 1095 m 13 Y s 1957 1102 m 6 Y s 1977 1102 m 6 Y s 1998 1102 m 6 Y s 2018 1102 m 6 Y s 2038 1095 m 13 Y s 2058 1102 m 6 Y s 2078 1102 m 6 Y s 2098 1102 m 6 Y s 2118 1102 m 6 Y s 2138 1095
 m 13 Y s 1736 1095 m 13 Y s 1716 1102 m 6 Y s 1696 1102 m 6 Y s 1676 1102 m 6 Y s 1656 1102 m 6 Y s 2138 1095 m 13 Y s 2158 1102 m 6 Y s 2179 1102 m 6 Y s 2199 1102 m 6 Y s 1655 681 m 427 Y s
 gsave  711 565 1534 600 C 1560.12 1025.87 t 90 r /Helvetica-Bold findfont 28.5208 sf 0 0 m (0.136 ) show NC gr 
 gsave  711 565 1534 600 C 1545.91 1017.35 t 90 r /Helvetica-Bold findfont 19.9646 sf 0 0 m ( ) show NC gr 
 gsave  711 565 1534 600 C 1560.12 1008.82 t 90 r /Helvetica-Bold findfont 28.5208 sf 0 0 m (/) show NC gr 
 gsave  711 565 1534 600 C 1565.8 1000.3 t 90 r /Helvetica-Bold findfont 19.9646 sf 0 0 m ( ) show NC gr 
 gsave  711 565 1534 600 C 1560.12 892.31 t 90 r /Helvetica-Bold findfont 28.5208 sf 0 0 m (\(1/N\) dN) show NC gr  1671 681 m -16 X s 1663 694 m -8 X s 1663 707 m -8 X s 1663 720 m -8 X s 1663 733 m -8 X s 1671 746 m -16 X s 1663 759 m -8 X s 1663
 772 m -8 X s 1663 785 m -8 X s 1663 798 m -8 X s 1671 810 m -16 X s 1663 823 m -8 X s 1663 836 m -8 X s 1663 849 m -8 X s 1663 862 m -8 X s 1671 875 m -16 X s 1663 888 m -8 X s 1663 901 m -8 X s 1663 914 m -8 X s 1663 927 m -8 X s 1671 940 m -16 X s
 1663 953 m -8 X s 1663 965 m -8 X s 1663 978 m -8 X s 1663 991 m -8 X s 1671 1004 m -16 X s 1663 1017 m -8 X s 1663 1030 m -8 X s 1663 1043 m -8 X s 1663 1056 m -8 X s 1671 1069 m -16 X s 1671 1069 m -16 X s 1663 1082 m -8 X s 1663 1095 m -8 X s
 1663 1108 m -8 X s
 gsave  711 565 1534 600 C 1631.16 670.653 t 0 r /Helvetica-Bold findfont 25.6688 sf 0 0 m (0) show NC gr 
 gsave  711 565 1534 600 C 1614.11 736.013 t 0 r /Helvetica-Bold findfont 25.6688 sf 0 0 m (0.1) show NC gr 
 gsave  711 565 1534 600 C 1608.43 801.374 t 0 r /Helvetica-Bold findfont 25.6688 sf 0 0 m (0.2) show NC gr 
 gsave  711 565 1534 600 C 1608.43 863.892 t 0 r /Helvetica-Bold findfont 25.6688 sf 0 0 m (0.3) show NC gr 
 gsave  711 565 1534 600 C 1608.43 929.252 t 0 r /Helvetica-Bold findfont 25.6688 sf 0 0 m (0.4) show NC gr 
 gsave  711 565 1534 600 C 1608.43 994.613 t 0 r /Helvetica-Bold findfont 25.6688 sf 0 0 m (0.5) show NC gr 
 gsave  711 565 1534 600 C 1608.43 1059.97 t 0 r /Helvetica-Bold findfont 25.6688 sf 0 0 m (0.6) show NC gr  2202 681 m 427 Y s 2186 681 m 16 X s 2194 694 m 8 X s 2194 707 m 8 X s 2194 720 m 8 X s 2194 733 m 8 X s 2186 746 m 16 X s 2194 759 m 8 X s
 2194 772 m 8 X s 2194 785 m 8 X s 2194 798 m 8 X s 2186 810 m 16 X s 2194 823 m 8 X s 2194 836 m 8 X s 2194 849 m 8 X s 2194 862 m 8 X s 2186 875 m 16 X s 2194 888 m 8 X s 2194 901 m 8 X s 2194 914 m 8 X s 2194 927 m 8 X s 2186 940 m 16 X s 2194 953
 m 8 X s 2194 965 m 8 X s 2194 978 m 8 X s 2194 991 m 8 X s 2186 1004 m 16 X s 2194 1017 m 8 X s 2194 1030 m 8 X s 2194 1043 m 8 X s 2194 1056 m 8 X s 2186 1069 m 16 X s 2186 1069 m 16 X s 2194 1082 m 8 X s 2194 1095 m 8 X s 2194 1108 m 8 X s 1 0 0 c
 6 lw black 3 lw 1 0 0 c 2188 681 m s 2175 683 m -2 -2 d s 2163 686 m -2 -1 d s 2158 681 m s 2143 681 m s 2134 688 m -6 -7 d s 2134 703 m -14 -14 d s 2113 681 m s 2121 705 m -1 -1 d s 2099 683 m -1 -2 d s 2082 681 m s 2068 682 m -1 -1 d s 2052 681 m
 s 2052 696 m -15 -15 d s 2048 708 m -23 -24 d s 2022 681 m cl s 2038 713 m -13 -14 d s 2011 685 m -4 -4 d s 2038 728 m -13 -14 d s 2011 700 m -19 -19 d s 2038 743 m -13 -14 d s 2010 715 m -33 -34 d s 2038 758 m -13 -13 d s 1997 717 m -35 -36 d s
 2038 773 m -13 -13 d s 1997 732 m -50 -51 d s 2038 789 m -13 -14 d s 1997 747 m -65 -66 d s 2029 794 m -4 -4 d s 1997 763 m -80 -82 d s 1997 778 m -95 -97 d s 1997 793 m -110 -112 d s 1994 805 m -123 -124 d s 1973 799 m -117 -118 d s 1970 811 m -129
 -130 d s 1970 826 m -144 -145 d s 1970 841 m -41 -41 d s 1924 795 m -113 -114 d s 1970 856 m -41 -41 d s 1915 801 m -119 -120 d s 1970 872 m -41 -42 d s 1915 816 m -68 -68 d s 1847 747 m -66 -66 d s 1965 882 m -22 -23 d s 1937 854 m -8 -9 d s 1915
 832 m -68 -69 d s 1833 749 m -67 -68 d s 1956 888 m -13 -14 d s 1915 847 m -27 -28 d s 1874 806 m -27 -28 d s 1833 764 m -82 -83 d s 1956 903 m -13 -13 d s 1903 850 m -15 -16 d s 1874 821 m -14 -14 d s 1854 800 m -7 -7 d s 1833 779 m -97 -98 d s
 1956 919 m -13 -14 d s 1901 863 m -13 -13 d s 1874 836 m -14 -14 d s 1833 795 m -14 -14 d s 1806 767 m -85 -86 d s 1956 934 m -13 -14 d s 1901 879 m -13 -14 d s 1874 851 m -14 -14 d s 1833 810 m -14 -14 d s 1806 782 m -100 -101 d s 1956 949 m -13
 -14 d s 1901 894 m -13 -14 d s 1874 866 m -14 -14 d s 1833 825 m -14 -14 d s 1806 797 m -115 -116 d s 1956 964 m -13 -14 d s 1901 909 m -13 -14 d s 1874 881 m -14 -13 d s 1833 840 m -14 -14 d s 1806 813 m -41 -42 d s 1756 762 m -81 -81 d s 1956 979
 m -13 -13 d s 1901 924 m -13 -14 d s 1874 897 m -14 -14 d s 1833 855 m -14 -13 d s 1806 828 m -41 -42 d s 1751 773 m -91 -92 d s 1943 982 m -1 Y s 1874 912 m -14 -14 d s 1833 870 m -14 -13 d s 1806 843 m -41 -41 d s 1751 788 m -96 -97 d s 1874 927 m
 -14 -14 d s 1833 886 m -14 -14 d s 1806 858 m -41 -41 d s 1751 803 m -96 -96 d s 1869 937 m -9 -9 d s 1833 901 m -14 -14 d s 1806 873 m -41 -41 d s 1751 818 m -96 -96 d s 1821 904 m -2 -2 d s 1806 888 m -41 -41 d s 1751 833 m -68 -69 d s 1677 759 m
 -22 -22 d s 1806 904 m -41 -42 d s 1751 849 m -68 -69 d s 1669 766 m -14 -14 d s 1806 919 m -28 -28 d s 1769 882 m -4 -4 d s 1751 864 m -68 -69 d s 1669 781 m -14 -14 d s 1806 934 m -28 -28 d s 1737 865 m -54 -55 d s 1669 796 m -14 -14 d s 1792 936
 m -14 -14 d s 1737 880 m -13 -13 d s 1714 857 m -31 -32 d s 1669 811 m -14 -13 d s 1792 951 m -14 -14 d s 1737 896 m -13 -14 d s 1709 867 m -26 -27 d s 1669 827 m -14 -14 d s 1792 966 m -14 -14 d s 1737 911 m -13 -14 d s 1696 869 m -13 -13 d s 1669
 842 m -14 -14 d s 1779 968 m -1 -1 d s 1737 926 m -13 -14 d s 1696 885 m -13 -14 d s 1669 857 m -14 -14 d s 1737 941 m -13 -14 d s 1696 900 m -13 -14 d s 1669 872 m -14 -14 d s 1696 915 m -13 -14 d s 1663 881 m -8 -7 d s 1696 930 m -13 -14 d s 1696
 945 m -13 -14 d s 1696 960 m -13 -13 d s 1696 976 m -13 -14 d s 1696 991 m -13 -14 d s 1696 1006 m -13 -14 d s 1696 1021 m -13 -14 d s 1692 1032 m -9 -9 d s 6 lw 1655 881 m 14 X -122 Y 14 X 273 Y 13 X -165 Y 14 X -10 Y 14 X 85 Y 13 X -78 Y 14 X -102
 Y 14 X 120 Y 13 X 86 Y 14 X -32 Y 14 X -170 Y 13 X 138 Y 14 X -157 Y 14 X 53 Y 13 X 137 Y 14 X -131 Y 14 X 118 Y 13 X -74 Y 14 X -55 Y 14 X 59 Y 14 X 128 Y 13 X -100 Y 14 X -83 Y 14 X 6 Y 13 X -90 Y 14 X -34 Y 14 X 113 Y 13 X -86 Y 14 X -27 Y 14 X 1
 Y 13 X -1 Y 14 X 2 Y 14 X -2 Y 13 X 24 Y 14 X -24 Y 27 X 5 Y 14 X -5 Y 27 X s black 3 lw 1655 681 m 547 X s 1736 694 m -13 Y s 1756 688 m -7 Y s 1776 688 m -7 Y s 1796 688 m -7 Y s 1817 688 m -7 Y s 1837 694 m -13 Y s 1857 688 m -7 Y s 1877 688 m -7
 Y s 1897 688 m -7 Y s 1917 688 m -7 Y s 1937 694 m -13 Y s 1957 688 m -7 Y s 1977 688 m -7 Y s 1998 688 m -7 Y s 2018 688 m -7 Y s 2038 694 m -13 Y s 2058 688 m -7 Y s 2078 688 m -7 Y s 2098 688 m -7 Y s 2118 688 m -7 Y s 2138 694 m -13 Y s 1736 694
 m -13 Y s 1716 688 m -7 Y s 1696 688 m -7 Y s 1676 688 m -7 Y s 1656 688 m -7 Y s 2138 694 m -13 Y s 2158 688 m -7 Y s 2179 688 m -7 Y s 2199 688 m -7 Y s 1655 1108 m 547 X s 1736 1095 m 13 Y s 1756 1102 m 6 Y s 1776 1102 m 6 Y s 1796 1102 m 6 Y s
 1817 1102 m 6 Y s 1837 1095 m 13 Y s 1857 1102 m 6 Y s 1877 1102 m 6 Y s 1897 1102 m 6 Y s 1917 1102 m 6 Y s 1937 1095 m 13 Y s 1957 1102 m 6 Y s 1977 1102 m 6 Y s 1998 1102 m 6 Y s 2018 1102 m 6 Y s 2038 1095 m 13 Y s 2058 1102 m 6 Y s 2078 1102 m
 6 Y s 2098 1102 m 6 Y s 2118 1102 m 6 Y s 2138 1095 m 13 Y s 1736 1095 m 13 Y s 1716 1102 m 6 Y s 1696 1102 m 6 Y s 1676 1102 m 6 Y s 1656 1102 m 6 Y s 2138 1095 m 13 Y s 2158 1102 m 6 Y s 2179 1102 m 6 Y s 2199 1102 m 6 Y s 1655 681 m 427 Y s 1671
 681 m -16 X s 1663 694 m -8 X s 1663 707 m -8 X s 1663 720 m -8 X s 1663 733 m -8 X s 1671 746 m -16 X s 1663 759 m -8 X s 1663 772 m -8 X s 1663 785 m -8 X s 1663 798 m -8 X s 1671 810 m -16 X s 1663 823 m -8 X s 1663 836 m -8 X s 1663 849 m -8 X s
 1663 862 m -8 X s 1671 875 m -16 X s 1663 888 m -8 X s 1663 901 m -8 X s 1663 914 m -8 X s 1663 927 m -8 X s 1671 940 m -16 X s 1663 953 m -8 X s 1663 965 m -8 X s 1663 978 m -8 X s 1663 991 m -8 X s 1671 1004 m -16 X s 1663 1017 m -8 X s 1663 1030
 m -8 X s 1663 1043 m -8 X s 1663 1056 m -8 X s 1671 1069 m -16 X s 1671 1069 m -16 X s 1663 1082 m -8 X s 1663 1095 m -8 X s 1663 1108 m -8 X s 2202 681 m 427 Y s 2186 681 m 16 X s 2194 694 m 8 X s 2194 707 m 8 X s 2194 720 m 8 X s 2194 733 m 8 X s
 2186 746 m 16 X s 2194 759 m 8 X s 2194 772 m 8 X s 2194 785 m 8 X s 2194 798 m 8 X s 2186 810 m 16 X s 2194 823 m 8 X s 2194 836 m 8 X s 2194 849 m 8 X s 2194 862 m 8 X s 2186 875 m 16 X s 2194 888 m 8 X s 2194 901 m 8 X s 2194 914 m 8 X s 2194 927
 m 8 X s 2186 940 m 16 X s 2194 953 m 8 X s 2194 965 m 8 X s 2194 978 m 8 X s 2194 991 m 8 X s 2186 1004 m 16 X s 2194 1017 m 8 X s 2194 1030 m 8 X s 2194 1043 m 8 X s 2194 1056 m 8 X s 2186 1069 m 16 X s 2186 1069 m 16 X s 2194 1082 m 8 X s 2194
 1095 m 8 X s 2194 1108 m 8 X s
 gsave  711 565 1534 600 C 2230.83 679.067 t 90 r /Helvetica-Bold findfont 19.9646 sf 0 0 m (U/O\255flow \(S,B\): \(0.0, 0.0\)% / \(0.0, 0.0\)%) show NC gr  0.48 0.56 0.6 c 0.364706 0.419608 0.490196 c 270 38 1542 1124 bf 0.48 0.56 0.6 c 1542 1124 m
 270 X s 1812 1124 m 38 Y s 1812 1162 m -270 X s 1542 1162 m -38 Y s 1 1 1 c black 1 1 1 c
 gsave  711 565 1534 600 C 1545.91 1136.7 t 0 r /Helvetica-Bold findfont 28.5208 sf 0 0 m (Input variable: dRll) show NC gr  0.48 0.56 0.6 c 0.95 0.95 0.95 c 710 564 23 12 bf black 0.95 0.95 0.95 c 548 427 143 93 bf black 548 427 143 93 bl 0.95 0.95
 0.95 c 548 427 143 93 bf black 548 427 143 93 bl 0 0 0.933333 c 6 lw 0.49 0.6 0.82 c black 3 lw 0.49 0.6 0.82 c 143 93 m 388 Y 14 X -15 Y 14 X -60 Y 14 X 11 Y 13 X -80 Y 14 X 7 Y 14 X -46 Y 13 X -40 Y 14 X -9 Y 27 X -23 Y 14 X -22 Y 27 X -17 Y 14 X
 -4 Y 14 X -10 Y 13 X 12 Y 14 X -23 Y 14 X -8 Y 13 X -13 Y 14 X 3 Y 14 X -5 Y 13 X 2 Y 14 X -5 Y 14 X 4 Y 13 X -3 Y 14 X -4 Y 27 X -10 Y 14 X 8 Y 14 X 1 Y 13 X -1 Y 14 X 6 Y 14 X -4 Y 14 X -5 Y 13 X -7 Y 14 X 19 Y 14 X -8 Y 13 X 10 Y 14 X -49 Y 14 X
 f 6 lw 0 0 0.933333 c 0.49 0.6 0.82 c 0 0 0.933333 c 143 481 m 14 X -15 Y 14 X -60 Y 14 X 11 Y 13 X -80 Y 14 X 7 Y 14 X -46 Y 13 X -40 Y 14 X -9 Y 27 X -23 Y 14 X -22 Y 27 X -17 Y 14 X -4 Y 14 X -10 Y 13 X 12 Y 14 X -23 Y 14 X -8 Y 13 X -13 Y 14 X 3
 Y 14 X -5 Y 13 X 2 Y 14 X -5 Y 14 X 4 Y 13 X -3 Y 14 X -4 Y 27 X -10 Y 14 X 8 Y 14 X 1 Y 13 X -1 Y 14 X 6 Y 14 X -4 Y 14 X -5 Y 13 X -7 Y 14 X 19 Y 14 X -8 Y 13 X 10 Y 14 X -49 Y 14 X s black 3 lw 143 93 m 548 X s
 gsave  710 564 23 12 C 494.465 22.734 t 0 r /Helvetica-Bold findfont 28.5208 sf 0 0 m (abs\(dPll_MET\)) show NC gr  228 106 m -13 Y s 245 100 m -7 Y s 262 100 m -7 Y s 279 100 m -7 Y s 296 100 m -7 Y s 313 106 m -13 Y s 330 100 m -7 Y s 347 100 m -7
 Y s 364 100 m -7 Y s 381 100 m -7 Y s 398 106 m -13 Y s 415 100 m -7 Y s 432 100 m -7 Y s 449 100 m -7 Y s 466 100 m -7 Y s 483 106 m -13 Y s 500 100 m -7 Y s 517 100 m -7 Y s 534 100 m -7 Y s 551 100 m -7 Y s 568 106 m -13 Y s 585 100 m -7 Y s 602
 100 m -7 Y s 619 100 m -7 Y s 636 100 m -7 Y s 653 106 m -13 Y s 228 106 m -13 Y s 211 100 m -7 Y s 194 100 m -7 Y s 177 100 m -7 Y s 160 100 m -7 Y s 653 106 m -13 Y s 670 100 m -7 Y s 687 100 m -7 Y s
 gsave  710 564 23 12 C 207.448 65.3603 t 0 r /Helvetica-Bold findfont 25.6688 sf 0 0 m (0.5) show NC gr 
 gsave  710 564 23 12 C 306.909 65.3603 t 0 r /Helvetica-Bold findfont 25.6688 sf 0 0 m (1) show NC gr 
 gsave  710 564 23 12 C 377.953 65.3603 t 0 r /Helvetica-Bold findfont 25.6688 sf 0 0 m (1.5) show NC gr 
 gsave  710 564 23 12 C 474.572 65.3603 t 0 r /Helvetica-Bold findfont 25.6688 sf 0 0 m (2) show NC gr 
 gsave  710 564 23 12 C 545.616 65.3603 t 0 r /Helvetica-Bold findfont 25.6688 sf 0 0 m (2.5) show NC gr 
 gsave  710 564 23 12 C 642.236 65.3603 t 0 r /Helvetica-Bold findfont 25.6688 sf 0 0 m (3) show NC gr  143 520 m 548 X s 228 507 m 13 Y s 245 513 m 7 Y s 262 513 m 7 Y s 279 513 m 7 Y s 296 513 m 7 Y s 313 507 m 13 Y s 330 513 m 7 Y s 347 513 m 7 Y
 s 364 513 m 7 Y s 381 513 m 7 Y s 398 507 m 13 Y s 415 513 m 7 Y s 432 513 m 7 Y s 449 513 m 7 Y s 466 513 m 7 Y s 483 507 m 13 Y s 500 513 m 7 Y s 517 513 m 7 Y s 534 513 m 7 Y s 551 513 m 7 Y s 568 507 m 13 Y s 585 513 m 7 Y s 602 513 m 7 Y s 619
 513 m 7 Y s 636 513 m 7 Y s 653 507 m 13 Y s 228 507 m 13 Y s 211 513 m 7 Y s 194 513 m 7 Y s 177 513 m 7 Y s 160 513 m 7 Y s 653 507 m 13 Y s 670 513 m 7 Y s 687 513 m 7 Y s 143 93 m 427 Y s
 gsave  710 564 23 12 C 45.468 420.579 t 90 r /Helvetica-Bold findfont 28.5208 sf 0 0 m (0.0805 ) show NC gr 
 gsave  710 564 23 12 C 34.101 412.054 t 90 r /Helvetica-Bold findfont 19.9646 sf 0 0 m ( ) show NC gr 
 gsave  710 564 23 12 C 45.468 403.529 t 90 r /Helvetica-Bold findfont 28.5208 sf 0 0 m (/) show NC gr 
 gsave  710 564 23 12 C 51.1515 395.003 t 90 r /Helvetica-Bold findfont 19.9646 sf 0 0 m ( ) show NC gr 
 gsave  710 564 23 12 C 45.468 287.017 t 90 r /Helvetica-Bold findfont 28.5208 sf 0 0 m (\(1/N\) dN) show NC gr  160 93 m -17 X s 152 110 m -9 X s 152 127 m -9 X s 152 144 m -9 X s 160 161 m -17 X s 152 179 m -9 X s 152 196 m -9 X s 152 213 m -9 X s
 160 230 m -17 X s 152 247 m -9 X s 152 264 m -9 X s 152 281 m -9 X s 160 298 m -17 X s 152 315 m -9 X s 152 332 m -9 X s 152 350 m -9 X s 160 367 m -17 X s 152 384 m -9 X s 152 401 m -9 X s 152 418 m -9 X s 160 435 m -17 X s 152 452 m -9 X s 152 469
 m -9 X s 152 486 m -9 X s 160 503 m -17 X s 160 503 m -17 X s
 gsave  710 564 23 12 C 119.354 82.4108 t 0 r /Helvetica-Bold findfont 25.6688 sf 0 0 m (0) show NC gr 
 gsave  710 564 23 12 C 96.6195 150.613 t 0 r /Helvetica-Bold findfont 25.6688 sf 0 0 m (0.2) show NC gr 
 gsave  710 564 23 12 C 96.6195 218.815 t 0 r /Helvetica-Bold findfont 25.6688 sf 0 0 m (0.4) show NC gr 
 gsave  710 564 23 12 C 96.6195 287.017 t 0 r /Helvetica-Bold findfont 25.6688 sf 0 0 m (0.6) show NC gr 
 gsave  710 564 23 12 C 96.6195 358.061 t 0 r /Helvetica-Bold findfont 25.6688 sf 0 0 m (0.8) show NC gr 
 gsave  710 564 23 12 C 122.195 426.263 t 0 r /Helvetica-Bold findfont 25.6688 sf 0 0 m (1) show NC gr 
 gsave  710 564 23 12 C 96.6195 494.465 t 0 r /Helvetica-Bold findfont 25.6688 sf 0 0 m (1.2) show NC gr  691 93 m 427 Y s 674 93 m 17 X s 683 110 m 8 X s 683 127 m 8 X s 683 144 m 8 X s 674 161 m 17 X s 683 179 m 8 X s 683 196 m 8 X s 683 213 m 8 X
 s 674 230 m 17 X s 683 247 m 8 X s 683 264 m 8 X s 683 281 m 8 X s 674 298 m 17 X s 683 315 m 8 X s 683 332 m 8 X s 683 350 m 8 X s 674 367 m 17 X s 683 384 m 8 X s 683 401 m 8 X s 683 418 m 8 X s 674 435 m 17 X s 683 452 m 8 X s 683 469 m 8 X s 683
 486 m 8 X s 674 503 m 17 X s 674 503 m 17 X s 1 0 0 c 6 lw black 3 lw 1 0 0 c 691 108 m -15 -15 d s 680 112 m -19 -19 d s 677 124 m -31 -31 d s 677 139 m -46 -46 d s 673 151 m -57 -58 d s 663 156 m -62 -63 d s 663 171 m -77 -78 d s 663 186 m -92 -93
 d s 663 202 m -107 -109 d s 663 217 m -13 -14 d s 649 202 m -40 -40 d s 608 161 m -67 -68 d s 663 232 m -13 -14 d s 636 204 m -27 -27 d s 595 163 m -70 -70 d s 663 247 m -13 -14 d s 636 220 m -27 -28 d s 595 178 m -85 -85 d s 657 256 m -7 -7 d s 636
 235 m -14 -14 d s 617 216 m -8 -9 d s 595 193 m -14 -13 d s 571 169 m -76 -76 d s 624 238 m -2 -2 d s 595 209 m -14 -14 d s 567 181 m -68 -69 d s 489 102 m -9 -9 d s 595 224 m -14 -14 d s 564 192 m -65 -65 d s 485 114 m -20 -21 d s 552 195 m -26 -25
 d s 526 170 m -27 -28 d s 485 129 m -35 -36 d s 540 199 m -14 -14 d s 513 171 m -14 -13 d s 485 144 m -50 -51 d s 540 214 m -14 -14 d s 513 187 m -14 -14 d s 485 159 m -65 -66 d s 540 229 m -14 -13 d s 510 199 m -11 -11 d s 485 174 m -80 -81 d s 540
 245 m -14 -14 d s 485 189 m -95 -96 d s 540 260 m -14 -14 d s 485 205 m -13 -14 d s 459 178 m -28 -28 d s 418 137 m -43 -44 d s 540 275 m -14 -14 d s 485 219 m -13 -13 d s 458 192 m -27 -27 d s 413 147 m -53 -54 d s 538 288 m -12 -12 d s 458 207 m
 -27 -27 d s 403 152 m -58 -59 d s 458 223 m -27 -28 d s 403 168 m -74 -75 d s 456 236 m -25 -26 d s 403 183 m -13 -14 d s 374 153 m -60 -60 d s 403 198 m -13 -14 d s 362 157 m -63 -64 d s 403 213 m -13 -14 d s 362 172 m -78 -79 d s 403 228 m -13 -14
 d s 362 187 m -93 -94 d s 403 243 m -13 -13 d s 353 193 m -4 -5 d s 343 183 m -89 -90 d s 393 248 m -3 -3 d s 335 190 m -96 -97 d s 335 205 m -14 -14 d s 310 179 m -86 -86 d s 335 220 m -14 -14 d s 306 191 m -97 -98 d s 335 235 m -14 -14 d s 294 194
 m -41 -41 d s 239 139 m -45 -46 d s 335 250 m -14 -13 d s 294 209 m -41 -41 d s 239 154 m -60 -61 d s 335 266 m -14 -14 d s 280 211 m -27 -28 d s 239 169 m -75 -76 d s 335 281 m -14 -14 d s 280 226 m -27 -28 d s 239 184 m -90 -91 d s 335 296 m -14
 -14 d s 275 235 m -8 -8 d s 255 215 m -2 -2 d s 231 191 m -88 -88 d s 335 311 m -14 -14 d s 226 201 m -83 -83 d s 335 326 m -14 -13 d s 226 216 m -83 -83 d s 226 231 m -55 -55 d s 165 171 m -22 -22 d s 212 233 m -27 -28 d s 172 193 m -1 -2 d s 157
 178 m -14 -14 d s 212 248 m -27 -28 d s 157 193 m -14 -14 d s 204 255 m -6 -6 d s 196 247 m -11 -11 d s 157 208 m -14 -14 d s 157 223 m -14 -14 d s 157 238 m -14 -13 d s 144 240 m -1 X s 6 lw 143 240 m 14 X -69 Y 14 X 22 Y 14 X 54 Y 13 X 8 Y 14 X
 -22 Y 14 X -42 Y 13 X -54 Y 14 X 78 Y 14 X 20 Y 13 X -26 Y 14 X -18 Y 14 X -12 Y 13 X 149 Y 14 X -145 Y 14 X 10 Y 13 X -40 Y 14 X 2 Y 14 X 93 Y 13 X -101 Y 14 X -10 Y 14 X 87 Y 13 X 12 Y 14 X -58 Y 14 X 41 Y 13 X -117 Y 14 X 97 Y 14 X -29 Y 13 X 118
 Y 14 X -93 Y 14 X -3 Y 13 X -23 Y 14 X 55 Y 14 X -63 Y 14 X 55 Y 13 X 22 Y 14 X -36 Y 14 X 54 Y 13 X -105 Y 14 X -39 Y 14 X s black 3 lw 143 93 m 548 X s 228 106 m -13 Y s 245 100 m -7 Y s 262 100 m -7 Y s 279 100 m -7 Y s 296 100 m -7 Y s 313 106 m
 -13 Y s 330 100 m -7 Y s 347 100 m -7 Y s 364 100 m -7 Y s 381 100 m -7 Y s 398 106 m -13 Y s 415 100 m -7 Y s 432 100 m -7 Y s 449 100 m -7 Y s 466 100 m -7 Y s 483 106 m -13 Y s 500 100 m -7 Y s 517 100 m -7 Y s 534 100 m -7 Y s 551 100 m -7 Y s
 568 106 m -13 Y s 585 100 m -7 Y s 602 100 m -7 Y s 619 100 m -7 Y s 636 100 m -7 Y s 653 106 m -13 Y s 228 106 m -13 Y s 211 100 m -7 Y s 194 100 m -7 Y s 177 100 m -7 Y s 160 100 m -7 Y s 653 106 m -13 Y s 670 100 m -7 Y s 687 100 m -7 Y s 143 520
 m 548 X s 228 507 m 13 Y s 245 513 m 7 Y s 262 513 m 7 Y s 279 513 m 7 Y s 296 513 m 7 Y s 313 507 m 13 Y s 330 513 m 7 Y s 347 513 m 7 Y s 364 513 m 7 Y s 381 513 m 7 Y s 398 507 m 13 Y s 415 513 m 7 Y s 432 513 m 7 Y s 449 513 m 7 Y s 466 513 m 7
 Y s 483 507 m 13 Y s 500 513 m 7 Y s 517 513 m 7 Y s 534 513 m 7 Y s 551 513 m 7 Y s 568 507 m 13 Y s 585 513 m 7 Y s 602 513 m 7 Y s 619 513 m 7 Y s 636 513 m 7 Y s 653 507 m 13 Y s 228 507 m 13 Y s 211 513 m 7 Y s 194 513 m 7 Y s 177 513 m 7 Y s
 160 513 m 7 Y s 653 507 m 13 Y s 670 513 m 7 Y s 687 513 m 7 Y s 143 93 m 427 Y s 160 93 m -17 X s 152 110 m -9 X s 152 127 m -9 X s 152 144 m -9 X s 160 161 m -17 X s 152 179 m -9 X s 152 196 m -9 X s 152 213 m -9 X s 160 230 m -17 X s 152 247 m -9
 X s 152 264 m -9 X s 152 281 m -9 X s 160 298 m -17 X s 152 315 m -9 X s 152 332 m -9 X s 152 350 m -9 X s 160 367 m -17 X s 152 384 m -9 X s 152 401 m -9 X s 152 418 m -9 X s 160 435 m -17 X s 152 452 m -9 X s 152 469 m -9 X s 152 486 m -9 X s 160
 503 m -17 X s 160 503 m -17 X s 691 93 m 427 Y s 674 93 m 17 X s 683 110 m 8 X s 683 127 m 8 X s 683 144 m 8 X s 674 161 m 17 X s 683 179 m 8 X s 683 196 m 8 X s 683 213 m 8 X s 674 230 m 17 X s 683 247 m 8 X s 683 264 m 8 X s 683 281 m 8 X s 674
 298 m 17 X s 683 315 m 8 X s 683 332 m 8 X s 683 350 m 8 X s 674 367 m 17 X s 683 384 m 8 X s 683 401 m 8 X s 683 418 m 8 X s 674 435 m 17 X s 683 452 m 8 X s 683 469 m 8 X s 683 486 m 8 X s 674 503 m 17 X s 674 503 m 17 X s
 gsave  710 564 23 12 C 719.017 90.8246 t 90 r /Helvetica-Bold findfont 19.9646 sf 0 0 m (U/O\255flow \(S,B\): \(0.0, 0.0\)% / \(0.0, 0.0\)%) show NC gr  0.48 0.56 0.6 c 0.364706 0.419608 0.490196 c 412 38 30 536 bf 0.48 0.56 0.6 c 30 536 m 412 X s
 442 536 m 38 Y s 442 574 m -412 X s 30 574 m -38 Y s 1 1 1 c black 1 1 1 c
 gsave  710 564 23 12 C 34.101 548.458 t 0 r /Helvetica-Bold findfont 28.5208 sf 0 0 m (Input variable: abs\(dPll_MET\)) show NC gr  0.48 0.56 0.6 c 0.95 0.95 0.95 c 710 564 779 12 bf black 0.95 0.95 0.95 c 548 427 899 93 bf black 548 427 899 93 bl
 0.95 0.95 0.95 c 548 427 899 93 bf black 548 427 899 93 bl 0 0 0.933333 c 6 lw 0.49 0.6 0.82 c black 3 lw 0.49 0.6 0.82 c 899 93 m 2 Y 14 X 3 Y 14 X 8 Y 13 X 16 Y 14 X -15 Y 14 X 28 Y 13 X 39 Y 14 X 11 Y 14 X 12 Y 13 X 27 Y 14 X -9 Y 14 X 18 Y 14 X
 -1 Y 13 X -4 Y 14 X 20 Y 14 X 11 Y 13 X -23 Y 14 X -1 Y 14 X 12 Y 13 X -23 Y 14 X -7 Y 14 X 8 Y 13 X -21 Y 14 X 9 Y 14 X -10 Y 13 X -11 Y 14 X 1 Y 14 X -4 Y 13 X -22 Y 14 X 9 Y 14 X -11 Y 13 X -9 Y 14 X -8 Y 14 X -9 Y 13 X -6 Y 14 X -5 Y 14 X -21 Y
 13 X -1 Y 14 X -12 Y 14 X -1 Y 14 X f 6 lw 0 0 0.933333 c 0.49 0.6 0.82 c 0 0 0.933333 c 899 95 m 14 X 3 Y 14 X 8 Y 13 X 16 Y 14 X -15 Y 14 X 28 Y 13 X 39 Y 14 X 11 Y 14 X 12 Y 13 X 27 Y 14 X -9 Y 14 X 18 Y 14 X -1 Y 13 X -4 Y 14 X 20 Y 14 X 11 Y 13
 X -23 Y 14 X -1 Y 14 X 12 Y 13 X -23 Y 14 X -7 Y 14 X 8 Y 13 X -21 Y 14 X 9 Y 14 X -10 Y 13 X -11 Y 14 X 1 Y 14 X -4 Y 13 X -22 Y 14 X 9 Y 14 X -11 Y 13 X -9 Y 14 X -8 Y 14 X -9 Y 13 X -6 Y 14 X -5 Y 14 X -21 Y 13 X -1 Y 14 X -12 Y 14 X -1 Y 14 X s
 black 3 lw 899 93 m 548 X s
 gsave  710 564 779 12 C 1406.67 19.8923 t 0 r /Helvetica-Bold findfont 28.5208 sf 0 0 m (Mll) show NC gr  973 106 m -13 Y s 988 100 m -7 Y s 1004 100 m -7 Y s 1020 100 m -7 Y s 1035 100 m -7 Y s 1051 106 m -13 Y s 1066 100 m -7 Y s 1082 100 m -7 Y s
 1097 100 m -7 Y s 1113 100 m -7 Y s 1128 106 m -13 Y s 1144 100 m -7 Y s 1159 100 m -7 Y s 1175 100 m -7 Y s 1191 100 m -7 Y s 1206 106 m -13 Y s 1222 100 m -7 Y s 1237 100 m -7 Y s 1253 100 m -7 Y s 1268 100 m -7 Y s 1284 106 m -13 Y s 1299 100 m
 -7 Y s 1315 100 m -7 Y s 1330 100 m -7 Y s 1346 100 m -7 Y s 1362 106 m -13 Y s 1377 100 m -7 Y s 1393 100 m -7 Y s 1408 100 m -7 Y s 1424 100 m -7 Y s 1439 106 m -13 Y s 973 106 m -13 Y s 957 100 m -7 Y s 942 100 m -7 Y s 926 100 m -7 Y s 911 100 m
 -7 Y s 1439 106 m -13 Y s
 gsave  710 564 779 12 C 949.145 65.3603 t 0 r /Helvetica-Bold findfont 25.6688 sf 0 0 m (100) show NC gr 
 gsave  710 564 779 12 C 1025.87 65.3603 t 0 r /Helvetica-Bold findfont 25.6688 sf 0 0 m (200) show NC gr 
 gsave  710 564 779 12 C 1105.44 65.3603 t 0 r /Helvetica-Bold findfont 25.6688 sf 0 0 m (300) show NC gr 
 gsave  710 564 779 12 C 1182.17 65.3603 t 0 r /Helvetica-Bold findfont 25.6688 sf 0 0 m (400) show NC gr 
 gsave  710 564 779 12 C 1258.9 65.3603 t 0 r /Helvetica-Bold findfont 25.6688 sf 0 0 m (500) show NC gr 
 gsave  710 564 779 12 C 1338.46 65.3603 t 0 r /Helvetica-Bold findfont 25.6688 sf 0 0 m (600) show NC gr 
 gsave  710 564 779 12 C 1415.19 65.3603 t 0 r /Helvetica-Bold findfont 25.6688 sf 0 0 m (700) show NC gr  899 520 m 548 X s 973 507 m 13 Y s 988 513 m 7 Y s 1004 513 m 7 Y s 1020 513 m 7 Y s 1035 513 m 7 Y s 1051 507 m 13 Y s 1066 513 m 7 Y s 1082
 513 m 7 Y s 1097 513 m 7 Y s 1113 513 m 7 Y s 1128 507 m 13 Y s 1144 513 m 7 Y s 1159 513 m 7 Y s 1175 513 m 7 Y s 1191 513 m 7 Y s 1206 507 m 13 Y s 1222 513 m 7 Y s 1237 513 m 7 Y s 1253 513 m 7 Y s 1268 513 m 7 Y s 1284 507 m 13 Y s 1299 513 m 7
 Y s 1315 513 m 7 Y s 1330 513 m 7 Y s 1346 513 m 7 Y s 1362 507 m 13 Y s 1377 513 m 7 Y s 1393 513 m 7 Y s 1408 513 m 7 Y s 1424 513 m 7 Y s 1439 507 m 13 Y s 973 507 m 13 Y s 957 513 m 7 Y s 942 513 m 7 Y s 926 513 m 7 Y s 911 513 m 7 Y s 1439 507
 m 13 Y s 899 93 m 427 Y s
 gsave  710 564 779 12 C 804.215 451.838 t 90 r /Helvetica-Bold findfont 28.5208 sf 0 0 m (17.6 ) show NC gr 
 gsave  710 564 779 12 C 790.007 443.313 t 90 r /Helvetica-Bold findfont 19.9646 sf 0 0 m ( ) show NC gr 
 gsave  710 564 779 12 C 804.215 434.788 t 90 r /Helvetica-Bold findfont 28.5208 sf 0 0 m (/) show NC gr 
 gsave  710 564 779 12 C 809.899 426.263 t 90 r /Helvetica-Bold findfont 19.9646 sf 0 0 m ( ) show NC gr 
 gsave  710 564 779 12 C 804.215 318.276 t 90 r /Helvetica-Bold findfont 28.5208 sf 0 0 m (\(1/N\) dN) show NC gr  915 93 m -16 X s 907 105 m -8 X s 907 116 m -8 X s 907 128 m -8 X s 907 140 m -8 X s 915 152 m -16 X s 907 163 m -8 X s 907 175 m -8 X
 s 907 187 m -8 X s 907 198 m -8 X s 915 210 m -16 X s 907 222 m -8 X s 907 234 m -8 X s 907 245 m -8 X s 907 257 m -8 X s 915 269 m -16 X s 907 280 m -8 X s 907 292 m -8 X s 907 304 m -8 X s 907 315 m -8 X s 915 327 m -16 X s 907 339 m -8 X s 907
 351 m -8 X s 907 362 m -8 X s 907 374 m -8 X s 915 386 m -16 X s 907 397 m -8 X s 907 409 m -8 X s 907 421 m -8 X s 907 432 m -8 X s 915 444 m -16 X s 907 456 m -8 X s 907 468 m -8 X s 907 479 m -8 X s 907 491 m -8 X s 915 503 m -16 X s 915 503 m
 -16 X s 907 514 m -8 X s
 gsave  710 564 779 12 C 875.259 82.4108 t 0 r /Helvetica-Bold findfont 25.6688 sf 0 0 m (0) show NC gr 
 gsave  710 564 779 12 C 829.791 142.088 t 0 r /Helvetica-Bold findfont 25.6688 sf 0 0 m (0.001) show NC gr 
 gsave  710 564 779 12 C 824.107 198.923 t 0 r /Helvetica-Bold findfont 25.6688 sf 0 0 m (0.002) show NC gr 
 gsave  710 564 779 12 C 824.107 258.599 t 0 r /Helvetica-Bold findfont 25.6688 sf 0 0 m (0.003) show NC gr 
 gsave  710 564 779 12 C 824.107 318.276 t 0 r /Helvetica-Bold findfont 25.6688 sf 0 0 m (0.004) show NC gr 
 gsave  710 564 779 12 C 824.107 375.111 t 0 r /Helvetica-Bold findfont 25.6688 sf 0 0 m (0.005) show NC gr 
 gsave  710 564 779 12 C 824.107 434.788 t 0 r /Helvetica-Bold findfont 25.6688 sf 0 0 m (0.006) show NC gr 
 gsave  710 564 779 12 C 824.107 491.623 t 0 r /Helvetica-Bold findfont 25.6688 sf 0 0 m (0.007) show NC gr  1447 93 m 427 Y s 1430 93 m 17 X s 1438 105 m 9 X s 1438 116 m 9 X s 1438 128 m 9 X s 1438 140 m 9 X s 1430 152 m 17 X s 1438 163 m 9 X s
 1438 175 m 9 X s 1438 187 m 9 X s 1438 198 m 9 X s 1430 210 m 17 X s 1438 222 m 9 X s 1438 234 m 9 X s 1438 245 m 9 X s 1438 257 m 9 X s 1430 269 m 17 X s 1438 280 m 9 X s 1438 292 m 9 X s 1438 304 m 9 X s 1438 315 m 9 X s 1430 327 m 17 X s 1438 339
 m 9 X s 1438 351 m 9 X s 1438 362 m 9 X s 1438 374 m 9 X s 1430 386 m 17 X s 1438 397 m 9 X s 1438 409 m 9 X s 1438 421 m 9 X s 1438 432 m 9 X s 1430 444 m 17 X s 1438 456 m 9 X s 1438 468 m 9 X s 1438 479 m 9 X s 1438 491 m 9 X s 1430 503 m 17 X s
 1430 503 m 17 X s 1438 514 m 9 X s 1 0 0 c 6 lw black 3 lw 1 0 0 c 1433 94 m -1 -1 d s 1419 95 m -2 -2 d s 1419 110 m -14 -13 d s 1402 93 m s 1419 126 m -14 -14 d s 1387 94 m -1 Y s 1372 93 m s 1364 101 m -7 -8 d s 1358 110 m -7 -8 d s 1343 94 m -1
 -1 d s 1328 94 m -1 -1 d s 1314 96 m -3 -3 d s 1310 106 m -14 -13 d s 1300 112 m -4 -4 d s 1282 94 m -1 -1 d s 1282 109 m -13 -13 d s 1268 94 m -2 -1 d s 1269 111 m s 1251 93 m cl s 1241 98 m -5 -5 d s 1241 113 m -20 -20 d s 1215 102 m -1 -1 d s
 1208 95 m -2 -2 d s 1199 101 m -8 -8 d s 1187 104 m -11 -11 d s 1187 119 m -26 -26 d s 1184 132 m -25 -25 d s 1146 93 m s 1171 134 m -12 -12 d s 1143 106 m -12 -13 d s 1132 110 m -16 -17 d s 1132 125 m -14 -14 d s 1116 109 m -16 -16 d s 1132 140 m
 -14 -14 d s 1105 112 m -20 -19 d s 1132 155 m -14 -14 d s 1105 128 m -35 -35 d s 1130 168 m -12 -11 d s 1105 143 m -50 -50 d s 1095 148 m -31 -31 d s 1055 108 m -15 -15 d s 1091 159 m -14 -13 d s 1075 143 m -11 -11 d s 1050 118 m -25 -25 d s 1082
 165 m -5 -4 d s 1050 133 m -40 -40 d s 1050 148 m -55 -55 d s 1050 164 m -70 -71 d s 1050 179 m -85 -86 d s 1036 180 m -86 -87 d s 1036 195 m -101 -102 d s 1036 211 m -116 -118 d s 1036 226 m -131 -133 d s 1036 241 m -137 -138 d s 1036 256 m -137
 -138 d s 1036 271 m -137 -138 d s 1029 279 m -130 -130 d s 1021 286 m -122 -122 d s 1009 289 m -110 -110 d s 1009 304 m -110 -110 d s 1009 320 m -110 -111 d s 1009 335 m -41 -42 d s 956 282 m -57 -57 d s 1005 346 m -37 -37 d s 954 295 m -55 -55 d s
 995 351 m -27 -27 d s 954 310 m -55 -55 d s 995 367 m -27 -28 d s 954 325 m -55 -55 d s 988 375 m -20 -21 d s 954 340 m -41 -41 d s 901 287 m -2 -2 d s 973 374 m -5 -5 d s 954 356 m -41 -42 d s 954 371 m -41 -42 d s 954 386 m -41 -41 d s 954 401 m
 -41 -41 d s 954 416 m -41 -41 d s 954 432 m -41 -42 d s 954 447 m -41 -42 d s 954 462 m -41 -41 d s 954 477 m -41 -41 d s 940 479 m -27 -28 d s 928 481 m -1 -1 d s 925 478 m -12 -12 d s 6 lw 899 287 m 14 X 191 Y 14 X 3 Y 13 X -2 Y 14 X -197 Y 14 X
 92 Y 13 X 1 Y 14 X -29 Y 14 X -60 Y 13 X -7 Y 14 X -100 Y 14 X -71 Y 14 X 35 Y 13 X 22 Y 14 X -17 Y 14 X -39 Y 13 X 59 Y 14 X -62 Y 14 X -13 Y 13 X 41 Y 14 X -2 Y 14 X -31 Y 13 X -6 Y 14 X 7 Y 14 X 11 Y 13 X -20 Y 14 X 1 Y 14 X 17 Y 13 X -17 Y 14 X
 18 Y 14 X -16 Y 13 X -2 Y 28 X 16 Y 13 X -17 Y 14 X 1 Y 14 X -1 Y 13 X 34 Y 14 X -33 Y 14 X -1 Y 14 X s black 3 lw 899 93 m 548 X s 973 106 m -13 Y s 988 100 m -7 Y s 1004 100 m -7 Y s 1020 100 m -7 Y s 1035 100 m -7 Y s 1051 106 m -13 Y s 1066 100
 m -7 Y s 1082 100 m -7 Y s 1097 100 m -7 Y s 1113 100 m -7 Y s 1128 106 m -13 Y s 1144 100 m -7 Y s 1159 100 m -7 Y s 1175 100 m -7 Y s 1191 100 m -7 Y s 1206 106 m -13 Y s 1222 100 m -7 Y s 1237 100 m -7 Y s 1253 100 m -7 Y s 1268 100 m -7 Y s 1284
 106 m -13 Y s 1299 100 m -7 Y s 1315 100 m -7 Y s 1330 100 m -7 Y s 1346 100 m -7 Y s 1362 106 m -13 Y s 1377 100 m -7 Y s 1393 100 m -7 Y s 1408 100 m -7 Y s 1424 100 m -7 Y s 1439 106 m -13 Y s 973 106 m -13 Y s 957 100 m -7 Y s 942 100 m -7 Y s
 926 100 m -7 Y s 911 100 m -7 Y s 1439 106 m -13 Y s 899 520 m 548 X s 973 507 m 13 Y s 988 513 m 7 Y s 1004 513 m 7 Y s 1020 513 m 7 Y s 1035 513 m 7 Y s 1051 507 m 13 Y s 1066 513 m 7 Y s 1082 513 m 7 Y s 1097 513 m 7 Y s 1113 513 m 7 Y s 1128 507
 m 13 Y s 1144 513 m 7 Y s 1159 513 m 7 Y s 1175 513 m 7 Y s 1191 513 m 7 Y s 1206 507 m 13 Y s 1222 513 m 7 Y s 1237 513 m 7 Y s 1253 513 m 7 Y s 1268 513 m 7 Y s 1284 507 m 13 Y s 1299 513 m 7 Y s 1315 513 m 7 Y s 1330 513 m 7 Y s 1346 513 m 7 Y s
 1362 507 m 13 Y s 1377 513 m 7 Y s 1393 513 m 7 Y s 1408 513 m 7 Y s 1424 513 m 7 Y s 1439 507 m 13 Y s 973 507 m 13 Y s 957 513 m 7 Y s 942 513 m 7 Y s 926 513 m 7 Y s 911 513 m 7 Y s 1439 507 m 13 Y s 899 93 m 427 Y s 915 93 m -16 X s 907 105 m -8
 X s 907 116 m -8 X s 907 128 m -8 X s 907 140 m -8 X s 915 152 m -16 X s 907 163 m -8 X s 907 175 m -8 X s 907 187 m -8 X s 907 198 m -8 X s 915 210 m -16 X s 907 222 m -8 X s 907 234 m -8 X s 907 245 m -8 X s 907 257 m -8 X s 915 269 m -16 X s 907
 280 m -8 X s 907 292 m -8 X s 907 304 m -8 X s 907 315 m -8 X s 915 327 m -16 X s 907 339 m -8 X s 907 351 m -8 X s 907 362 m -8 X s 907 374 m -8 X s 915 386 m -16 X s 907 397 m -8 X s 907 409 m -8 X s 907 421 m -8 X s 907 432 m -8 X s 915 444 m -16
 X s 907 456 m -8 X s 907 468 m -8 X s 907 479 m -8 X s 907 491 m -8 X s 915 503 m -16 X s 915 503 m -16 X s 907 514 m -8 X s 1447 93 m 427 Y s 1430 93 m 17 X s 1438 105 m 9 X s 1438 116 m 9 X s 1438 128 m 9 X s 1438 140 m 9 X s 1430 152 m 17 X s
 1438 163 m 9 X s 1438 175 m 9 X s 1438 187 m 9 X s 1438 198 m 9 X s 1430 210 m 17 X s 1438 222 m 9 X s 1438 234 m 9 X s 1438 245 m 9 X s 1438 257 m 9 X s 1430 269 m 17 X s 1438 280 m 9 X s 1438 292 m 9 X s 1438 304 m 9 X s 1438 315 m 9 X s 1430 327
 m 17 X s 1438 339 m 9 X s 1438 351 m 9 X s 1438 362 m 9 X s 1438 374 m 9 X s 1430 386 m 17 X s 1438 397 m 9 X s 1438 409 m 9 X s 1438 421 m 9 X s 1438 432 m 9 X s 1430 444 m 17 X s 1438 456 m 9 X s 1438 468 m 9 X s 1438 479 m 9 X s 1438 491 m 9 X s
 1430 503 m 17 X s 1430 503 m 17 X s 1438 514 m 9 X s
 gsave  710 564 779 12 C 1474.92 90.8246 t 90 r /Helvetica-Bold findfont 19.9646 sf 0 0 m (U/O\255flow \(S,B\): \(0.0, 0.0\)% / \(0.0, 0.0\)%) show NC gr  0.48 0.56 0.6 c 0.364706 0.419608 0.490196 c 255 38 786 536 bf 0.48 0.56 0.6 c 786 536 m 255 X
 s 1041 536 m 38 Y s 1041 574 m -255 X s 786 574 m -38 Y s 1 1 1 c black 1 1 1 c
 gsave  710 564 779 12 C 790.007 548.458 t 0 r /Helvetica-Bold findfont 28.5208 sf 0 0 m (Input variable: Mll) show NC gr  0.48 0.56 0.6 c 0.95 0.95 0.95 c 711 564 1534 12 bf black 0.95 0.95 0.95 c 547 427 1655 93 bf black 547 427 1655 93 bl 0.95
 0.95 0.95 c 547 427 1655 93 bf black 547 427 1655 93 bl 0 0 0.933333 c 6 lw 0.49 0.6 0.82 c black 3 lw 0.49 0.6 0.82 c 1655 93 m 25 Y 14 X 13 Y 14 X 7 Y 13 X 6 Y 28 X -1 Y 13 X -2 Y 14 X -3 Y 14 X -4 Y 13 X -9 Y 14 X -6 Y 14 X -5 Y 13 X -4 Y 14 X -3
 Y 14 X -3 Y 27 X -3 Y 14 X -1 Y 13 X -2 Y 14 X -2 Y 41 X -2 Y 14 X 1 Y 14 X -2 Y 13 X 1 Y 41 X -1 Y 14 X 1 Y 14 X -1 Y 136 X f 6 lw 0 0 0.933333 c 0.49 0.6 0.82 c 0 0 0.933333 c 1655 118 m 14 X 13 Y 14 X 7 Y 13 X 6 Y 28 X -1 Y 13 X -2 Y 14 X -3 Y 14
 X -4 Y 13 X -9 Y 14 X -6 Y 14 X -5 Y 13 X -4 Y 14 X -3 Y 14 X -3 Y 27 X -3 Y 14 X -1 Y 13 X -2 Y 14 X -2 Y 41 X -2 Y 14 X 1 Y 14 X -2 Y 13 X 1 Y 41 X -1 Y 14 X 1 Y 14 X -1 Y 136 X s black 3 lw 1655 93 m 547 X s
 gsave  711 564 1534 12 C 2142.68 19.8923 t 0 r /Helvetica-Bold findfont 28.5208 sf 0 0 m (MET) show NC gr  1715 106 m -13 Y s 1731 100 m -7 Y s 1748 100 m -7 Y s 1764 100 m -7 Y s 1781 106 m -13 Y s 1797 100 m -7 Y s 1814 100 m -7 Y s 1830 100 m -7
 Y s 1847 106 m -13 Y s 1863 100 m -7 Y s 1880 100 m -7 Y s 1896 100 m -7 Y s 1913 106 m -13 Y s 1929 100 m -7 Y s 1946 100 m -7 Y s 1962 100 m -7 Y s 1979 106 m -13 Y s 1995 100 m -7 Y s 2012 100 m -7 Y s 2028 100 m -7 Y s 2045 106 m -13 Y s 2061
 100 m -7 Y s 2078 100 m -7 Y s 2094 100 m -7 Y s 2111 106 m -13 Y s 2128 100 m -7 Y s 2144 100 m -7 Y s 2161 100 m -7 Y s 2177 106 m -13 Y s 1715 106 m -13 Y s 1698 100 m -7 Y s 1682 100 m -7 Y s 1665 100 m -7 Y s 2177 106 m -13 Y s 2194 100 m -7 Y
 s
 gsave  711 564 1534 12 C 1690.84 65.3603 t 0 r /Helvetica-Bold findfont 25.6688 sf 0 0 m (200) show NC gr 
 gsave  711 564 1534 12 C 1756.2 65.3603 t 0 r /Helvetica-Bold findfont 25.6688 sf 0 0 m (400) show NC gr 
 gsave  711 564 1534 12 C 1821.56 65.3603 t 0 r /Helvetica-Bold findfont 25.6688 sf 0 0 m (600) show NC gr 
 gsave  711 564 1534 12 C 1889.76 65.3603 t 0 r /Helvetica-Bold findfont 25.6688 sf 0 0 m (800) show NC gr 
 gsave  711 564 1534 12 C 1949.44 65.3603 t 0 r /Helvetica-Bold findfont 25.6688 sf 0 0 m (1000) show NC gr 
 gsave  711 564 1534 12 C 2014.8 65.3603 t 0 r /Helvetica-Bold findfont 25.6688 sf 0 0 m (1200) show NC gr 
 gsave  711 564 1534 12 C 2080.16 65.3603 t 0 r /Helvetica-Bold findfont 25.6688 sf 0 0 m (1400) show NC gr 
 gsave  711 564 1534 12 C 2148.36 65.3603 t 0 r /Helvetica-Bold findfont 25.6688 sf 0 0 m (1600) show NC gr  1655 520 m 547 X s 1715 507 m 13 Y s 1731 513 m 7 Y s 1748 513 m 7 Y s 1764 513 m 7 Y s 1781 507 m 13 Y s 1797 513 m 7 Y s 1814 513 m 7 Y s
 1830 513 m 7 Y s 1847 507 m 13 Y s 1863 513 m 7 Y s 1880 513 m 7 Y s 1896 513 m 7 Y s 1913 507 m 13 Y s 1929 513 m 7 Y s 1946 513 m 7 Y s 1962 513 m 7 Y s 1979 507 m 13 Y s 1995 513 m 7 Y s 2012 513 m 7 Y s 2028 513 m 7 Y s 2045 507 m 13 Y s 2061
 513 m 7 Y s 2078 513 m 7 Y s 2094 513 m 7 Y s 2111 507 m 13 Y s 2128 513 m 7 Y s 2144 513 m 7 Y s 2161 513 m 7 Y s 2177 507 m 13 Y s 1715 507 m 13 Y s 1698 513 m 7 Y s 1682 513 m 7 Y s 1665 513 m 7 Y s 2177 507 m 13 Y s 2194 513 m 7 Y s 1655 93 m
 427 Y s
 gsave  711 564 1534 12 C 1560.12 451.838 t 90 r /Helvetica-Bold findfont 28.5208 sf 0 0 m (41.4 ) show NC gr 
 gsave  711 564 1534 12 C 1545.91 443.313 t 90 r /Helvetica-Bold findfont 19.9646 sf 0 0 m ( ) show NC gr 
 gsave  711 564 1534 12 C 1560.12 434.788 t 90 r /Helvetica-Bold findfont 28.5208 sf 0 0 m (/) show NC gr 
 gsave  711 564 1534 12 C 1565.8 426.263 t 90 r /Helvetica-Bold findfont 19.9646 sf 0 0 m ( ) show NC gr 
 gsave  711 564 1534 12 C 1560.12 318.276 t 90 r /Helvetica-Bold findfont 28.5208 sf 0 0 m (\(1/N\) dN) show NC gr  1671 93 m -16 X s 1663 105 m -8 X s 1663 116 m -8 X s 1663 128 m -8 X s 1671 139 m -16 X s 1663 151 m -8 X s 1663 163 m -8 X s 1663
 174 m -8 X s 1671 186 m -16 X s 1663 197 m -8 X s 1663 209 m -8 X s 1663 221 m -8 X s 1671 232 m -16 X s 1663 244 m -8 X s 1663 255 m -8 X s 1663 267 m -8 X s 1671 279 m -16 X s 1663 290 m -8 X s 1663 302 m -8 X s 1663 313 m -8 X s 1671 325 m -16 X
 s 1663 337 m -8 X s 1663 348 m -8 X s 1663 360 m -8 X s 1671 371 m -16 X s 1663 383 m -8 X s 1663 395 m -8 X s 1663 406 m -8 X s 1671 418 m -16 X s 1663 429 m -8 X s 1663 441 m -8 X s 1663 453 m -8 X s 1671 464 m -16 X s 1663 476 m -8 X s 1663 487 m
 -8 X s 1663 499 m -8 X s 1671 511 m -16 X s 1671 511 m -16 X s
 gsave  711 564 1534 12 C 1631.16 82.4108 t 0 r /Helvetica-Bold findfont 25.6688 sf 0 0 m (0) show NC gr 
 gsave  711 564 1534 12 C 1580.01 130.721 t 0 r /Helvetica-Bold findfont 25.6688 sf 0 0 m (0.002) show NC gr 
 gsave  711 564 1534 12 C 1580.01 176.189 t 0 r /Helvetica-Bold findfont 25.6688 sf 0 0 m (0.004) show NC gr 
 gsave  711 564 1534 12 C 1580.01 221.657 t 0 r /Helvetica-Bold findfont 25.6688 sf 0 0 m (0.006) show NC gr 
 gsave  711 564 1534 12 C 1580.01 269.966 t 0 r /Helvetica-Bold findfont 25.6688 sf 0 0 m (0.008) show NC gr 
 gsave  711 564 1534 12 C 1599.91 315.434 t 0 r /Helvetica-Bold findfont 25.6688 sf 0 0 m (0.01) show NC gr 
 gsave  711 564 1534 12 C 1580.01 360.902 t 0 r /Helvetica-Bold findfont 25.6688 sf 0 0 m (0.012) show NC gr 
 gsave  711 564 1534 12 C 1580.01 409.212 t 0 r /Helvetica-Bold findfont 25.6688 sf 0 0 m (0.014) show NC gr 
 gsave  711 564 1534 12 C 1580.01 454.68 t 0 r /Helvetica-Bold findfont 25.6688 sf 0 0 m (0.016) show NC gr 
 gsave  711 564 1534 12 C 1580.01 500.148 t 0 r /Helvetica-Bold findfont 25.6688 sf 0 0 m (0.018) show NC gr  2202 93 m 427 Y s 2186 93 m 16 X s 2194 105 m 8 X s 2194 116 m 8 X s 2194 128 m 8 X s 2186 139 m 16 X s 2194 151 m 8 X s 2194 163 m 8 X s
 2194 174 m 8 X s 2186 186 m 16 X s 2194 197 m 8 X s 2194 209 m 8 X s 2194 221 m 8 X s 2186 232 m 16 X s 2194 244 m 8 X s 2194 255 m 8 X s 2194 267 m 8 X s 2186 279 m 16 X s 2194 290 m 8 X s 2194 302 m 8 X s 2194 313 m 8 X s 2186 325 m 16 X s 2194
 337 m 8 X s 2194 348 m 8 X s 2194 360 m 8 X s 2186 371 m 16 X s 2194 383 m 8 X s 2194 395 m 8 X s 2194 406 m 8 X s 2186 418 m 16 X s 2194 429 m 8 X s 2194 441 m 8 X s 2194 453 m 8 X s 2186 464 m 16 X s 2194 476 m 8 X s 2194 487 m 8 X s 2194 499 m 8
 X s 2186 511 m 16 X s 2186 511 m 16 X s 1 0 0 c 6 lw black 3 lw 1 0 0 c 2188 93 m s 2173 93 m s 2158 93 m s 2143 93 m s 2128 93 m s 2113 93 m s 2098 93 m s 2082 93 m s 2067 93 m s 2052 93 m s 2037 93 m s 2022 93 m cl s 2007 93 m s 1992 93 m s 1977
 93 m cl s 1962 93 m s 1947 93 m s 1932 93 m s 1917 93 m s 1902 93 m s 1887 93 m s 1871 93 m s 1856 93 m s 1841 93 m s 1826 93 m cl s 1811 93 m s 1796 93 m s 1781 93 m s 1767 94 m -1 -1 d s 1751 93 m s 1751 93 m s 1737 95 m -1 -2 d s 1723 95 m -2 -2
 d s 1710 97 m -4 -4 d s 1708 111 m -17 -18 d s 1696 114 m -21 -21 d s 1691 124 m -31 -31 d s 1683 131 m -28 -28 d s 1683 146 m -28 -28 d s 1683 161 m -28 -28 d s 1683 176 m -28 -27 d s 1683 191 m -28 -27 d s 1683 207 m -28 -28 d s 1673 212 m -18 -18
 d s 1669 223 m -14 -14 d s 1669 238 m -14 -13 d s 1669 254 m -14 -14 d s 1669 269 m -14 -14 d s 1669 284 m -14 -14 d s 1669 299 m -14 -14 d s 1669 314 m -14 -13 d s 1669 329 m -14 -13 d s 1669 345 m -14 -14 d s 1669 360 m -14 -14 d s 1669 375 m -14
 -14 d s 1669 390 m -14 -14 d s 1669 405 m -14 -13 d s 1669 421 m -14 -14 d s 1669 436 m -14 -14 d s 1669 451 m -14 -14 d s 1669 466 m -14 -14 d s 1669 481 m -14 -13 d s 6 lw 1655 481 m 14 X -269 Y 14 X -88 Y 13 X -13 Y 14 X -16 Y 27 X -2 Y 28 X 1 Y
 13 X -1 Y 424 X s black 3 lw 1655 93 m 547 X s 1715 106 m -13 Y s 1731 100 m -7 Y s 1748 100 m -7 Y s 1764 100 m -7 Y s 1781 106 m -13 Y s 1797 100 m -7 Y s 1814 100 m -7 Y s 1830 100 m -7 Y s 1847 106 m -13 Y s 1863 100 m -7 Y s 1880 100 m -7 Y s
 1896 100 m -7 Y s 1913 106 m -13 Y s 1929 100 m -7 Y s 1946 100 m -7 Y s 1962 100 m -7 Y s 1979 106 m -13 Y s 1995 100 m -7 Y s 2012 100 m -7 Y s 2028 100 m -7 Y s 2045 106 m -13 Y s 2061 100 m -7 Y s 2078 100 m -7 Y s 2094 100 m -7 Y s 2111 106 m
 -13 Y s 2128 100 m -7 Y s 2144 100 m -7 Y s 2161 100 m -7 Y s 2177 106 m -13 Y s 1715 106 m -13 Y s 1698 100 m -7 Y s 1682 100 m -7 Y s 1665 100 m -7 Y s 2177 106 m -13 Y s 2194 100 m -7 Y s 1655 520 m 547 X s 1715 507 m 13 Y s 1731 513 m 7 Y s 1748
 513 m 7 Y s 1764 513 m 7 Y s 1781 507 m 13 Y s 1797 513 m 7 Y s 1814 513 m 7 Y s 1830 513 m 7 Y s 1847 507 m 13 Y s 1863 513 m 7 Y s 1880 513 m 7 Y s 1896 513 m 7 Y s 1913 507 m 13 Y s 1929 513 m 7 Y s 1946 513 m 7 Y s 1962 513 m 7 Y s 1979 507 m 13
 Y s 1995 513 m 7 Y s 2012 513 m 7 Y s 2028 513 m 7 Y s 2045 507 m 13 Y s 2061 513 m 7 Y s 2078 513 m 7 Y s 2094 513 m 7 Y s 2111 507 m 13 Y s 2128 513 m 7 Y s 2144 513 m 7 Y s 2161 513 m 7 Y s 2177 507 m 13 Y s 1715 507 m 13 Y s 1698 513 m 7 Y s
 1682 513 m 7 Y s 1665 513 m 7 Y s 2177 507 m 13 Y s 2194 513 m 7 Y s 1655 93 m 427 Y s 1671 93 m -16 X s 1663 105 m -8 X s 1663 116 m -8 X s 1663 128 m -8 X s 1671 139 m -16 X s 1663 151 m -8 X s 1663 163 m -8 X s 1663 174 m -8 X s 1671 186 m -16 X
 s 1663 197 m -8 X s 1663 209 m -8 X s 1663 221 m -8 X s 1671 232 m -16 X s 1663 244 m -8 X s 1663 255 m -8 X s 1663 267 m -8 X s 1671 279 m -16 X s 1663 290 m -8 X s 1663 302 m -8 X s 1663 313 m -8 X s 1671 325 m -16 X s 1663 337 m -8 X s 1663 348 m
 -8 X s 1663 360 m -8 X s 1671 371 m -16 X s 1663 383 m -8 X s 1663 395 m -8 X s 1663 406 m -8 X s 1671 418 m -16 X s 1663 429 m -8 X s 1663 441 m -8 X s 1663 453 m -8 X s 1671 464 m -16 X s 1663 476 m -8 X s 1663 487 m -8 X s 1663 499 m -8 X s 1671
 511 m -16 X s 1671 511 m -16 X s 2202 93 m 427 Y s 2186 93 m 16 X s 2194 105 m 8 X s 2194 116 m 8 X s 2194 128 m 8 X s 2186 139 m 16 X s 2194 151 m 8 X s 2194 163 m 8 X s 2194 174 m 8 X s 2186 186 m 16 X s 2194 197 m 8 X s 2194 209 m 8 X s 2194 221
 m 8 X s 2186 232 m 16 X s 2194 244 m 8 X s 2194 255 m 8 X s 2194 267 m 8 X s 2186 279 m 16 X s 2194 290 m 8 X s 2194 302 m 8 X s 2194 313 m 8 X s 2186 325 m 16 X s 2194 337 m 8 X s 2194 348 m 8 X s 2194 360 m 8 X s 2186 371 m 16 X s 2194 383 m 8 X s
 2194 395 m 8 X s 2194 406 m 8 X s 2186 418 m 16 X s 2194 429 m 8 X s 2194 441 m 8 X s 2194 453 m 8 X s 2186 464 m 16 X s 2194 476 m 8 X s 2194 487 m 8 X s 2194 499 m 8 X s 2186 511 m 16 X s 2186 511 m 16 X s
 gsave  711 564 1534 12 C 2230.83 90.8246 t 90 r /Helvetica-Bold findfont 19.9646 sf 0 0 m (U/O\255flow \(S,B\): \(0.0, 0.0\)% / \(0.0, 0.0\)%) show NC gr  0.48 0.56 0.6 c 0.364706 0.419608 0.490196 c 278 38 1542 536 bf 0.48 0.56 0.6 c 1542 536 m 278
 X s 1820 536 m 38 Y s 1820 574 m -278 X s 1542 574 m -38 Y s 1 1 1 c black 1 1 1 c
 gsave  711 564 1534 12 C 1545.91 548.458 t 0 r /Helvetica-Bold findfont 28.5208 sf 0 0 m (Input variable: MET) show NC gr 
 gr  gr showpage
end
%%EOF
