%!PS-Adobe-2.0 EPSF-2.0
%%BoundingBox:  0 0 567 294
%%Title: plots/variables_id_c1.eps: Input variables (training sample)
%%Creator: ROOT Version 6.04/14
%%CreationDate: Wed Oct  5 09:49:04 2016
%%DocumentNeededResources: ProcSet (FontSetInit)
%%EndComments
%%BeginProlog
80 dict begin
/s {stroke} def /l {lineto} def /m {moveto} def /t {translate} def
/r {rotate} def /rl {roll}  def /R {repeat} def
/d {rlineto} def /rm {rmoveto} def /gr {grestore} def /f {eofill} def
/c {setrgbcolor} def /black {0 setgray} def /sd {setdash} def
/cl {closepath} def /sf {scalefont setfont} def /lw {setlinewidth} def
/box {m dup 0 exch d exch 0 d 0 exch neg d cl} def
/NC{systemdict begin initclip end}def/C{NC box clip newpath}def
/bl {box s} def /bf {gsave box gsave f grestore 1 lw [] 0 sd s grestore} def /Y { 0 exch d} def /X { 0 d} def 
/K {{pop pop 0 moveto} exch kshow} bind def
/ita {/ang 15 def gsave [1 0 ang dup sin exch cos div 1 0 0] concat} def 
/mp {newpath /y exch def /x exch def} def
/side {[w .77 mul w .23 mul] .385 w mul sd w 0 l currentpoint t -144 r} def
/mr {mp x y w2 0 360 arc} def /m24 {mr s} def /m20 {mr f} def
/mb {mp x y w2 add m w2 neg 0 d 0 w neg d w 0 d 0 w d cl} def
/mt {mp x y w2 add m w2 neg w neg d w 0 d cl} def
/m21 {mb f} def /m25 {mb s} def /m22 {mt f} def /m26{mt s} def
/m23 {mp x y w2 sub m w2 w d w neg 0 d cl f} def
/m27 {mp x y w2 add m w3 neg w2 neg d w3 w2 neg d w3 w2 d cl s} def
/m28 {mp x w2 sub y w2 sub w3 add m w3 0 d  0 w3 neg d w3 0 d 0 w3 d w3 0 d  0 w3 d w3 neg 0 d 0 w3 d w3 neg 0 d 0 w3 neg d w3 neg 0 d cl s } def
/m29 {mp gsave x w2 sub y w2 add w3 sub m currentpoint t 4 {side} repeat cl fill gr} def
/m30 {mp gsave x w2 sub y w2 add w3 sub m currentpoint t 4 {side} repeat cl s gr} def
/m31 {mp x y w2 sub m 0 w d x w2 sub y m w 0 d x w2 sub y w2 add m w w neg d x w2 sub y w2 sub m w w d s} def
/m32 {mp x y w2 sub m w2 w d w neg 0 d cl s} def
/m33 {mp x y w2 add m w3 neg w2 neg d w3 w2 neg d w3 w2 d cl f} def
/m34 {mp x w2 sub y w2 sub w3 add m w3 0 d  0 w3 neg d w3 0 d 0 w3 d w3 0 d  0 w3 d w3 neg 0 d 0 w3 d w3 neg 0 d 0 w3 neg d w3 neg 0 d cl f } def
/m2 {mp x y w2 sub m 0 w d x w2 sub y m w 0 d s} def
/m5 {mp x w2 sub y w2 sub m w w d x w2 sub y w2 add m w w neg d s} def
%%IncludeResource: ProcSet (FontSetInit)
%%IncludeResource: font Times-Roman
%%IncludeResource: font Times-Italic
%%IncludeResource: font Times-Bold
%%IncludeResource: font Times-BoldItalic
%%IncludeResource: font Helvetica
%%IncludeResource: font Helvetica-Oblique
%%IncludeResource: font Helvetica-Bold
%%IncludeResource: font Helvetica-BoldOblique
%%IncludeResource: font Courier
%%IncludeResource: font Courier-Oblique
%%IncludeResource: font Courier-Bold
%%IncludeResource: font Courier-BoldOblique
%%IncludeResource: font Symbol
%%IncludeResource: font ZapfDingbats
/reEncode {exch findfont dup length dict begin {1 index /FID eq  {pop pop} {def} ifelse } forall /Encoding exch def currentdict end dup /FontName get exch definefont pop } def [/Times-Bold /Times-Italic /Times-BoldItalic /Helvetica /Helvetica-Oblique
 /Helvetica-Bold /Helvetica-BoldOblique /Courier /Courier-Oblique /Courier-Bold /Courier-BoldOblique /Times-Roman /AvantGarde-Book /AvantGarde-BookOblique /AvantGarde-Demi /AvantGarde-DemiOblique /Bookman-Demi /Bookman-DemiItalic /Bookman-Light
 /Bookman-LightItalic /Helvetica-Narrow /Helvetica-Narrow-Bold /Helvetica-Narrow-BoldOblique /Helvetica-Narrow-Oblique /NewCenturySchlbk-Roman /NewCenturySchlbk-Bold /NewCenturySchlbk-BoldItalic /NewCenturySchlbk-Italic /Palatino-Bold
 /Palatino-BoldItalic /Palatino-Italic /Palatino-Roman ] {ISOLatin1Encoding reEncode } forall
%%EndProlog
%%BeginSetup
%%EndSetup
newpath  gsave  .25 .25 scale  gsave  0 0 t 0.48 0.56 0.6 c[  ] 0 sd 3 lw 0.95 0.95 0.95 c 2268 1176 0 0 bf 0.48 0.56 0.6 c 0.95 0.95 0.95 c 710 565 23 600 bf black 0.95 0.95 0.95 c 548 427 143 681 bf black 548 427 143 681 bl 0.95 0.95 0.95 c 548 427
 143 681 bf black 548 427 143 681 bl 0 0 0.933333 c 6 lw 0.49 0.6 0.82 c black 3 lw 0.49 0.6 0.82 c 143 681 m 1 Y 14 X 2 Y 14 X 11 Y 14 X -1 Y 13 X 16 Y 14 X 7 Y 14 X -6 Y 13 X 15 Y 14 X 11 Y 14 X 2 Y 13 X 10 Y 14 X 22 Y 14 X 44 Y 13 X 82 Y 14 X 113
 Y 14 X -66 Y 13 X -137 Y 14 X -30 Y 14 X -13 Y 13 X -11 Y 14 X 8 Y 14 X -25 Y 13 X 3 Y 14 X -7 Y 14 X -2 Y 13 X -7 Y 14 X -5 Y 14 X 2 Y 13 X -3 Y 14 X -7 Y 14 X 1 Y 13 X -3 Y 14 X -3 Y 14 X 1 Y 14 X -4 Y 13 X -7 Y 14 X 3 Y 27 X -4 Y 14 X -12 Y 14 X
 -1 Y f 6 lw 0 0 0.933333 c 0.49 0.6 0.82 c 0 0 0.933333 c 143 682 m 14 X 2 Y 14 X 11 Y 14 X -1 Y 13 X 16 Y 14 X 7 Y 14 X -6 Y 13 X 15 Y 14 X 11 Y 14 X 2 Y 13 X 10 Y 14 X 22 Y 14 X 44 Y 13 X 82 Y 14 X 113 Y 14 X -66 Y 13 X -137 Y 14 X -30 Y 14 X -13
 Y 13 X -11 Y 14 X 8 Y 14 X -25 Y 13 X 3 Y 14 X -7 Y 14 X -2 Y 13 X -7 Y 14 X -5 Y 14 X 2 Y 13 X -3 Y 14 X -7 Y 14 X 1 Y 13 X -3 Y 14 X -3 Y 14 X 1 Y 14 X -4 Y 13 X -7 Y 14 X 3 Y 27 X -4 Y 14 X -12 Y 14 X s black 3 lw 143 681 m 548 X s
 gsave  710 565 23 600 C 650.761 613.818 t 0 r /Helvetica-Bold findfont 28.5208 sf 0 0 m (Mjj) show NC gr  241 694 m -13 Y s 269 688 m -7 Y s 296 688 m -7 Y s 323 688 m -7 Y s 350 694 m -13 Y s 378 688 m -7 Y s 405 688 m -7 Y s 432 688 m -7 Y s 459
 694 m -13 Y s 487 688 m -7 Y s 514 688 m -7 Y s 541 688 m -7 Y s 568 694 m -13 Y s 596 688 m -7 Y s 623 688 m -7 Y s 650 688 m -7 Y s 677 694 m -13 Y s 241 694 m -13 Y s 214 688 m -7 Y s 187 688 m -7 Y s 160 688 m -7 Y s 677 694 m -13 Y s
 gsave  710 565 23 600 C 215.973 653.603 t 0 r /Helvetica-Bold findfont 25.6688 sf 0 0 m (200) show NC gr 
 gsave  710 565 23 600 C 326.801 653.603 t 0 r /Helvetica-Bold findfont 25.6688 sf 0 0 m (400) show NC gr 
 gsave  710 565 23 600 C 434.788 653.603 t 0 r /Helvetica-Bold findfont 25.6688 sf 0 0 m (600) show NC gr 
 gsave  710 565 23 600 C 542.774 653.603 t 0 r /Helvetica-Bold findfont 25.6688 sf 0 0 m (800) show NC gr 
 gsave  710 565 23 600 C 647.919 653.603 t 0 r /Helvetica-Bold findfont 25.6688 sf 0 0 m (1000) show NC gr  143 1108 m 548 X s 241 1095 m 13 Y s 269 1102 m 6 Y s 296 1102 m 6 Y s 323 1102 m 6 Y s 350 1095 m 13 Y s 378 1102 m 6 Y s 405 1102 m 6 Y s
 432 1102 m 6 Y s 459 1095 m 13 Y s 487 1102 m 6 Y s 514 1102 m 6 Y s 541 1102 m 6 Y s 568 1095 m 13 Y s 596 1102 m 6 Y s 623 1102 m 6 Y s 650 1102 m 6 Y s 677 1095 m 13 Y s 241 1095 m 13 Y s 214 1102 m 6 Y s 187 1102 m 6 Y s 160 1102 m 6 Y s 677
 1095 m 13 Y s 143 681 m 427 Y s
 gsave  710 565 23 600 C 48.3097 1045.76 t 90 r /Helvetica-Bold findfont 28.5208 sf 0 0 m (25.1 ) show NC gr 
 gsave  710 565 23 600 C 34.101 1037.24 t 90 r /Helvetica-Bold findfont 19.9646 sf 0 0 m ( ) show NC gr 
 gsave  710 565 23 600 C 48.3097 1028.71 t 90 r /Helvetica-Bold findfont 28.5208 sf 0 0 m (/) show NC gr 
 gsave  710 565 23 600 C 53.9933 1020.19 t 90 r /Helvetica-Bold findfont 19.9646 sf 0 0 m ( ) show NC gr 
 gsave  710 565 23 600 C 45.468 912.202 t 90 r /Helvetica-Bold findfont 28.5208 sf 0 0 m (\(1/N\) dN) show NC gr  160 681 m -17 X s 152 693 m -9 X s 152 706 m -9 X s 152 718 m -9 X s 152 730 m -9 X s 160 742 m -17 X s 152 754 m -9 X s 152 766 m -9 X
 s 152 778 m -9 X s 152 790 m -9 X s 160 802 m -17 X s 152 815 m -9 X s 152 827 m -9 X s 152 839 m -9 X s 152 851 m -9 X s 160 863 m -17 X s 152 875 m -9 X s 152 887 m -9 X s 152 899 m -9 X s 152 911 m -9 X s 160 924 m -17 X s 152 936 m -9 X s 152
 948 m -9 X s 152 960 m -9 X s 152 972 m -9 X s 160 984 m -17 X s 152 996 m -9 X s 152 1008 m -9 X s 152 1021 m -9 X s 152 1033 m -9 X s 160 1045 m -17 X s 152 1057 m -9 X s 152 1069 m -9 X s 152 1081 m -9 X s 152 1093 m -9 X s 160 1105 m -17 X s 160
 1105 m -17 X s
 gsave  710 565 23 600 C 119.354 670.653 t 0 r /Helvetica-Bold findfont 25.6688 sf 0 0 m (0) show NC gr 
 gsave  710 565 23 600 C 73.8855 733.172 t 0 r /Helvetica-Bold findfont 25.6688 sf 0 0 m (0.001) show NC gr 
 gsave  710 565 23 600 C 68.202 792.848 t 0 r /Helvetica-Bold findfont 25.6688 sf 0 0 m (0.002) show NC gr 
 gsave  710 565 23 600 C 68.202 852.525 t 0 r /Helvetica-Bold findfont 25.6688 sf 0 0 m (0.003) show NC gr 
 gsave  710 565 23 600 C 68.202 915.044 t 0 r /Helvetica-Bold findfont 25.6688 sf 0 0 m (0.004) show NC gr 
 gsave  710 565 23 600 C 68.202 974.72 t 0 r /Helvetica-Bold findfont 25.6688 sf 0 0 m (0.005) show NC gr 
 gsave  710 565 23 600 C 68.202 1034.4 t 0 r /Helvetica-Bold findfont 25.6688 sf 0 0 m (0.006) show NC gr 
 gsave  710 565 23 600 C 68.202 1094.07 t 0 r /Helvetica-Bold findfont 25.6688 sf 0 0 m (0.007) show NC gr  691 681 m 427 Y s 674 681 m 17 X s 683 693 m 8 X s 683 706 m 8 X s 683 718 m 8 X s 683 730 m 8 X s 674 742 m 17 X s 683 754 m 8 X s 683 766 m
 8 X s 683 778 m 8 X s 683 790 m 8 X s 674 802 m 17 X s 683 815 m 8 X s 683 827 m 8 X s 683 839 m 8 X s 683 851 m 8 X s 674 863 m 17 X s 683 875 m 8 X s 683 887 m 8 X s 683 899 m 8 X s 683 911 m 8 X s 674 924 m 17 X s 683 936 m 8 X s 683 948 m 8 X s
 683 960 m 8 X s 683 972 m 8 X s 674 984 m 17 X s 683 996 m 8 X s 683 1008 m 8 X s 683 1021 m 8 X s 683 1033 m 8 X s 674 1045 m 17 X s 683 1057 m 8 X s 683 1069 m 8 X s 683 1081 m 8 X s 683 1093 m 8 X s 674 1105 m 17 X s 674 1105 m 17 X s 1 0 0 c 6
 lw black 3 lw 1 0 0 c 677 682 m -1 -1 d s 677 697 m -14 -14 d s 663 683 m -2 -2 d s 646 681 m s 632 682 m -1 -1 d s 622 688 m -6 -7 d s 622 703 m -21 -22 d s 609 705 m -1 Y s 605 700 m -10 -9 d s 586 681 m s 580 691 m -9 -10 d s 557 683 m -1 -2 d s
 542 683 m -1 -2 d s 526 682 m -1 -1 d s 526 698 m -16 -17 d s 520 706 m -7 -7 d s 502 688 m -7 -7 d s 499 700 m -19 -19 d s 489 706 m -24 -25 d s 472 703 m -22 -22 d s 472 718 m -37 -37 d s 472 734 m -14 -14 d s 453 714 m -33 -33 d s 470 747 m -12
 -12 d s 444 721 m -39 -40 d s 444 736 m -54 -55 d s 439 746 m -64 -65 d s 431 753 m -41 -41 d s 382 704 m -22 -23 d s 424 761 m -7 -7 d s 411 749 m -21 -22 d s 376 713 m -31 -32 d s 394 747 m -4 -5 d s 376 728 m -47 -47 d s 376 743 m -62 -62 d s 376
 759 m -77 -78 d s 376 774 m -14 -14 d s 356 754 m -72 -73 d s 371 784 m -9 -9 d s 349 761 m -14 -13 d s 330 742 m -61 -61 d s 346 774 m -11 -11 d s 321 749 m -67 -68 d s 321 764 m -13 -14 d s 298 741 m -59 -60 d s 321 779 m -13 -13 d s 294 752 m -70
 -71 d s 321 795 m -13 -14 d s 294 767 m -85 -86 d s 321 810 m -13 -14 d s 283 771 m -89 -90 d s 318 822 m -10 -11 d s 280 784 m -101 -103 d s 280 799 m -116 -118 d s 280 814 m -131 -133 d s 280 829 m -137 -138 d s 280 844 m -95 -96 d s 182 745 m -25
 -25 d s 146 709 m -3 -2 d s 273 852 m -20 -20 d s 239 818 m -27 -27 d s 203 782 m -18 -19 d s 171 749 m -14 -14 d s 267 861 m -14 -14 d s 231 825 m -19 -19 d s 198 792 m -13 -14 d s 166 760 m -9 -9 d s 267 876 m -14 -14 d s 214 824 m -2 -3 d s 198
 807 m -13 -14 d s 267 891 m -14 -13 d s 198 822 m -13 -13 d s 267 906 m -14 -13 d s 191 830 m -6 -6 d s 266 921 m -13 -13 d s 6 lw 143 709 m 14 X 51 Y 14 X -15 Y 14 X 85 Y 13 X -48 Y 14 X 42 Y 14 X 1 Y 13 X -7 Y 14 X 103 Y 14 X -69 Y 13 X -81 Y 14 X
 -30 Y 14 X 81 Y 13 X -80 Y 14 X 32 Y 14 X -20 Y 13 X 30 Y 14 X -80 Y 14 X 43 Y 13 X 2 Y 14 X 12 Y 14 X -15 Y 13 X -32 Y 14 X 33 Y 14 X -45 Y 13 X 4 Y 14 X -18 Y 14 X 18 Y 13 X -25 Y 14 X 2 Y 27 X 8 Y 14 X -10 Y 14 X 19 Y 14 X 5 Y 13 X -23 Y 14 X -1
 Y 14 X 2 Y 13 X 14 Y 14 X -16 Y 14 X s 0.48 0.56 0.6 c 3 lw 1 1 1 c 0.48 0.56 0.6 c 285 84 143 1024 bl 143 1024 m 285 X s 428 1024 m 84 Y s 428 1108 m -285 X s 143 1108 m -84 Y s black
 gsave  710 565 23 600 C 227.34 1079.87 t 0 r /Helvetica-Bold findfont 31.3729 sf 0 0 m (Signal) show NC gr  0.49 0.6 0.82 c 156 1072 m 60 X 30 Y -60 X f 0 0 0.933333 c 6 lw 156 1102 m 60 X s 156 1072 m 60 X s 216 1072 m 30 Y s 156 1072 m 30 Y s
 black
 gsave  710 565 23 600 C 227.34 1037.24 t 0 r /Helvetica-Bold findfont 31.3729 sf 0 0 m (Background) show NC gr  1 0 0 c 3 lw 216 1038 m -8 -8 d s 216 1053 m -23 -23 d s 207 1060 m -29 -30 d s 192 1060 m -29 -30 d s 177 1060 m -21 -22 d s 162 1060 m
 -6 -7 d s 6 lw 0 0 0.933333 c 1 0 0 c 156 1060 m 60 X s 156 1030 m 60 X s 216 1030 m 30 Y s 156 1030 m 30 Y s black 3 lw 143 681 m 548 X s 241 694 m -13 Y s 269 688 m -7 Y s 296 688 m -7 Y s 323 688 m -7 Y s 350 694 m -13 Y s 378 688 m -7 Y s 405
 688 m -7 Y s 432 688 m -7 Y s 459 694 m -13 Y s 487 688 m -7 Y s 514 688 m -7 Y s 541 688 m -7 Y s 568 694 m -13 Y s 596 688 m -7 Y s 623 688 m -7 Y s 650 688 m -7 Y s 677 694 m -13 Y s 241 694 m -13 Y s 214 688 m -7 Y s 187 688 m -7 Y s 160 688 m
 -7 Y s 677 694 m -13 Y s 143 1108 m 548 X s 241 1095 m 13 Y s 269 1102 m 6 Y s 296 1102 m 6 Y s 323 1102 m 6 Y s 350 1095 m 13 Y s 378 1102 m 6 Y s 405 1102 m 6 Y s 432 1102 m 6 Y s 459 1095 m 13 Y s 487 1102 m 6 Y s 514 1102 m 6 Y s 541 1102 m 6 Y
 s 568 1095 m 13 Y s 596 1102 m 6 Y s 623 1102 m 6 Y s 650 1102 m 6 Y s 677 1095 m 13 Y s 241 1095 m 13 Y s 214 1102 m 6 Y s 187 1102 m 6 Y s 160 1102 m 6 Y s 677 1095 m 13 Y s 143 681 m 427 Y s 160 681 m -17 X s 152 693 m -9 X s 152 706 m -9 X s 152
 718 m -9 X s 152 730 m -9 X s 160 742 m -17 X s 152 754 m -9 X s 152 766 m -9 X s 152 778 m -9 X s 152 790 m -9 X s 160 802 m -17 X s 152 815 m -9 X s 152 827 m -9 X s 152 839 m -9 X s 152 851 m -9 X s 160 863 m -17 X s 152 875 m -9 X s 152 887 m -9
 X s 152 899 m -9 X s 152 911 m -9 X s 160 924 m -17 X s 152 936 m -9 X s 152 948 m -9 X s 152 960 m -9 X s 152 972 m -9 X s 160 984 m -17 X s 152 996 m -9 X s 152 1008 m -9 X s 152 1021 m -9 X s 152 1033 m -9 X s 160 1045 m -17 X s 152 1057 m -9 X s
 152 1069 m -9 X s 152 1081 m -9 X s 152 1093 m -9 X s 160 1105 m -17 X s 160 1105 m -17 X s 691 681 m 427 Y s 674 681 m 17 X s 683 693 m 8 X s 683 706 m 8 X s 683 718 m 8 X s 683 730 m 8 X s 674 742 m 17 X s 683 754 m 8 X s 683 766 m 8 X s 683 778 m
 8 X s 683 790 m 8 X s 674 802 m 17 X s 683 815 m 8 X s 683 827 m 8 X s 683 839 m 8 X s 683 851 m 8 X s 674 863 m 17 X s 683 875 m 8 X s 683 887 m 8 X s 683 899 m 8 X s 683 911 m 8 X s 674 924 m 17 X s 683 936 m 8 X s 683 948 m 8 X s 683 960 m 8 X s
 683 972 m 8 X s 674 984 m 17 X s 683 996 m 8 X s 683 1008 m 8 X s 683 1021 m 8 X s 683 1033 m 8 X s 674 1045 m 17 X s 683 1057 m 8 X s 683 1069 m 8 X s 683 1081 m 8 X s 683 1093 m 8 X s 674 1105 m 17 X s 674 1105 m 17 X s
 gsave  710 565 23 600 C 719.017 679.067 t 90 r /Helvetica-Bold findfont 19.9646 sf 0 0 m (U/O\255flow \(S,B\): \(0.0, 0.0\)% / \(0.0, 0.0\)%) show NC gr  0.48 0.56 0.6 c 0.364706 0.419608 0.490196 c 256 38 30 1124 bf 0.48 0.56 0.6 c 30 1124 m 256 X
 s 286 1124 m 38 Y s 286 1162 m -256 X s 30 1162 m -38 Y s 1 1 1 c black 1 1 1 c
 gsave  710 565 23 600 C 34.101 1136.7 t 0 r /Helvetica-Bold findfont 28.5208 sf 0 0 m (Input variable: Mjj) show NC gr  0.48 0.56 0.6 c 0.95 0.95 0.95 c 710 565 779 600 bf black 0.95 0.95 0.95 c 548 427 899 681 bf black 548 427 899 681 bl 0.95 0.95
 0.95 c 548 427 899 681 bf black 548 427 899 681 bl 0 0 0.933333 c 6 lw 0.49 0.6 0.82 c black 3 lw 0.49 0.6 0.82 c 899 681 m 275 Y 14 X 113 Y 14 X -67 Y 13 X -13 Y 14 X -58 Y 14 X -4 Y 13 X -23 Y 14 X -30 Y 14 X -14 Y 13 X 19 Y 14 X 28 Y 14 X -35 Y
 14 X 3 Y 13 X -21 Y 14 X -32 Y 14 X 44 Y 13 X -21 Y 14 X -16 Y 14 X 20 Y 13 X -8 Y 14 X -2 Y 14 X -41 Y 13 X 30 Y 14 X 13 Y 14 X -35 Y 13 X -26 Y 14 X -15 Y 14 X -4 Y 13 X -17 Y 14 X -5 Y 14 X -17 Y 13 X -17 Y 28 X -12 Y 13 X -3 Y 14 X -8 Y 41 X -1
 Y 28 X f 6 lw 0 0 0.933333 c 0.49 0.6 0.82 c 0 0 0.933333 c 899 956 m 14 X 113 Y 14 X -67 Y 13 X -13 Y 14 X -58 Y 14 X -4 Y 13 X -23 Y 14 X -30 Y 14 X -14 Y 13 X 19 Y 14 X 28 Y 14 X -35 Y 14 X 3 Y 13 X -21 Y 14 X -32 Y 14 X 44 Y 13 X -21 Y 14 X -16
 Y 14 X 20 Y 13 X -8 Y 14 X -2 Y 14 X -41 Y 13 X 30 Y 14 X 13 Y 14 X -35 Y 13 X -26 Y 14 X -15 Y 14 X -4 Y 13 X -17 Y 14 X -5 Y 14 X -17 Y 13 X -17 Y 28 X -12 Y 13 X -3 Y 14 X -8 Y 41 X -1 Y 28 X s black 3 lw 899 681 m 548 X s
 gsave  710 565 779 600 C 1383.93 610.976 t 0 r /Helvetica-Bold findfont 28.5208 sf 0 0 m (RMS) show NC gr  943 694 m -13 Y s 954 688 m -7 Y s 965 688 m -7 Y s 976 688 m -7 Y s 987 694 m -13 Y s 998 688 m -7 Y s 1009 688 m -7 Y s 1020 688 m -7 Y s
 1031 694 m -13 Y s 1042 688 m -7 Y s 1053 688 m -7 Y s 1064 688 m -7 Y s 1075 694 m -13 Y s 1086 688 m -7 Y s 1096 688 m -7 Y s 1107 688 m -7 Y s 1118 694 m -13 Y s 1129 688 m -7 Y s 1140 688 m -7 Y s 1151 688 m -7 Y s 1162 694 m -13 Y s 1173 688 m
 -7 Y s 1184 688 m -7 Y s 1195 688 m -7 Y s 1206 694 m -13 Y s 1217 688 m -7 Y s 1228 688 m -7 Y s 1239 688 m -7 Y s 1250 694 m -13 Y s 1261 688 m -7 Y s 1272 688 m -7 Y s 1283 688 m -7 Y s 1294 694 m -13 Y s 1305 688 m -7 Y s 1316 688 m -7 Y s 1327
 688 m -7 Y s 1337 694 m -13 Y s 1348 688 m -7 Y s 1359 688 m -7 Y s 1370 688 m -7 Y s 1381 694 m -13 Y s 1392 688 m -7 Y s 1403 688 m -7 Y s 1414 688 m -7 Y s 1425 694 m -13 Y s 943 694 m -13 Y s 932 688 m -7 Y s 921 688 m -7 Y s 910 688 m -7 Y s
 1425 694 m -13 Y s 1436 688 m -7 Y s
 gsave  710 565 779 600 C 920.727 653.603 t 0 r /Helvetica-Bold findfont 25.6688 sf 0 0 m (0.2) show NC gr 
 gsave  710 565 779 600 C 966.195 653.603 t 0 r /Helvetica-Bold findfont 25.6688 sf 0 0 m (0.4) show NC gr 
 gsave  710 565 779 600 C 1008.82 653.603 t 0 r /Helvetica-Bold findfont 25.6688 sf 0 0 m (0.6) show NC gr 
 gsave  710 565 779 600 C 1054.29 653.603 t 0 r /Helvetica-Bold findfont 25.6688 sf 0 0 m (0.8) show NC gr 
 gsave  710 565 779 600 C 1111.12 653.603 t 0 r /Helvetica-Bold findfont 25.6688 sf 0 0 m (1) show NC gr 
 gsave  710 565 779 600 C 1139.54 653.603 t 0 r /Helvetica-Bold findfont 25.6688 sf 0 0 m (1.2) show NC gr 
 gsave  710 565 779 600 C 1185.01 653.603 t 0 r /Helvetica-Bold findfont 25.6688 sf 0 0 m (1.4) show NC gr 
 gsave  710 565 779 600 C 1227.64 653.603 t 0 r /Helvetica-Bold findfont 25.6688 sf 0 0 m (1.6) show NC gr 
 gsave  710 565 779 600 C 1273.1 653.603 t 0 r /Helvetica-Bold findfont 25.6688 sf 0 0 m (1.8) show NC gr 
 gsave  710 565 779 600 C 1327.1 653.603 t 0 r /Helvetica-Bold findfont 25.6688 sf 0 0 m (2) show NC gr 
 gsave  710 565 779 600 C 1361.2 653.603 t 0 r /Helvetica-Bold findfont 25.6688 sf 0 0 m (2.2) show NC gr 
 gsave  710 565 779 600 C 1403.82 653.603 t 0 r /Helvetica-Bold findfont 25.6688 sf 0 0 m (2.4) show NC gr  899 1108 m 548 X s 943 1095 m 13 Y s 954 1102 m 6 Y s 965 1102 m 6 Y s 976 1102 m 6 Y s 987 1095 m 13 Y s 998 1102 m 6 Y s 1009 1102 m 6 Y s
 1020 1102 m 6 Y s 1031 1095 m 13 Y s 1042 1102 m 6 Y s 1053 1102 m 6 Y s 1064 1102 m 6 Y s 1075 1095 m 13 Y s 1086 1102 m 6 Y s 1096 1102 m 6 Y s 1107 1102 m 6 Y s 1118 1095 m 13 Y s 1129 1102 m 6 Y s 1140 1102 m 6 Y s 1151 1102 m 6 Y s 1162 1095 m
 13 Y s 1173 1102 m 6 Y s 1184 1102 m 6 Y s 1195 1102 m 6 Y s 1206 1095 m 13 Y s 1217 1102 m 6 Y s 1228 1102 m 6 Y s 1239 1102 m 6 Y s 1250 1095 m 13 Y s 1261 1102 m 6 Y s 1272 1102 m 6 Y s 1283 1102 m 6 Y s 1294 1095 m 13 Y s 1305 1102 m 6 Y s 1316
 1102 m 6 Y s 1327 1102 m 6 Y s 1337 1095 m 13 Y s 1348 1102 m 6 Y s 1359 1102 m 6 Y s 1370 1102 m 6 Y s 1381 1095 m 13 Y s 1392 1102 m 6 Y s 1403 1102 m 6 Y s 1414 1102 m 6 Y s 1425 1095 m 13 Y s 943 1095 m 13 Y s 932 1102 m 6 Y s 921 1102 m 6 Y s
 910 1102 m 6 Y s 1425 1095 m 13 Y s 1436 1102 m 6 Y s 899 681 m 427 Y s
 gsave  710 565 779 600 C 804.215 1008.82 t 90 r /Helvetica-Bold findfont 28.5208 sf 0 0 m (0.0624 ) show NC gr 
 gsave  710 565 779 600 C 790.007 1000.3 t 90 r /Helvetica-Bold findfont 19.9646 sf 0 0 m ( ) show NC gr 
 gsave  710 565 779 600 C 804.215 991.771 t 90 r /Helvetica-Bold findfont 28.5208 sf 0 0 m (/) show NC gr 
 gsave  710 565 779 600 C 809.899 983.246 t 90 r /Helvetica-Bold findfont 19.9646 sf 0 0 m ( ) show NC gr 
 gsave  710 565 779 600 C 804.215 875.259 t 90 r /Helvetica-Bold findfont 28.5208 sf 0 0 m (\(1/N\) dN) show NC gr  915 681 m -16 X s 907 699 m -8 X s 907 716 m -8 X s 907 733 m -8 X s 915 750 m -16 X s 907 768 m -8 X s 907 785 m -8 X s 907 802 m -8
 X s 915 819 m -16 X s 907 836 m -8 X s 907 854 m -8 X s 907 871 m -8 X s 915 888 m -16 X s 907 905 m -8 X s 907 923 m -8 X s 907 940 m -8 X s 915 957 m -16 X s 907 974 m -8 X s 907 992 m -8 X s 907 1009 m -8 X s 915 1026 m -16 X s 907 1043 m -8 X s
 907 1061 m -8 X s 907 1078 m -8 X s 915 1095 m -16 X s 915 1095 m -16 X s
 gsave  710 565 779 600 C 875.259 670.653 t 0 r /Helvetica-Bold findfont 25.6688 sf 0 0 m (0) show NC gr 
 gsave  710 565 779 600 C 852.525 741.697 t 0 r /Helvetica-Bold findfont 25.6688 sf 0 0 m (0.2) show NC gr 
 gsave  710 565 779 600 C 852.525 809.899 t 0 r /Helvetica-Bold findfont 25.6688 sf 0 0 m (0.4) show NC gr 
 gsave  710 565 779 600 C 852.525 878.101 t 0 r /Helvetica-Bold findfont 25.6688 sf 0 0 m (0.6) show NC gr 
 gsave  710 565 779 600 C 852.525 946.303 t 0 r /Helvetica-Bold findfont 25.6688 sf 0 0 m (0.8) show NC gr 
 gsave  710 565 779 600 C 878.101 1017.35 t 0 r /Helvetica-Bold findfont 25.6688 sf 0 0 m (1) show NC gr 
 gsave  710 565 779 600 C 852.525 1085.55 t 0 r /Helvetica-Bold findfont 25.6688 sf 0 0 m (1.2) show NC gr  1447 681 m 427 Y s 1430 681 m 17 X s 1438 699 m 9 X s 1438 716 m 9 X s 1438 733 m 9 X s 1430 750 m 17 X s 1438 768 m 9 X s 1438 785 m 9 X s
 1438 802 m 9 X s 1430 819 m 17 X s 1438 836 m 9 X s 1438 854 m 9 X s 1438 871 m 9 X s 1430 888 m 17 X s 1438 905 m 9 X s 1438 923 m 9 X s 1438 940 m 9 X s 1430 957 m 17 X s 1438 974 m 9 X s 1438 992 m 9 X s 1438 1009 m 9 X s 1430 1026 m 17 X s 1438
 1043 m 9 X s 1438 1061 m 9 X s 1438 1078 m 9 X s 1430 1095 m 17 X s 1430 1095 m 17 X s 1 0 0 c 6 lw black 3 lw 1 0 0 c 1432 681 m s 1418 682 m -1 -1 d s 1402 681 m s 1392 686 m -5 -5 d s 1392 701 m -20 -20 d s 1388 713 m -24 -24 d s 1361 686 m -4 -5
 d s 1373 713 m -9 -9 d s 1351 691 m -9 -10 d s 1351 706 m -24 -25 d s 1351 721 m -40 -40 d s 1351 736 m -28 -27 d s 1313 698 m -17 -17 d s 1344 745 m -21 -21 d s 1310 710 m -29 -29 d s 1327 743 m -4 -4 d s 1310 725 m -44 -44 d s 1310 740 m -59 -59 d
 s 1310 755 m -74 -74 d s 1310 771 m -89 -90 d s 1310 786 m -104 -105 d s 1310 801 m -119 -120 d s 1310 816 m -134 -135 d s 1298 819 m -137 -138 d s 1296 833 m -150 -152 d s 1296 848 m -165 -167 d s 1296 863 m -14 -14 d s 1276 843 m -7 -7 d s 1263
 829 m -147 -148 d s 1296 878 m -14 -13 d s 1255 837 m -155 -156 d s 1284 881 m -2 -1 d s 1254 851 m -169 -170 d s 1241 854 m -171 -173 d s 1232 860 m -177 -179 d s 1228 870 m -188 -189 d s 1228 885 m -203 -204 d s 1222 895 m -212 -214 d s 1202 890 m
 -2 -2 d s 1200 888 m -41 -41 d s 1147 834 m -152 -153 d s 1187 890 m -28 -28 d s 1145 848 m -165 -167 d s 1184 903 m -25 -26 d s 1125 842 m -61 -61 d s 1063 780 m -41 -41 d s 1021 738 m -56 -57 d s 1168 902 m -9 -10 d s 1118 851 m -54 -55 d s 1050
 782 m -28 -27 d s 1009 741 m -59 -60 d s 1118 866 m -27 -27 d s 1088 835 m -24 -24 d s 1050 797 m -28 -27 d s 1009 756 m -74 -75 d s 1118 881 m -27 -27 d s 1077 840 m -13 -14 d s 1050 813 m -28 -28 d s 1009 771 m -89 -90 d s 1118 897 m -27 -28 d s
 1077 855 m -13 -13 d s 1050 828 m -28 -28 d s 1009 786 m -104 -105 d s 1118 912 m -13 -14 d s 1093 887 m -2 -3 d s 1069 862 m -5 -5 d s 1050 843 m -28 -28 d s 1009 802 m -110 -111 d s 1118 927 m -13 -14 d s 1050 858 m -28 -27 d s 1009 817 m -110
 -110 d s 1118 942 m -13 -14 d s 1050 873 m -28 -27 d s 1009 832 m -82 -83 d s 921 743 m -22 -21 d s 1118 957 m -13 -13 d s 1050 888 m -28 -27 d s 1009 847 m -14 -14 d s 992 830 m -38 -38 d s 941 779 m -14 -15 d s 905 742 m -6 -5 d s 1117 971 m -12
 -12 d s 1050 904 m -28 -28 d s 1009 862 m -14 -13 d s 981 835 m -27 -28 d s 940 793 m -13 -13 d s 1050 919 m -28 -28 d s 1009 878 m -14 -14 d s 981 850 m -27 -28 d s 940 809 m -13 -14 d s 1050 934 m -14 -14 d s 1029 913 m -7 -7 d s 1009 893 m -14
 -14 d s 981 865 m -27 -27 d s 940 824 m -13 -14 d s 1049 948 m -13 -13 d s 1009 908 m -14 -14 d s 981 880 m -27 -27 d s 940 839 m -13 -14 d s 1009 923 m -14 -14 d s 981 896 m -27 -28 d s 937 851 m -10 -11 d s 1009 938 m -14 -14 d s 977 906 m -23 -23
 d s 1009 953 m -14 -13 d s 968 912 m -14 -14 d s 968 927 m -14 -13 d s 6 lw 899 742 m 14 X 1 Y 14 X 108 Y 13 X -72 Y 14 X 149 Y 14 X -22 Y 13 X -76 Y 14 X 124 Y 14 X -216 Y 13 X 175 Y 14 X 35 Y 14 X -168 Y 14 X 82 Y 13 X -27 Y 14 X 52 Y 14 X 84 Y 13
 X -129 Y 14 X 6 Y 14 X -14 Y 13 X 68 Y 14 X 1 Y 14 X -15 Y 13 X 2 Y 14 X 5 Y 14 X -35 Y 13 X -9 Y 14 X -22 Y 14 X 14 Y 13 X 38 Y 14 X -62 Y 14 X -121 Y 13 X 45 Y 14 X 2 Y 14 X -59 Y 13 X 27 Y 28 X -32 Y 13 X 1 Y 14 X -1 Y 28 X s black 3 lw 899 681 m
 548 X s 943 694 m -13 Y s 954 688 m -7 Y s 965 688 m -7 Y s 976 688 m -7 Y s 987 694 m -13 Y s 998 688 m -7 Y s 1009 688 m -7 Y s 1020 688 m -7 Y s 1031 694 m -13 Y s 1042 688 m -7 Y s 1053 688 m -7 Y s 1064 688 m -7 Y s 1075 694 m -13 Y s 1086 688
 m -7 Y s 1096 688 m -7 Y s 1107 688 m -7 Y s 1118 694 m -13 Y s 1129 688 m -7 Y s 1140 688 m -7 Y s 1151 688 m -7 Y s 1162 694 m -13 Y s 1173 688 m -7 Y s 1184 688 m -7 Y s 1195 688 m -7 Y s 1206 694 m -13 Y s 1217 688 m -7 Y s 1228 688 m -7 Y s
 1239 688 m -7 Y s 1250 694 m -13 Y s 1261 688 m -7 Y s 1272 688 m -7 Y s 1283 688 m -7 Y s 1294 694 m -13 Y s 1305 688 m -7 Y s 1316 688 m -7 Y s 1327 688 m -7 Y s 1337 694 m -13 Y s 1348 688 m -7 Y s 1359 688 m -7 Y s 1370 688 m -7 Y s 1381 694 m
 -13 Y s 1392 688 m -7 Y s 1403 688 m -7 Y s 1414 688 m -7 Y s 1425 694 m -13 Y s 943 694 m -13 Y s 932 688 m -7 Y s 921 688 m -7 Y s 910 688 m -7 Y s 1425 694 m -13 Y s 1436 688 m -7 Y s 899 1108 m 548 X s 943 1095 m 13 Y s 954 1102 m 6 Y s 965 1102
 m 6 Y s 976 1102 m 6 Y s 987 1095 m 13 Y s 998 1102 m 6 Y s 1009 1102 m 6 Y s 1020 1102 m 6 Y s 1031 1095 m 13 Y s 1042 1102 m 6 Y s 1053 1102 m 6 Y s 1064 1102 m 6 Y s 1075 1095 m 13 Y s 1086 1102 m 6 Y s 1096 1102 m 6 Y s 1107 1102 m 6 Y s 1118
 1095 m 13 Y s 1129 1102 m 6 Y s 1140 1102 m 6 Y s 1151 1102 m 6 Y s 1162 1095 m 13 Y s 1173 1102 m 6 Y s 1184 1102 m 6 Y s 1195 1102 m 6 Y s 1206 1095 m 13 Y s 1217 1102 m 6 Y s 1228 1102 m 6 Y s 1239 1102 m 6 Y s 1250 1095 m 13 Y s 1261 1102 m 6 Y
 s 1272 1102 m 6 Y s 1283 1102 m 6 Y s 1294 1095 m 13 Y s 1305 1102 m 6 Y s 1316 1102 m 6 Y s 1327 1102 m 6 Y s 1337 1095 m 13 Y s 1348 1102 m 6 Y s 1359 1102 m 6 Y s 1370 1102 m 6 Y s 1381 1095 m 13 Y s 1392 1102 m 6 Y s 1403 1102 m 6 Y s 1414 1102
 m 6 Y s 1425 1095 m 13 Y s 943 1095 m 13 Y s 932 1102 m 6 Y s 921 1102 m 6 Y s 910 1102 m 6 Y s 1425 1095 m 13 Y s 1436 1102 m 6 Y s 899 681 m 427 Y s 915 681 m -16 X s 907 699 m -8 X s 907 716 m -8 X s 907 733 m -8 X s 915 750 m -16 X s 907 768 m
 -8 X s 907 785 m -8 X s 907 802 m -8 X s 915 819 m -16 X s 907 836 m -8 X s 907 854 m -8 X s 907 871 m -8 X s 915 888 m -16 X s 907 905 m -8 X s 907 923 m -8 X s 907 940 m -8 X s 915 957 m -16 X s 907 974 m -8 X s 907 992 m -8 X s 907 1009 m -8 X s
 915 1026 m -16 X s 907 1043 m -8 X s 907 1061 m -8 X s 907 1078 m -8 X s 915 1095 m -16 X s 915 1095 m -16 X s 1447 681 m 427 Y s 1430 681 m 17 X s 1438 699 m 9 X s 1438 716 m 9 X s 1438 733 m 9 X s 1430 750 m 17 X s 1438 768 m 9 X s 1438 785 m 9 X
 s 1438 802 m 9 X s 1430 819 m 17 X s 1438 836 m 9 X s 1438 854 m 9 X s 1438 871 m 9 X s 1430 888 m 17 X s 1438 905 m 9 X s 1438 923 m 9 X s 1438 940 m 9 X s 1430 957 m 17 X s 1438 974 m 9 X s 1438 992 m 9 X s 1438 1009 m 9 X s 1430 1026 m 17 X s
 1438 1043 m 9 X s 1438 1061 m 9 X s 1438 1078 m 9 X s 1430 1095 m 17 X s 1430 1095 m 17 X s
 gsave  710 565 779 600 C 1474.92 679.067 t 90 r /Helvetica-Bold findfont 19.9646 sf 0 0 m (U/O\255flow \(S,B\): \(0.0, 0.0\)% / \(0.0, 0.0\)%) show NC gr  0.48 0.56 0.6 c 0.364706 0.419608 0.490196 c 281 38 786 1124 bf 0.48 0.56 0.6 c 786 1124 m 281
 X s 1067 1124 m 38 Y s 1067 1162 m -281 X s 786 1162 m -38 Y s 1 1 1 c black 1 1 1 c
 gsave  710 565 779 600 C 790.007 1136.7 t 0 r /Helvetica-Bold findfont 28.5208 sf 0 0 m (Input variable: RMS) show NC gr  0.48 0.56 0.6 c 0.95 0.95 0.95 c 711 565 1534 600 bf black 0.95 0.95 0.95 c 547 427 1655 681 bf black 547 427 1655 681 bl 0.95
 0.95 0.95 c 547 427 1655 681 bf black 547 427 1655 681 bl 0 0 0.933333 c 6 lw 0.49 0.6 0.82 c black 3 lw 0.49 0.6 0.82 c 1655 681 m 17 Y 14 X 22 Y 14 X 30 Y 13 X 46 Y 14 X 86 Y 14 X 36 Y 13 X 26 Y 14 X 41 Y 14 X 62 Y 13 X -19 Y 14 X 12 Y 14 X 14 Y
 13 X -34 Y 14 X -17 Y 14 X -27 Y 13 X -1 Y 14 X -62 Y 14 X -25 Y 13 X 20 Y 14 X -67 Y 14 X 26 Y 14 X -6 Y 13 X -36 Y 14 X -3 Y 14 X -80 Y 13 X -33 Y 14 X -7 Y 14 X -13 Y 13 X -4 Y 14 X 4 Y 14 X -5 Y 13 X -2 Y 14 X -1 Y 109 X f 6 lw 0 0 0.933333 c
 0.49 0.6 0.82 c 0 0 0.933333 c 1655 698 m 14 X 22 Y 14 X 30 Y 13 X 46 Y 14 X 86 Y 14 X 36 Y 13 X 26 Y 14 X 41 Y 14 X 62 Y 13 X -19 Y 14 X 12 Y 14 X 14 Y 13 X -34 Y 14 X -17 Y 14 X -27 Y 13 X -1 Y 14 X -62 Y 14 X -25 Y 13 X 20 Y 14 X -67 Y 14 X 26 Y
 14 X -6 Y 13 X -36 Y 14 X -3 Y 14 X -80 Y 13 X -33 Y 14 X -7 Y 14 X -13 Y 13 X -4 Y 14 X 4 Y 14 X -5 Y 13 X -2 Y 14 X -1 Y 109 X s black 3 lw 1655 681 m 547 X s
 gsave  711 565 1534 600 C 2148.36 610.976 t 0 r /Helvetica-Bold findfont 28.5208 sf 0 0 m (dRll) show NC gr  1688 694 m -13 Y s 1699 688 m -7 Y s 1710 688 m -7 Y s 1721 688 m -7 Y s 1732 688 m -7 Y s 1743 694 m -13 Y s 1754 688 m -7 Y s 1765 688 m
 -7 Y s 1776 688 m -7 Y s 1787 688 m -7 Y s 1798 694 m -13 Y s 1809 688 m -7 Y s 1820 688 m -7 Y s 1831 688 m -7 Y s 1842 688 m -7 Y s 1853 694 m -13 Y s 1864 688 m -7 Y s 1875 688 m -7 Y s 1886 688 m -7 Y s 1897 688 m -7 Y s 1908 694 m -13 Y s 1919
 688 m -7 Y s 1930 688 m -7 Y s 1941 688 m -7 Y s 1952 688 m -7 Y s 1963 694 m -13 Y s 1974 688 m -7 Y s 1985 688 m -7 Y s 1996 688 m -7 Y s 2007 688 m -7 Y s 2018 694 m -13 Y s 2028 688 m -7 Y s 2039 688 m -7 Y s 2050 688 m -7 Y s 2061 688 m -7 Y s
 2072 694 m -13 Y s 2083 688 m -7 Y s 2094 688 m -7 Y s 2105 688 m -7 Y s 2116 688 m -7 Y s 2127 694 m -13 Y s 2138 688 m -7 Y s 2149 688 m -7 Y s 2160 688 m -7 Y s 2171 688 m -7 Y s 2182 694 m -13 Y s 1688 694 m -13 Y s 1677 688 m -7 Y s 1666 688 m
 -7 Y s 1655 688 m -7 Y s 2182 694 m -13 Y s 2193 688 m -7 Y s
 gsave  711 565 1534 600 C 1668.11 653.603 t 0 r /Helvetica-Bold findfont 25.6688 sf 0 0 m (0.5) show NC gr 
 gsave  711 565 1534 600 C 1736.31 653.603 t 0 r /Helvetica-Bold findfont 25.6688 sf 0 0 m (1) show NC gr 
 gsave  711 565 1534 600 C 1776.09 653.603 t 0 r /Helvetica-Bold findfont 25.6688 sf 0 0 m (1.5) show NC gr 
 gsave  711 565 1534 600 C 1844.3 653.603 t 0 r /Helvetica-Bold findfont 25.6688 sf 0 0 m (2) show NC gr 
 gsave  711 565 1534 600 C 1886.92 653.603 t 0 r /Helvetica-Bold findfont 25.6688 sf 0 0 m (2.5) show NC gr 
 gsave  711 565 1534 600 C 1952.28 653.603 t 0 r /Helvetica-Bold findfont 25.6688 sf 0 0 m (3) show NC gr 
 gsave  711 565 1534 600 C 1994.91 653.603 t 0 r /Helvetica-Bold findfont 25.6688 sf 0 0 m (3.5) show NC gr 
 gsave  711 565 1534 600 C 2063.11 653.603 t 0 r /Helvetica-Bold findfont 25.6688 sf 0 0 m (4) show NC gr 
 gsave  711 565 1534 600 C 2105.74 653.603 t 0 r /Helvetica-Bold findfont 25.6688 sf 0 0 m (4.5) show NC gr 
 gsave  711 565 1534 600 C 2171.1 653.603 t 0 r /Helvetica-Bold findfont 25.6688 sf 0 0 m (5) show NC gr  1655 1108 m 547 X s 1688 1095 m 13 Y s 1699 1102 m 6 Y s 1710 1102 m 6 Y s 1721 1102 m 6 Y s 1732 1102 m 6 Y s 1743 1095 m 13 Y s 1754 1102 m 6
 Y s 1765 1102 m 6 Y s 1776 1102 m 6 Y s 1787 1102 m 6 Y s 1798 1095 m 13 Y s 1809 1102 m 6 Y s 1820 1102 m 6 Y s 1831 1102 m 6 Y s 1842 1102 m 6 Y s 1853 1095 m 13 Y s 1864 1102 m 6 Y s 1875 1102 m 6 Y s 1886 1102 m 6 Y s 1897 1102 m 6 Y s 1908 1095
 m 13 Y s 1919 1102 m 6 Y s 1930 1102 m 6 Y s 1941 1102 m 6 Y s 1952 1102 m 6 Y s 1963 1095 m 13 Y s 1974 1102 m 6 Y s 1985 1102 m 6 Y s 1996 1102 m 6 Y s 2007 1102 m 6 Y s 2018 1095 m 13 Y s 2028 1102 m 6 Y s 2039 1102 m 6 Y s 2050 1102 m 6 Y s 2061
 1102 m 6 Y s 2072 1095 m 13 Y s 2083 1102 m 6 Y s 2094 1102 m 6 Y s 2105 1102 m 6 Y s 2116 1102 m 6 Y s 2127 1095 m 13 Y s 2138 1102 m 6 Y s 2149 1102 m 6 Y s 2160 1102 m 6 Y s 2171 1102 m 6 Y s 2182 1095 m 13 Y s 1688 1095 m 13 Y s 1677 1102 m 6 Y
 s 1666 1102 m 6 Y s 1655 1102 m 6 Y s 2182 1095 m 13 Y s 2193 1102 m 6 Y s 1655 681 m 427 Y s
 gsave  711 565 1534 600 C 1560.12 1025.87 t 90 r /Helvetica-Bold findfont 28.5208 sf 0 0 m (0.125 ) show NC gr 
 gsave  711 565 1534 600 C 1545.91 1017.35 t 90 r /Helvetica-Bold findfont 19.9646 sf 0 0 m ( ) show NC gr 
 gsave  711 565 1534 600 C 1560.12 1008.82 t 90 r /Helvetica-Bold findfont 28.5208 sf 0 0 m (/) show NC gr 
 gsave  711 565 1534 600 C 1565.8 1000.3 t 90 r /Helvetica-Bold findfont 19.9646 sf 0 0 m ( ) show NC gr 
 gsave  711 565 1534 600 C 1560.12 892.31 t 90 r /Helvetica-Bold findfont 28.5208 sf 0 0 m (\(1/N\) dN) show NC gr  1671 681 m -16 X s 1663 695 m -8 X s 1663 709 m -8 X s 1663 723 m -8 X s 1663 737 m -8 X s 1671 750 m -16 X s 1663 764 m -8 X s 1663
 778 m -8 X s 1663 792 m -8 X s 1663 806 m -8 X s 1671 819 m -16 X s 1663 833 m -8 X s 1663 847 m -8 X s 1663 861 m -8 X s 1663 875 m -8 X s 1671 889 m -16 X s 1663 902 m -8 X s 1663 916 m -8 X s 1663 930 m -8 X s 1663 944 m -8 X s 1671 958 m -16 X s
 1663 971 m -8 X s 1663 985 m -8 X s 1663 999 m -8 X s 1663 1013 m -8 X s 1671 1027 m -16 X s 1663 1040 m -8 X s 1663 1054 m -8 X s 1663 1068 m -8 X s 1663 1082 m -8 X s 1671 1096 m -16 X s 1671 1096 m -16 X s
 gsave  711 565 1534 600 C 1631.16 670.653 t 0 r /Helvetica-Bold findfont 25.6688 sf 0 0 m (0) show NC gr 
 gsave  711 565 1534 600 C 1614.11 741.697 t 0 r /Helvetica-Bold findfont 25.6688 sf 0 0 m (0.1) show NC gr 
 gsave  711 565 1534 600 C 1608.43 809.899 t 0 r /Helvetica-Bold findfont 25.6688 sf 0 0 m (0.2) show NC gr 
 gsave  711 565 1534 600 C 1608.43 878.101 t 0 r /Helvetica-Bold findfont 25.6688 sf 0 0 m (0.3) show NC gr 
 gsave  711 565 1534 600 C 1608.43 946.303 t 0 r /Helvetica-Bold findfont 25.6688 sf 0 0 m (0.4) show NC gr 
 gsave  711 565 1534 600 C 1608.43 1017.35 t 0 r /Helvetica-Bold findfont 25.6688 sf 0 0 m (0.5) show NC gr 
 gsave  711 565 1534 600 C 1608.43 1085.55 t 0 r /Helvetica-Bold findfont 25.6688 sf 0 0 m (0.6) show NC gr  2202 681 m 427 Y s 2186 681 m 16 X s 2194 695 m 8 X s 2194 709 m 8 X s 2194 723 m 8 X s 2194 737 m 8 X s 2186 750 m 16 X s 2194 764 m 8 X s
 2194 778 m 8 X s 2194 792 m 8 X s 2194 806 m 8 X s 2186 819 m 16 X s 2194 833 m 8 X s 2194 847 m 8 X s 2194 861 m 8 X s 2194 875 m 8 X s 2186 889 m 16 X s 2194 902 m 8 X s 2194 916 m 8 X s 2194 930 m 8 X s 2194 944 m 8 X s 2186 958 m 16 X s 2194 971
 m 8 X s 2194 985 m 8 X s 2194 999 m 8 X s 2194 1013 m 8 X s 2186 1027 m 16 X s 2194 1040 m 8 X s 2194 1054 m 8 X s 2194 1068 m 8 X s 2194 1082 m 8 X s 2186 1096 m 16 X s 2186 1096 m 16 X s 1 0 0 c 6 lw black 3 lw 1 0 0 c 2188 681 m s 2175 683 m -2
 -2 d s 2175 699 m -17 -18 d s 2173 712 m -25 -26 d s 2143 681 m s 2158 712 m -10 -11 d s 2128 681 m s 2117 686 m -4 -5 d s 2098 682 m -1 Y s 2093 692 m -11 -11 d s 2093 707 m -26 -26 d s 2090 720 m -24 -25 d s 2052 681 m s 2079 724 m -13 -14 d s
 2052 696 m -15 -15 d s 2079 739 m -13 -14 d s 2052 711 m -14 -13 d s 2027 686 m -5 -5 d s 2067 742 m -1 -2 d s 2052 727 m -14 -14 d s 2025 699 m -18 -18 d s 2052 742 m -14 -14 d s 2016 706 m -24 -25 d s 2052 757 m -14 -14 d s 2011 716 m -34 -35 d s
 2041 761 m -3 -3 d s 2011 731 m -49 -50 d s 2011 746 m -64 -65 d s 2011 761 m -79 -80 d s 2011 776 m -94 -95 d s 2011 791 m -14 -13 d s 1994 774 m -92 -93 d s 2011 807 m -14 -14 d s 1984 779 m -97 -98 d s 2011 822 m -14 -14 d s 1984 794 m -113 -113
 d s 2000 826 m -3 -3 d s 1984 809 m -128 -128 d s 1984 825 m -143 -144 d s 1984 840 m -158 -159 d s 1984 855 m -173 -174 d s 1984 870 m -188 -189 d s 1984 885 m -28 -27 d s 1945 846 m -71 -71 d s 1874 775 m -93 -94 d s 1984 901 m -28 -28 d s 1943
 859 m -69 -69 d s 1860 777 m -94 -96 d s 1984 916 m -28 -28 d s 1943 874 m -69 -68 d s 1860 792 m -109 -111 d s 1984 931 m -28 -28 d s 1943 890 m -14 -14 d s 1915 862 m -41 -41 d s 1860 807 m -124 -126 d s 1984 946 m -28 -27 d s 1943 905 m -14 -14 d
 s 1915 877 m -41 -41 d s 1854 816 m -133 -135 d s 1984 961 m -28 -27 d s 1943 920 m -14 -14 d s 1911 888 m -10 -9 d s 1895 873 m -21 -22 d s 1847 824 m -141 -143 d s 1984 977 m -28 -28 d s 1943 935 m -14 -14 d s 1888 880 m -14 -14 d s 1847 839 m
 -156 -158 d s 1984 992 m -28 -28 d s 1931 939 m -2 -2 d s 1888 895 m -14 -14 d s 1847 854 m -14 -14 d s 1819 826 m -144 -145 d s 1984 1007 m -28 -28 d s 1888 910 m -14 -13 d s 1847 869 m -14 -14 d s 1819 842 m -159 -161 d s 1984 1022 m -28 -27 d s
 1888 926 m -14 -14 d s 1819 857 m -164 -166 d s 1984 1037 m -28 -27 d s 1888 941 m -14 -14 d s 1819 872 m -41 -41 d s 1773 825 m -118 -118 d s 1984 1052 m -14 -13 d s 1963 1032 m -7 -7 d s 1888 956 m -14 -14 d s 1819 887 m -41 -41 d s 1765 832 m -14
 -14 d s 1748 815 m -24 -24 d s 1722 789 m -67 -67 d s 1984 1068 m -14 -14 d s 1888 971 m -14 -14 d s 1819 902 m -41 -41 d s 1765 847 m -14 -14 d s 1737 820 m -13 -14 d s 1710 792 m -55 -55 d s 1970 1069 m s 1888 986 m -14 -13 d s 1819 917 m -41 -41
 d s 1761 858 m -10 -9 d s 1737 835 m -13 -14 d s 1710 807 m -55 -55 d s 1888 1002 m -14 -14 d s 1819 933 m -41 -42 d s 1737 850 m -13 -14 d s 1710 822 m -27 -27 d s 1669 781 m -14 -14 d s 1888 1017 m -14 -14 d s 1817 945 m -11 -11 d s 1799 927 m -21
 -21 d s 1737 865 m -13 -14 d s 1710 838 m -27 -28 d s 1669 796 m -14 -14 d s 1875 1019 m -1 -1 d s 1792 935 m -14 -13 d s 1737 880 m -13 -13 d s 1710 853 m -27 -28 d s 1669 811 m -14 -13 d s 1789 947 m -11 -10 d s 1737 896 m -13 -14 d s 1710 868 m
 -14 -14 d s 1688 845 m -5 -5 d s 1669 827 m -14 -14 d s 1737 911 m -13 -14 d s 1710 883 m -14 -14 d s 1669 842 m -14 -14 d s 1737 926 m -13 -14 d s 1710 898 m -14 -13 d s 1669 857 m -14 -14 d s 1737 941 m -13 -14 d s 1710 914 m -14 -14 d s 1669 872
 m -14 -14 d s 1737 956 m -13 -14 d s 1710 929 m -14 -14 d s 1669 887 m -14 -13 d s 1710 944 m -14 -14 d s 1669 903 m -14 -14 d s 1710 959 m -14 -14 d s 1666 915 m -11 -11 d s 1710 974 m -14 -14 d s 1710 989 m -14 -13 d s 6 lw 1655 915 m 14 X -135 Y
 14 X 65 Y 13 X 145 Y 14 X -201 Y 14 X 168 Y 13 X -142 Y 14 X 43 Y 14 X -33 Y 13 X 122 Y 14 X -20 Y 14 X 18 Y 13 X -119 Y 14 X 44 Y 14 X -54 Y 13 X -41 Y 14 X 244 Y 14 X -146 Y 13 X 15 Y 14 X -26 Y 14 X 77 Y 14 X -93 Y 13 X 186 Y 14 X 37 Y 14 X -295
 Y 13 X 52 Y 14 X -120 Y 14 X -20 Y 13 X 75 Y 14 X -80 Y 14 X 61 Y 13 X -22 Y 14 X -38 Y 14 X 4 Y 13 X -5 Y 28 X 31 Y 27 X -31 Y 27 X s black 3 lw 1655 681 m 547 X s 1688 694 m -13 Y s 1699 688 m -7 Y s 1710 688 m -7 Y s 1721 688 m -7 Y s 1732 688 m
 -7 Y s 1743 694 m -13 Y s 1754 688 m -7 Y s 1765 688 m -7 Y s 1776 688 m -7 Y s 1787 688 m -7 Y s 1798 694 m -13 Y s 1809 688 m -7 Y s 1820 688 m -7 Y s 1831 688 m -7 Y s 1842 688 m -7 Y s 1853 694 m -13 Y s 1864 688 m -7 Y s 1875 688 m -7 Y s 1886
 688 m -7 Y s 1897 688 m -7 Y s 1908 694 m -13 Y s 1919 688 m -7 Y s 1930 688 m -7 Y s 1941 688 m -7 Y s 1952 688 m -7 Y s 1963 694 m -13 Y s 1974 688 m -7 Y s 1985 688 m -7 Y s 1996 688 m -7 Y s 2007 688 m -7 Y s 2018 694 m -13 Y s 2028 688 m -7 Y s
 2039 688 m -7 Y s 2050 688 m -7 Y s 2061 688 m -7 Y s 2072 694 m -13 Y s 2083 688 m -7 Y s 2094 688 m -7 Y s 2105 688 m -7 Y s 2116 688 m -7 Y s 2127 694 m -13 Y s 2138 688 m -7 Y s 2149 688 m -7 Y s 2160 688 m -7 Y s 2171 688 m -7 Y s 2182 694 m
 -13 Y s 1688 694 m -13 Y s 1677 688 m -7 Y s 1666 688 m -7 Y s 1655 688 m -7 Y s 2182 694 m -13 Y s 2193 688 m -7 Y s 1655 1108 m 547 X s 1688 1095 m 13 Y s 1699 1102 m 6 Y s 1710 1102 m 6 Y s 1721 1102 m 6 Y s 1732 1102 m 6 Y s 1743 1095 m 13 Y s
 1754 1102 m 6 Y s 1765 1102 m 6 Y s 1776 1102 m 6 Y s 1787 1102 m 6 Y s 1798 1095 m 13 Y s 1809 1102 m 6 Y s 1820 1102 m 6 Y s 1831 1102 m 6 Y s 1842 1102 m 6 Y s 1853 1095 m 13 Y s 1864 1102 m 6 Y s 1875 1102 m 6 Y s 1886 1102 m 6 Y s 1897 1102 m 6
 Y s 1908 1095 m 13 Y s 1919 1102 m 6 Y s 1930 1102 m 6 Y s 1941 1102 m 6 Y s 1952 1102 m 6 Y s 1963 1095 m 13 Y s 1974 1102 m 6 Y s 1985 1102 m 6 Y s 1996 1102 m 6 Y s 2007 1102 m 6 Y s 2018 1095 m 13 Y s 2028 1102 m 6 Y s 2039 1102 m 6 Y s 2050
 1102 m 6 Y s 2061 1102 m 6 Y s 2072 1095 m 13 Y s 2083 1102 m 6 Y s 2094 1102 m 6 Y s 2105 1102 m 6 Y s 2116 1102 m 6 Y s 2127 1095 m 13 Y s 2138 1102 m 6 Y s 2149 1102 m 6 Y s 2160 1102 m 6 Y s 2171 1102 m 6 Y s 2182 1095 m 13 Y s 1688 1095 m 13 Y
 s 1677 1102 m 6 Y s 1666 1102 m 6 Y s 1655 1102 m 6 Y s 2182 1095 m 13 Y s 2193 1102 m 6 Y s 1655 681 m 427 Y s 1671 681 m -16 X s 1663 695 m -8 X s 1663 709 m -8 X s 1663 723 m -8 X s 1663 737 m -8 X s 1671 750 m -16 X s 1663 764 m -8 X s 1663 778
 m -8 X s 1663 792 m -8 X s 1663 806 m -8 X s 1671 819 m -16 X s 1663 833 m -8 X s 1663 847 m -8 X s 1663 861 m -8 X s 1663 875 m -8 X s 1671 889 m -16 X s 1663 902 m -8 X s 1663 916 m -8 X s 1663 930 m -8 X s 1663 944 m -8 X s 1671 958 m -16 X s
 1663 971 m -8 X s 1663 985 m -8 X s 1663 999 m -8 X s 1663 1013 m -8 X s 1671 1027 m -16 X s 1663 1040 m -8 X s 1663 1054 m -8 X s 1663 1068 m -8 X s 1663 1082 m -8 X s 1671 1096 m -16 X s 1671 1096 m -16 X s 2202 681 m 427 Y s 2186 681 m 16 X s
 2194 695 m 8 X s 2194 709 m 8 X s 2194 723 m 8 X s 2194 737 m 8 X s 2186 750 m 16 X s 2194 764 m 8 X s 2194 778 m 8 X s 2194 792 m 8 X s 2194 806 m 8 X s 2186 819 m 16 X s 2194 833 m 8 X s 2194 847 m 8 X s 2194 861 m 8 X s 2194 875 m 8 X s 2186 889
 m 16 X s 2194 902 m 8 X s 2194 916 m 8 X s 2194 930 m 8 X s 2194 944 m 8 X s 2186 958 m 16 X s 2194 971 m 8 X s 2194 985 m 8 X s 2194 999 m 8 X s 2194 1013 m 8 X s 2186 1027 m 16 X s 2194 1040 m 8 X s 2194 1054 m 8 X s 2194 1068 m 8 X s 2194 1082 m
 8 X s 2186 1096 m 16 X s 2186 1096 m 16 X s
 gsave  711 565 1534 600 C 2230.83 679.067 t 90 r /Helvetica-Bold findfont 19.9646 sf 0 0 m (U/O\255flow \(S,B\): \(0.0, 0.0\)% / \(0.0, 0.0\)%) show NC gr  0.48 0.56 0.6 c 0.364706 0.419608 0.490196 c 270 38 1542 1124 bf 0.48 0.56 0.6 c 1542 1124 m
 270 X s 1812 1124 m 38 Y s 1812 1162 m -270 X s 1542 1162 m -38 Y s 1 1 1 c black 1 1 1 c
 gsave  711 565 1534 600 C 1545.91 1136.7 t 0 r /Helvetica-Bold findfont 28.5208 sf 0 0 m (Input variable: dRll) show NC gr  0.48 0.56 0.6 c 0.95 0.95 0.95 c 710 564 23 12 bf black 0.95 0.95 0.95 c 548 427 143 93 bf black 548 427 143 93 bl 0.95 0.95
 0.95 c 548 427 143 93 bf black 548 427 143 93 bl 0 0 0.933333 c 6 lw 0.49 0.6 0.82 c black 3 lw 0.49 0.6 0.82 c 143 93 m 369 Y 14 X 19 Y 14 X -102 Y 14 X 5 Y 13 X -4 Y 14 X -36 Y 14 X -62 Y 13 X 9 Y 14 X -35 Y 14 X -3 Y 13 X -48 Y 28 X -14 Y 13 X 1
 Y 14 X -27 Y 14 X 16 Y 13 X -7 Y 14 X -26 Y 14 X 8 Y 13 X -10 Y 14 X 2 Y 14 X -9 Y 13 X -9 Y 14 X -1 Y 14 X 13 Y 13 X -7 Y 14 X 2 Y 14 X -9 Y 13 X 2 Y 14 X -11 Y 14 X 10 Y 13 X 4 Y 14 X -4 Y 14 X -8 Y 14 X 7 Y 13 X -7 Y 14 X 11 Y 14 X -2 Y 13 X -3 Y
 14 X -33 Y 14 X -1 Y f 6 lw 0 0 0.933333 c 0.49 0.6 0.82 c 0 0 0.933333 c 143 462 m 14 X 19 Y 14 X -102 Y 14 X 5 Y 13 X -4 Y 14 X -36 Y 14 X -62 Y 13 X 9 Y 14 X -35 Y 14 X -3 Y 13 X -48 Y 28 X -14 Y 13 X 1 Y 14 X -27 Y 14 X 16 Y 13 X -7 Y 14 X -26 Y
 14 X 8 Y 13 X -10 Y 14 X 2 Y 14 X -9 Y 13 X -9 Y 14 X -1 Y 14 X 13 Y 13 X -7 Y 14 X 2 Y 14 X -9 Y 13 X 2 Y 14 X -11 Y 14 X 10 Y 13 X 4 Y 14 X -4 Y 14 X -8 Y 14 X 7 Y 13 X -7 Y 14 X 11 Y 14 X -2 Y 13 X -3 Y 14 X -33 Y 14 X s black 3 lw 143 93 m 548 X
 s
 gsave  710 564 23 12 C 494.465 22.734 t 0 r /Helvetica-Bold findfont 28.5208 sf 0 0 m (abs\(dPll_MET\)) show NC gr  228 106 m -13 Y s 245 100 m -7 Y s 262 100 m -7 Y s 279 100 m -7 Y s 296 100 m -7 Y s 313 106 m -13 Y s 330 100 m -7 Y s 347 100 m -7
 Y s 364 100 m -7 Y s 381 100 m -7 Y s 398 106 m -13 Y s 415 100 m -7 Y s 432 100 m -7 Y s 449 100 m -7 Y s 466 100 m -7 Y s 483 106 m -13 Y s 500 100 m -7 Y s 517 100 m -7 Y s 534 100 m -7 Y s 551 100 m -7 Y s 568 106 m -13 Y s 585 100 m -7 Y s 602
 100 m -7 Y s 619 100 m -7 Y s 636 100 m -7 Y s 653 106 m -13 Y s 228 106 m -13 Y s 211 100 m -7 Y s 194 100 m -7 Y s 177 100 m -7 Y s 160 100 m -7 Y s 653 106 m -13 Y s 670 100 m -7 Y s 687 100 m -7 Y s
 gsave  710 564 23 12 C 207.448 65.3603 t 0 r /Helvetica-Bold findfont 25.6688 sf 0 0 m (0.5) show NC gr 
 gsave  710 564 23 12 C 306.909 65.3603 t 0 r /Helvetica-Bold findfont 25.6688 sf 0 0 m (1) show NC gr 
 gsave  710 564 23 12 C 377.953 65.3603 t 0 r /Helvetica-Bold findfont 25.6688 sf 0 0 m (1.5) show NC gr 
 gsave  710 564 23 12 C 474.572 65.3603 t 0 r /Helvetica-Bold findfont 25.6688 sf 0 0 m (2) show NC gr 
 gsave  710 564 23 12 C 545.616 65.3603 t 0 r /Helvetica-Bold findfont 25.6688 sf 0 0 m (2.5) show NC gr 
 gsave  710 564 23 12 C 642.236 65.3603 t 0 r /Helvetica-Bold findfont 25.6688 sf 0 0 m (3) show NC gr  143 520 m 548 X s 228 507 m 13 Y s 245 513 m 7 Y s 262 513 m 7 Y s 279 513 m 7 Y s 296 513 m 7 Y s 313 507 m 13 Y s 330 513 m 7 Y s 347 513 m 7 Y
 s 364 513 m 7 Y s 381 513 m 7 Y s 398 507 m 13 Y s 415 513 m 7 Y s 432 513 m 7 Y s 449 513 m 7 Y s 466 513 m 7 Y s 483 507 m 13 Y s 500 513 m 7 Y s 517 513 m 7 Y s 534 513 m 7 Y s 551 513 m 7 Y s 568 507 m 13 Y s 585 513 m 7 Y s 602 513 m 7 Y s 619
 513 m 7 Y s 636 513 m 7 Y s 653 507 m 13 Y s 228 507 m 13 Y s 211 513 m 7 Y s 194 513 m 7 Y s 177 513 m 7 Y s 160 513 m 7 Y s 653 507 m 13 Y s 670 513 m 7 Y s 687 513 m 7 Y s 143 93 m 427 Y s
 gsave  710 564 23 12 C 45.468 420.579 t 90 r /Helvetica-Bold findfont 28.5208 sf 0 0 m (0.0805 ) show NC gr 
 gsave  710 564 23 12 C 34.101 412.054 t 90 r /Helvetica-Bold findfont 19.9646 sf 0 0 m ( ) show NC gr 
 gsave  710 564 23 12 C 45.468 403.529 t 90 r /Helvetica-Bold findfont 28.5208 sf 0 0 m (/) show NC gr 
 gsave  710 564 23 12 C 51.1515 395.003 t 90 r /Helvetica-Bold findfont 19.9646 sf 0 0 m ( ) show NC gr 
 gsave  710 564 23 12 C 45.468 287.017 t 90 r /Helvetica-Bold findfont 28.5208 sf 0 0 m (\(1/N\) dN) show NC gr  160 93 m -17 X s 152 110 m -9 X s 152 126 m -9 X s 152 143 m -9 X s 160 160 m -17 X s 152 176 m -9 X s 152 193 m -9 X s 152 209 m -9 X s
 160 226 m -17 X s 152 243 m -9 X s 152 259 m -9 X s 152 276 m -9 X s 160 293 m -17 X s 152 309 m -9 X s 152 326 m -9 X s 152 343 m -9 X s 160 359 m -17 X s 152 376 m -9 X s 152 392 m -9 X s 152 409 m -9 X s 160 426 m -17 X s 152 442 m -9 X s 152 459
 m -9 X s 152 476 m -9 X s 160 492 m -17 X s 160 492 m -17 X s 152 509 m -9 X s
 gsave  710 564 23 12 C 119.354 82.4108 t 0 r /Helvetica-Bold findfont 25.6688 sf 0 0 m (0) show NC gr 
 gsave  710 564 23 12 C 96.6195 150.613 t 0 r /Helvetica-Bold findfont 25.6688 sf 0 0 m (0.2) show NC gr 
 gsave  710 564 23 12 C 96.6195 215.973 t 0 r /Helvetica-Bold findfont 25.6688 sf 0 0 m (0.4) show NC gr 
 gsave  710 564 23 12 C 96.6195 281.333 t 0 r /Helvetica-Bold findfont 25.6688 sf 0 0 m (0.6) show NC gr 
 gsave  710 564 23 12 C 96.6195 349.535 t 0 r /Helvetica-Bold findfont 25.6688 sf 0 0 m (0.8) show NC gr 
 gsave  710 564 23 12 C 122.195 414.896 t 0 r /Helvetica-Bold findfont 25.6688 sf 0 0 m (1) show NC gr 
 gsave  710 564 23 12 C 96.6195 483.098 t 0 r /Helvetica-Bold findfont 25.6688 sf 0 0 m (1.2) show NC gr  691 93 m 427 Y s 674 93 m 17 X s 683 110 m 8 X s 683 126 m 8 X s 683 143 m 8 X s 674 160 m 17 X s 683 176 m 8 X s 683 193 m 8 X s 683 209 m 8 X
 s 674 226 m 17 X s 683 243 m 8 X s 683 259 m 8 X s 683 276 m 8 X s 674 293 m 17 X s 683 309 m 8 X s 683 326 m 8 X s 683 343 m 8 X s 674 359 m 17 X s 683 376 m 8 X s 683 392 m 8 X s 683 409 m 8 X s 674 426 m 17 X s 683 442 m 8 X s 683 459 m 8 X s 683
 476 m 8 X s 674 492 m 17 X s 674 492 m 17 X s 683 509 m 8 X s 1 0 0 c 6 lw black 3 lw 1 0 0 c 677 94 m -1 -1 d s 677 109 m -16 -16 d s 677 124 m -31 -31 d s 677 139 m -46 -46 d s 677 155 m -61 -62 d s 677 170 m -76 -77 d s 677 185 m -91 -92 d s 668
 191 m -18 -18 d s 638 161 m -29 -30 d s 606 129 m -35 -36 d s 663 202 m -13 -14 d s 636 174 m -27 -28 d s 595 133 m -39 -40 d s 663 217 m -13 -14 d s 636 189 m -27 -27 d s 595 148 m -54 -55 d s 663 232 m -13 -14 d s 626 194 m -4 -3 d s 617 185 m -8
 -8 d s 595 163 m -70 -70 d s 663 247 m -13 -14 d s 595 178 m -85 -85 d s 663 262 m -13 -13 d s 589 188 m -76 -77 d s 502 100 m -7 -7 d s 653 268 m -3 -4 d s 581 195 m -14 -14 d s 561 175 m -7 -8 d s 552 166 m -39 -40 d s 499 112 m -19 -19 d s 581
 210 m -14 -14 d s 540 169 m -27 -28 d s 499 127 m -34 -34 d s 581 225 m -14 -14 d s 540 184 m -27 -28 d s 499 142 m -49 -49 d s 581 240 m -14 -13 d s 540 199 m -27 -28 d s 499 158 m -64 -65 d s 581 256 m -14 -14 d s 540 214 m -14 -14 d s 517 191 m
 -4 -4 d s 490 164 m -70 -71 d s 573 262 m -6 -5 d s 540 229 m -14 -13 d s 485 174 m -54 -55 d s 417 105 m -12 -12 d s 485 189 m -54 -55 d s 417 121 m -27 -28 d s 485 205 m -13 -14 d s 459 178 m -28 -28 d s 417 136 m -42 -43 d s 485 220 m -13 -14 d s
 458 192 m -27 -27 d s 413 146 m -53 -53 d s 485 235 m -13 -14 d s 458 207 m -27 -27 d s 403 152 m -58 -59 d s 485 250 m -13 -14 d s 458 223 m -27 -28 d s 403 168 m -74 -75 d s 483 263 m -11 -11 d s 458 238 m -27 -28 d s 403 183 m -89 -90 d s 458 253
 m -27 -28 d s 403 198 m -104 -105 d s 458 268 m -27 -27 d s 403 213 m -41 -41 d s 350 159 m -66 -66 d s 458 283 m -27 -27 d s 403 228 m -41 -41 d s 349 173 m -80 -80 d s 448 289 m -17 -18 d s 395 235 m -19 -19 d s 370 210 m -8 -8 d s 349 188 m -95
 -95 d s 439 295 m -8 -9 d s 390 245 m -14 -14 d s 349 203 m -41 -41 d s 301 156 m -62 -63 d s 390 260 m -14 -14 d s 349 219 m -28 -28 d s 314 183 m -6 -6 d s 291 161 m -11 -11 d s 267 136 m -43 -43 d s 390 275 m -14 -14 d s 349 234 m -28 -28 d s 262
 146 m -53 -53 d s 390 290 m -14 -13 d s 336 237 m -15 -16 d s 253 153 m -59 -60 d s 390 306 m -14 -14 d s 335 250 m -14 -13 d s 253 168 m -74 -75 d s 383 314 m -7 -7 d s 335 266 m -14 -14 d s 253 183 m -89 -90 d s 335 281 m -14 -14 d s 239 184 m -90
 -91 d s 335 296 m -14 -14 d s 232 192 m -20 -20 d s 198 158 m -27 -27 d s 167 127 m -24 -24 d s 335 311 m -14 -14 d s 226 201 m -14 -14 d s 198 173 m -27 -27 d s 157 132 m -14 -14 d s 335 326 m -14 -13 d s 226 216 m -14 -14 d s 198 189 m -27 -28 d s
 157 147 m -14 -14 d s 335 342 m -14 -14 d s 226 231 m -14 -13 d s 198 204 m -27 -28 d s 157 162 m -14 -13 d s 226 247 m -14 -14 d s 198 219 m -27 -28 d s 157 178 m -14 -14 d s 212 248 m s 198 234 m -27 -27 d s 157 193 m -14 -14 d s 196 247 m -25 -25
 d s 147 198 m -4 -4 d s 184 250 m -13 -13 d s 6 lw 143 198 m 14 X -71 Y 14 X 123 Y 14 X -3 Y 13 X -90 Y 14 X 91 Y 14 X -56 Y 13 X -8 Y 14 X -38 Y 14 X -10 Y 13 X 25 Y 14 X -5 Y 14 X 27 Y 13 X 160 Y 14 X -106 Y 14 X -78 Y 13 X 51 Y 14 X 104 Y 14 X
 -79 Y 13 X -89 Y 14 X -41 Y 14 X 190 Y 13 X -6 Y 14 X -111 Y 14 X 85 Y 13 X -99 Y 14 X -64 Y 14 X 91 Y 13 X 39 Y 14 X -64 Y 14 X 9 Y 13 X 87 Y 14 X -74 Y 14 X -59 Y 14 X 56 Y 13 X 9 Y 14 X -33 Y 14 X 107 Y 13 X -77 Y 14 X -98 Y 14 X s black 3 lw 143
 93 m 548 X s 228 106 m -13 Y s 245 100 m -7 Y s 262 100 m -7 Y s 279 100 m -7 Y s 296 100 m -7 Y s 313 106 m -13 Y s 330 100 m -7 Y s 347 100 m -7 Y s 364 100 m -7 Y s 381 100 m -7 Y s 398 106 m -13 Y s 415 100 m -7 Y s 432 100 m -7 Y s 449 100 m -7
 Y s 466 100 m -7 Y s 483 106 m -13 Y s 500 100 m -7 Y s 517 100 m -7 Y s 534 100 m -7 Y s 551 100 m -7 Y s 568 106 m -13 Y s 585 100 m -7 Y s 602 100 m -7 Y s 619 100 m -7 Y s 636 100 m -7 Y s 653 106 m -13 Y s 228 106 m -13 Y s 211 100 m -7 Y s 194
 100 m -7 Y s 177 100 m -7 Y s 160 100 m -7 Y s 653 106 m -13 Y s 670 100 m -7 Y s 687 100 m -7 Y s 143 520 m 548 X s 228 507 m 13 Y s 245 513 m 7 Y s 262 513 m 7 Y s 279 513 m 7 Y s 296 513 m 7 Y s 313 507 m 13 Y s 330 513 m 7 Y s 347 513 m 7 Y s
 364 513 m 7 Y s 381 513 m 7 Y s 398 507 m 13 Y s 415 513 m 7 Y s 432 513 m 7 Y s 449 513 m 7 Y s 466 513 m 7 Y s 483 507 m 13 Y s 500 513 m 7 Y s 517 513 m 7 Y s 534 513 m 7 Y s 551 513 m 7 Y s 568 507 m 13 Y s 585 513 m 7 Y s 602 513 m 7 Y s 619
 513 m 7 Y s 636 513 m 7 Y s 653 507 m 13 Y s 228 507 m 13 Y s 211 513 m 7 Y s 194 513 m 7 Y s 177 513 m 7 Y s 160 513 m 7 Y s 653 507 m 13 Y s 670 513 m 7 Y s 687 513 m 7 Y s 143 93 m 427 Y s 160 93 m -17 X s 152 110 m -9 X s 152 126 m -9 X s 152
 143 m -9 X s 160 160 m -17 X s 152 176 m -9 X s 152 193 m -9 X s 152 209 m -9 X s 160 226 m -17 X s 152 243 m -9 X s 152 259 m -9 X s 152 276 m -9 X s 160 293 m -17 X s 152 309 m -9 X s 152 326 m -9 X s 152 343 m -9 X s 160 359 m -17 X s 152 376 m
 -9 X s 152 392 m -9 X s 152 409 m -9 X s 160 426 m -17 X s 152 442 m -9 X s 152 459 m -9 X s 152 476 m -9 X s 160 492 m -17 X s 160 492 m -17 X s 152 509 m -9 X s 691 93 m 427 Y s 674 93 m 17 X s 683 110 m 8 X s 683 126 m 8 X s 683 143 m 8 X s 674
 160 m 17 X s 683 176 m 8 X s 683 193 m 8 X s 683 209 m 8 X s 674 226 m 17 X s 683 243 m 8 X s 683 259 m 8 X s 683 276 m 8 X s 674 293 m 17 X s 683 309 m 8 X s 683 326 m 8 X s 683 343 m 8 X s 674 359 m 17 X s 683 376 m 8 X s 683 392 m 8 X s 683 409 m
 8 X s 674 426 m 17 X s 683 442 m 8 X s 683 459 m 8 X s 683 476 m 8 X s 674 492 m 17 X s 674 492 m 17 X s 683 509 m 8 X s
 gsave  710 564 23 12 C 719.017 90.8246 t 90 r /Helvetica-Bold findfont 19.9646 sf 0 0 m (U/O\255flow \(S,B\): \(0.0, 0.0\)% / \(0.0, 0.0\)%) show NC gr  0.48 0.56 0.6 c 0.364706 0.419608 0.490196 c 412 38 30 536 bf 0.48 0.56 0.6 c 30 536 m 412 X s
 442 536 m 38 Y s 442 574 m -412 X s 30 574 m -38 Y s 1 1 1 c black 1 1 1 c
 gsave  710 564 23 12 C 34.101 548.458 t 0 r /Helvetica-Bold findfont 28.5208 sf 0 0 m (Input variable: abs\(dPll_MET\)) show NC gr  0.48 0.56 0.6 c 0.95 0.95 0.95 c 710 564 779 12 bf black 0.95 0.95 0.95 c 548 427 899 93 bf black 548 427 899 93 bl
 0.95 0.95 0.95 c 548 427 899 93 bf black 548 427 899 93 bl 0 0 0.933333 c 6 lw 0.49 0.6 0.82 c black 3 lw 0.49 0.6 0.82 c 899 93 m 5 Y 14 X 12 Y 14 X 10 Y 13 X 14 Y 14 X 14 Y 14 X 29 Y 13 X 23 Y 14 X -44 Y 14 X -63 Y 13 X 65 Y 14 X 79 Y 14 X 4 Y 14
 X 9 Y 13 X -3 Y 14 X -5 Y 14 X 19 Y 13 X -7 Y 14 X 29 Y 14 X -34 Y 13 X 24 Y 14 X -16 Y 14 X 1 Y 13 X -39 Y 14 X 15 Y 14 X -17 Y 13 X -8 Y 14 X 3 Y 14 X -35 Y 13 X 20 Y 14 X -25 Y 14 X -1 Y 13 X -19 Y 14 X -1 Y 14 X -12 Y 13 X -16 Y 14 X -1 Y 14 X
 -18 Y 13 X -10 Y 28 X -1 Y 14 X f 6 lw 0 0 0.933333 c 0.49 0.6 0.82 c 0 0 0.933333 c 899 98 m 14 X 12 Y 14 X 10 Y 13 X 14 Y 14 X 14 Y 14 X 29 Y 13 X 23 Y 14 X -44 Y 14 X -63 Y 13 X 65 Y 14 X 79 Y 14 X 4 Y 14 X 9 Y 13 X -3 Y 14 X -5 Y 14 X 19 Y 13 X
 -7 Y 14 X 29 Y 14 X -34 Y 13 X 24 Y 14 X -16 Y 14 X 1 Y 13 X -39 Y 14 X 15 Y 14 X -17 Y 13 X -8 Y 14 X 3 Y 14 X -35 Y 13 X 20 Y 14 X -25 Y 14 X -1 Y 13 X -19 Y 14 X -1 Y 14 X -12 Y 13 X -16 Y 14 X -1 Y 14 X -18 Y 13 X -10 Y 28 X -1 Y 14 X s black 3
 lw 899 93 m 548 X s
 gsave  710 564 779 12 C 1406.67 19.8923 t 0 r /Helvetica-Bold findfont 28.5208 sf 0 0 m (Mll) show NC gr  960 106 m -13 Y s 973 100 m -7 Y s 987 100 m -7 Y s 1000 100 m -7 Y s 1014 100 m -7 Y s 1027 106 m -13 Y s 1041 100 m -7 Y s 1054 100 m -7 Y s
 1068 100 m -7 Y s 1081 100 m -7 Y s 1095 106 m -13 Y s 1108 100 m -7 Y s 1122 100 m -7 Y s 1136 100 m -7 Y s 1149 100 m -7 Y s 1163 106 m -13 Y s 1176 100 m -7 Y s 1190 100 m -7 Y s 1203 100 m -7 Y s 1217 100 m -7 Y s 1230 106 m -13 Y s 1244 100 m
 -7 Y s 1257 100 m -7 Y s 1271 100 m -7 Y s 1284 100 m -7 Y s 1298 106 m -13 Y s 1311 100 m -7 Y s 1325 100 m -7 Y s 1339 100 m -7 Y s 1352 100 m -7 Y s 1366 106 m -13 Y s 1379 100 m -7 Y s 1393 100 m -7 Y s 1406 100 m -7 Y s 1420 100 m -7 Y s 1433
 106 m -13 Y s 960 106 m -13 Y s 946 100 m -7 Y s 933 100 m -7 Y s 919 100 m -7 Y s 906 100 m -7 Y s 1433 106 m -13 Y s
 gsave  710 564 779 12 C 943.461 65.3603 t 0 r /Helvetica-Bold findfont 25.6688 sf 0 0 m (50) show NC gr 
 gsave  710 564 779 12 C 1003.14 65.3603 t 0 r /Helvetica-Bold findfont 25.6688 sf 0 0 m (100) show NC gr 
 gsave  710 564 779 12 C 1071.34 65.3603 t 0 r /Helvetica-Bold findfont 25.6688 sf 0 0 m (150) show NC gr 
 gsave  710 564 779 12 C 1139.54 65.3603 t 0 r /Helvetica-Bold findfont 25.6688 sf 0 0 m (200) show NC gr 
 gsave  710 564 779 12 C 1204.9 65.3603 t 0 r /Helvetica-Bold findfont 25.6688 sf 0 0 m (250) show NC gr 
 gsave  710 564 779 12 C 1273.1 65.3603 t 0 r /Helvetica-Bold findfont 25.6688 sf 0 0 m (300) show NC gr 
 gsave  710 564 779 12 C 1341.31 65.3603 t 0 r /Helvetica-Bold findfont 25.6688 sf 0 0 m (350) show NC gr 
 gsave  710 564 779 12 C 1409.51 65.3603 t 0 r /Helvetica-Bold findfont 25.6688 sf 0 0 m (400) show NC gr  899 520 m 548 X s 960 507 m 13 Y s 973 513 m 7 Y s 987 513 m 7 Y s 1000 513 m 7 Y s 1014 513 m 7 Y s 1027 507 m 13 Y s 1041 513 m 7 Y s 1054
 513 m 7 Y s 1068 513 m 7 Y s 1081 513 m 7 Y s 1095 507 m 13 Y s 1108 513 m 7 Y s 1122 513 m 7 Y s 1136 513 m 7 Y s 1149 513 m 7 Y s 1163 507 m 13 Y s 1176 513 m 7 Y s 1190 513 m 7 Y s 1203 513 m 7 Y s 1217 513 m 7 Y s 1230 507 m 13 Y s 1244 513 m 7
 Y s 1257 513 m 7 Y s 1271 513 m 7 Y s 1284 513 m 7 Y s 1298 507 m 13 Y s 1311 513 m 7 Y s 1325 513 m 7 Y s 1339 513 m 7 Y s 1352 513 m 7 Y s 1366 507 m 13 Y s 1379 513 m 7 Y s 1393 513 m 7 Y s 1406 513 m 7 Y s 1420 513 m 7 Y s 1433 507 m 13 Y s 960
 507 m 13 Y s 946 513 m 7 Y s 933 513 m 7 Y s 919 513 m 7 Y s 906 513 m 7 Y s 1433 507 m 13 Y s 899 93 m 427 Y s
 gsave  710 564 779 12 C 804.215 457.522 t 90 r /Helvetica-Bold findfont 28.5208 sf 0 0 m (10.1 ) show NC gr 
 gsave  710 564 779 12 C 790.007 448.997 t 90 r /Helvetica-Bold findfont 19.9646 sf 0 0 m ( ) show NC gr 
 gsave  710 564 779 12 C 804.215 440.471 t 90 r /Helvetica-Bold findfont 28.5208 sf 0 0 m (/) show NC gr 
 gsave  710 564 779 12 C 809.899 431.946 t 90 r /Helvetica-Bold findfont 19.9646 sf 0 0 m ( ) show NC gr 
 gsave  710 564 779 12 C 804.215 323.96 t 90 r /Helvetica-Bold findfont 28.5208 sf 0 0 m (\(1/N\) dN) show NC gr  915 93 m -16 X s 907 111 m -8 X s 907 130 m -8 X s 907 148 m -8 X s 915 166 m -16 X s 907 184 m -8 X s 907 202 m -8 X s 907 221 m -8 X s
 915 239 m -16 X s 907 257 m -8 X s 907 275 m -8 X s 907 294 m -8 X s 915 312 m -16 X s 907 330 m -8 X s 907 348 m -8 X s 907 367 m -8 X s 915 385 m -16 X s 907 403 m -8 X s 907 421 m -8 X s 907 440 m -8 X s 915 458 m -16 X s 915 458 m -16 X s 907
 476 m -8 X s 907 494 m -8 X s 907 513 m -8 X s
 gsave  710 564 779 12 C 875.259 82.4108 t 0 r /Helvetica-Bold findfont 25.6688 sf 0 0 m (0) show NC gr 
 gsave  710 564 779 12 C 824.107 156.296 t 0 r /Helvetica-Bold findfont 25.6688 sf 0 0 m (0.002) show NC gr 
 gsave  710 564 779 12 C 824.107 230.182 t 0 r /Helvetica-Bold findfont 25.6688 sf 0 0 m (0.004) show NC gr 
 gsave  710 564 779 12 C 824.107 301.226 t 0 r /Helvetica-Bold findfont 25.6688 sf 0 0 m (0.006) show NC gr 
 gsave  710 564 779 12 C 824.107 375.111 t 0 r /Helvetica-Bold findfont 25.6688 sf 0 0 m (0.008) show NC gr 
 gsave  710 564 779 12 C 844 448.997 t 0 r /Helvetica-Bold findfont 25.6688 sf 0 0 m (0.01) show NC gr  1447 93 m 427 Y s 1430 93 m 17 X s 1438 111 m 9 X s 1438 130 m 9 X s 1438 148 m 9 X s 1430 166 m 17 X s 1438 184 m 9 X s 1438 202 m 9 X s 1438 221
 m 9 X s 1430 239 m 17 X s 1438 257 m 9 X s 1438 275 m 9 X s 1438 294 m 9 X s 1430 312 m 17 X s 1438 330 m 9 X s 1438 348 m 9 X s 1438 367 m 9 X s 1430 385 m 17 X s 1438 403 m 9 X s 1438 421 m 9 X s 1438 440 m 9 X s 1430 458 m 17 X s 1430 458 m 17 X
 s 1438 476 m 9 X s 1438 494 m 9 X s 1438 513 m 9 X s 1 0 0 c 6 lw black 3 lw 1 0 0 c 1433 94 m -1 -1 d s 1433 109 m -16 -16 d s 1433 124 m -31 -31 d s 1433 139 m -14 -13 d s 1410 116 m -23 -23 d s 1431 152 m -12 -11 d s 1405 127 m -27 -28 d s 1372
 93 m s 1395 131 m -3 -3 d s 1382 119 m -4 -4 d s 1364 101 m -7 -8 d s 1364 116 m -13 -14 d s 1342 93 m s 1364 131 m -13 -14 d s 1329 95 m -2 -2 d s 1322 103 m -11 -10 d s 1310 106 m -14 -13 d s 1310 122 m -29 -29 d s 1303 131 m -21 -22 d s 1270 97 m
 -4 -4 d s 1295 137 m -13 -13 d s 1268 110 m -17 -17 d s 1255 112 m -19 -19 d s 1242 114 m -14 -14 d s 1227 99 m -6 -6 d s 1241 129 m -13 -14 d s 1211 98 m -5 -5 d s 1238 141 m -10 -11 d s 1200 103 m -9 -10 d s 1200 118 m -24 -25 d s 1195 128 m -8 -9
 d s 1181 114 m -20 -21 d s 1173 121 m -27 -28 d s 1173 136 m -42 -43 d s 1165 143 m -49 -50 d s 1159 152 m -59 -59 d s 1159 168 m -74 -75 d s 1149 172 m -3 -3 d s 1134 157 m -64 -64 d s 1132 170 m -77 -77 d s 1132 186 m -92 -93 d s 1132 201 m -107
 -108 d s 1132 216 m -41 -41 d s 1081 165 m -59 -59 d s 1010 93 m s 1118 217 m -27 -27 d s 1077 176 m -55 -55 d s 1009 107 m -14 -14 d s 1105 220 m -14 -15 d s 1077 191 m -55 -55 d s 1009 122 m -29 -29 d s 1099 228 m -8 -8 d s 1077 206 m -55 -55 d s
 1009 137 m -44 -44 d s 1077 221 m -55 -55 d s 1009 153 m -59 -60 d s 1077 237 m -55 -55 d s 1009 168 m -74 -75 d s 1071 245 m -49 -48 d s 1009 183 m -89 -90 d s 1064 253 m -42 -41 d s 1009 198 m -104 -105 d s 1064 268 m -42 -41 d s 1009 213 m -110
 -110 d s 1063 283 m -27 -27 d s 1033 252 m -11 -10 d s 1009 229 m -110 -111 d s 1050 285 m -14 -14 d s 1009 244 m -110 -111 d s 1050 300 m -14 -14 d s 1009 259 m -110 -110 d s 1050 315 m -14 -13 d s 1009 274 m -110 -110 d s 1050 331 m -14 -14 d s
 1009 289 m -69 -69 d s 929 208 m -30 -29 d s 1050 346 m -14 -14 d s 1009 304 m -69 -68 d s 927 222 m -14 -14 d s 900 195 m -1 -1 d s 1050 361 m -14 -14 d s 1005 316 m -65 -65 d s 927 237 m -14 -14 d s 1048 374 m -12 -12 d s 995 321 m -55 -55 d s 927
 252 m -14 -14 d s 995 336 m -14 -14 d s 974 315 m -34 -34 d s 927 267 m -14 -13 d s 995 351 m -14 -13 d s 968 324 m -28 -28 d s 927 283 m -14 -14 d s 995 367 m -14 -14 d s 965 336 m -25 -25 d s 995 382 m -14 -14 d s 954 340 m -14 -13 d s 995 397 m
 -14 -14 d s 954 356 m -14 -14 d s 995 412 m -14 -14 d s 995 427 m -14 -13 d s 995 443 m -14 -14 d s 995 458 m -14 -14 d s 995 473 m -14 -14 d s 988 481 m -7 -7 d s 6 lw 899 195 m 14 X 88 Y 14 X -75 Y 13 X 149 Y 14 X -21 Y 14 X -21 Y 13 X 166 Y 14 X
 -165 Y 14 X -223 Y 13 X 159 Y 14 X 122 Y 14 X -91 Y 14 X -38 Y 13 X -80 Y 14 X 63 Y 14 X -8 Y 13 X -3 Y 14 X -60 Y 14 X 15 Y 13 X -29 Y 14 X -29 Y 14 X 14 Y 13 X -30 Y 14 X 1 Y 14 X 42 Y 13 X -27 Y 14 X -4 Y 14 X -13 Y 13 X 40 Y 14 X -6 Y 14 X -28 Y
 13 X -8 Y 14 X -2 Y 14 X 38 Y 13 X -38 Y 14 X 26 Y 14 X 12 Y 13 X -15 Y 14 X 36 Y 14 X -59 Y 14 X s black 3 lw 899 93 m 548 X s 960 106 m -13 Y s 973 100 m -7 Y s 987 100 m -7 Y s 1000 100 m -7 Y s 1014 100 m -7 Y s 1027 106 m -13 Y s 1041 100 m -7
 Y s 1054 100 m -7 Y s 1068 100 m -7 Y s 1081 100 m -7 Y s 1095 106 m -13 Y s 1108 100 m -7 Y s 1122 100 m -7 Y s 1136 100 m -7 Y s 1149 100 m -7 Y s 1163 106 m -13 Y s 1176 100 m -7 Y s 1190 100 m -7 Y s 1203 100 m -7 Y s 1217 100 m -7 Y s 1230 106
 m -13 Y s 1244 100 m -7 Y s 1257 100 m -7 Y s 1271 100 m -7 Y s 1284 100 m -7 Y s 1298 106 m -13 Y s 1311 100 m -7 Y s 1325 100 m -7 Y s 1339 100 m -7 Y s 1352 100 m -7 Y s 1366 106 m -13 Y s 1379 100 m -7 Y s 1393 100 m -7 Y s 1406 100 m -7 Y s
 1420 100 m -7 Y s 1433 106 m -13 Y s 960 106 m -13 Y s 946 100 m -7 Y s 933 100 m -7 Y s 919 100 m -7 Y s 906 100 m -7 Y s 1433 106 m -13 Y s 899 520 m 548 X s 960 507 m 13 Y s 973 513 m 7 Y s 987 513 m 7 Y s 1000 513 m 7 Y s 1014 513 m 7 Y s 1027
 507 m 13 Y s 1041 513 m 7 Y s 1054 513 m 7 Y s 1068 513 m 7 Y s 1081 513 m 7 Y s 1095 507 m 13 Y s 1108 513 m 7 Y s 1122 513 m 7 Y s 1136 513 m 7 Y s 1149 513 m 7 Y s 1163 507 m 13 Y s 1176 513 m 7 Y s 1190 513 m 7 Y s 1203 513 m 7 Y s 1217 513 m 7
 Y s 1230 507 m 13 Y s 1244 513 m 7 Y s 1257 513 m 7 Y s 1271 513 m 7 Y s 1284 513 m 7 Y s 1298 507 m 13 Y s 1311 513 m 7 Y s 1325 513 m 7 Y s 1339 513 m 7 Y s 1352 513 m 7 Y s 1366 507 m 13 Y s 1379 513 m 7 Y s 1393 513 m 7 Y s 1406 513 m 7 Y s 1420
 513 m 7 Y s 1433 507 m 13 Y s 960 507 m 13 Y s 946 513 m 7 Y s 933 513 m 7 Y s 919 513 m 7 Y s 906 513 m 7 Y s 1433 507 m 13 Y s 899 93 m 427 Y s 915 93 m -16 X s 907 111 m -8 X s 907 130 m -8 X s 907 148 m -8 X s 915 166 m -16 X s 907 184 m -8 X s
 907 202 m -8 X s 907 221 m -8 X s 915 239 m -16 X s 907 257 m -8 X s 907 275 m -8 X s 907 294 m -8 X s 915 312 m -16 X s 907 330 m -8 X s 907 348 m -8 X s 907 367 m -8 X s 915 385 m -16 X s 907 403 m -8 X s 907 421 m -8 X s 907 440 m -8 X s 915 458
 m -16 X s 915 458 m -16 X s 907 476 m -8 X s 907 494 m -8 X s 907 513 m -8 X s 1447 93 m 427 Y s 1430 93 m 17 X s 1438 111 m 9 X s 1438 130 m 9 X s 1438 148 m 9 X s 1430 166 m 17 X s 1438 184 m 9 X s 1438 202 m 9 X s 1438 221 m 9 X s 1430 239 m 17 X
 s 1438 257 m 9 X s 1438 275 m 9 X s 1438 294 m 9 X s 1430 312 m 17 X s 1438 330 m 9 X s 1438 348 m 9 X s 1438 367 m 9 X s 1430 385 m 17 X s 1438 403 m 9 X s 1438 421 m 9 X s 1438 440 m 9 X s 1430 458 m 17 X s 1430 458 m 17 X s 1438 476 m 9 X s 1438
 494 m 9 X s 1438 513 m 9 X s
 gsave  710 564 779 12 C 1474.92 90.8246 t 90 r /Helvetica-Bold findfont 19.9646 sf 0 0 m (U/O\255flow \(S,B\): \(0.0, 0.0\)% / \(0.0, 0.0\)%) show NC gr  0.48 0.56 0.6 c 0.364706 0.419608 0.490196 c 255 38 786 536 bf 0.48 0.56 0.6 c 786 536 m 255 X
 s 1041 536 m 38 Y s 1041 574 m -255 X s 786 574 m -38 Y s 1 1 1 c black 1 1 1 c
 gsave  710 564 779 12 C 790.007 548.458 t 0 r /Helvetica-Bold findfont 28.5208 sf 0 0 m (Input variable: Mll) show NC gr  0.48 0.56 0.6 c 0.95 0.95 0.95 c 711 564 1534 12 bf black 0.95 0.95 0.95 c 547 427 1655 93 bf black 547 427 1655 93 bl 0.95
 0.95 0.95 c 547 427 1655 93 bf black 547 427 1655 93 bl 0 0 0.933333 c 6 lw 0.49 0.6 0.82 c black 3 lw 0.49 0.6 0.82 c 1655 93 m 49 Y 14 X 16 Y 14 X 5 Y 13 X 6 Y 14 X 6 Y 14 X -13 Y 13 X -1 Y 14 X -19 Y 14 X -2 Y 13 X -8 Y 14 X -6 Y 14 X -9 Y 13 X
 -2 Y 14 X -4 Y 14 X -4 Y 13 X -3 Y 14 X -2 Y 14 X -3 Y 27 X -2 Y 28 X -3 Y 13 X 2 Y 28 X -1 Y 27 X -1 Y 14 X -1 Y 13 X 1 Y 41 X -1 Y 14 X 1 Y 14 X -1 Y 27 X 1 Y 14 X -1 Y 54 X f 6 lw 0 0 0.933333 c 0.49 0.6 0.82 c 0 0 0.933333 c 1655 142 m 14 X 16 Y
 14 X 5 Y 13 X 6 Y 14 X 6 Y 14 X -13 Y 13 X -1 Y 14 X -19 Y 14 X -2 Y 13 X -8 Y 14 X -6 Y 14 X -9 Y 13 X -2 Y 14 X -4 Y 14 X -4 Y 13 X -3 Y 14 X -2 Y 14 X -3 Y 27 X -2 Y 28 X -3 Y 13 X 2 Y 28 X -1 Y 27 X -1 Y 14 X -1 Y 13 X 1 Y 41 X -1 Y 14 X 1 Y 14
 X -1 Y 27 X 1 Y 14 X -1 Y 54 X s black 3 lw 1655 93 m 547 X s
 gsave  711 564 1534 12 C 2142.68 19.8923 t 0 r /Helvetica-Bold findfont 28.5208 sf 0 0 m (MET) show NC gr  1744 106 m -13 Y s 1768 100 m -7 Y s 1793 100 m -7 Y s 1817 100 m -7 Y s 1842 106 m -13 Y s 1866 100 m -7 Y s 1891 100 m -7 Y s 1916 100 m -7
 Y s 1940 106 m -13 Y s 1965 100 m -7 Y s 1989 100 m -7 Y s 2014 100 m -7 Y s 2038 106 m -13 Y s 2063 100 m -7 Y s 2087 100 m -7 Y s 2112 100 m -7 Y s 2137 106 m -13 Y s 1744 106 m -13 Y s 1719 100 m -7 Y s 1695 100 m -7 Y s 1670 100 m -7 Y s 2137
 106 m -13 Y s 2161 100 m -7 Y s 2186 100 m -7 Y s
 gsave  711 564 1534 12 C 1719.26 65.3603 t 0 r /Helvetica-Bold findfont 25.6688 sf 0 0 m (200) show NC gr 
 gsave  711 564 1534 12 C 1818.72 65.3603 t 0 r /Helvetica-Bold findfont 25.6688 sf 0 0 m (400) show NC gr 
 gsave  711 564 1534 12 C 1915.34 65.3603 t 0 r /Helvetica-Bold findfont 25.6688 sf 0 0 m (600) show NC gr 
 gsave  711 564 1534 12 C 2014.8 65.3603 t 0 r /Helvetica-Bold findfont 25.6688 sf 0 0 m (800) show NC gr 
 gsave  711 564 1534 12 C 2105.74 65.3603 t 0 r /Helvetica-Bold findfont 25.6688 sf 0 0 m (1000) show NC gr  1655 520 m 547 X s 1744 507 m 13 Y s 1768 513 m 7 Y s 1793 513 m 7 Y s 1817 513 m 7 Y s 1842 507 m 13 Y s 1866 513 m 7 Y s 1891 513 m 7 Y s
 1916 513 m 7 Y s 1940 507 m 13 Y s 1965 513 m 7 Y s 1989 513 m 7 Y s 2014 513 m 7 Y s 2038 507 m 13 Y s 2063 513 m 7 Y s 2087 513 m 7 Y s 2112 513 m 7 Y s 2137 507 m 13 Y s 1744 507 m 13 Y s 1719 513 m 7 Y s 1695 513 m 7 Y s 1670 513 m 7 Y s 2137
 507 m 13 Y s 2161 513 m 7 Y s 2186 513 m 7 Y s 1655 93 m 427 Y s
 gsave  711 564 1534 12 C 1560.12 451.838 t 90 r /Helvetica-Bold findfont 28.5208 sf 0 0 m (27.9 ) show NC gr 
 gsave  711 564 1534 12 C 1545.91 443.313 t 90 r /Helvetica-Bold findfont 19.9646 sf 0 0 m ( ) show NC gr 
 gsave  711 564 1534 12 C 1560.12 434.788 t 90 r /Helvetica-Bold findfont 28.5208 sf 0 0 m (/) show NC gr 
 gsave  711 564 1534 12 C 1565.8 426.263 t 90 r /Helvetica-Bold findfont 19.9646 sf 0 0 m ( ) show NC gr 
 gsave  711 564 1534 12 C 1560.12 318.276 t 90 r /Helvetica-Bold findfont 28.5208 sf 0 0 m (\(1/N\) dN) show NC gr  1671 93 m -16 X s 1663 104 m -8 X s 1663 115 m -8 X s 1663 126 m -8 X s 1671 137 m -16 X s 1663 148 m -8 X s 1663 158 m -8 X s 1663
 169 m -8 X s 1671 180 m -16 X s 1663 191 m -8 X s 1663 202 m -8 X s 1663 213 m -8 X s 1671 224 m -16 X s 1663 235 m -8 X s 1663 246 m -8 X s 1663 256 m -8 X s 1671 267 m -16 X s 1663 278 m -8 X s 1663 289 m -8 X s 1663 300 m -8 X s 1671 311 m -16 X
 s 1663 322 m -8 X s 1663 333 m -8 X s 1663 344 m -8 X s 1671 354 m -16 X s 1663 365 m -8 X s 1663 376 m -8 X s 1663 387 m -8 X s 1671 398 m -16 X s 1663 409 m -8 X s 1663 420 m -8 X s 1663 431 m -8 X s 1671 442 m -16 X s 1663 452 m -8 X s 1663 463 m
 -8 X s 1663 474 m -8 X s 1671 485 m -16 X s 1671 485 m -16 X s 1663 496 m -8 X s 1663 507 m -8 X s 1663 518 m -8 X s
 gsave  711 564 1534 12 C 1631.16 82.4108 t 0 r /Helvetica-Bold findfont 25.6688 sf 0 0 m (0) show NC gr 
 gsave  711 564 1534 12 C 1580.01 127.879 t 0 r /Helvetica-Bold findfont 25.6688 sf 0 0 m (0.002) show NC gr 
 gsave  711 564 1534 12 C 1580.01 170.505 t 0 r /Helvetica-Bold findfont 25.6688 sf 0 0 m (0.004) show NC gr 
 gsave  711 564 1534 12 C 1580.01 213.131 t 0 r /Helvetica-Bold findfont 25.6688 sf 0 0 m (0.006) show NC gr 
 gsave  711 564 1534 12 C 1580.01 258.599 t 0 r /Helvetica-Bold findfont 25.6688 sf 0 0 m (0.008) show NC gr 
 gsave  711 564 1534 12 C 1599.91 301.226 t 0 r /Helvetica-Bold findfont 25.6688 sf 0 0 m (0.01) show NC gr 
 gsave  711 564 1534 12 C 1580.01 343.852 t 0 r /Helvetica-Bold findfont 25.6688 sf 0 0 m (0.012) show NC gr 
 gsave  711 564 1534 12 C 1580.01 389.32 t 0 r /Helvetica-Bold findfont 25.6688 sf 0 0 m (0.014) show NC gr 
 gsave  711 564 1534 12 C 1580.01 431.946 t 0 r /Helvetica-Bold findfont 25.6688 sf 0 0 m (0.016) show NC gr 
 gsave  711 564 1534 12 C 1580.01 474.572 t 0 r /Helvetica-Bold findfont 25.6688 sf 0 0 m (0.018) show NC gr  2202 93 m 427 Y s 2186 93 m 16 X s 2194 104 m 8 X s 2194 115 m 8 X s 2194 126 m 8 X s 2186 137 m 16 X s 2194 148 m 8 X s 2194 158 m 8 X s
 2194 169 m 8 X s 2186 180 m 16 X s 2194 191 m 8 X s 2194 202 m 8 X s 2194 213 m 8 X s 2186 224 m 16 X s 2194 235 m 8 X s 2194 246 m 8 X s 2194 256 m 8 X s 2186 267 m 16 X s 2194 278 m 8 X s 2194 289 m 8 X s 2194 300 m 8 X s 2186 311 m 16 X s 2194
 322 m 8 X s 2194 333 m 8 X s 2194 344 m 8 X s 2186 354 m 16 X s 2194 365 m 8 X s 2194 376 m 8 X s 2194 387 m 8 X s 2186 398 m 16 X s 2194 409 m 8 X s 2194 420 m 8 X s 2194 431 m 8 X s 2186 442 m 16 X s 2194 452 m 8 X s 2194 463 m 8 X s 2194 474 m 8
 X s 2186 485 m 16 X s 2186 485 m 16 X s 2194 496 m 8 X s 2194 507 m 8 X s 2194 518 m 8 X s 1 0 0 c 6 lw black 3 lw 1 0 0 c 2188 93 m s 2173 93 m s 2158 93 m s 2143 93 m s 2128 93 m s 2113 93 m s 2098 93 m s 2082 93 m s 2067 93 m s 2052 93 m s 2037
 93 m cl s 2022 93 m s 2007 93 m s 1992 93 m s 1977 93 m s 1962 93 m s 1947 93 m s 1932 93 m s 1917 93 m s 1902 93 m s 1887 93 m s 1872 93 m -1 X s 1856 93 m s 1841 93 m s 1827 93 m -1 X s 1811 93 m s 1800 97 m -4 -4 d s 1790 102 m -9 -9 d s 1772 99
 m -6 -6 d s 1751 93 m s 1737 95 m -1 -2 d s 1733 106 m -12 -13 d s 1724 111 m -18 -18 d s 1712 115 m -21 -22 d s 1699 117 m -24 -24 d s 1696 129 m -36 -36 d s 1696 144 m -41 -41 d s 1696 160 m -41 -42 d s 1696 175 m -41 -42 d s 1691 184 m -36 -35 d
 s 1683 191 m -28 -27 d s 1683 207 m -28 -28 d s 1683 222 m -28 -28 d s 1683 237 m -28 -28 d s 1683 252 m -28 -27 d s 1683 267 m -28 -27 d s 1683 283 m -28 -28 d s 1683 298 m -28 -28 d s 1683 313 m -28 -28 d s 1674 320 m -19 -19 d s 1669 329 m -14
 -13 d s 1669 345 m -14 -14 d s 1669 360 m -14 -14 d s 1669 375 m -14 -14 d s 1669 390 m -14 -14 d s 1669 405 m -14 -13 d s 1669 421 m -14 -14 d s 1669 436 m -14 -14 d s 1669 451 m -14 -14 d s 1669 466 m -14 -14 d s 1669 481 m -14 -13 d s 6 lw 1655
 481 m 14 X -161 Y 14 X -136 Y 13 X -67 Y 14 X -2 Y 14 X -9 Y 13 X -13 Y 28 X 6 Y 13 X 3 Y 14 X -5 Y 14 X -4 Y 396 X s black 3 lw 1655 93 m 547 X s 1744 106 m -13 Y s 1768 100 m -7 Y s 1793 100 m -7 Y s 1817 100 m -7 Y s 1842 106 m -13 Y s 1866 100 m
 -7 Y s 1891 100 m -7 Y s 1916 100 m -7 Y s 1940 106 m -13 Y s 1965 100 m -7 Y s 1989 100 m -7 Y s 2014 100 m -7 Y s 2038 106 m -13 Y s 2063 100 m -7 Y s 2087 100 m -7 Y s 2112 100 m -7 Y s 2137 106 m -13 Y s 1744 106 m -13 Y s 1719 100 m -7 Y s 1695
 100 m -7 Y s 1670 100 m -7 Y s 2137 106 m -13 Y s 2161 100 m -7 Y s 2186 100 m -7 Y s 1655 520 m 547 X s 1744 507 m 13 Y s 1768 513 m 7 Y s 1793 513 m 7 Y s 1817 513 m 7 Y s 1842 507 m 13 Y s 1866 513 m 7 Y s 1891 513 m 7 Y s 1916 513 m 7 Y s 1940
 507 m 13 Y s 1965 513 m 7 Y s 1989 513 m 7 Y s 2014 513 m 7 Y s 2038 507 m 13 Y s 2063 513 m 7 Y s 2087 513 m 7 Y s 2112 513 m 7 Y s 2137 507 m 13 Y s 1744 507 m 13 Y s 1719 513 m 7 Y s 1695 513 m 7 Y s 1670 513 m 7 Y s 2137 507 m 13 Y s 2161 513 m
 7 Y s 2186 513 m 7 Y s 1655 93 m 427 Y s 1671 93 m -16 X s 1663 104 m -8 X s 1663 115 m -8 X s 1663 126 m -8 X s 1671 137 m -16 X s 1663 148 m -8 X s 1663 158 m -8 X s 1663 169 m -8 X s 1671 180 m -16 X s 1663 191 m -8 X s 1663 202 m -8 X s 1663 213
 m -8 X s 1671 224 m -16 X s 1663 235 m -8 X s 1663 246 m -8 X s 1663 256 m -8 X s 1671 267 m -16 X s 1663 278 m -8 X s 1663 289 m -8 X s 1663 300 m -8 X s 1671 311 m -16 X s 1663 322 m -8 X s 1663 333 m -8 X s 1663 344 m -8 X s 1671 354 m -16 X s
 1663 365 m -8 X s 1663 376 m -8 X s 1663 387 m -8 X s 1671 398 m -16 X s 1663 409 m -8 X s 1663 420 m -8 X s 1663 431 m -8 X s 1671 442 m -16 X s 1663 452 m -8 X s 1663 463 m -8 X s 1663 474 m -8 X s 1671 485 m -16 X s 1671 485 m -16 X s 1663 496 m
 -8 X s 1663 507 m -8 X s 1663 518 m -8 X s 2202 93 m 427 Y s 2186 93 m 16 X s 2194 104 m 8 X s 2194 115 m 8 X s 2194 126 m 8 X s 2186 137 m 16 X s 2194 148 m 8 X s 2194 158 m 8 X s 2194 169 m 8 X s 2186 180 m 16 X s 2194 191 m 8 X s 2194 202 m 8 X s
 2194 213 m 8 X s 2186 224 m 16 X s 2194 235 m 8 X s 2194 246 m 8 X s 2194 256 m 8 X s 2186 267 m 16 X s 2194 278 m 8 X s 2194 289 m 8 X s 2194 300 m 8 X s 2186 311 m 16 X s 2194 322 m 8 X s 2194 333 m 8 X s 2194 344 m 8 X s 2186 354 m 16 X s 2194
 365 m 8 X s 2194 376 m 8 X s 2194 387 m 8 X s 2186 398 m 16 X s 2194 409 m 8 X s 2194 420 m 8 X s 2194 431 m 8 X s 2186 442 m 16 X s 2194 452 m 8 X s 2194 463 m 8 X s 2194 474 m 8 X s 2186 485 m 16 X s 2186 485 m 16 X s 2194 496 m 8 X s 2194 507 m 8
 X s 2194 518 m 8 X s
 gsave  711 564 1534 12 C 2230.83 90.8246 t 90 r /Helvetica-Bold findfont 19.9646 sf 0 0 m (U/O\255flow \(S,B\): \(0.0, 0.0\)% / \(0.0, 0.0\)%) show NC gr  0.48 0.56 0.6 c 0.364706 0.419608 0.490196 c 278 38 1542 536 bf 0.48 0.56 0.6 c 1542 536 m 278
 X s 1820 536 m 38 Y s 1820 574 m -278 X s 1542 574 m -38 Y s 1 1 1 c black 1 1 1 c
 gsave  711 564 1534 12 C 1545.91 548.458 t 0 r /Helvetica-Bold findfont 28.5208 sf 0 0 m (Input variable: MET) show NC gr 
 gr  gr showpage
end
%%EOF
