%!PS-Adobe-2.0 EPSF-2.0
%%BoundingBox:  0 0 567 545
%%Title: plots/CorrelationMatrixS.eps: Correlations between MVA input variables (signal)
%%Creator: ROOT Version 6.06/06
%%CreationDate: Thu Sep  1 15:01:43 2016
%%DocumentNeededResources: ProcSet (FontSetInit)
%%EndComments
%%BeginProlog
80 dict begin
/s {stroke} def /l {lineto} def /m {moveto} def /t {translate} def
/r {rotate} def /rl {roll}  def /R {repeat} def
/d {rlineto} def /rm {rmoveto} def /gr {grestore} def /f {eofill} def
/c {setrgbcolor} def /black {0 setgray} def /sd {setdash} def
/cl {closepath} def /sf {scalefont setfont} def /lw {setlinewidth} def
/box {m dup 0 exch d exch 0 d 0 exch neg d cl} def
/NC{systemdict begin initclip end}def/C{NC box clip newpath}def
/bl {box s} def /bf {gsave box gsave f grestore 1 lw [] 0 sd s grestore} def /Y { 0 exch d} def /X { 0 d} def 
/K {{pop pop 0 moveto} exch kshow} bind def
/ita {/ang 15 def gsave [1 0 ang dup sin exch cos div 1 0 0] concat} def 
/mp {newpath /y exch def /x exch def} def
/side {[w .77 mul w .23 mul] .385 w mul sd w 0 l currentpoint t -144 r} def
/mr {mp x y w2 0 360 arc} def /m24 {mr s} def /m20 {mr f} def
/mb {mp x y w2 add m w2 neg 0 d 0 w neg d w 0 d 0 w d cl} def
/mt {mp x y w2 add m w2 neg w neg d w 0 d cl} def
/m21 {mb f} def /m25 {mb s} def /m22 {mt f} def /m26{mt s} def
/m23 {mp x y w2 sub m w2 w d w neg 0 d cl f} def
/m27 {mp x y w2 add m w3 neg w2 neg d w3 w2 neg d w3 w2 d cl s} def
/m28 {mp x w2 sub y w2 sub w3 add m w3 0 d  0 w3 neg d w3 0 d 0 w3 d w3 0 d  0 w3 d w3 neg 0 d 0 w3 d w3 neg 0 d 0 w3 neg d w3 neg 0 d cl s } def
/m29 {mp gsave x w2 sub y w2 add w3 sub m currentpoint t 4 {side} repeat cl fill gr} def
/m30 {mp gsave x w2 sub y w2 add w3 sub m currentpoint t 4 {side} repeat cl s gr} def
/m31 {mp x y w2 sub m 0 w d x w2 sub y m w 0 d x w2 sub y w2 add m w w neg d x w2 sub y w2 sub m w w d s} def
/m32 {mp x y w2 sub m w2 w d w neg 0 d cl s} def
/m33 {mp x y w2 add m w3 neg w2 neg d w3 w2 neg d w3 w2 d cl f} def
/m34 {mp x w2 sub y w2 sub w3 add m w3 0 d  0 w3 neg d w3 0 d 0 w3 d w3 0 d  0 w3 d w3 neg 0 d 0 w3 d w3 neg 0 d 0 w3 neg d w3 neg 0 d cl f } def
/m2 {mp x y w2 sub m 0 w d x w2 sub y m w 0 d s} def
/m5 {mp x w2 sub y w2 sub m w w d x w2 sub y w2 add m w w neg d s} def
%%IncludeResource: ProcSet (FontSetInit)
%%IncludeResource: font Times-Roman
%%IncludeResource: font Times-Italic
%%IncludeResource: font Times-Bold
%%IncludeResource: font Times-BoldItalic
%%IncludeResource: font Helvetica
%%IncludeResource: font Helvetica-Oblique
%%IncludeResource: font Helvetica-Bold
%%IncludeResource: font Helvetica-BoldOblique
%%IncludeResource: font Courier
%%IncludeResource: font Courier-Oblique
%%IncludeResource: font Courier-Bold
%%IncludeResource: font Courier-BoldOblique
%%IncludeResource: font Symbol
%%IncludeResource: font ZapfDingbats
/reEncode {exch findfont dup length dict begin {1 index /FID eq  {pop pop} {def} ifelse } forall /Encoding exch def currentdict end dup /FontName get exch definefont pop } def [/Times-Bold /Times-Italic /Times-BoldItalic /Helvetica /Helvetica-Oblique
 /Helvetica-Bold /Helvetica-BoldOblique /Courier /Courier-Oblique /Courier-Bold /Courier-BoldOblique /Times-Roman /AvantGarde-Book /AvantGarde-BookOblique /AvantGarde-Demi /AvantGarde-DemiOblique /Bookman-Demi /Bookman-DemiItalic /Bookman-Light
 /Bookman-LightItalic /Helvetica-Narrow /Helvetica-Narrow-Bold /Helvetica-Narrow-BoldOblique /Helvetica-Narrow-Oblique /NewCenturySchlbk-Roman /NewCenturySchlbk-Bold /NewCenturySchlbk-BoldItalic /NewCenturySchlbk-Italic /Palatino-Bold
 /Palatino-BoldItalic /Palatino-Italic /Palatino-Roman ] {ISOLatin1Encoding reEncode } forall
%%EndProlog
%%BeginSetup
%%EndSetup
newpath  gsave  .25 .25 scale  gsave  0 0 t 0.490196 0.545098 0.615686 c[  ] 0 sd 3 lw 0.941176 0.941176 0.941176 c 2268 2180 0 0 bf black 1 1 0.992157 c 1633 1570 340 327 bf black 1633 1570 340 327 bl 1 1 0.992157 c 1633 1570 340 327 bf black 1633
 1570 340 327 bl 1 1 1 c 1 0 0 c 82 79 340 327 bf 0.133333 1 0 c 81 79 422 327 bf 0.413333 1 0 c 82 79 503 327 bf 0 1 0.0533333 c 82 79 585 327 bf 81 79 667 327 bf 82 79 748 327 bf 82 79 830 327 bf 81 79 912 327 bf 82 79 993 327 bf 82 79 1075 327 bf
 0.413333 1 0 c 81 79 1157 327 bf 1 0.466667 0 c 82 79 1238 327 bf 81 79 1320 327 bf 0 1 0.333333 c 82 79 1401 327 bf 0.6 1 0 c 82 79 1483 327 bf 0 1 0.52 c 81 79 1565 327 bf 82 79 1646 327 bf 0 1 0.0533333 c 82 79 1728 327 bf 81 79 1810 327 bf 1
 0.466667 0 c 82 79 1891 327 bf 0.133333 1 0 c 82 78 340 406 bf 1 0 0 c 81 78 422 406 bf 0 1 0.0533333 c 82 78 503 406 bf 82 78 585 406 bf 81 78 667 406 bf 82 78 748 406 bf 0.6 1 0 c 82 78 830 406 bf 0.133333 1 0 c 81 78 912 406 bf 0 1 0.333333 c 82
 78 993 406 bf 0 1 0.0533333 c 82 78 1075 406 bf 81 78 1157 406 bf 1 0.653333 0 c 82 78 1238 406 bf 0.133333 1 0 c 81 78 1320 406 bf 82 78 1401 406 bf 0.413333 1 0 c 82 78 1483 406 bf 0 1 0.986667 c 81 78 1565 406 bf 0 1 0.333333 c 82 78 1646 406 bf
 0 1 0.8 c 82 78 1728 406 bf 0.133333 1 0 c 81 78 1810 406 bf 0.6 1 0 c 82 78 1891 406 bf 0.413333 1 0 c 82 79 340 484 bf 0 1 0.0533333 c 81 79 422 484 bf 1 0 0 c 82 79 503 484 bf 0 1 0.0533333 c 82 79 585 484 bf 81 79 667 484 bf 82 79 748 484 bf
 0.413333 1 0 c 82 79 830 484 bf 0.133333 1 0 c 81 79 912 484 bf 0 1 0.0533333 c 82 79 993 484 bf 82 79 1075 484 bf 81 79 1157 484 bf 0.133333 1 0 c 82 79 1238 484 bf 1 0.653333 0 c 81 79 1320 484 bf 0.413333 1 0 c 82 79 1401 484 bf 0.133333 1 0 c 82
 79 1483 484 bf 0 1 0.8 c 81 79 1565 484 bf 82 79 1646 484 bf 0 1 0.52 c 82 79 1728 484 bf 0 1 0.0533333 c 81 79 1810 484 bf 1 0.933333 0 c 82 79 1891 484 bf 0 1 0.0533333 c 82 78 340 563 bf 81 78 422 563 bf 82 78 503 563 bf 1 0 0 c 82 78 585 563 bf
 1 0.653333 0 c 81 78 667 563 bf 1 0.933333 0 c 82 78 748 563 bf 0 1 0.0533333 c 82 78 830 563 bf 81 78 912 563 bf 1 0.653333 0 c 82 78 993 563 bf 0.88 1 0 c 82 78 1075 563 bf 0 1 0.333333 c 81 78 1157 563 bf 0 1 0.0533333 c 82 78 1238 563 bf 81 78
 1320 563 bf 82 78 1401 563 bf 82 78 1483 563 bf 81 78 1565 563 bf 82 78 1646 563 bf 82 78 1728 563 bf 81 78 1810 563 bf 82 78 1891 563 bf 82 79 340 641 bf 81 79 422 641 bf 82 79 503 641 bf 1 0.653333 0 c 82 79 585 641 bf 1 0 0 c 81 79 667 641 bf 1
 0.466667 0 c 82 79 748 641 bf 0 1 0.0533333 c 82 79 830 641 bf 81 79 912 641 bf 1 0.933333 0 c 82 79 993 641 bf 0.88 1 0 c 82 79 1075 641 bf 0 1 0.0533333 c 81 79 1157 641 bf 82 79 1238 641 bf 81 79 1320 641 bf 82 79 1401 641 bf 82 79 1483 641 bf 81
 79 1565 641 bf 82 79 1646 641 bf 82 79 1728 641 bf 81 79 1810 641 bf 82 79 1891 641 bf 82 78 340 720 bf 81 78 422 720 bf 82 78 503 720 bf 1 0.933333 0 c 82 78 585 720 bf 1 0.466667 0 c 81 78 667 720 bf 1 0 0 c 82 78 748 720 bf 0 1 0.0533333 c 82 78
 830 720 bf 81 78 912 720 bf 1 0.933333 0 c 82 78 993 720 bf 0.6 1 0 c 82 78 1075 720 bf 0 1 0.0533333 c 81 78 1157 720 bf 82 78 1238 720 bf 81 78 1320 720 bf 82 78 1401 720 bf 82 78 1483 720 bf 81 78 1565 720 bf 82 78 1646 720 bf 82 78 1728 720 bf
 81 78 1810 720 bf 82 78 1891 720 bf 82 79 340 798 bf 0.6 1 0 c 81 79 422 798 bf 0.413333 1 0 c 82 79 503 798 bf 0 1 0.0533333 c 82 79 585 798 bf 81 79 667 798 bf 82 79 748 798 bf 1 0 0 c 82 79 830 798 bf 1 0.933333 0 c 81 79 912 798 bf 0 1 0.0533333
 c 82 79 993 798 bf 82 79 1075 798 bf 0.88 1 0 c 81 79 1157 798 bf 0.133333 1 0 c 82 79 1238 798 bf 0 1 0.0533333 c 81 79 1320 798 bf 82 79 1401 798 bf 82 79 1483 798 bf 0 1 0.8 c 81 79 1565 798 bf 0 1 0.333333 c 82 79 1646 798 bf 0.413333 1 0 c 82
 79 1728 798 bf 1 0.933333 0 c 81 79 1810 798 bf 0.133333 1 0 c 82 79 1891 798 bf 0 1 0.0533333 c 82 78 340 877 bf 0.133333 1 0 c 81 78 422 877 bf 82 78 503 877 bf 0 1 0.0533333 c 82 78 585 877 bf 81 78 667 877 bf 82 78 748 877 bf 1 0.933333 0 c 82
 78 830 877 bf 1 0 0 c 81 78 912 877 bf 0 1 0.0533333 c 82 78 993 877 bf 82 78 1075 877 bf 0.413333 1 0 c 81 78 1157 877 bf 0 1 0.0533333 c 82 78 1238 877 bf 81 78 1320 877 bf 82 78 1401 877 bf 82 78 1483 877 bf 0 1 0.52 c 81 78 1565 877 bf 0 1
 0.0533333 c 82 78 1646 877 bf 0.133333 1 0 c 82 78 1728 877 bf 1 0.933333 0 c 81 78 1810 877 bf 0 1 0.0533333 c 82 78 1891 877 bf 82 79 340 955 bf 0 1 0.333333 c 81 79 422 955 bf 0 1 0.0533333 c 82 79 503 955 bf 1 0.653333 0 c 82 79 585 955 bf 1
 0.933333 0 c 81 79 667 955 bf 82 79 748 955 bf 0 1 0.0533333 c 82 79 830 955 bf 81 79 912 955 bf 1 0 0 c 82 79 993 955 bf 0.88 1 0 c 82 79 1075 955 bf 0 1 0.333333 c 81 79 1157 955 bf 0 1 0.0533333 c 82 79 1238 955 bf 81 79 1320 955 bf 82 79 1401
 955 bf 82 79 1483 955 bf 81 79 1565 955 bf 82 79 1646 955 bf 82 79 1728 955 bf 81 79 1810 955 bf 82 79 1891 955 bf 82 78 340 1034 bf 81 78 422 1034 bf 82 78 503 1034 bf 0.88 1 0 c 82 78 585 1034 bf 81 78 667 1034 bf 0.6 1 0 c 82 78 748 1034 bf 0 1
 0.0533333 c 82 78 830 1034 bf 81 78 912 1034 bf 0.88 1 0 c 82 78 993 1034 bf 1 0 0 c 82 78 1075 1034 bf 0 1 0.333333 c 81 78 1157 1034 bf 0 1 0.0533333 c 82 78 1238 1034 bf 81 78 1320 1034 bf 82 78 1401 1034 bf 82 78 1483 1034 bf 81 78 1565 1034 bf
 0 1 0.333333 c 82 78 1646 1034 bf 0 1 0.0533333 c 82 78 1728 1034 bf 81 78 1810 1034 bf 82 78 1891 1034 bf 0.413333 1 0 c 82 79 340 1112 bf 0 1 0.0533333 c 81 79 422 1112 bf 82 79 503 1112 bf 0 1 0.333333 c 82 79 585 1112 bf 0 1 0.0533333 c 81 79
 667 1112 bf 82 79 748 1112 bf 0.88 1 0 c 82 79 830 1112 bf 0.413333 1 0 c 81 79 912 1112 bf 0 1 0.333333 c 82 79 993 1112 bf 82 79 1075 1112 bf 1 0 0 c 81 79 1157 1112 bf 0.133333 1 0 c 82 79 1238 1112 bf 81 79 1320 1112 bf 0 1 0.52 c 82 79 1401
 1112 bf 0.133333 1 0 c 82 79 1483 1112 bf 0 1 0.52 c 81 79 1565 1112 bf 82 79 1646 1112 bf 0.413333 1 0 c 82 79 1728 1112 bf 81 79 1810 1112 bf 0.133333 1 0 c 82 79 1891 1112 bf 1 0.466667 0 c 82 78 340 1191 bf 1 0.653333 0 c 81 78 422 1191 bf
 0.133333 1 0 c 82 78 503 1191 bf 0 1 0.0533333 c 82 78 585 1191 bf 81 78 667 1191 bf 82 78 748 1191 bf 0.133333 1 0 c 82 78 830 1191 bf 0 1 0.0533333 c 81 78 912 1191 bf 82 78 993 1191 bf 82 78 1075 1191 bf 0.133333 1 0 c 81 78 1157 1191 bf 1 0 0 c
 82 78 1238 1191 bf 1 0.653333 0 c 81 78 1320 1191 bf 0 1 0.0533333 c 82 78 1401 1191 bf 1 0.653333 0 c 82 78 1483 1191 bf 0 0.733333 1 c 81 78 1565 1191 bf 0 1 0.8 c 82 78 1646 1191 bf 0 1 0.333333 c 82 78 1728 1191 bf 0 1 0.0533333 c 81 78 1810
 1191 bf 1 0.186667 0 c 82 78 1891 1191 bf 1 0.466667 0 c 82 79 340 1269 bf 0.133333 1 0 c 81 79 422 1269 bf 1 0.653333 0 c 82 79 503 1269 bf 0 1 0.0533333 c 82 79 585 1269 bf 81 79 667 1269 bf 82 79 748 1269 bf 82 79 830 1269 bf 81 79 912 1269 bf 82
 79 993 1269 bf 82 79 1075 1269 bf 0.133333 1 0 c 81 79 1157 1269 bf 1 0.653333 0 c 82 79 1238 1269 bf 1 0 0 c 81 79 1320 1269 bf 0.133333 1 0 c 82 79 1401 1269 bf 0.88 1 0 c 82 79 1483 1269 bf 0 1 0.8 c 81 79 1565 1269 bf 82 79 1646 1269 bf 0 1
 0.0533333 c 82 79 1728 1269 bf 81 79 1810 1269 bf 1 0 0 c 82 79 1891 1269 bf 0 1 0.333333 c 82 78 340 1348 bf 0.133333 1 0 c 81 78 422 1348 bf 0.413333 1 0 c 82 78 503 1348 bf 0 1 0.0533333 c 82 78 585 1348 bf 81 78 667 1348 bf 82 78 748 1348 bf 82
 78 830 1348 bf 81 78 912 1348 bf 82 78 993 1348 bf 82 78 1075 1348 bf 0 1 0.52 c 81 78 1157 1348 bf 0 1 0.0533333 c 82 78 1238 1348 bf 0.133333 1 0 c 81 78 1320 1348 bf 1 0 0 c 82 78 1401 1348 bf 0 1 0.52 c 82 78 1483 1348 bf 1 0.933333 0 c 81 78
 1565 1348 bf 0 1 0.0533333 c 82 78 1646 1348 bf 0 1 0.52 c 82 78 1728 1348 bf 0 1 0.0533333 c 81 78 1810 1348 bf 0.413333 1 0 c 82 78 1891 1348 bf 0.6 1 0 c 82 79 340 1426 bf 0.413333 1 0 c 81 79 422 1426 bf 0.133333 1 0 c 82 79 503 1426 bf 0 1
 0.0533333 c 82 79 585 1426 bf 81 79 667 1426 bf 82 79 748 1426 bf 82 79 830 1426 bf 81 79 912 1426 bf 82 79 993 1426 bf 82 79 1075 1426 bf 0.133333 1 0 c 81 79 1157 1426 bf 1 0.653333 0 c 82 79 1238 1426 bf 0.88 1 0 c 81 79 1320 1426 bf 0 1 0.52 c
 82 79 1401 1426 bf 1 0 0 c 82 79 1483 1426 bf 0 0.733333 1 c 81 79 1565 1426 bf 0 1 0.986667 c 82 79 1646 1426 bf 0 1 0.0533333 c 82 79 1728 1426 bf 0 1 0.333333 c 81 79 1810 1426 bf 1 0.933333 0 c 82 79 1891 1426 bf 0 1 0.52 c 82 78 340 1505 bf 0 1
 0.986667 c 81 78 422 1505 bf 0 1 0.8 c 82 78 503 1505 bf 0 1 0.0533333 c 82 78 585 1505 bf 81 78 667 1505 bf 82 78 748 1505 bf 0 1 0.8 c 82 78 830 1505 bf 0 1 0.52 c 81 78 912 1505 bf 0 1 0.0533333 c 82 78 993 1505 bf 82 78 1075 1505 bf 0 1 0.52 c
 81 78 1157 1505 bf 0 0.733333 1 c 82 78 1238 1505 bf 0 1 0.8 c 81 78 1320 1505 bf 1 0.933333 0 c 82 78 1401 1505 bf 0 0.733333 1 c 82 78 1483 1505 bf 1 0 0 c 81 78 1565 1505 bf 0.413333 1 0 c 82 78 1646 1505 bf 0 1 0.0533333 c 82 78 1728 1505 bf 0 1
 0.333333 c 81 78 1810 1505 bf 0 1 0.8 c 82 78 1891 1505 bf 0 1 0.52 c 82 79 340 1583 bf 0 1 0.333333 c 81 79 422 1583 bf 0 1 0.8 c 82 79 503 1583 bf 0 1 0.0533333 c 82 79 585 1583 bf 81 79 667 1583 bf 82 79 748 1583 bf 0 1 0.333333 c 82 79 830 1583
 bf 0 1 0.0533333 c 81 79 912 1583 bf 82 79 993 1583 bf 0 1 0.333333 c 82 79 1075 1583 bf 0 1 0.52 c 81 79 1157 1583 bf 0 1 0.8 c 82 79 1238 1583 bf 81 79 1320 1583 bf 0 1 0.0533333 c 82 79 1401 1583 bf 0 1 0.986667 c 82 79 1483 1583 bf 0.413333 1 0
 c 81 79 1565 1583 bf 1 0 0 c 82 79 1646 1583 bf 0 1 0.52 c 82 79 1728 1583 bf 0.133333 1 0 c 81 79 1810 1583 bf 0 1 0.8 c 82 79 1891 1583 bf 0 1 0.0533333 c 82 78 340 1662 bf 0 1 0.8 c 81 78 422 1662 bf 0 1 0.52 c 82 78 503 1662 bf 0 1 0.0533333 c
 82 78 585 1662 bf 81 78 667 1662 bf 82 78 748 1662 bf 0.413333 1 0 c 82 78 830 1662 bf 0.133333 1 0 c 81 78 912 1662 bf 0 1 0.0533333 c 82 78 993 1662 bf 82 78 1075 1662 bf 0.413333 1 0 c 81 78 1157 1662 bf 0 1 0.333333 c 82 78 1238 1662 bf 0 1
 0.0533333 c 81 78 1320 1662 bf 0 1 0.52 c 82 78 1401 1662 bf 0 1 0.0533333 c 82 78 1483 1662 bf 81 78 1565 1662 bf 0 1 0.52 c 82 78 1646 1662 bf 1 0 0 c 82 78 1728 1662 bf 0 1 0.0533333 c 81 78 1810 1662 bf 0 1 0.333333 c 82 78 1891 1662 bf 0 1
 0.0533333 c 82 79 340 1740 bf 0.133333 1 0 c 81 79 422 1740 bf 0 1 0.0533333 c 82 79 503 1740 bf 82 79 585 1740 bf 81 79 667 1740 bf 82 79 748 1740 bf 1 0.933333 0 c 82 79 830 1740 bf 81 79 912 1740 bf 0 1 0.0533333 c 82 79 993 1740 bf 82 79 1075
 1740 bf 0.413333 1 0 c 81 79 1157 1740 bf 0 1 0.0533333 c 82 79 1238 1740 bf 81 79 1320 1740 bf 82 79 1401 1740 bf 0 1 0.333333 c 82 79 1483 1740 bf 81 79 1565 1740 bf 0.133333 1 0 c 82 79 1646 1740 bf 0 1 0.0533333 c 82 79 1728 1740 bf 1 0 0 c 81
 79 1810 1740 bf 0 1 0.0533333 c 82 79 1891 1740 bf 1 0.466667 0 c 82 78 340 1819 bf 0.6 1 0 c 81 78 422 1819 bf 1 0.933333 0 c 82 78 503 1819 bf 0 1 0.0533333 c 82 78 585 1819 bf 81 78 667 1819 bf 82 78 748 1819 bf 0.133333 1 0 c 82 78 830 1819 bf 0
 1 0.0533333 c 81 78 912 1819 bf 82 78 993 1819 bf 82 78 1075 1819 bf 0.133333 1 0 c 81 78 1157 1819 bf 1 0.186667 0 c 82 78 1238 1819 bf 1 0 0 c 81 78 1320 1819 bf 0.413333 1 0 c 82 78 1401 1819 bf 1 0.933333 0 c 82 78 1483 1819 bf 0 1 0.8 c 81 78
 1565 1819 bf 82 78 1646 1819 bf 0 1 0.333333 c 82 78 1728 1819 bf 0 1 0.0533333 c 81 78 1810 1819 bf 1 0 0 c 82 78 1891 1819 bf 0.386667 0 1 c 102 79 1984 327 bf 0.2 0 1 c 102 78 1984 406 bf 0 0.0800001 1 c 102 79 1984 484 bf 0 0.266667 1 c 102 78
 1984 563 bf 0 0.546666 1 c 102 79 1984 641 bf 0 0.733333 1 c 102 78 1984 720 bf 0 1 0.986667 c 102 79 1984 798 bf 0 1 0.8 c 102 78 1984 877 bf 0 1 0.52 c 102 79 1984 955 bf 0 1 0.333333 c 102 78 1984 1034 bf 0 1 0.0533333 c 102 79 1984 1112 bf
 0.133333 1 0 c 102 78 1984 1191 bf 0.413333 1 0 c 102 79 1984 1269 bf 0.6 1 0 c 102 78 1984 1348 bf 0.88 1 0 c 102 79 1984 1426 bf 1 0.933333 0 c 102 78 1984 1505 bf 1 0.653333 0 c 102 79 1984 1583 bf 1 0.466667 0 c 102 78 1984 1662 bf 1 0.186667 0
 c 102 79 1984 1740 bf 1 0 0 c 102 78 1984 1819 bf black 2086 327 m 1570 Y s 2021 327 m 65 X s 2021 484 m 65 X s 2021 641 m 65 X s 2021 798 m 65 X s 2021 955 m 65 X s 2021 1112 m 65 X s 2021 1269 m 65 X s 2021 1426 m 65 X s 2021 1583 m 65 X s 2021
 1740 m 65 X s 2021 1897 m 65 X s
 gsave  2268 2180 0 0 C 2138.78 299.581 t 0 r /Helvetica-Bold findfont 79.6355 sf 0 0 m (100) show NC gr 
 gsave  2268 2180 0 0 C 2097.07 299.581 t 0 r /Symbol findfont 79.6355 sf 0 0 m (-) show NC gr 
 gsave  2268 2180 0 0 C 2138.78 455.06 t 0 r /Helvetica-Bold findfont 79.6355 sf 0 0 m (80) show NC gr 
 gsave  2268 2180 0 0 C 2097.07 455.06 t 0 r /Symbol findfont 79.6355 sf 0 0 m (-) show NC gr 
 gsave  2268 2180 0 0 C 2138.78 614.331 t 0 r /Helvetica-Bold findfont 79.6355 sf 0 0 m (60) show NC gr 
 gsave  2268 2180 0 0 C 2097.07 614.331 t 0 r /Symbol findfont 79.6355 sf 0 0 m (-) show NC gr 
 gsave  2268 2180 0 0 C 2138.78 769.81 t 0 r /Helvetica-Bold findfont 79.6355 sf 0 0 m (40) show NC gr 
 gsave  2268 2180 0 0 C 2097.07 769.81 t 0 r /Symbol findfont 79.6355 sf 0 0 m (-) show NC gr 
 gsave  2268 2180 0 0 C 2138.78 925.289 t 0 r /Helvetica-Bold findfont 79.6355 sf 0 0 m (20) show NC gr 
 gsave  2268 2180 0 0 C 2097.07 925.289 t 0 r /Symbol findfont 79.6355 sf 0 0 m (-) show NC gr 
 gsave  2268 2180 0 0 C 2097.07 1084.56 t 0 r /Helvetica-Bold findfont 79.6355 sf 0 0 m (0) show NC gr 
 gsave  2268 2180 0 0 C 2097.07 1240.04 t 0 r /Helvetica-Bold findfont 79.6355 sf 0 0 m (20) show NC gr 
 gsave  2268 2180 0 0 C 2097.07 1399.31 t 0 r /Helvetica-Bold findfont 79.6355 sf 0 0 m (40) show NC gr 
 gsave  2268 2180 0 0 C 2097.07 1554.79 t 0 r /Helvetica-Bold findfont 79.6355 sf 0 0 m (60) show NC gr 
 gsave  2268 2180 0 0 C 2097.07 1710.27 t 0 r /Helvetica-Bold findfont 79.6355 sf 0 0 m (80) show NC gr 
 gsave  2268 2180 0 0 C 2097.07 1869.54 t 0 r /Helvetica-Bold findfont 79.6355 sf 0 0 m (100) show NC gr  1 1 1 c black 340 327 m 1633 X s
 gsave  2268 2180 0 0 C 371.632 261.66 t -19 r /Helvetica-Bold findfont 53.0904 sf 0 0 m (lep_Pt_0) show NC gr 
 gsave  2268 2180 0 0 C 451.268 261.66 t -19 r /Helvetica-Bold findfont 53.0904 sf 0 0 m (lep_Pt_1) show NC gr 
 gsave  2268 2180 0 0 C 534.696 261.66 t -19 r /Helvetica-Bold findfont 53.0904 sf 0 0 m (lep_Pt_2) show NC gr 
 gsave  2268 2180 0 0 C 618.123 261.66 t -19 r /Helvetica-Bold findfont 53.0904 sf 0 0 m (lep_Eta_0) show NC gr 
 gsave  2268 2180 0 0 C 697.759 261.66 t -19 r /Helvetica-Bold findfont 53.0904 sf 0 0 m (lep_Eta_1) show NC gr 
 gsave  2268 2180 0 0 C 781.187 261.66 t -19 r /Helvetica-Bold findfont 53.0904 sf 0 0 m (lep_Eta_2) show NC gr 
 gsave  2268 2180 0 0 C 860.822 261.66 t -19 r /Helvetica-Bold findfont 53.0904 sf 0 0 m (lead_jetPt) show NC gr 
 gsave  2268 2180 0 0 C 944.25 261.66 t -19 r /Helvetica-Bold findfont 53.0904 sf 0 0 m (sublead_jetPt) show NC gr 
 gsave  2268 2180 0 0 C 1023.89 261.66 t -19 r /Helvetica-Bold findfont 53.0904 sf 0 0 m (lead_jetEta) show NC gr 
 gsave  2268 2180 0 0 C 1107.31 261.66 t -19 r /Helvetica-Bold findfont 53.0904 sf 0 0 m (sublead_jetEta) show NC gr 
 gsave  2268 2180 0 0 C 1186.95 261.66 t -19 r /Helvetica-Bold findfont 53.0904 sf 0 0 m (MET_RefFinal_et) show NC gr 
 gsave  2268 2180 0 0 C 1266.58 257.867 t -19 r /Helvetica-Bold findfont 53.0904 sf 0 0 m (Mll01) show NC gr 
 gsave  2268 2180 0 0 C 1346.22 257.867 t -19 r /Helvetica-Bold findfont 53.0904 sf 0 0 m (Mll02) show NC gr 
 gsave  2268 2180 0 0 C 1429.65 254.075 t -19 r /Helvetica-Bold findfont 53.0904 sf 0 0 m (Mll12) show NC gr 
 gsave  2268 2180 0 0 C 1509.28 257.867 t -19 r /Helvetica-Bold findfont 53.0904 sf 0 0 m (DRll01) show NC gr 
 gsave  2268 2180 0 0 C 1592.71 254.075 t -19 r /Helvetica-Bold findfont 53.0904 sf 0 0 m (DRll12) show NC gr 
 gsave  2268 2180 0 0 C 1672.35 257.867 t -19 r /Helvetica-Bold findfont 53.0904 sf 0 0 m (DRLJ) show NC gr 
 gsave  2268 2180 0 0 C 1755.77 257.867 t -19 r /Helvetica-Bold findfont 53.0904 sf 0 0 m (DPHIMETJ) show NC gr 
 gsave  2268 2180 0 0 C 1835.41 257.867 t -19 r /Helvetica-Bold findfont 53.0904 sf 0 0 m (MJJ) show NC gr 
 gsave  2268 2180 0 0 C 1918.84 257.867 t -19 r /Helvetica-Bold findfont 53.0904 sf 0 0 m (Mlll012) show NC gr  340 390 m -63 Y s[ 4 8] 0 sd 340 1897 m -1570 Y s[  ] 0 sd 422 390 m -63 Y s[ 4 8] 0 sd 422 1897 m -1570 Y s[  ] 0 sd 503 390 m -63 Y s[ 4
 8] 0 sd 503 1897 m -1570 Y s[  ] 0 sd 585 390 m -63 Y s[ 4 8] 0 sd 585 1897 m -1570 Y s[  ] 0 sd 667 390 m -63 Y s[ 4 8] 0 sd 667 1897 m -1570 Y s[  ] 0 sd 748 390 m -63 Y s[ 4 8] 0 sd 748 1897 m -1570 Y s[  ] 0 sd 830 390 m -63 Y s[ 4 8] 0 sd 830
 1897 m -1570 Y s[  ] 0 sd 912 390 m -63 Y s[ 4 8] 0 sd 912 1897 m -1570 Y s[  ] 0 sd 993 390 m -63 Y s[ 4 8] 0 sd 993 1897 m -1570 Y s[  ] 0 sd 1075 390 m -63 Y s[ 4 8] 0 sd 1075 1897 m -1570 Y s[  ] 0 sd 1157 390 m -63 Y s[ 4 8] 0 sd 1157 1897 m
 -1570 Y s[  ] 0 sd 1238 390 m -63 Y s[ 4 8] 0 sd 1238 1897 m -1570 Y s[  ] 0 sd 1320 390 m -63 Y s[ 4 8] 0 sd 1320 1897 m -1570 Y s[  ] 0 sd 1401 390 m -63 Y s[ 4 8] 0 sd 1401 1897 m -1570 Y s[  ] 0 sd 1483 390 m -63 Y s[ 4 8] 0 sd 1483 1897 m -1570
 Y s[  ] 0 sd 1565 390 m -63 Y s[ 4 8] 0 sd 1565 1897 m -1570 Y s[  ] 0 sd 1646 390 m -63 Y s[ 4 8] 0 sd 1646 1897 m -1570 Y s[  ] 0 sd 1728 390 m -63 Y s[ 4 8] 0 sd 1728 1897 m -1570 Y s[  ] 0 sd 1810 390 m -63 Y s[ 4 8] 0 sd 1810 1897 m -1570 Y s[ 
 ] 0 sd 1891 390 m -63 Y s[ 4 8] 0 sd 1891 1897 m -1570 Y s[  ] 0 sd 1973 390 m -63 Y s[ 4 8] 0 sd 1973 1897 m -1570 Y s[  ] 0 sd 340 1897 m 1633 X s 340 1834 m 63 Y s 422 1834 m 63 Y s 503 1834 m 63 Y s 585 1834 m 63 Y s 667 1834 m 63 Y s 748 1834 m
 63 Y s 830 1834 m 63 Y s 912 1834 m 63 Y s 993 1834 m 63 Y s 1075 1834 m 63 Y s 1157 1834 m 63 Y s 1238 1834 m 63 Y s 1320 1834 m 63 Y s 1401 1834 m 63 Y s 1483 1834 m 63 Y s 1565 1834 m 63 Y s 1646 1834 m 63 Y s 1728 1834 m 63 Y s 1810 1834 m 63 Y
 s 1891 1834 m 63 Y s 1973 1834 m 63 Y s 340 327 m 1570 Y s
 gsave  2268 2180 0 0 C 68.259 352.672 t 0 r /Helvetica-Bold findfont 53.0904 sf 0 0 m (lep_Pt_0) show NC gr 
 gsave  2268 2180 0 0 C 75.8434 432.307 t 0 r /Helvetica-Bold findfont 53.0904 sf 0 0 m (lep_Pt_1) show NC gr 
 gsave  2268 2180 0 0 C 68.259 508.151 t 0 r /Helvetica-Bold findfont 53.0904 sf 0 0 m (lep_Pt_2) show NC gr 
 gsave  2268 2180 0 0 C 41.7138 587.786 t 0 r /Helvetica-Bold findfont 53.0904 sf 0 0 m (lep_Eta_0) show NC gr 
 gsave  2268 2180 0 0 C 49.2982 667.422 t 0 r /Helvetica-Bold findfont 53.0904 sf 0 0 m (lep_Eta_1) show NC gr 
 gsave  2268 2180 0 0 C 41.7138 747.057 t 0 r /Helvetica-Bold findfont 53.0904 sf 0 0 m (lep_Eta_2) show NC gr 
 gsave  2268 2180 0 0 C 37.9217 822.901 t 0 r /Helvetica-Bold findfont 53.0904 sf 0 0 m (lead_jetPt) show NC gr 
 gsave  2268 2180 0 0 C -56.8825 902.536 t 0 r /Helvetica-Bold findfont 53.0904 sf 0 0 m (sublead_jetPt) show NC gr 
 gsave  2268 2180 0 0 C 7.58434 982.172 t 0 r /Helvetica-Bold findfont 53.0904 sf 0 0 m (lead_jetEta) show NC gr 
 gsave  2268 2180 0 0 C -87.2199 1058.02 t 0 r /Helvetica-Bold findfont 53.0904 sf 0 0 m (sublead_jetEta) show NC gr 
 gsave  2268 2180 0 0 C -140.31 1133.86 t 0 r /Helvetica-Bold findfont 53.0904 sf 0 0 m (MET_RefFinal_et) show NC gr 
 gsave  2268 2180 0 0 C 163.063 1209.7 t 0 r /Helvetica-Bold findfont 53.0904 sf 0 0 m (Mll01) show NC gr 
 gsave  2268 2180 0 0 C 155.479 1285.55 t 0 r /Helvetica-Bold findfont 53.0904 sf 0 0 m (Mll02) show NC gr 
 gsave  2268 2180 0 0 C 155.479 1365.18 t 0 r /Helvetica-Bold findfont 53.0904 sf 0 0 m (Mll12) show NC gr 
 gsave  2268 2180 0 0 C 128.934 1444.82 t 0 r /Helvetica-Bold findfont 53.0904 sf 0 0 m (DRll01) show NC gr 
 gsave  2268 2180 0 0 C 121.349 1524.45 t 0 r /Helvetica-Bold findfont 53.0904 sf 0 0 m (DRll12) show NC gr 
 gsave  2268 2180 0 0 C 151.687 1600.3 t 0 r /Helvetica-Bold findfont 53.0904 sf 0 0 m (DRLJ) show NC gr 
 gsave  2268 2180 0 0 C 22.753 1679.93 t 0 r /Helvetica-Bold findfont 53.0904 sf 0 0 m (DPHIMETJ) show NC gr 
 gsave  2268 2180 0 0 C 185.816 1759.57 t 0 r /Helvetica-Bold findfont 53.0904 sf 0 0 m (MJJ) show NC gr 
 gsave  2268 2180 0 0 C 109.973 1835.41 t 0 r /Helvetica-Bold findfont 53.0904 sf 0 0 m (Mlll012) show NC gr  405 327 m -65 X s[ 4 8] 0 sd 1973 327 m -1633 X s[  ] 0 sd 405 406 m -65 X s[ 4 8] 0 sd 1973 406 m -1633 X s[  ] 0 sd 405 484 m -65 X s[ 4
 8] 0 sd 1973 484 m -1633 X s[  ] 0 sd 405 563 m -65 X s[ 4 8] 0 sd 1973 563 m -1633 X s[  ] 0 sd 405 641 m -65 X s[ 4 8] 0 sd 1973 641 m -1633 X s[  ] 0 sd 405 720 m -65 X s[ 4 8] 0 sd 1973 720 m -1633 X s[  ] 0 sd 405 798 m -65 X s[ 4 8] 0 sd 1973
 798 m -1633 X s[  ] 0 sd 405 877 m -65 X s[ 4 8] 0 sd 1973 877 m -1633 X s[  ] 0 sd 405 955 m -65 X s[ 4 8] 0 sd 1973 955 m -1633 X s[  ] 0 sd 405 1034 m -65 X s[ 4 8] 0 sd 1973 1034 m -1633 X s[  ] 0 sd 405 1112 m -65 X s[ 4 8] 0 sd 1973 1112 m
 -1633 X s[  ] 0 sd 405 1191 m -65 X s[ 4 8] 0 sd 1973 1191 m -1633 X s[  ] 0 sd 405 1269 m -65 X s[ 4 8] 0 sd 1973 1269 m -1633 X s[  ] 0 sd 405 1348 m -65 X s[ 4 8] 0 sd 1973 1348 m -1633 X s[  ] 0 sd 405 1426 m -65 X s[ 4 8] 0 sd 1973 1426 m -1633
 X s[  ] 0 sd 405 1505 m -65 X s[ 4 8] 0 sd 1973 1505 m -1633 X s[  ] 0 sd 405 1583 m -65 X s[ 4 8] 0 sd 1973 1583 m -1633 X s[  ] 0 sd 405 1662 m -65 X s[ 4 8] 0 sd 1973 1662 m -1633 X s[  ] 0 sd 405 1740 m -65 X s[ 4 8] 0 sd 1973 1740 m -1633 X s[ 
 ] 0 sd 405 1819 m -65 X s[ 4 8] 0 sd 1973 1819 m -1633 X s[  ] 0 sd 405 1897 m -65 X s[ 4 8] 0 sd 1973 1897 m -1633 X s[  ] 0 sd 1973 327 m 1570 Y s 1908 327 m 65 X s 1908 406 m 65 X s 1908 484 m 65 X s 1908 563 m 65 X s 1908 641 m 65 X s 1908 720 m
 65 X s 1908 798 m 65 X s 1908 877 m 65 X s 1908 955 m 65 X s 1908 1034 m 65 X s 1908 1112 m 65 X s 1908 1191 m 65 X s 1908 1269 m 65 X s 1908 1348 m 65 X s 1908 1426 m 65 X s 1908 1505 m 65 X s 1908 1583 m 65 X s 1908 1662 m 65 X s 1908 1740 m 65 X
 s 1908 1819 m 65 X s 1908 1897 m 65 X s 0.490196 0.545098 0.615686 c 0.364706 0.419608 0.490196 c 1312 119 23 2051 bf 0.490196 0.545098 0.615686 c 23 2051 m 1312 X s 1335 2051 m 119 Y s 1335 2170 m -1312 X s 23 2170 m -119 Y s 1 1 1 c black 1 1 1 c
 gsave  2268 2180 0 0 C 87.2199 2085.69 t 0 r /Helvetica-Bold findfont 94.8042 sf 0 0 m (Correlation Matrix \(signal\)) show NC gr  black 1 1 1 c
 gsave  2268 2180 0 0 C 326.126 345.087 t 0 r /Helvetica-Bold findfont 60.6747 sf 0 0 m (100) show NC gr  black 1 1 1 c
 gsave  2268 2180 0 0 C 417.138 345.087 t 0 r /Helvetica-Bold findfont 60.6747 sf 0 0 m ( 10) show NC gr  black 1 1 1 c
 gsave  2268 2180 0 0 C 504.358 341.295 t 0 r /Helvetica-Bold findfont 60.6747 sf 0 0 m ( 21) show NC gr  black 1 1 1 c
 gsave  2268 2180 0 0 C 595.37 341.295 t 0 r /Helvetica-Bold findfont 60.6747 sf 0 0 m (  1) show NC gr  black 1 1 1 c
 gsave  2268 2180 0 0 C 675.006 341.295 t 0 r /Helvetica-Bold findfont 60.6747 sf 0 0 m (  1) show NC gr  black 1 1 1 c
 gsave  2268 2180 0 0 C 838.069 341.295 t 0 r /Helvetica-Bold findfont 60.6747 sf 0 0 m (  1) show NC gr  black 1 1 1 c
 gsave  2268 2180 0 0 C 1152.82 341.295 t 0 r /Helvetica-Bold findfont 60.6747 sf 0 0 m ( 22) show NC gr  black 1 1 1 c
 gsave  2268 2180 0 0 C 1236.25 345.087 t 0 r /Helvetica-Bold findfont 60.6747 sf 0 0 m ( 70) show NC gr  black 1 1 1 c
 gsave  2268 2180 0 0 C 1315.88 341.295 t 0 r /Helvetica-Bold findfont 60.6747 sf 0 0 m ( 77) show NC gr  black 1 1 1 c
 gsave  2268 2180 0 0 C 1410.69 341.295 t 0 r /Helvetica-Bold findfont 60.6747 sf 0 0 m ( \2551) show NC gr  black 1 1 1 c
 gsave  2268 2180 0 0 C 1478.95 345.087 t 0 r /Helvetica-Bold findfont 60.6747 sf 0 0 m ( 32) show NC gr  black 1 1 1 c
 gsave  2268 2180 0 0 C 1558.58 341.295 t 0 r /Helvetica-Bold findfont 60.6747 sf 0 0 m (\25517) show NC gr  black 1 1 1 c
 gsave  2268 2180 0 0 C 1638.22 345.087 t 0 r /Helvetica-Bold findfont 60.6747 sf 0 0 m (\25520) show NC gr  black 1 1 1 c
 gsave  2268 2180 0 0 C 1733.02 345.087 t 0 r /Helvetica-Bold findfont 60.6747 sf 0 0 m (  9) show NC gr  black 1 1 1 c
 gsave  2268 2180 0 0 C 1812.66 341.295 t 0 r /Helvetica-Bold findfont 60.6747 sf 0 0 m (  4) show NC gr  black 1 1 1 c
 gsave  2268 2180 0 0 C 1888.5 345.087 t 0 r /Helvetica-Bold findfont 60.6747 sf 0 0 m ( 79) show NC gr  black 1 1 1 c
 gsave  2268 2180 0 0 C 337.503 424.723 t 0 r /Helvetica-Bold findfont 60.6747 sf 0 0 m ( 10) show NC gr  black 1 1 1 c
 gsave  2268 2180 0 0 C 405.762 424.723 t 0 r /Helvetica-Bold findfont 60.6747 sf 0 0 m (100) show NC gr  black 1 1 1 c
 gsave  2268 2180 0 0 C 508.151 420.931 t 0 r /Helvetica-Bold findfont 60.6747 sf 0 0 m (  7) show NC gr  black 1 1 1 c
 gsave  2268 2180 0 0 C 830.485 424.723 t 0 r /Helvetica-Bold findfont 60.6747 sf 0 0 m ( 31) show NC gr  black 1 1 1 c
 gsave  2268 2180 0 0 C 910.12 424.723 t 0 r /Helvetica-Bold findfont 60.6747 sf 0 0 m ( 18) show NC gr  black 1 1 1 c
 gsave  2268 2180 0 0 C 1001.13 420.931 t 0 r /Helvetica-Bold findfont 60.6747 sf 0 0 m ( \2551) show NC gr  black 1 1 1 c
 gsave  2268 2180 0 0 C 1084.56 420.931 t 0 r /Helvetica-Bold findfont 60.6747 sf 0 0 m (  1) show NC gr  black 1 1 1 c
 gsave  2268 2180 0 0 C 1160.4 420.931 t 0 r /Helvetica-Bold findfont 60.6747 sf 0 0 m (  2) show NC gr  black 1 1 1 c
 gsave  2268 2180 0 0 C 1240.04 424.723 t 0 r /Helvetica-Bold findfont 60.6747 sf 0 0 m ( 61) show NC gr  black 1 1 1 c
 gsave  2268 2180 0 0 C 1315.88 424.723 t 0 r /Helvetica-Bold findfont 60.6747 sf 0 0 m ( 10) show NC gr  black 1 1 1 c
 gsave  2268 2180 0 0 C 1399.31 424.723 t 0 r /Helvetica-Bold findfont 60.6747 sf 0 0 m ( 18) show NC gr  black 1 1 1 c
 gsave  2268 2180 0 0 C 1478.95 420.931 t 0 r /Helvetica-Bold findfont 60.6747 sf 0 0 m ( 24) show NC gr  black 1 1 1 c
 gsave  2268 2180 0 0 C 1558.58 424.723 t 0 r /Helvetica-Bold findfont 60.6747 sf 0 0 m (\25534) show NC gr  black 1 1 1 c
 gsave  2268 2180 0 0 C 1645.8 424.723 t 0 r /Helvetica-Bold findfont 60.6747 sf 0 0 m ( \2559) show NC gr  black 1 1 1 c
 gsave  2268 2180 0 0 C 1721.64 420.931 t 0 r /Helvetica-Bold findfont 60.6747 sf 0 0 m (\25522) show NC gr  black 1 1 1 c
 gsave  2268 2180 0 0 C 1805.07 420.931 t 0 r /Helvetica-Bold findfont 60.6747 sf 0 0 m ( 12) show NC gr  black 1 1 1 c
 gsave  2268 2180 0 0 C 1888.5 424.723 t 0 r /Helvetica-Bold findfont 60.6747 sf 0 0 m ( 39) show NC gr  black 1 1 1 c
 gsave  2268 2180 0 0 C 341.295 496.774 t 0 r /Helvetica-Bold findfont 60.6747 sf 0 0 m ( 21) show NC gr  black 1 1 1 c
 gsave  2268 2180 0 0 C 424.723 496.774 t 0 r /Helvetica-Bold findfont 60.6747 sf 0 0 m (  7) show NC gr  black 1 1 1 c
 gsave  2268 2180 0 0 C 489.19 500.566 t 0 r /Helvetica-Bold findfont 60.6747 sf 0 0 m (100) show NC gr  black 1 1 1 c
 gsave  2268 2180 0 0 C 826.693 496.774 t 0 r /Helvetica-Bold findfont 60.6747 sf 0 0 m ( 22) show NC gr  black 1 1 1 c
 gsave  2268 2180 0 0 C 910.12 496.774 t 0 r /Helvetica-Bold findfont 60.6747 sf 0 0 m ( 12) show NC gr  black 1 1 1 c
 gsave  2268 2180 0 0 C 1160.4 496.774 t 0 r /Helvetica-Bold findfont 60.6747 sf 0 0 m (  2) show NC gr  black 1 1 1 c
 gsave  2268 2180 0 0 C 1236.25 500.566 t 0 r /Helvetica-Bold findfont 60.6747 sf 0 0 m ( 19) show NC gr  black 1 1 1 c
 gsave  2268 2180 0 0 C 1315.88 500.566 t 0 r /Helvetica-Bold findfont 60.6747 sf 0 0 m ( 65) show NC gr  black 1 1 1 c
 gsave  2268 2180 0 0 C 1399.31 500.566 t 0 r /Helvetica-Bold findfont 60.6747 sf 0 0 m ( 23) show NC gr  black 1 1 1 c
 gsave  2268 2180 0 0 C 1478.95 500.566 t 0 r /Helvetica-Bold findfont 60.6747 sf 0 0 m ( 16) show NC gr  black 1 1 1 c
 gsave  2268 2180 0 0 C 1558.58 500.566 t 0 r /Helvetica-Bold findfont 60.6747 sf 0 0 m (\25528) show NC gr  black 1 1 1 c
 gsave  2268 2180 0 0 C 1642.01 496.774 t 0 r /Helvetica-Bold findfont 60.6747 sf 0 0 m (\25521) show NC gr  black 1 1 1 c
 gsave  2268 2180 0 0 C 1721.64 496.774 t 0 r /Helvetica-Bold findfont 60.6747 sf 0 0 m (\25517) show NC gr  black 1 1 1 c
 gsave  2268 2180 0 0 C 1812.66 496.774 t 0 r /Helvetica-Bold findfont 60.6747 sf 0 0 m (  4) show NC gr  black 1 1 1 c
 gsave  2268 2180 0 0 C 1892.29 500.566 t 0 r /Helvetica-Bold findfont 60.6747 sf 0 0 m ( 51) show NC gr  black 1 1 1 c
 gsave  2268 2180 0 0 C 348.879 576.41 t 0 r /Helvetica-Bold findfont 60.6747 sf 0 0 m (  1) show NC gr  black 1 1 1 c
 gsave  2268 2180 0 0 C 572.617 580.202 t 0 r /Helvetica-Bold findfont 60.6747 sf 0 0 m (100) show NC gr  black 1 1 1 c
 gsave  2268 2180 0 0 C 663.629 580.202 t 0 r /Helvetica-Bold findfont 60.6747 sf 0 0 m ( 65) show NC gr  black 1 1 1 c
 gsave  2268 2180 0 0 C 750.849 580.202 t 0 r /Helvetica-Bold findfont 60.6747 sf 0 0 m ( 51) show NC gr  black 1 1 1 c
 gsave  2268 2180 0 0 C 989.756 580.202 t 0 r /Helvetica-Bold findfont 60.6747 sf 0 0 m ( 62) show NC gr  black 1 1 1 c
 gsave  2268 2180 0 0 C 1073.18 580.202 t 0 r /Helvetica-Bold findfont 60.6747 sf 0 0 m ( 46) show NC gr  black 1 1 1 c
 gsave  2268 2180 0 0 C 1164.2 576.41 t 0 r /Helvetica-Bold findfont 60.6747 sf 0 0 m ( \2551) show NC gr  black 1 1 1 c
 gsave  2268 2180 0 0 C 1247.62 576.41 t 0 r /Helvetica-Bold findfont 60.6747 sf 0 0 m (  1) show NC gr  black 1 1 1 c
 gsave  2268 2180 0 0 C 1323.47 576.41 t 0 r /Helvetica-Bold findfont 60.6747 sf 0 0 m (  2) show NC gr  black 1 1 1 c
 gsave  2268 2180 0 0 C 1406.89 576.41 t 0 r /Helvetica-Bold findfont 60.6747 sf 0 0 m (  2) show NC gr  black 1 1 1 c
 gsave  2268 2180 0 0 C 1573.75 576.41 t 0 r /Helvetica-Bold findfont 60.6747 sf 0 0 m (  1) show NC gr  black 1 1 1 c
 gsave  2268 2180 0 0 C 1736.81 576.41 t 0 r /Helvetica-Bold findfont 60.6747 sf 0 0 m (  1) show NC gr  black 1 1 1 c
 gsave  2268 2180 0 0 C 1896.08 576.41 t 0 r /Helvetica-Bold findfont 60.6747 sf 0 0 m (  2) show NC gr  black 1 1 1 c
 gsave  2268 2180 0 0 C 348.879 656.045 t 0 r /Helvetica-Bold findfont 60.6747 sf 0 0 m (  1) show NC gr  black 1 1 1 c
 gsave  2268 2180 0 0 C 583.994 659.837 t 0 r /Helvetica-Bold findfont 60.6747 sf 0 0 m ( 65) show NC gr  black 1 1 1 c
 gsave  2268 2180 0 0 C 652.253 659.837 t 0 r /Helvetica-Bold findfont 60.6747 sf 0 0 m (100) show NC gr  black 1 1 1 c
 gsave  2268 2180 0 0 C 747.057 659.837 t 0 r /Helvetica-Bold findfont 60.6747 sf 0 0 m ( 75) show NC gr  black 1 1 1 c
 gsave  2268 2180 0 0 C 838.069 656.045 t 0 r /Helvetica-Bold findfont 60.6747 sf 0 0 m (  1) show NC gr  black 1 1 1 c
 gsave  2268 2180 0 0 C 921.497 656.045 t 0 r /Helvetica-Bold findfont 60.6747 sf 0 0 m (  1) show NC gr  black 1 1 1 c
 gsave  2268 2180 0 0 C 989.756 659.837 t 0 r /Helvetica-Bold findfont 60.6747 sf 0 0 m ( 57) show NC gr  black 1 1 1 c
 gsave  2268 2180 0 0 C 1073.18 656.045 t 0 r /Helvetica-Bold findfont 60.6747 sf 0 0 m ( 42) show NC gr  black 1 1 1 c
 gsave  2268 2180 0 0 C 1247.62 656.045 t 0 r /Helvetica-Bold findfont 60.6747 sf 0 0 m (  1) show NC gr  black 1 1 1 c
 gsave  2268 2180 0 0 C 1410.69 656.045 t 0 r /Helvetica-Bold findfont 60.6747 sf 0 0 m (  1) show NC gr  black 1 1 1 c
 gsave  2268 2180 0 0 C 1816.45 656.045 t 0 r /Helvetica-Bold findfont 60.6747 sf 0 0 m (  1) show NC gr  black 1 1 1 c
 gsave  2268 2180 0 0 C 1899.88 656.045 t 0 r /Helvetica-Bold findfont 60.6747 sf 0 0 m (  1) show NC gr  black 1 1 1 c
 gsave  2268 2180 0 0 C 587.786 739.473 t 0 r /Helvetica-Bold findfont 60.6747 sf 0 0 m ( 51) show NC gr  black 1 1 1 c
 gsave  2268 2180 0 0 C 663.629 739.473 t 0 r /Helvetica-Bold findfont 60.6747 sf 0 0 m ( 75) show NC gr  black 1 1 1 c
 gsave  2268 2180 0 0 C 735.681 739.473 t 0 r /Helvetica-Bold findfont 60.6747 sf 0 0 m (100) show NC gr  black 1 1 1 c
 gsave  2268 2180 0 0 C 838.069 735.681 t 0 r /Helvetica-Bold findfont 60.6747 sf 0 0 m (  1) show NC gr  black 1 1 1 c
 gsave  2268 2180 0 0 C 921.497 735.681 t 0 r /Helvetica-Bold findfont 60.6747 sf 0 0 m (  1) show NC gr  black 1 1 1 c
 gsave  2268 2180 0 0 C 993.548 739.473 t 0 r /Helvetica-Bold findfont 60.6747 sf 0 0 m ( 51) show NC gr  black 1 1 1 c
 gsave  2268 2180 0 0 C 1073.18 739.473 t 0 r /Helvetica-Bold findfont 60.6747 sf 0 0 m ( 38) show NC gr  black 1 1 1 c
 gsave  2268 2180 0 0 C 1816.45 735.681 t 0 r /Helvetica-Bold findfont 60.6747 sf 0 0 m (  1) show NC gr  black 1 1 1 c
 gsave  2268 2180 0 0 C 348.879 811.524 t 0 r /Helvetica-Bold findfont 60.6747 sf 0 0 m (  1) show NC gr  black 1 1 1 c
 gsave  2268 2180 0 0 C 420.931 815.316 t 0 r /Helvetica-Bold findfont 60.6747 sf 0 0 m ( 31) show NC gr  black 1 1 1 c
 gsave  2268 2180 0 0 C 500.566 811.524 t 0 r /Helvetica-Bold findfont 60.6747 sf 0 0 m ( 22) show NC gr  black 1 1 1 c
 gsave  2268 2180 0 0 C 675.006 811.524 t 0 r /Helvetica-Bold findfont 60.6747 sf 0 0 m (  1) show NC gr  black 1 1 1 c
 gsave  2268 2180 0 0 C 758.434 811.524 t 0 r /Helvetica-Bold findfont 60.6747 sf 0 0 m (  1) show NC gr  black 1 1 1 c
 gsave  2268 2180 0 0 C 815.316 815.316 t 0 r /Helvetica-Bold findfont 60.6747 sf 0 0 m (100) show NC gr  black 1 1 1 c
 gsave  2268 2180 0 0 C 910.12 815.316 t 0 r /Helvetica-Bold findfont 60.6747 sf 0 0 m ( 52) show NC gr  black 1 1 1 c
 gsave  2268 2180 0 0 C 1152.82 811.524 t 0 r /Helvetica-Bold findfont 60.6747 sf 0 0 m ( 44) show NC gr  black 1 1 1 c
 gsave  2268 2180 0 0 C 1236.25 815.316 t 0 r /Helvetica-Bold findfont 60.6747 sf 0 0 m ( 13) show NC gr  black 1 1 1 c
 gsave  2268 2180 0 0 C 1323.47 811.524 t 0 r /Helvetica-Bold findfont 60.6747 sf 0 0 m (  7) show NC gr  black 1 1 1 c
 gsave  2268 2180 0 0 C 1486.53 815.316 t 0 r /Helvetica-Bold findfont 60.6747 sf 0 0 m (  3) show NC gr  black 1 1 1 c
 gsave  2268 2180 0 0 C 1558.58 815.316 t 0 r /Helvetica-Bold findfont 60.6747 sf 0 0 m (\25523) show NC gr  black 1 1 1 c
 gsave  2268 2180 0 0 C 1653.39 811.524 t 0 r /Helvetica-Bold findfont 60.6747 sf 0 0 m ( \2551) show NC gr  black 1 1 1 c
 gsave  2268 2180 0 0 C 1725.44 815.316 t 0 r /Helvetica-Bold findfont 60.6747 sf 0 0 m ( 23) show NC gr  black 1 1 1 c
 gsave  2268 2180 0 0 C 1805.07 815.316 t 0 r /Helvetica-Bold findfont 60.6747 sf 0 0 m ( 56) show NC gr  black 1 1 1 c
 gsave  2268 2180 0 0 C 1892.29 811.524 t 0 r /Helvetica-Bold findfont 60.6747 sf 0 0 m ( 11) show NC gr  black 1 1 1 c
 gsave  2268 2180 0 0 C 417.138 894.952 t 0 r /Helvetica-Bold findfont 60.6747 sf 0 0 m ( 18) show NC gr  black 1 1 1 c
 gsave  2268 2180 0 0 C 500.566 891.16 t 0 r /Helvetica-Bold findfont 60.6747 sf 0 0 m ( 12) show NC gr  black 1 1 1 c
 gsave  2268 2180 0 0 C 675.006 891.16 t 0 r /Helvetica-Bold findfont 60.6747 sf 0 0 m (  1) show NC gr  black 1 1 1 c
 gsave  2268 2180 0 0 C 758.434 891.16 t 0 r /Helvetica-Bold findfont 60.6747 sf 0 0 m (  1) show NC gr  black 1 1 1 c
 gsave  2268 2180 0 0 C 826.693 894.952 t 0 r /Helvetica-Bold findfont 60.6747 sf 0 0 m ( 52) show NC gr  black 1 1 1 c
 gsave  2268 2180 0 0 C 898.744 894.952 t 0 r /Helvetica-Bold findfont 60.6747 sf 0 0 m (100) show NC gr  black 1 1 1 c
 gsave  2268 2180 0 0 C 1001.13 891.16 t 0 r /Helvetica-Bold findfont 60.6747 sf 0 0 m (  1) show NC gr  black 1 1 1 c
 gsave  2268 2180 0 0 C 1152.82 891.16 t 0 r /Helvetica-Bold findfont 60.6747 sf 0 0 m ( 24) show NC gr  black 1 1 1 c
 gsave  2268 2180 0 0 C 1243.83 891.16 t 0 r /Helvetica-Bold findfont 60.6747 sf 0 0 m (  7) show NC gr  black 1 1 1 c
 gsave  2268 2180 0 0 C 1323.47 894.952 t 0 r /Helvetica-Bold findfont 60.6747 sf 0 0 m (  3) show NC gr  black 1 1 1 c
 gsave  2268 2180 0 0 C 1490.32 891.16 t 0 r /Helvetica-Bold findfont 60.6747 sf 0 0 m (  1) show NC gr  black 1 1 1 c
 gsave  2268 2180 0 0 C 1558.58 894.952 t 0 r /Helvetica-Bold findfont 60.6747 sf 0 0 m (\25513) show NC gr  black 1 1 1 c
 gsave  2268 2180 0 0 C 1649.59 894.952 t 0 r /Helvetica-Bold findfont 60.6747 sf 0 0 m (  5) show NC gr  black 1 1 1 c
 gsave  2268 2180 0 0 C 1729.23 891.16 t 0 r /Helvetica-Bold findfont 60.6747 sf 0 0 m ( 11) show NC gr  black 1 1 1 c
 gsave  2268 2180 0 0 C 1805.07 894.952 t 0 r /Helvetica-Bold findfont 60.6747 sf 0 0 m ( 58) show NC gr  black 1 1 1 c
 gsave  2268 2180 0 0 C 1896.08 894.952 t 0 r /Helvetica-Bold findfont 60.6747 sf 0 0 m (  6) show NC gr  black 1 1 1 c
 gsave  2268 2180 0 0 C 428.515 970.795 t 0 r /Helvetica-Bold findfont 60.6747 sf 0 0 m ( \2551) show NC gr  black 1 1 1 c
 gsave  2268 2180 0 0 C 583.994 974.587 t 0 r /Helvetica-Bold findfont 60.6747 sf 0 0 m ( 62) show NC gr  black 1 1 1 c
 gsave  2268 2180 0 0 C 663.629 974.587 t 0 r /Helvetica-Bold findfont 60.6747 sf 0 0 m ( 57) show NC gr  black 1 1 1 c
 gsave  2268 2180 0 0 C 750.849 974.587 t 0 r /Helvetica-Bold findfont 60.6747 sf 0 0 m ( 51) show NC gr  black 1 1 1 c
 gsave  2268 2180 0 0 C 921.497 970.795 t 0 r /Helvetica-Bold findfont 60.6747 sf 0 0 m (  1) show NC gr  black 1 1 1 c
 gsave  2268 2180 0 0 C 978.379 974.587 t 0 r /Helvetica-Bold findfont 60.6747 sf 0 0 m (100) show NC gr  black 1 1 1 c
 gsave  2268 2180 0 0 C 1076.98 970.795 t 0 r /Helvetica-Bold findfont 60.6747 sf 0 0 m ( 41) show NC gr  black 1 1 1 c
 gsave  2268 2180 0 0 C 1156.61 970.795 t 0 r /Helvetica-Bold findfont 60.6747 sf 0 0 m ( \2552) show NC gr  black 1 1 1 c
 gsave  2268 2180 0 0 C 1410.69 970.795 t 0 r /Helvetica-Bold findfont 60.6747 sf 0 0 m (  1) show NC gr  black 1 1 1 c
 gsave  2268 2180 0 0 C 1573.75 970.795 t 0 r /Helvetica-Bold findfont 60.6747 sf 0 0 m (  1) show NC gr  black 1 1 1 c
 gsave  2268 2180 0 0 C 428.515 1046.64 t 0 r /Helvetica-Bold findfont 60.6747 sf 0 0 m (  1) show NC gr  black 1 1 1 c
 gsave  2268 2180 0 0 C 583.994 1050.43 t 0 r /Helvetica-Bold findfont 60.6747 sf 0 0 m ( 46) show NC gr  black 1 1 1 c
 gsave  2268 2180 0 0 C 663.629 1046.64 t 0 r /Helvetica-Bold findfont 60.6747 sf 0 0 m ( 42) show NC gr  black 1 1 1 c
 gsave  2268 2180 0 0 C 747.057 1050.43 t 0 r /Helvetica-Bold findfont 60.6747 sf 0 0 m ( 38) show NC gr  black 1 1 1 c
 gsave  2268 2180 0 0 C 993.548 1046.64 t 0 r /Helvetica-Bold findfont 60.6747 sf 0 0 m ( 41) show NC gr  black 1 1 1 c
 gsave  2268 2180 0 0 C 1061.81 1050.43 t 0 r /Helvetica-Bold findfont 60.6747 sf 0 0 m (100) show NC gr  black 1 1 1 c
 gsave  2268 2180 0 0 C 1164.2 1046.64 t 0 r /Helvetica-Bold findfont 60.6747 sf 0 0 m ( \2551) show NC gr  black 1 1 1 c
 gsave  2268 2180 0 0 C 1247.62 1046.64 t 0 r /Helvetica-Bold findfont 60.6747 sf 0 0 m (  1) show NC gr  black 1 1 1 c
 gsave  2268 2180 0 0 C 1327.26 1046.64 t 0 r /Helvetica-Bold findfont 60.6747 sf 0 0 m (  1) show NC gr  black 1 1 1 c
 gsave  2268 2180 0 0 C 1410.69 1046.64 t 0 r /Helvetica-Bold findfont 60.6747 sf 0 0 m (  1) show NC gr  black 1 1 1 c
 gsave  2268 2180 0 0 C 1653.39 1046.64 t 0 r /Helvetica-Bold findfont 60.6747 sf 0 0 m ( \2551) show NC gr  black 1 1 1 c
 gsave  2268 2180 0 0 C 1816.45 1046.64 t 0 r /Helvetica-Bold findfont 60.6747 sf 0 0 m (  1) show NC gr  black 1 1 1 c
 gsave  2268 2180 0 0 C 1899.88 1046.64 t 0 r /Helvetica-Bold findfont 60.6747 sf 0 0 m (  1) show NC gr  black 1 1 1 c
 gsave  2268 2180 0 0 C 337.503 1126.27 t 0 r /Helvetica-Bold findfont 60.6747 sf 0 0 m ( 22) show NC gr  black 1 1 1 c
 gsave  2268 2180 0 0 C 424.723 1126.27 t 0 r /Helvetica-Bold findfont 60.6747 sf 0 0 m (  2) show NC gr  black 1 1 1 c
 gsave  2268 2180 0 0 C 508.151 1126.27 t 0 r /Helvetica-Bold findfont 60.6747 sf 0 0 m (  2) show NC gr  black 1 1 1 c
 gsave  2268 2180 0 0 C 595.37 1126.27 t 0 r /Helvetica-Bold findfont 60.6747 sf 0 0 m ( \2551) show NC gr  black 1 1 1 c
 gsave  2268 2180 0 0 C 826.693 1126.27 t 0 r /Helvetica-Bold findfont 60.6747 sf 0 0 m ( 44) show NC gr  black 1 1 1 c
 gsave  2268 2180 0 0 C 910.12 1126.27 t 0 r /Helvetica-Bold findfont 60.6747 sf 0 0 m ( 24) show NC gr  black 1 1 1 c
 gsave  2268 2180 0 0 C 993.548 1126.27 t 0 r /Helvetica-Bold findfont 60.6747 sf 0 0 m ( \2552) show NC gr  black 1 1 1 c
 gsave  2268 2180 0 0 C 1084.56 1126.27 t 0 r /Helvetica-Bold findfont 60.6747 sf 0 0 m ( \2551) show NC gr  black 1 1 1 c
 gsave  2268 2180 0 0 C 1141.44 1130.07 t 0 r /Helvetica-Bold findfont 60.6747 sf 0 0 m (100) show NC gr  black 1 1 1 c
 gsave  2268 2180 0 0 C 1236.25 1130.07 t 0 r /Helvetica-Bold findfont 60.6747 sf 0 0 m ( 13) show NC gr  black 1 1 1 c
 gsave  2268 2180 0 0 C 1319.67 1126.27 t 0 r /Helvetica-Bold findfont 60.6747 sf 0 0 m ( 11) show NC gr  black 1 1 1 c
 gsave  2268 2180 0 0 C 1395.52 1126.27 t 0 r /Helvetica-Bold findfont 60.6747 sf 0 0 m (\25517) show NC gr  black 1 1 1 c
 gsave  2268 2180 0 0 C 1478.95 1130.07 t 0 r /Helvetica-Bold findfont 60.6747 sf 0 0 m ( 10) show NC gr  black 1 1 1 c
 gsave  2268 2180 0 0 C 1558.58 1130.07 t 0 r /Helvetica-Bold findfont 60.6747 sf 0 0 m (\25515) show NC gr  black 1 1 1 c
 gsave  2268 2180 0 0 C 1638.22 1130.07 t 0 r /Helvetica-Bold findfont 60.6747 sf 0 0 m (\25513) show NC gr  black 1 1 1 c
 gsave  2268 2180 0 0 C 1725.44 1130.07 t 0 r /Helvetica-Bold findfont 60.6747 sf 0 0 m ( 28) show NC gr  black 1 1 1 c
 gsave  2268 2180 0 0 C 1808.86 1126.27 t 0 r /Helvetica-Bold findfont 60.6747 sf 0 0 m ( 21) show NC gr  black 1 1 1 c
 gsave  2268 2180 0 0 C 1892.29 1126.27 t 0 r /Helvetica-Bold findfont 60.6747 sf 0 0 m ( 11) show NC gr  black 1 1 1 c
 gsave  2268 2180 0 0 C 337.503 1209.7 t 0 r /Helvetica-Bold findfont 60.6747 sf 0 0 m ( 70) show NC gr  black 1 1 1 c
 gsave  2268 2180 0 0 C 420.931 1209.7 t 0 r /Helvetica-Bold findfont 60.6747 sf 0 0 m ( 61) show NC gr  black 1 1 1 c
 gsave  2268 2180 0 0 C 500.566 1209.7 t 0 r /Helvetica-Bold findfont 60.6747 sf 0 0 m ( 19) show NC gr  black 1 1 1 c
 gsave  2268 2180 0 0 C 595.37 1205.91 t 0 r /Helvetica-Bold findfont 60.6747 sf 0 0 m (  1) show NC gr  black 1 1 1 c
 gsave  2268 2180 0 0 C 675.006 1205.91 t 0 r /Helvetica-Bold findfont 60.6747 sf 0 0 m (  1) show NC gr  black 1 1 1 c
 gsave  2268 2180 0 0 C 826.693 1209.7 t 0 r /Helvetica-Bold findfont 60.6747 sf 0 0 m ( 13) show NC gr  black 1 1 1 c
 gsave  2268 2180 0 0 C 917.705 1205.91 t 0 r /Helvetica-Bold findfont 60.6747 sf 0 0 m (  7) show NC gr  black 1 1 1 c
 gsave  2268 2180 0 0 C 1084.56 1205.91 t 0 r /Helvetica-Bold findfont 60.6747 sf 0 0 m (  1) show NC gr  black 1 1 1 c
 gsave  2268 2180 0 0 C 1152.82 1209.7 t 0 r /Helvetica-Bold findfont 60.6747 sf 0 0 m ( 13) show NC gr  black 1 1 1 c
 gsave  2268 2180 0 0 C 1224.87 1209.7 t 0 r /Helvetica-Bold findfont 60.6747 sf 0 0 m (100) show NC gr  black 1 1 1 c
 gsave  2268 2180 0 0 C 1315.88 1209.7 t 0 r /Helvetica-Bold findfont 60.6747 sf 0 0 m ( 64) show NC gr  black 1 1 1 c
 gsave  2268 2180 0 0 C 1410.69 1205.91 t 0 r /Helvetica-Bold findfont 60.6747 sf 0 0 m (  1) show NC gr  black 1 1 1 c
 gsave  2268 2180 0 0 C 1478.95 1209.7 t 0 r /Helvetica-Bold findfont 60.6747 sf 0 0 m ( 64) show NC gr  black 1 1 1 c
 gsave  2268 2180 0 0 C 1562.37 1205.91 t 0 r /Helvetica-Bold findfont 60.6747 sf 0 0 m (\25541) show NC gr  black 1 1 1 c
 gsave  2268 2180 0 0 C 1638.22 1209.7 t 0 r /Helvetica-Bold findfont 60.6747 sf 0 0 m (\25529) show NC gr  black 1 1 1 c
 gsave  2268 2180 0 0 C 1729.23 1205.91 t 0 r /Helvetica-Bold findfont 60.6747 sf 0 0 m ( \2552) show NC gr  black 1 1 1 c
 gsave  2268 2180 0 0 C 1812.66 1209.7 t 0 r /Helvetica-Bold findfont 60.6747 sf 0 0 m (  5) show NC gr  black 1 1 1 c
 gsave  2268 2180 0 0 C 1888.5 1209.7 t 0 r /Helvetica-Bold findfont 60.6747 sf 0 0 m ( 86) show NC gr  black 1 1 1 c
 gsave  2268 2180 0 0 C 337.503 1281.75 t 0 r /Helvetica-Bold findfont 60.6747 sf 0 0 m ( 77) show NC gr  black 1 1 1 c
 gsave  2268 2180 0 0 C 417.138 1285.55 t 0 r /Helvetica-Bold findfont 60.6747 sf 0 0 m ( 10) show NC gr  black 1 1 1 c
 gsave  2268 2180 0 0 C 500.566 1285.55 t 0 r /Helvetica-Bold findfont 60.6747 sf 0 0 m ( 65) show NC gr  black 1 1 1 c
 gsave  2268 2180 0 0 C 591.578 1281.75 t 0 r /Helvetica-Bold findfont 60.6747 sf 0 0 m (  2) show NC gr  black 1 1 1 c
 gsave  2268 2180 0 0 C 834.277 1281.75 t 0 r /Helvetica-Bold findfont 60.6747 sf 0 0 m (  7) show NC gr  black 1 1 1 c
 gsave  2268 2180 0 0 C 917.705 1285.55 t 0 r /Helvetica-Bold findfont 60.6747 sf 0 0 m (  3) show NC gr  black 1 1 1 c
 gsave  2268 2180 0 0 C 1084.56 1281.75 t 0 r /Helvetica-Bold findfont 60.6747 sf 0 0 m (  1) show NC gr  black 1 1 1 c
 gsave  2268 2180 0 0 C 1156.61 1281.75 t 0 r /Helvetica-Bold findfont 60.6747 sf 0 0 m ( 11) show NC gr  black 1 1 1 c
 gsave  2268 2180 0 0 C 1236.25 1285.55 t 0 r /Helvetica-Bold findfont 60.6747 sf 0 0 m ( 64) show NC gr  black 1 1 1 c
 gsave  2268 2180 0 0 C 1304.51 1285.55 t 0 r /Helvetica-Bold findfont 60.6747 sf 0 0 m (100) show NC gr  black 1 1 1 c
 gsave  2268 2180 0 0 C 1399.31 1281.75 t 0 r /Helvetica-Bold findfont 60.6747 sf 0 0 m ( 14) show NC gr  black 1 1 1 c
 gsave  2268 2180 0 0 C 1478.95 1281.75 t 0 r /Helvetica-Bold findfont 60.6747 sf 0 0 m ( 44) show NC gr  black 1 1 1 c
 gsave  2268 2180 0 0 C 1558.58 1281.75 t 0 r /Helvetica-Bold findfont 60.6747 sf 0 0 m (\25524) show NC gr  black 1 1 1 c
 gsave  2268 2180 0 0 C 1638.22 1285.55 t 0 r /Helvetica-Bold findfont 60.6747 sf 0 0 m (\25528) show NC gr  black 1 1 1 c
 gsave  2268 2180 0 0 C 1812.66 1285.55 t 0 r /Helvetica-Bold findfont 60.6747 sf 0 0 m (  3) show NC gr  black 1 1 1 c
 gsave  2268 2180 0 0 C 1888.5 1285.55 t 0 r /Helvetica-Bold findfont 60.6747 sf 0 0 m ( 92) show NC gr  black 1 1 1 c
 gsave  2268 2180 0 0 C 348.879 1361.39 t 0 r /Helvetica-Bold findfont 60.6747 sf 0 0 m ( \2551) show NC gr  black 1 1 1 c
 gsave  2268 2180 0 0 C 417.138 1365.18 t 0 r /Helvetica-Bold findfont 60.6747 sf 0 0 m ( 18) show NC gr  black 1 1 1 c
 gsave  2268 2180 0 0 C 500.566 1365.18 t 0 r /Helvetica-Bold findfont 60.6747 sf 0 0 m ( 23) show NC gr  black 1 1 1 c
 gsave  2268 2180 0 0 C 591.578 1361.39 t 0 r /Helvetica-Bold findfont 60.6747 sf 0 0 m (  2) show NC gr  black 1 1 1 c
 gsave  2268 2180 0 0 C 675.006 1361.39 t 0 r /Helvetica-Bold findfont 60.6747 sf 0 0 m (  1) show NC gr  black 1 1 1 c
 gsave  2268 2180 0 0 C 1001.13 1361.39 t 0 r /Helvetica-Bold findfont 60.6747 sf 0 0 m (  1) show NC gr  black 1 1 1 c
 gsave  2268 2180 0 0 C 1084.56 1361.39 t 0 r /Helvetica-Bold findfont 60.6747 sf 0 0 m (  1) show NC gr  black 1 1 1 c
 gsave  2268 2180 0 0 C 1149.03 1361.39 t 0 r /Helvetica-Bold findfont 60.6747 sf 0 0 m (\25517) show NC gr  black 1 1 1 c
 gsave  2268 2180 0 0 C 1247.62 1361.39 t 0 r /Helvetica-Bold findfont 60.6747 sf 0 0 m (  1) show NC gr  black 1 1 1 c
 gsave  2268 2180 0 0 C 1315.88 1361.39 t 0 r /Helvetica-Bold findfont 60.6747 sf 0 0 m ( 14) show NC gr  black 1 1 1 c
 gsave  2268 2180 0 0 C 1387.93 1365.18 t 0 r /Helvetica-Bold findfont 60.6747 sf 0 0 m (100) show NC gr  black 1 1 1 c
 gsave  2268 2180 0 0 C 1475.15 1365.18 t 0 r /Helvetica-Bold findfont 60.6747 sf 0 0 m (\25518) show NC gr  black 1 1 1 c
 gsave  2268 2180 0 0 C 1562.37 1365.18 t 0 r /Helvetica-Bold findfont 60.6747 sf 0 0 m ( 55) show NC gr  black 1 1 1 c
 gsave  2268 2180 0 0 C 1649.59 1365.18 t 0 r /Helvetica-Bold findfont 60.6747 sf 0 0 m (  6) show NC gr  black 1 1 1 c
 gsave  2268 2180 0 0 C 1721.64 1361.39 t 0 r /Helvetica-Bold findfont 60.6747 sf 0 0 m (\25512) show NC gr  black 1 1 1 c
 gsave  2268 2180 0 0 C 1888.5 1365.18 t 0 r /Helvetica-Bold findfont 60.6747 sf 0 0 m ( 23) show NC gr  black 1 1 1 c
 gsave  2268 2180 0 0 C 337.503 1444.82 t 0 r /Helvetica-Bold findfont 60.6747 sf 0 0 m ( 32) show NC gr  black 1 1 1 c
 gsave  2268 2180 0 0 C 417.138 1441.02 t 0 r /Helvetica-Bold findfont 60.6747 sf 0 0 m ( 24) show NC gr  black 1 1 1 c
 gsave  2268 2180 0 0 C 500.566 1444.82 t 0 r /Helvetica-Bold findfont 60.6747 sf 0 0 m ( 16) show NC gr  black 1 1 1 c
 gsave  2268 2180 0 0 C 834.277 1444.82 t 0 r /Helvetica-Bold findfont 60.6747 sf 0 0 m (  3) show NC gr  black 1 1 1 c
 gsave  2268 2180 0 0 C 921.497 1441.02 t 0 r /Helvetica-Bold findfont 60.6747 sf 0 0 m (  1) show NC gr  black 1 1 1 c
 gsave  2268 2180 0 0 C 1152.82 1444.82 t 0 r /Helvetica-Bold findfont 60.6747 sf 0 0 m ( 10) show NC gr  black 1 1 1 c
 gsave  2268 2180 0 0 C 1236.25 1444.82 t 0 r /Helvetica-Bold findfont 60.6747 sf 0 0 m ( 64) show NC gr  black 1 1 1 c
 gsave  2268 2180 0 0 C 1315.88 1441.02 t 0 r /Helvetica-Bold findfont 60.6747 sf 0 0 m ( 44) show NC gr  black 1 1 1 c
 gsave  2268 2180 0 0 C 1395.52 1444.82 t 0 r /Helvetica-Bold findfont 60.6747 sf 0 0 m (\25518) show NC gr  black 1 1 1 c
 gsave  2268 2180 0 0 C 1467.57 1444.82 t 0 r /Helvetica-Bold findfont 60.6747 sf 0 0 m (100) show NC gr  black 1 1 1 c
 gsave  2268 2180 0 0 C 1558.58 1444.82 t 0 r /Helvetica-Bold findfont 60.6747 sf 0 0 m (\25546) show NC gr  black 1 1 1 c
 gsave  2268 2180 0 0 C 1638.22 1444.82 t 0 r /Helvetica-Bold findfont 60.6747 sf 0 0 m (\25540) show NC gr  black 1 1 1 c
 gsave  2268 2180 0 0 C 1733.02 1444.82 t 0 r /Helvetica-Bold findfont 60.6747 sf 0 0 m (  5) show NC gr  black 1 1 1 c
 gsave  2268 2180 0 0 C 1808.86 1441.02 t 0 r /Helvetica-Bold findfont 60.6747 sf 0 0 m ( \2552) show NC gr  black 1 1 1 c
 gsave  2268 2180 0 0 C 1888.5 1444.82 t 0 r /Helvetica-Bold findfont 60.6747 sf 0 0 m ( 52) show NC gr  black 1 1 1 c
 gsave  2268 2180 0 0 C 333.711 1520.66 t 0 r /Helvetica-Bold findfont 60.6747 sf 0 0 m (\25517) show NC gr  black 1 1 1 c
 gsave  2268 2180 0 0 C 413.346 1524.45 t 0 r /Helvetica-Bold findfont 60.6747 sf 0 0 m (\25534) show NC gr  black 1 1 1 c
 gsave  2268 2180 0 0 C 496.774 1524.45 t 0 r /Helvetica-Bold findfont 60.6747 sf 0 0 m (\25528) show NC gr  black 1 1 1 c
 gsave  2268 2180 0 0 C 595.37 1520.66 t 0 r /Helvetica-Bold findfont 60.6747 sf 0 0 m (  1) show NC gr  black 1 1 1 c
 gsave  2268 2180 0 0 C 822.9 1524.45 t 0 r /Helvetica-Bold findfont 60.6747 sf 0 0 m (\25523) show NC gr  black 1 1 1 c
 gsave  2268 2180 0 0 C 906.328 1524.45 t 0 r /Helvetica-Bold findfont 60.6747 sf 0 0 m (\25513) show NC gr  black 1 1 1 c
 gsave  2268 2180 0 0 C 1001.13 1520.66 t 0 r /Helvetica-Bold findfont 60.6747 sf 0 0 m (  1) show NC gr  black 1 1 1 c
 gsave  2268 2180 0 0 C 1149.03 1524.45 t 0 r /Helvetica-Bold findfont 60.6747 sf 0 0 m (\25515) show NC gr  black 1 1 1 c
 gsave  2268 2180 0 0 C 1236.25 1520.66 t 0 r /Helvetica-Bold findfont 60.6747 sf 0 0 m (\25541) show NC gr  black 1 1 1 c
 gsave  2268 2180 0 0 C 1312.09 1520.66 t 0 r /Helvetica-Bold findfont 60.6747 sf 0 0 m (\25524) show NC gr  black 1 1 1 c
 gsave  2268 2180 0 0 C 1399.31 1524.45 t 0 r /Helvetica-Bold findfont 60.6747 sf 0 0 m ( 55) show NC gr  black 1 1 1 c
 gsave  2268 2180 0 0 C 1475.15 1524.45 t 0 r /Helvetica-Bold findfont 60.6747 sf 0 0 m (\25546) show NC gr  black 1 1 1 c
 gsave  2268 2180 0 0 C 1551 1524.45 t 0 r /Helvetica-Bold findfont 60.6747 sf 0 0 m (100) show NC gr  black 1 1 1 c
 gsave  2268 2180 0 0 C 1642.01 1520.66 t 0 r /Helvetica-Bold findfont 60.6747 sf 0 0 m ( 24) show NC gr  black 1 1 1 c
 gsave  2268 2180 0 0 C 1733.02 1524.45 t 0 r /Helvetica-Bold findfont 60.6747 sf 0 0 m (  9) show NC gr  black 1 1 1 c
 gsave  2268 2180 0 0 C 1808.86 1524.45 t 0 r /Helvetica-Bold findfont 60.6747 sf 0 0 m ( \2555) show NC gr  black 1 1 1 c
 gsave  2268 2180 0 0 C 1884.71 1524.45 t 0 r /Helvetica-Bold findfont 60.6747 sf 0 0 m (\25525) show NC gr  black 1 1 1 c
 gsave  2268 2180 0 0 C 333.711 1600.3 t 0 r /Helvetica-Bold findfont 60.6747 sf 0 0 m (\25520) show NC gr  black 1 1 1 c
 gsave  2268 2180 0 0 C 420.931 1600.3 t 0 r /Helvetica-Bold findfont 60.6747 sf 0 0 m ( \2559) show NC gr  black 1 1 1 c
 gsave  2268 2180 0 0 C 500.566 1596.5 t 0 r /Helvetica-Bold findfont 60.6747 sf 0 0 m (\25521) show NC gr  black 1 1 1 c
 gsave  2268 2180 0 0 C 838.069 1596.5 t 0 r /Helvetica-Bold findfont 60.6747 sf 0 0 m ( \2551) show NC gr  black 1 1 1 c
 gsave  2268 2180 0 0 C 917.705 1600.3 t 0 r /Helvetica-Bold findfont 60.6747 sf 0 0 m (  5) show NC gr  black 1 1 1 c
 gsave  2268 2180 0 0 C 1084.56 1596.5 t 0 r /Helvetica-Bold findfont 60.6747 sf 0 0 m ( \2551) show NC gr  black 1 1 1 c
 gsave  2268 2180 0 0 C 1149.03 1600.3 t 0 r /Helvetica-Bold findfont 60.6747 sf 0 0 m (\25513) show NC gr  black 1 1 1 c
 gsave  2268 2180 0 0 C 1232.45 1600.3 t 0 r /Helvetica-Bold findfont 60.6747 sf 0 0 m (\25529) show NC gr  black 1 1 1 c
 gsave  2268 2180 0 0 C 1312.09 1600.3 t 0 r /Helvetica-Bold findfont 60.6747 sf 0 0 m (\25528) show NC gr  black 1 1 1 c
 gsave  2268 2180 0 0 C 1406.89 1600.3 t 0 r /Helvetica-Bold findfont 60.6747 sf 0 0 m (  6) show NC gr  black 1 1 1 c
 gsave  2268 2180 0 0 C 1475.15 1600.3 t 0 r /Helvetica-Bold findfont 60.6747 sf 0 0 m (\25540) show NC gr  black 1 1 1 c
 gsave  2268 2180 0 0 C 1562.37 1596.5 t 0 r /Helvetica-Bold findfont 60.6747 sf 0 0 m ( 24) show NC gr  black 1 1 1 c
 gsave  2268 2180 0 0 C 1630.63 1600.3 t 0 r /Helvetica-Bold findfont 60.6747 sf 0 0 m (100) show NC gr  black 1 1 1 c
 gsave  2268 2180 0 0 C 1721.64 1600.3 t 0 r /Helvetica-Bold findfont 60.6747 sf 0 0 m (\25513) show NC gr  black 1 1 1 c
 gsave  2268 2180 0 0 C 1805.07 1596.5 t 0 r /Helvetica-Bold findfont 60.6747 sf 0 0 m ( 17) show NC gr  black 1 1 1 c
 gsave  2268 2180 0 0 C 1884.71 1600.3 t 0 r /Helvetica-Bold findfont 60.6747 sf 0 0 m (\25528) show NC gr  black 1 1 1 c
 gsave  2268 2180 0 0 C 345.087 1679.93 t 0 r /Helvetica-Bold findfont 60.6747 sf 0 0 m (  9) show NC gr  black 1 1 1 c
 gsave  2268 2180 0 0 C 413.346 1676.14 t 0 r /Helvetica-Bold findfont 60.6747 sf 0 0 m (\25522) show NC gr  black 1 1 1 c
 gsave  2268 2180 0 0 C 496.774 1676.14 t 0 r /Helvetica-Bold findfont 60.6747 sf 0 0 m (\25517) show NC gr  black 1 1 1 c
 gsave  2268 2180 0 0 C 595.37 1676.14 t 0 r /Helvetica-Bold findfont 60.6747 sf 0 0 m (  1) show NC gr  black 1 1 1 c
 gsave  2268 2180 0 0 C 826.693 1679.93 t 0 r /Helvetica-Bold findfont 60.6747 sf 0 0 m ( 23) show NC gr  black 1 1 1 c
 gsave  2268 2180 0 0 C 913.913 1676.14 t 0 r /Helvetica-Bold findfont 60.6747 sf 0 0 m ( 11) show NC gr  black 1 1 1 c
 gsave  2268 2180 0 0 C 1152.82 1679.93 t 0 r /Helvetica-Bold findfont 60.6747 sf 0 0 m ( 28) show NC gr  black 1 1 1 c
 gsave  2268 2180 0 0 C 1240.04 1676.14 t 0 r /Helvetica-Bold findfont 60.6747 sf 0 0 m ( \2552) show NC gr  black 1 1 1 c
 gsave  2268 2180 0 0 C 1395.52 1676.14 t 0 r /Helvetica-Bold findfont 60.6747 sf 0 0 m (\25512) show NC gr  black 1 1 1 c
 gsave  2268 2180 0 0 C 1486.53 1679.93 t 0 r /Helvetica-Bold findfont 60.6747 sf 0 0 m (  5) show NC gr  black 1 1 1 c
 gsave  2268 2180 0 0 C 1569.96 1679.93 t 0 r /Helvetica-Bold findfont 60.6747 sf 0 0 m (  9) show NC gr  black 1 1 1 c
 gsave  2268 2180 0 0 C 1638.22 1679.93 t 0 r /Helvetica-Bold findfont 60.6747 sf 0 0 m (\25513) show NC gr  black 1 1 1 c
 gsave  2268 2180 0 0 C 1714.06 1679.93 t 0 r /Helvetica-Bold findfont 60.6747 sf 0 0 m (100) show NC gr  black 1 1 1 c
 gsave  2268 2180 0 0 C 1812.66 1679.93 t 0 r /Helvetica-Bold findfont 60.6747 sf 0 0 m (  5) show NC gr  black 1 1 1 c
 gsave  2268 2180 0 0 C 1892.29 1676.14 t 0 r /Helvetica-Bold findfont 60.6747 sf 0 0 m ( \2552) show NC gr  black 1 1 1 c
 gsave  2268 2180 0 0 C 345.087 1755.77 t 0 r /Helvetica-Bold findfont 60.6747 sf 0 0 m (  4) show NC gr  black 1 1 1 c
 gsave  2268 2180 0 0 C 417.138 1755.77 t 0 r /Helvetica-Bold findfont 60.6747 sf 0 0 m ( 12) show NC gr  black 1 1 1 c
 gsave  2268 2180 0 0 C 508.151 1755.77 t 0 r /Helvetica-Bold findfont 60.6747 sf 0 0 m (  4) show NC gr  black 1 1 1 c
 gsave  2268 2180 0 0 C 675.006 1755.77 t 0 r /Helvetica-Bold findfont 60.6747 sf 0 0 m (  1) show NC gr  black 1 1 1 c
 gsave  2268 2180 0 0 C 758.434 1755.77 t 0 r /Helvetica-Bold findfont 60.6747 sf 0 0 m (  1) show NC gr  black 1 1 1 c
 gsave  2268 2180 0 0 C 826.693 1759.57 t 0 r /Helvetica-Bold findfont 60.6747 sf 0 0 m ( 56) show NC gr  black 1 1 1 c
 gsave  2268 2180 0 0 C 910.12 1759.57 t 0 r /Helvetica-Bold findfont 60.6747 sf 0 0 m ( 58) show NC gr  black 1 1 1 c
 gsave  2268 2180 0 0 C 1084.56 1755.77 t 0 r /Helvetica-Bold findfont 60.6747 sf 0 0 m (  1) show NC gr  black 1 1 1 c
 gsave  2268 2180 0 0 C 1156.61 1755.77 t 0 r /Helvetica-Bold findfont 60.6747 sf 0 0 m ( 21) show NC gr  black 1 1 1 c
 gsave  2268 2180 0 0 C 1243.83 1759.57 t 0 r /Helvetica-Bold findfont 60.6747 sf 0 0 m (  5) show NC gr  black 1 1 1 c
 gsave  2268 2180 0 0 C 1323.47 1759.57 t 0 r /Helvetica-Bold findfont 60.6747 sf 0 0 m (  3) show NC gr  black 1 1 1 c
 gsave  2268 2180 0 0 C 1482.74 1755.77 t 0 r /Helvetica-Bold findfont 60.6747 sf 0 0 m ( \2552) show NC gr  black 1 1 1 c
 gsave  2268 2180 0 0 C 1566.17 1759.57 t 0 r /Helvetica-Bold findfont 60.6747 sf 0 0 m ( \2555) show NC gr  black 1 1 1 c
 gsave  2268 2180 0 0 C 1642.01 1755.77 t 0 r /Helvetica-Bold findfont 60.6747 sf 0 0 m ( 17) show NC gr  black 1 1 1 c
 gsave  2268 2180 0 0 C 1733.02 1759.57 t 0 r /Helvetica-Bold findfont 60.6747 sf 0 0 m (  5) show NC gr  black 1 1 1 c
 gsave  2268 2180 0 0 C 1793.7 1759.57 t 0 r /Helvetica-Bold findfont 60.6747 sf 0 0 m (100) show NC gr  black 1 1 1 c
 gsave  2268 2180 0 0 C 1896.08 1755.77 t 0 r /Helvetica-Bold findfont 60.6747 sf 0 0 m (  4) show NC gr  black 1 1 1 c
 gsave  2268 2180 0 0 C 337.503 1835.41 t 0 r /Helvetica-Bold findfont 60.6747 sf 0 0 m ( 79) show NC gr  black 1 1 1 c
 gsave  2268 2180 0 0 C 417.138 1835.41 t 0 r /Helvetica-Bold findfont 60.6747 sf 0 0 m ( 39) show NC gr  black 1 1 1 c
 gsave  2268 2180 0 0 C 504.358 1835.41 t 0 r /Helvetica-Bold findfont 60.6747 sf 0 0 m ( 51) show NC gr  black 1 1 1 c
 gsave  2268 2180 0 0 C 591.578 1831.62 t 0 r /Helvetica-Bold findfont 60.6747 sf 0 0 m (  2) show NC gr  black 1 1 1 c
 gsave  2268 2180 0 0 C 675.006 1831.62 t 0 r /Helvetica-Bold findfont 60.6747 sf 0 0 m (  1) show NC gr  black 1 1 1 c
 gsave  2268 2180 0 0 C 830.485 1831.62 t 0 r /Helvetica-Bold findfont 60.6747 sf 0 0 m ( 11) show NC gr  black 1 1 1 c
 gsave  2268 2180 0 0 C 917.705 1835.41 t 0 r /Helvetica-Bold findfont 60.6747 sf 0 0 m (  6) show NC gr  black 1 1 1 c
 gsave  2268 2180 0 0 C 1084.56 1831.62 t 0 r /Helvetica-Bold findfont 60.6747 sf 0 0 m (  1) show NC gr  black 1 1 1 c
 gsave  2268 2180 0 0 C 1156.61 1831.62 t 0 r /Helvetica-Bold findfont 60.6747 sf 0 0 m ( 11) show NC gr  black 1 1 1 c
 gsave  2268 2180 0 0 C 1236.25 1835.41 t 0 r /Helvetica-Bold findfont 60.6747 sf 0 0 m ( 86) show NC gr  black 1 1 1 c
 gsave  2268 2180 0 0 C 1315.88 1835.41 t 0 r /Helvetica-Bold findfont 60.6747 sf 0 0 m ( 92) show NC gr  black 1 1 1 c
 gsave  2268 2180 0 0 C 1399.31 1835.41 t 0 r /Helvetica-Bold findfont 60.6747 sf 0 0 m ( 23) show NC gr  black 1 1 1 c
 gsave  2268 2180 0 0 C 1478.95 1835.41 t 0 r /Helvetica-Bold findfont 60.6747 sf 0 0 m ( 52) show NC gr  black 1 1 1 c
 gsave  2268 2180 0 0 C 1558.58 1835.41 t 0 r /Helvetica-Bold findfont 60.6747 sf 0 0 m (\25525) show NC gr  black 1 1 1 c
 gsave  2268 2180 0 0 C 1638.22 1835.41 t 0 r /Helvetica-Bold findfont 60.6747 sf 0 0 m (\25528) show NC gr  black 1 1 1 c
 gsave  2268 2180 0 0 C 1729.23 1831.62 t 0 r /Helvetica-Bold findfont 60.6747 sf 0 0 m ( \2552) show NC gr  black 1 1 1 c
 gsave  2268 2180 0 0 C 1812.66 1831.62 t 0 r /Helvetica-Bold findfont 60.6747 sf 0 0 m (  4) show NC gr  black 1 1 1 c
 gsave  2268 2180 0 0 C 1877.12 1835.41 t 0 r /Helvetica-Bold findfont 60.6747 sf 0 0 m (100) show NC gr  black
 gsave  2268 2180 0 0 C 1201.89 1918.84 t 0 r /Helvetica-Bold findfont 53.0904 sf 0 0 m (Linear correlation coefficients in %) show NC gr 
 gr  gr showpage
end
%%EOF
