%!PS-Adobe-2.0 EPSF-2.0
%%BoundingBox:  0 0 567 545
%%Title: plots/CorrelationMatrixB.eps: Correlations between MVA input variables (background)
%%Creator: ROOT Version 6.06/06
%%CreationDate: Sat Oct 15 01:08:38 2016
%%DocumentNeededResources: ProcSet (FontSetInit)
%%EndComments
%%BeginProlog
80 dict begin
/s {stroke} def /l {lineto} def /m {moveto} def /t {translate} def
/r {rotate} def /rl {roll}  def /R {repeat} def
/d {rlineto} def /rm {rmoveto} def /gr {grestore} def /f {eofill} def
/c {setrgbcolor} def /black {0 setgray} def /sd {setdash} def
/cl {closepath} def /sf {scalefont setfont} def /lw {setlinewidth} def
/box {m dup 0 exch d exch 0 d 0 exch neg d cl} def
/NC{systemdict begin initclip end}def/C{NC box clip newpath}def
/bl {box s} def /bf {gsave box gsave f grestore 1 lw [] 0 sd s grestore} def /Y { 0 exch d} def /X { 0 d} def 
/K {{pop pop 0 moveto} exch kshow} bind def
/ita {/ang 15 def gsave [1 0 ang dup sin exch cos div 1 0 0] concat} def 
/mp {newpath /y exch def /x exch def} def
/side {[w .77 mul w .23 mul] .385 w mul sd w 0 l currentpoint t -144 r} def
/mr {mp x y w2 0 360 arc} def /m24 {mr s} def /m20 {mr f} def
/mb {mp x y w2 add m w2 neg 0 d 0 w neg d w 0 d 0 w d cl} def
/mt {mp x y w2 add m w2 neg w neg d w 0 d cl} def
/m21 {mb f} def /m25 {mb s} def /m22 {mt f} def /m26{mt s} def
/m23 {mp x y w2 sub m w2 w d w neg 0 d cl f} def
/m27 {mp x y w2 add m w3 neg w2 neg d w3 w2 neg d w3 w2 d cl s} def
/m28 {mp x w2 sub y w2 sub w3 add m w3 0 d  0 w3 neg d w3 0 d 0 w3 d w3 0 d  0 w3 d w3 neg 0 d 0 w3 d w3 neg 0 d 0 w3 neg d w3 neg 0 d cl s } def
/m29 {mp gsave x w2 sub y w2 add w3 sub m currentpoint t 4 {side} repeat cl fill gr} def
/m30 {mp gsave x w2 sub y w2 add w3 sub m currentpoint t 4 {side} repeat cl s gr} def
/m31 {mp x y w2 sub m 0 w d x w2 sub y m w 0 d x w2 sub y w2 add m w w neg d x w2 sub y w2 sub m w w d s} def
/m32 {mp x y w2 sub m w2 w d w neg 0 d cl s} def
/m33 {mp x y w2 add m w3 neg w2 neg d w3 w2 neg d w3 w2 d cl f} def
/m34 {mp x w2 sub y w2 sub w3 add m w3 0 d  0 w3 neg d w3 0 d 0 w3 d w3 0 d  0 w3 d w3 neg 0 d 0 w3 d w3 neg 0 d 0 w3 neg d w3 neg 0 d cl f } def
/m2 {mp x y w2 sub m 0 w d x w2 sub y m w 0 d s} def
/m5 {mp x w2 sub y w2 sub m w w d x w2 sub y w2 add m w w neg d s} def
%%IncludeResource: ProcSet (FontSetInit)
%%IncludeResource: font Times-Roman
%%IncludeResource: font Times-Italic
%%IncludeResource: font Times-Bold
%%IncludeResource: font Times-BoldItalic
%%IncludeResource: font Helvetica
%%IncludeResource: font Helvetica-Oblique
%%IncludeResource: font Helvetica-Bold
%%IncludeResource: font Helvetica-BoldOblique
%%IncludeResource: font Courier
%%IncludeResource: font Courier-Oblique
%%IncludeResource: font Courier-Bold
%%IncludeResource: font Courier-BoldOblique
%%IncludeResource: font Symbol
%%IncludeResource: font ZapfDingbats
/reEncode {exch findfont dup length dict begin {1 index /FID eq  {pop pop} {def} ifelse } forall /Encoding exch def currentdict end dup /FontName get exch definefont pop } def [/Times-Bold /Times-Italic /Times-BoldItalic /Helvetica /Helvetica-Oblique
 /Helvetica-Bold /Helvetica-BoldOblique /Courier /Courier-Oblique /Courier-Bold /Courier-BoldOblique /Times-Roman /AvantGarde-Book /AvantGarde-BookOblique /AvantGarde-Demi /AvantGarde-DemiOblique /Bookman-Demi /Bookman-DemiItalic /Bookman-Light
 /Bookman-LightItalic /Helvetica-Narrow /Helvetica-Narrow-Bold /Helvetica-Narrow-BoldOblique /Helvetica-Narrow-Oblique /NewCenturySchlbk-Roman /NewCenturySchlbk-Bold /NewCenturySchlbk-BoldItalic /NewCenturySchlbk-Italic /Palatino-Bold
 /Palatino-BoldItalic /Palatino-Italic /Palatino-Roman ] {ISOLatin1Encoding reEncode } forall
%%EndProlog
%%BeginSetup
%%EndSetup
newpath  gsave  .25 .25 scale  gsave  0 0 t 0.48 0.56 0.6 c[  ] 0 sd 3 lw 1 1 1 c 2268 2180 0 0 bf black 1 1 1 c 1678 1614 295 283 bf black 1678 1614 295 283 bl 1 1 1 c 1678 1614 295 283 bf black 1678 1614 295 283 bl 1 1 1 c 1 0 0 c 335 323 295 283
 bf 0.133333 1 0 c 336 323 630 283 bf 0.413333 1 0 c 336 323 966 283 bf 0 1 0.0533333 c 335 323 1302 283 bf 0 1 0.8 c 336 323 1637 283 bf 0.133333 1 0 c 335 323 295 606 bf 1 0 0 c 336 323 630 606 bf 0.413333 1 0 c 336 323 966 606 bf 0 1 0.0533333 c
 335 323 1302 606 bf 0.88 1 0 c 336 323 1637 606 bf 0.413333 1 0 c 335 323 295 929 bf 336 323 630 929 bf 1 0 0 c 336 323 966 929 bf 0 1 0.0533333 c 335 323 1302 929 bf 0.133333 1 0 c 336 323 1637 929 bf 0 1 0.0533333 c 335 322 295 1252 bf 336 322 630
 1252 bf 336 322 966 1252 bf 1 0 0 c 335 322 1302 1252 bf 0 1 0.0533333 c 336 322 1637 1252 bf 0 1 0.8 c 335 323 295 1574 bf 0.88 1 0 c 336 323 630 1574 bf 0.133333 1 0 c 336 323 966 1574 bf 0 1 0.0533333 c 335 323 1302 1574 bf 1 0 0 c 336 323 1637
 1574 bf 0.386667 0 1 c 102 81 1984 283 bf 0.2 0 1 c 102 81 1984 364 bf 0 0.0800001 1 c 102 80 1984 445 bf 0 0.266667 1 c 102 81 1984 525 bf 0 0.546666 1 c 102 81 1984 606 bf 0 0.733333 1 c 102 81 1984 687 bf 0 1 0.986667 c 102 80 1984 768 bf 0 1 0.8
 c 102 81 1984 848 bf 0 1 0.52 c 102 81 1984 929 bf 0 1 0.333333 c 102 80 1984 1010 bf 0 1 0.0533333 c 102 81 1984 1090 bf 0.133333 1 0 c 102 81 1984 1171 bf 0.413333 1 0 c 102 80 1984 1252 bf 0.6 1 0 c 102 81 1984 1332 bf 0.88 1 0 c 102 81 1984 1413
 bf 1 0.933333 0 c 102 80 1984 1494 bf 1 0.653333 0 c 102 81 1984 1574 bf 1 0.466667 0 c 102 81 1984 1655 bf 1 0.186667 0 c 102 80 1984 1736 bf 1 0 0 c 102 81 1984 1816 bf black 2086 283 m 1614 Y s 2019 283 m 67 X s 2019 445 m 67 X s 2019 606 m 67 X
 s 2019 768 m 67 X s 2019 929 m 67 X s 2019 1090 m 67 X s 2019 1252 m 67 X s 2019 1413 m 67 X s 2019 1574 m 67 X s 2019 1736 m 67 X s 2019 1897 m 67 X s
 gsave  2268 2180 0 0 C 2138.78 254.075 t 0 r /Helvetica-Bold findfont 79.6355 sf 0 0 m (100) show NC gr 
 gsave  2268 2180 0 0 C 2097.07 254.075 t 0 r /Symbol findfont 79.6355 sf 0 0 m (-) show NC gr 
 gsave  2268 2180 0 0 C 2138.78 417.139 t 0 r /Helvetica-Bold findfont 79.6355 sf 0 0 m (80) show NC gr 
 gsave  2268 2180 0 0 C 2097.07 417.139 t 0 r /Symbol findfont 79.6355 sf 0 0 m (-) show NC gr 
 gsave  2268 2180 0 0 C 2138.78 576.41 t 0 r /Helvetica-Bold findfont 79.6355 sf 0 0 m (60) show NC gr 
 gsave  2268 2180 0 0 C 2097.07 576.41 t 0 r /Symbol findfont 79.6355 sf 0 0 m (-) show NC gr 
 gsave  2268 2180 0 0 C 2138.78 739.473 t 0 r /Helvetica-Bold findfont 79.6355 sf 0 0 m (40) show NC gr 
 gsave  2268 2180 0 0 C 2097.07 739.473 t 0 r /Symbol findfont 79.6355 sf 0 0 m (-) show NC gr 
 gsave  2268 2180 0 0 C 2138.78 898.744 t 0 r /Helvetica-Bold findfont 79.6355 sf 0 0 m (20) show NC gr 
 gsave  2268 2180 0 0 C 2097.07 898.744 t 0 r /Symbol findfont 79.6355 sf 0 0 m (-) show NC gr 
 gsave  2268 2180 0 0 C 2097.07 1061.81 t 0 r /Helvetica-Bold findfont 79.6355 sf 0 0 m (0) show NC gr 
 gsave  2268 2180 0 0 C 2097.07 1224.87 t 0 r /Helvetica-Bold findfont 79.6355 sf 0 0 m (20) show NC gr 
 gsave  2268 2180 0 0 C 2097.07 1384.14 t 0 r /Helvetica-Bold findfont 79.6355 sf 0 0 m (40) show NC gr 
 gsave  2268 2180 0 0 C 2097.07 1547.2 t 0 r /Helvetica-Bold findfont 79.6355 sf 0 0 m (60) show NC gr 
 gsave  2268 2180 0 0 C 2097.07 1706.48 t 0 r /Helvetica-Bold findfont 79.6355 sf 0 0 m (80) show NC gr 
 gsave  2268 2180 0 0 C 2097.07 1869.54 t 0 r /Helvetica-Bold findfont 79.6355 sf 0 0 m (100) show NC gr  1 1 1 c black 295 283 m 1678 X s
 gsave  2268 2180 0 0 C 447.476 208.569 t -19 r /Helvetica-Bold findfont 53.0904 sf 0 0 m (DRll12) show NC gr 
 gsave  2268 2180 0 0 C 788.771 216.154 t -19 r /Helvetica-Bold findfont 53.0904 sf 0 0 m (MET_RefFinal_et) show NC gr 
 gsave  2268 2180 0 0 C 1122.48 212.361 t -19 r /Helvetica-Bold findfont 53.0904 sf 0 0 m (Mlll012) show NC gr 
 gsave  2268 2180 0 0 C 1456.19 212.361 t -19 r /Helvetica-Bold findfont 53.0904 sf 0 0 m (DRLJ) show NC gr 
 gsave  2268 2180 0 0 C 1797.49 216.154 t -19 r /Helvetica-Bold findfont 53.0904 sf 0 0 m (lead_jetPt) show NC gr  295 348 m -65 Y s[ 4 8] 0 sd 295 1897 m -1614 Y s[  ] 0 sd 630 348 m -65 Y s[ 4 8] 0 sd 630 1897 m -1614 Y s[  ] 0 sd 966 348 m -65 Y
 s[ 4 8] 0 sd 966 1897 m -1614 Y s[  ] 0 sd 1302 348 m -65 Y s[ 4 8] 0 sd 1302 1897 m -1614 Y s[  ] 0 sd 1637 348 m -65 Y s[ 4 8] 0 sd 1637 1897 m -1614 Y s[  ] 0 sd 1973 348 m -65 Y s[ 4 8] 0 sd 1973 1897 m -1614 Y s[  ] 0 sd 295 1897 m 1678 X s 295
 1832 m 65 Y s 630 1832 m 65 Y s 966 1832 m 65 Y s 1302 1832 m 65 Y s 1637 1832 m 65 Y s 1973 1832 m 65 Y s 295 283 m 1614 Y s
 gsave  2268 2180 0 0 C 26.5452 424.723 t 0 r /Helvetica-Bold findfont 53.0904 sf 0 0 m (DRll12) show NC gr 
 gsave  2268 2180 0 0 C -235.114 750.849 t 0 r /Helvetica-Bold findfont 53.0904 sf 0 0 m (MET_RefFinal_et) show NC gr 
 gsave  2268 2180 0 0 C 15.1687 1069.39 t 0 r /Helvetica-Bold findfont 53.0904 sf 0 0 m (Mlll012) show NC gr 
 gsave  2268 2180 0 0 C 56.8825 1391.73 t 0 r /Helvetica-Bold findfont 53.0904 sf 0 0 m (DRLJ) show NC gr 
 gsave  2268 2180 0 0 C -56.8825 1721.64 t 0 r /Helvetica-Bold findfont 53.0904 sf 0 0 m (lead_jetPt) show NC gr  362 283 m -67 X s[ 4 8] 0 sd 1973 283 m -1678 X s[  ] 0 sd 362 606 m -67 X s[ 4 8] 0 sd 1973 606 m -1678 X s[  ] 0 sd 362 929 m -67 X s[
 4 8] 0 sd 1973 929 m -1678 X s[  ] 0 sd 362 1252 m -67 X s[ 4 8] 0 sd 1973 1252 m -1678 X s[  ] 0 sd 362 1574 m -67 X s[ 4 8] 0 sd 1973 1574 m -1678 X s[  ] 0 sd 362 1897 m -67 X s[ 4 8] 0 sd 1973 1897 m -1678 X s[  ] 0 sd 1973 283 m 1614 Y s 1906
 283 m 67 X s 1906 606 m 67 X s 1906 929 m 67 X s 1906 1252 m 67 X s 1906 1574 m 67 X s 1906 1897 m 67 X s 0.48 0.56 0.6 c 0.364706 0.419608 0.490196 c 1587 119 23 2051 bf 0.48 0.56 0.6 c 23 2051 m 1587 X s 1610 2051 m 119 Y s 1610 2170 m -1587 X s
 23 2170 m -119 Y s 1 1 1 c black 1 1 1 c
 gsave  2268 2180 0 0 C 94.8042 2085.69 t 0 r /Helvetica-Bold findfont 94.8042 sf 0 0 m (Correlation Matrix \(background\)) show NC gr  black 1 1 1 c
 gsave  2268 2180 0 0 C 405.762 424.723 t 0 r /Helvetica-Bold findfont 60.6747 sf 0 0 m (100) show NC gr  black 1 1 1 c
 gsave  2268 2180 0 0 C 754.641 424.723 t 0 r /Helvetica-Bold findfont 60.6747 sf 0 0 m ( 10) show NC gr  black 1 1 1 c
 gsave  2268 2180 0 0 C 1095.94 420.931 t 0 r /Helvetica-Bold findfont 60.6747 sf 0 0 m ( 21) show NC gr  black 1 1 1 c
 gsave  2268 2180 0 0 C 1433.44 424.723 t 0 r /Helvetica-Bold findfont 60.6747 sf 0 0 m (  3) show NC gr  black 1 1 1 c
 gsave  2268 2180 0 0 C 1759.57 420.931 t 0 r /Helvetica-Bold findfont 60.6747 sf 0 0 m (\25522) show NC gr  black 1 1 1 c
 gsave  2268 2180 0 0 C 417.138 747.057 t 0 r /Helvetica-Bold findfont 60.6747 sf 0 0 m ( 10) show NC gr  black 1 1 1 c
 gsave  2268 2180 0 0 C 743.265 747.057 t 0 r /Helvetica-Bold findfont 60.6747 sf 0 0 m (100) show NC gr  black 1 1 1 c
 gsave  2268 2180 0 0 C 1092.14 747.057 t 0 r /Helvetica-Bold findfont 60.6747 sf 0 0 m ( 23) show NC gr  black 1 1 1 c
 gsave  2268 2180 0 0 C 1433.44 747.057 t 0 r /Helvetica-Bold findfont 60.6747 sf 0 0 m (  3) show NC gr  black 1 1 1 c
 gsave  2268 2180 0 0 C 1763.36 747.057 t 0 r /Helvetica-Bold findfont 60.6747 sf 0 0 m ( 40) show NC gr  black 1 1 1 c
 gsave  2268 2180 0 0 C 420.931 1065.6 t 0 r /Helvetica-Bold findfont 60.6747 sf 0 0 m ( 21) show NC gr  black 1 1 1 c
 gsave  2268 2180 0 0 C 754.641 1069.39 t 0 r /Helvetica-Bold findfont 60.6747 sf 0 0 m ( 23) show NC gr  black 1 1 1 c
 gsave  2268 2180 0 0 C 1080.77 1069.39 t 0 r /Helvetica-Bold findfont 60.6747 sf 0 0 m (100) show NC gr  black 1 1 1 c
 gsave  2268 2180 0 0 C 1437.23 1065.6 t 0 r /Helvetica-Bold findfont 60.6747 sf 0 0 m (  1) show NC gr  black 1 1 1 c
 gsave  2268 2180 0 0 C 1763.36 1069.39 t 0 r /Helvetica-Bold findfont 60.6747 sf 0 0 m ( 18) show NC gr  black 1 1 1 c
 gsave  2268 2180 0 0 C 424.723 1391.73 t 0 r /Helvetica-Bold findfont 60.6747 sf 0 0 m (  3) show NC gr  black 1 1 1 c
 gsave  2268 2180 0 0 C 762.226 1391.73 t 0 r /Helvetica-Bold findfont 60.6747 sf 0 0 m (  3) show NC gr  black 1 1 1 c
 gsave  2268 2180 0 0 C 1103.52 1387.93 t 0 r /Helvetica-Bold findfont 60.6747 sf 0 0 m (  1) show NC gr  black 1 1 1 c
 gsave  2268 2180 0 0 C 1414.48 1391.73 t 0 r /Helvetica-Bold findfont 60.6747 sf 0 0 m (100) show NC gr  black 1 1 1 c
 gsave  2268 2180 0 0 C 1770.94 1387.93 t 0 r /Helvetica-Bold findfont 60.6747 sf 0 0 m (  7) show NC gr  black 1 1 1 c
 gsave  2268 2180 0 0 C 413.346 1710.27 t 0 r /Helvetica-Bold findfont 60.6747 sf 0 0 m (\25522) show NC gr  black 1 1 1 c
 gsave  2268 2180 0 0 C 754.641 1714.06 t 0 r /Helvetica-Bold findfont 60.6747 sf 0 0 m ( 40) show NC gr  black 1 1 1 c
 gsave  2268 2180 0 0 C 1092.14 1714.06 t 0 r /Helvetica-Bold findfont 60.6747 sf 0 0 m ( 18) show NC gr  black 1 1 1 c
 gsave  2268 2180 0 0 C 1433.44 1710.27 t 0 r /Helvetica-Bold findfont 60.6747 sf 0 0 m (  7) show NC gr  black 1 1 1 c
 gsave  2268 2180 0 0 C 1751.98 1714.06 t 0 r /Helvetica-Bold findfont 60.6747 sf 0 0 m (100) show NC gr  black
 gsave  2268 2180 0 0 C 1201.89 1918.84 t 0 r /Helvetica-Bold findfont 53.0904 sf 0 0 m (Linear correlation coefficients in %) show NC gr 
 gr  gr showpage
end
%%EOF
