%!PS-Adobe-2.0 EPSF-2.0
%%BoundingBox:  0 0 567 545
%%Title: plots/CorrelationMatrixB.eps: Correlations between MVA input variables (background)
%%Creator: ROOT Version 6.06/06
%%CreationDate: Thu Sep  1 15:01:44 2016
%%DocumentNeededResources: ProcSet (FontSetInit)
%%EndComments
%%BeginProlog
80 dict begin
/s {stroke} def /l {lineto} def /m {moveto} def /t {translate} def
/r {rotate} def /rl {roll}  def /R {repeat} def
/d {rlineto} def /rm {rmoveto} def /gr {grestore} def /f {eofill} def
/c {setrgbcolor} def /black {0 setgray} def /sd {setdash} def
/cl {closepath} def /sf {scalefont setfont} def /lw {setlinewidth} def
/box {m dup 0 exch d exch 0 d 0 exch neg d cl} def
/NC{systemdict begin initclip end}def/C{NC box clip newpath}def
/bl {box s} def /bf {gsave box gsave f grestore 1 lw [] 0 sd s grestore} def /Y { 0 exch d} def /X { 0 d} def 
/K {{pop pop 0 moveto} exch kshow} bind def
/ita {/ang 15 def gsave [1 0 ang dup sin exch cos div 1 0 0] concat} def 
/mp {newpath /y exch def /x exch def} def
/side {[w .77 mul w .23 mul] .385 w mul sd w 0 l currentpoint t -144 r} def
/mr {mp x y w2 0 360 arc} def /m24 {mr s} def /m20 {mr f} def
/mb {mp x y w2 add m w2 neg 0 d 0 w neg d w 0 d 0 w d cl} def
/mt {mp x y w2 add m w2 neg w neg d w 0 d cl} def
/m21 {mb f} def /m25 {mb s} def /m22 {mt f} def /m26{mt s} def
/m23 {mp x y w2 sub m w2 w d w neg 0 d cl f} def
/m27 {mp x y w2 add m w3 neg w2 neg d w3 w2 neg d w3 w2 d cl s} def
/m28 {mp x w2 sub y w2 sub w3 add m w3 0 d  0 w3 neg d w3 0 d 0 w3 d w3 0 d  0 w3 d w3 neg 0 d 0 w3 d w3 neg 0 d 0 w3 neg d w3 neg 0 d cl s } def
/m29 {mp gsave x w2 sub y w2 add w3 sub m currentpoint t 4 {side} repeat cl fill gr} def
/m30 {mp gsave x w2 sub y w2 add w3 sub m currentpoint t 4 {side} repeat cl s gr} def
/m31 {mp x y w2 sub m 0 w d x w2 sub y m w 0 d x w2 sub y w2 add m w w neg d x w2 sub y w2 sub m w w d s} def
/m32 {mp x y w2 sub m w2 w d w neg 0 d cl s} def
/m33 {mp x y w2 add m w3 neg w2 neg d w3 w2 neg d w3 w2 d cl f} def
/m34 {mp x w2 sub y w2 sub w3 add m w3 0 d  0 w3 neg d w3 0 d 0 w3 d w3 0 d  0 w3 d w3 neg 0 d 0 w3 d w3 neg 0 d 0 w3 neg d w3 neg 0 d cl f } def
/m2 {mp x y w2 sub m 0 w d x w2 sub y m w 0 d s} def
/m5 {mp x w2 sub y w2 sub m w w d x w2 sub y w2 add m w w neg d s} def
%%IncludeResource: ProcSet (FontSetInit)
%%IncludeResource: font Times-Roman
%%IncludeResource: font Times-Italic
%%IncludeResource: font Times-Bold
%%IncludeResource: font Times-BoldItalic
%%IncludeResource: font Helvetica
%%IncludeResource: font Helvetica-Oblique
%%IncludeResource: font Helvetica-Bold
%%IncludeResource: font Helvetica-BoldOblique
%%IncludeResource: font Courier
%%IncludeResource: font Courier-Oblique
%%IncludeResource: font Courier-Bold
%%IncludeResource: font Courier-BoldOblique
%%IncludeResource: font Symbol
%%IncludeResource: font ZapfDingbats
/reEncode {exch findfont dup length dict begin {1 index /FID eq  {pop pop} {def} ifelse } forall /Encoding exch def currentdict end dup /FontName get exch definefont pop } def [/Times-Bold /Times-Italic /Times-BoldItalic /Helvetica /Helvetica-Oblique
 /Helvetica-Bold /Helvetica-BoldOblique /Courier /Courier-Oblique /Courier-Bold /Courier-BoldOblique /Times-Roman /AvantGarde-Book /AvantGarde-BookOblique /AvantGarde-Demi /AvantGarde-DemiOblique /Bookman-Demi /Bookman-DemiItalic /Bookman-Light
 /Bookman-LightItalic /Helvetica-Narrow /Helvetica-Narrow-Bold /Helvetica-Narrow-BoldOblique /Helvetica-Narrow-Oblique /NewCenturySchlbk-Roman /NewCenturySchlbk-Bold /NewCenturySchlbk-BoldItalic /NewCenturySchlbk-Italic /Palatino-Bold
 /Palatino-BoldItalic /Palatino-Italic /Palatino-Roman ] {ISOLatin1Encoding reEncode } forall
%%EndProlog
%%BeginSetup
%%EndSetup
newpath  gsave  .25 .25 scale  gsave  0 0 t 0.490196 0.545098 0.615686 c[  ] 0 sd 3 lw 0.941176 0.941176 0.941176 c 2268 2180 0 0 bf black 1 1 0.992157 c 1633 1570 340 327 bf black 1633 1570 340 327 bl 1 1 0.992157 c 1633 1570 340 327 bf black 1633
 1570 340 327 bl 1 1 1 c 1 0 0 c 82 79 340 327 bf 0.413333 1 0 c 81 79 422 327 bf 82 79 503 327 bf 0 1 0.333333 c 82 79 585 327 bf 81 79 667 327 bf 0 1 0.0533333 c 82 79 748 327 bf 0.6 1 0 c 82 79 830 327 bf 0.413333 1 0 c 81 79 912 327 bf 0 1
 0.333333 c 82 79 993 327 bf 0 1 0.0533333 c 82 79 1075 327 bf 0.133333 1 0 c 81 79 1157 327 bf 1 0.933333 0 c 82 79 1238 327 bf 81 79 1320 327 bf 0 1 0.0533333 c 82 79 1401 327 bf 0 1 0.52 c 82 79 1483 327 bf 81 79 1565 327 bf 0.133333 1 0 c 82 79
 1646 327 bf 0 1 0.333333 c 82 79 1728 327 bf 0.133333 1 0 c 81 79 1810 327 bf 1 0.933333 0 c 82 79 1891 327 bf 0.413333 1 0 c 82 78 340 406 bf 1 0 0 c 81 78 422 406 bf 0 1 0.0533333 c 82 78 503 406 bf 0 1 0.333333 c 82 78 585 406 bf 81 78 667 406 bf
 0 1 0.0533333 c 82 78 748 406 bf 0.6 1 0 c 82 78 830 406 bf 0.133333 1 0 c 81 78 912 406 bf 0 1 0.333333 c 82 78 993 406 bf 0 1 0.0533333 c 82 78 1075 406 bf 81 78 1157 406 bf 1 0.933333 0 c 82 78 1238 406 bf 0.133333 1 0 c 81 78 1320 406 bf 1
 0.933333 0 c 82 78 1401 406 bf 0 1 0.52 c 82 78 1483 406 bf 0 1 0.0533333 c 81 78 1565 406 bf 0.133333 1 0 c 82 78 1646 406 bf 0 1 0.8 c 82 78 1728 406 bf 0.133333 1 0 c 81 78 1810 406 bf 0.88 1 0 c 82 78 1891 406 bf 0.413333 1 0 c 82 79 340 484 bf
 0 1 0.0533333 c 81 79 422 484 bf 1 0 0 c 82 79 503 484 bf 0.133333 1 0 c 82 79 585 484 bf 0 1 0.0533333 c 81 79 667 484 bf 82 79 748 484 bf 0.133333 1 0 c 82 79 830 484 bf 81 79 912 484 bf 0 1 0.333333 c 82 79 993 484 bf 0.133333 1 0 c 82 79 1075
 484 bf 81 79 1157 484 bf 82 79 1238 484 bf 1 0.933333 0 c 81 79 1320 484 bf 0.6 1 0 c 82 79 1401 484 bf 0 1 0.333333 c 82 79 1483 484 bf 0 1 0.0533333 c 81 79 1565 484 bf 0 1 0.52 c 82 79 1646 484 bf 82 79 1728 484 bf 0 1 0.0533333 c 81 79 1810 484
 bf 1 0.933333 0 c 82 79 1891 484 bf 0 1 0.333333 c 82 78 340 563 bf 81 78 422 563 bf 0.133333 1 0 c 82 78 503 563 bf 1 0 0 c 82 78 585 563 bf 1 0.653333 0 c 81 78 667 563 bf 0.133333 1 0 c 82 78 748 563 bf 0 1 0.0533333 c 82 78 830 563 bf 0 1
 0.333333 c 81 78 912 563 bf 0 1 0.0533333 c 82 78 993 563 bf 82 78 1075 563 bf 81 78 1157 563 bf 0 1 0.52 c 82 78 1238 563 bf 81 78 1320 563 bf 0 1 0.333333 c 82 78 1401 563 bf 0 1 0.0533333 c 82 78 1483 563 bf 0 1 0.8 c 81 78 1565 563 bf 82 78 1646
 563 bf 0 1 0.0533333 c 82 78 1728 563 bf 0 1 0.333333 c 81 78 1810 563 bf 0 1 0.52 c 82 78 1891 563 bf 0 1 0.333333 c 82 79 340 641 bf 81 79 422 641 bf 0 1 0.0533333 c 82 79 503 641 bf 1 0.653333 0 c 82 79 585 641 bf 1 0 0 c 81 79 667 641 bf
 0.413333 1 0 c 82 79 748 641 bf 0 1 0.0533333 c 82 79 830 641 bf 0 1 0.333333 c 81 79 912 641 bf 82 79 993 641 bf 82 79 1075 641 bf 81 79 1157 641 bf 82 79 1238 641 bf 81 79 1320 641 bf 0 1 0.0533333 c 82 79 1401 641 bf 0.133333 1 0 c 82 79 1483 641
 bf 0 1 0.333333 c 81 79 1565 641 bf 0 1 0.52 c 82 79 1646 641 bf 0 1 0.0533333 c 82 79 1728 641 bf 0 1 0.333333 c 81 79 1810 641 bf 0 1 0.0533333 c 82 79 1891 641 bf 82 78 340 720 bf 81 78 422 720 bf 82 78 503 720 bf 0.133333 1 0 c 82 78 585 720 bf
 0.413333 1 0 c 81 78 667 720 bf 1 0 0 c 82 78 748 720 bf 0 1 0.0533333 c 82 78 830 720 bf 81 78 912 720 bf 0.133333 1 0 c 82 78 993 720 bf 82 78 1075 720 bf 0 1 0.0533333 c 81 78 1157 720 bf 82 78 1238 720 bf 0.413333 1 0 c 81 78 1320 720 bf 0 1
 0.333333 c 82 78 1401 720 bf 0 1 0.0533333 c 82 78 1483 720 bf 81 78 1565 720 bf 0 1 0.333333 c 82 78 1646 720 bf 0 1 0.0533333 c 82 78 1728 720 bf 0 1 0.333333 c 81 78 1810 720 bf 0.133333 1 0 c 82 78 1891 720 bf 0.6 1 0 c 82 79 340 798 bf 81 79
 422 798 bf 0.133333 1 0 c 82 79 503 798 bf 0 1 0.0533333 c 82 79 585 798 bf 81 79 667 798 bf 82 79 748 798 bf 1 0 0 c 82 79 830 798 bf 1 0.933333 0 c 81 79 912 798 bf 0.133333 1 0 c 82 79 993 798 bf 82 79 1075 798 bf 0.6 1 0 c 81 79 1157 798 bf
 0.133333 1 0 c 82 79 1238 798 bf 81 79 1320 798 bf 0 1 0.0533333 c 82 79 1401 798 bf 0 1 0.8 c 82 79 1483 798 bf 0 1 0.52 c 81 79 1565 798 bf 0.133333 1 0 c 82 79 1646 798 bf 82 79 1728 798 bf 1 0.933333 0 c 81 79 1810 798 bf 0.133333 1 0 c 82 79
 1891 798 bf 0.413333 1 0 c 82 78 340 877 bf 0.133333 1 0 c 81 78 422 877 bf 82 78 503 877 bf 0 1 0.333333 c 82 78 585 877 bf 81 78 667 877 bf 0 1 0.0533333 c 82 78 748 877 bf 1 0.933333 0 c 82 78 830 877 bf 1 0 0 c 81 78 912 877 bf 0.133333 1 0 c 82
 78 993 877 bf 0 1 0.0533333 c 82 78 1075 877 bf 0.133333 1 0 c 81 78 1157 877 bf 82 78 1238 877 bf 81 78 1320 877 bf 82 78 1401 877 bf 0 1 0.52 c 82 78 1483 877 bf 0 1 0.0533333 c 81 78 1565 877 bf 0.133333 1 0 c 82 78 1646 877 bf 0 1 0.333333 c 82
 78 1728 877 bf 1 0.653333 0 c 81 78 1810 877 bf 0.133333 1 0 c 82 78 1891 877 bf 0 1 0.333333 c 82 79 340 955 bf 81 79 422 955 bf 82 79 503 955 bf 0 1 0.0533333 c 82 79 585 955 bf 0 1 0.333333 c 81 79 667 955 bf 0.133333 1 0 c 82 79 748 955 bf 82 79
 830 955 bf 81 79 912 955 bf 1 0 0 c 82 79 993 955 bf 0.413333 1 0 c 82 79 1075 955 bf 0 1 0.0533333 c 81 79 1157 955 bf 0 1 0.333333 c 82 79 1238 955 bf 81 79 1320 955 bf 0 1 0.0533333 c 82 79 1401 955 bf 0 1 0.333333 c 82 79 1483 955 bf 0.133333 1
 0 c 81 79 1565 955 bf 0 1 0.0533333 c 82 79 1646 955 bf 82 79 1728 955 bf 0.133333 1 0 c 81 79 1810 955 bf 0 1 0.333333 c 82 79 1891 955 bf 0 1 0.0533333 c 82 78 340 1034 bf 81 78 422 1034 bf 0.133333 1 0 c 82 78 503 1034 bf 0 1 0.0533333 c 82 78
 585 1034 bf 0 1 0.333333 c 81 78 667 1034 bf 0.133333 1 0 c 82 78 748 1034 bf 82 78 830 1034 bf 0 1 0.0533333 c 81 78 912 1034 bf 0.413333 1 0 c 82 78 993 1034 bf 1 0 0 c 82 78 1075 1034 bf 0 1 0.0533333 c 81 78 1157 1034 bf 0 1 0.333333 c 82 78
 1238 1034 bf 0.133333 1 0 c 81 78 1320 1034 bf 0 1 0.0533333 c 82 78 1401 1034 bf 0 1 0.52 c 82 78 1483 1034 bf 0 1 0.0533333 c 81 78 1565 1034 bf 0.133333 1 0 c 82 78 1646 1034 bf 0 1 0.0533333 c 82 78 1728 1034 bf 81 78 1810 1034 bf 82 78 1891
 1034 bf 0.133333 1 0 c 82 79 340 1112 bf 0 1 0.0533333 c 81 79 422 1112 bf 0.133333 1 0 c 82 79 503 1112 bf 0 1 0.0533333 c 82 79 585 1112 bf 0 1 0.333333 c 81 79 667 1112 bf 0 1 0.0533333 c 82 79 748 1112 bf 0.6 1 0 c 82 79 830 1112 bf 0.133333 1 0
 c 81 79 912 1112 bf 0 1 0.0533333 c 82 79 993 1112 bf 82 79 1075 1112 bf 1 0 0 c 81 79 1157 1112 bf 0 1 0.0533333 c 82 79 1238 1112 bf 0.133333 1 0 c 81 79 1320 1112 bf 0 1 0.0533333 c 82 79 1401 1112 bf 0 1 0.333333 c 82 79 1483 1112 bf 0 1
 0.0533333 c 81 79 1565 1112 bf 0 1 0.333333 c 82 79 1646 1112 bf 0.133333 1 0 c 82 79 1728 1112 bf 0 1 0.0533333 c 81 79 1810 1112 bf 0.133333 1 0 c 82 79 1891 1112 bf 1 0.933333 0 c 82 78 340 1191 bf 81 78 422 1191 bf 0.133333 1 0 c 82 78 503 1191
 bf 0 1 0.52 c 82 78 585 1191 bf 0 1 0.333333 c 81 78 667 1191 bf 0 1 0.0533333 c 82 78 748 1191 bf 0.133333 1 0 c 82 78 830 1191 bf 81 78 912 1191 bf 0 1 0.333333 c 82 78 993 1191 bf 82 78 1075 1191 bf 0 1 0.0533333 c 81 78 1157 1191 bf 1 0 0 c 82
 78 1238 1191 bf 0.88 1 0 c 81 78 1320 1191 bf 0.413333 1 0 c 82 78 1401 1191 bf 0.6 1 0 c 82 78 1483 1191 bf 0 1 0.0533333 c 81 78 1565 1191 bf 82 78 1646 1191 bf 0 1 0.333333 c 82 78 1728 1191 bf 0 1 0.0533333 c 81 78 1810 1191 bf 1 0.653333 0 c 82
 78 1891 1191 bf 1 0.933333 0 c 82 79 340 1269 bf 0.133333 1 0 c 81 79 422 1269 bf 1 0.933333 0 c 82 79 503 1269 bf 0 1 0.52 c 82 79 585 1269 bf 0 1 0.333333 c 81 79 667 1269 bf 0.413333 1 0 c 82 79 748 1269 bf 0.133333 1 0 c 82 79 830 1269 bf 81 79
 912 1269 bf 0 1 0.333333 c 82 79 993 1269 bf 0.133333 1 0 c 82 79 1075 1269 bf 81 79 1157 1269 bf 0.88 1 0 c 82 79 1238 1269 bf 1 0 0 c 81 79 1320 1269 bf 0.88 1 0 c 82 79 1401 1269 bf 0.133333 1 0 c 82 79 1483 1269 bf 0.413333 1 0 c 81 79 1565 1269
 bf 0 1 0.0533333 c 82 79 1646 1269 bf 0 1 0.52 c 82 79 1728 1269 bf 0 1 0.0533333 c 81 79 1810 1269 bf 1 0.186667 0 c 82 79 1891 1269 bf 0 1 0.0533333 c 82 78 340 1348 bf 1 0.933333 0 c 81 78 422 1348 bf 0.6 1 0 c 82 78 503 1348 bf 0 1 0.333333 c 82
 78 585 1348 bf 0 1 0.0533333 c 81 78 667 1348 bf 0 1 0.333333 c 82 78 748 1348 bf 0 1 0.0533333 c 82 78 830 1348 bf 0.133333 1 0 c 81 78 912 1348 bf 0 1 0.0533333 c 82 78 993 1348 bf 82 78 1075 1348 bf 81 78 1157 1348 bf 0.413333 1 0 c 82 78 1238
 1348 bf 0.88 1 0 c 81 78 1320 1348 bf 1 0 0 c 82 78 1401 1348 bf 0 1 0.333333 c 82 78 1483 1348 bf 1 0.653333 0 c 81 78 1565 1348 bf 0.133333 1 0 c 82 78 1646 1348 bf 0 1 0.8 c 82 78 1728 1348 bf 0 1 0.0533333 c 81 78 1810 1348 bf 1 0.466667 0 c 82
 78 1891 1348 bf 0 1 0.52 c 82 79 340 1426 bf 81 79 422 1426 bf 0 1 0.333333 c 82 79 503 1426 bf 0 1 0.0533333 c 82 79 585 1426 bf 0.133333 1 0 c 81 79 667 1426 bf 0 1 0.0533333 c 82 79 748 1426 bf 0 1 0.8 c 82 79 830 1426 bf 0 1 0.52 c 81 79 912
 1426 bf 0 1 0.333333 c 82 79 993 1426 bf 0 1 0.52 c 82 79 1075 1426 bf 0 1 0.333333 c 81 79 1157 1426 bf 0.6 1 0 c 82 79 1238 1426 bf 0.133333 1 0 c 81 79 1320 1426 bf 0 1 0.333333 c 82 79 1401 1426 bf 1 0 0 c 82 79 1483 1426 bf 0 1 0.333333 c 81 79
 1565 1426 bf 0 1 0.8 c 82 79 1646 1426 bf 0 1 0.0533333 c 82 79 1728 1426 bf 0 1 0.333333 c 81 79 1810 1426 bf 0.133333 1 0 c 82 79 1891 1426 bf 0 1 0.52 c 82 78 340 1505 bf 0 1 0.0533333 c 81 78 422 1505 bf 82 78 503 1505 bf 0 1 0.8 c 82 78 585
 1505 bf 0 1 0.333333 c 81 78 667 1505 bf 0 1 0.0533333 c 82 78 748 1505 bf 0 1 0.52 c 82 78 830 1505 bf 0 1 0.0533333 c 81 78 912 1505 bf 0.133333 1 0 c 82 78 993 1505 bf 0 1 0.0533333 c 82 78 1075 1505 bf 81 78 1157 1505 bf 82 78 1238 1505 bf
 0.413333 1 0 c 81 78 1320 1505 bf 1 0.653333 0 c 82 78 1401 1505 bf 0 1 0.333333 c 82 78 1483 1505 bf 1 0 0 c 81 78 1565 1505 bf 0.133333 1 0 c 82 78 1646 1505 bf 0 1 0.52 c 82 78 1728 1505 bf 0 1 0.333333 c 81 78 1810 1505 bf 0.88 1 0 c 82 78 1891
 1505 bf 0.133333 1 0 c 82 79 340 1583 bf 81 79 422 1583 bf 0 1 0.52 c 82 79 503 1583 bf 0 1 0.8 c 82 79 585 1583 bf 0 1 0.52 c 81 79 667 1583 bf 0 1 0.333333 c 82 79 748 1583 bf 0.133333 1 0 c 82 79 830 1583 bf 81 79 912 1583 bf 0 1 0.0533333 c 82
 79 993 1583 bf 0.133333 1 0 c 82 79 1075 1583 bf 0 1 0.333333 c 81 79 1157 1583 bf 0 1 0.0533333 c 82 79 1238 1583 bf 81 79 1320 1583 bf 0.133333 1 0 c 82 79 1401 1583 bf 0 1 0.8 c 82 79 1483 1583 bf 0.133333 1 0 c 81 79 1565 1583 bf 1 0 0 c 82 79
 1646 1583 bf 0 1 0.52 c 82 79 1728 1583 bf 0.133333 1 0 c 81 79 1810 1583 bf 0 1 0.0533333 c 82 79 1891 1583 bf 0 1 0.333333 c 82 78 340 1662 bf 0 1 0.8 c 81 78 422 1662 bf 0 1 0.52 c 82 78 503 1662 bf 0 1 0.0533333 c 82 78 585 1662 bf 81 78 667
 1662 bf 82 78 748 1662 bf 0.133333 1 0 c 82 78 830 1662 bf 0 1 0.333333 c 81 78 912 1662 bf 0 1 0.0533333 c 82 78 993 1662 bf 82 78 1075 1662 bf 0.133333 1 0 c 81 78 1157 1662 bf 0 1 0.333333 c 82 78 1238 1662 bf 0 1 0.52 c 81 78 1320 1662 bf 0 1
 0.8 c 82 78 1401 1662 bf 0 1 0.0533333 c 82 78 1483 1662 bf 0 1 0.52 c 81 78 1565 1662 bf 82 78 1646 1662 bf 1 0 0 c 82 78 1728 1662 bf 0 1 0.333333 c 81 78 1810 1662 bf 0 1 0.52 c 82 78 1891 1662 bf 0.133333 1 0 c 82 79 340 1740 bf 81 79 422 1740
 bf 0 1 0.0533333 c 82 79 503 1740 bf 0 1 0.333333 c 82 79 585 1740 bf 81 79 667 1740 bf 82 79 748 1740 bf 1 0.933333 0 c 82 79 830 1740 bf 1 0.653333 0 c 81 79 912 1740 bf 0.133333 1 0 c 82 79 993 1740 bf 0 1 0.0533333 c 82 79 1075 1740 bf 81 79
 1157 1740 bf 82 79 1238 1740 bf 81 79 1320 1740 bf 82 79 1401 1740 bf 0 1 0.333333 c 82 79 1483 1740 bf 81 79 1565 1740 bf 0.133333 1 0 c 82 79 1646 1740 bf 0 1 0.333333 c 82 79 1728 1740 bf 1 0 0 c 81 79 1810 1740 bf 0 1 0.0533333 c 82 79 1891 1740
 bf 1 0.933333 0 c 82 78 340 1819 bf 0.88 1 0 c 81 78 422 1819 bf 1 0.933333 0 c 82 78 503 1819 bf 0 1 0.52 c 82 78 585 1819 bf 0 1 0.0533333 c 81 78 667 1819 bf 0.133333 1 0 c 82 78 748 1819 bf 82 78 830 1819 bf 81 78 912 1819 bf 0 1 0.333333 c 82
 78 993 1819 bf 0 1 0.0533333 c 82 78 1075 1819 bf 0.133333 1 0 c 81 78 1157 1819 bf 1 0.653333 0 c 82 78 1238 1819 bf 1 0.186667 0 c 81 78 1320 1819 bf 1 0.466667 0 c 82 78 1401 1819 bf 0.133333 1 0 c 82 78 1483 1819 bf 0.88 1 0 c 81 78 1565 1819 bf
 0 1 0.0533333 c 82 78 1646 1819 bf 0 1 0.52 c 82 78 1728 1819 bf 0 1 0.0533333 c 81 78 1810 1819 bf 1 0 0 c 82 78 1891 1819 bf 0.386667 0 1 c 102 79 1984 327 bf 0.2 0 1 c 102 78 1984 406 bf 0 0.0800001 1 c 102 79 1984 484 bf 0 0.266667 1 c 102 78
 1984 563 bf 0 0.546666 1 c 102 79 1984 641 bf 0 0.733333 1 c 102 78 1984 720 bf 0 1 0.986667 c 102 79 1984 798 bf 0 1 0.8 c 102 78 1984 877 bf 0 1 0.52 c 102 79 1984 955 bf 0 1 0.333333 c 102 78 1984 1034 bf 0 1 0.0533333 c 102 79 1984 1112 bf
 0.133333 1 0 c 102 78 1984 1191 bf 0.413333 1 0 c 102 79 1984 1269 bf 0.6 1 0 c 102 78 1984 1348 bf 0.88 1 0 c 102 79 1984 1426 bf 1 0.933333 0 c 102 78 1984 1505 bf 1 0.653333 0 c 102 79 1984 1583 bf 1 0.466667 0 c 102 78 1984 1662 bf 1 0.186667 0
 c 102 79 1984 1740 bf 1 0 0 c 102 78 1984 1819 bf black 2086 327 m 1570 Y s 2021 327 m 65 X s 2021 484 m 65 X s 2021 641 m 65 X s 2021 798 m 65 X s 2021 955 m 65 X s 2021 1112 m 65 X s 2021 1269 m 65 X s 2021 1426 m 65 X s 2021 1583 m 65 X s 2021
 1740 m 65 X s 2021 1897 m 65 X s
 gsave  2268 2180 0 0 C 2138.78 299.581 t 0 r /Helvetica-Bold findfont 79.6355 sf 0 0 m (100) show NC gr 
 gsave  2268 2180 0 0 C 2097.07 299.581 t 0 r /Symbol findfont 79.6355 sf 0 0 m (-) show NC gr 
 gsave  2268 2180 0 0 C 2138.78 455.06 t 0 r /Helvetica-Bold findfont 79.6355 sf 0 0 m (80) show NC gr 
 gsave  2268 2180 0 0 C 2097.07 455.06 t 0 r /Symbol findfont 79.6355 sf 0 0 m (-) show NC gr 
 gsave  2268 2180 0 0 C 2138.78 614.331 t 0 r /Helvetica-Bold findfont 79.6355 sf 0 0 m (60) show NC gr 
 gsave  2268 2180 0 0 C 2097.07 614.331 t 0 r /Symbol findfont 79.6355 sf 0 0 m (-) show NC gr 
 gsave  2268 2180 0 0 C 2138.78 769.81 t 0 r /Helvetica-Bold findfont 79.6355 sf 0 0 m (40) show NC gr 
 gsave  2268 2180 0 0 C 2097.07 769.81 t 0 r /Symbol findfont 79.6355 sf 0 0 m (-) show NC gr 
 gsave  2268 2180 0 0 C 2138.78 925.289 t 0 r /Helvetica-Bold findfont 79.6355 sf 0 0 m (20) show NC gr 
 gsave  2268 2180 0 0 C 2097.07 925.289 t 0 r /Symbol findfont 79.6355 sf 0 0 m (-) show NC gr 
 gsave  2268 2180 0 0 C 2097.07 1084.56 t 0 r /Helvetica-Bold findfont 79.6355 sf 0 0 m (0) show NC gr 
 gsave  2268 2180 0 0 C 2097.07 1240.04 t 0 r /Helvetica-Bold findfont 79.6355 sf 0 0 m (20) show NC gr 
 gsave  2268 2180 0 0 C 2097.07 1399.31 t 0 r /Helvetica-Bold findfont 79.6355 sf 0 0 m (40) show NC gr 
 gsave  2268 2180 0 0 C 2097.07 1554.79 t 0 r /Helvetica-Bold findfont 79.6355 sf 0 0 m (60) show NC gr 
 gsave  2268 2180 0 0 C 2097.07 1710.27 t 0 r /Helvetica-Bold findfont 79.6355 sf 0 0 m (80) show NC gr 
 gsave  2268 2180 0 0 C 2097.07 1869.54 t 0 r /Helvetica-Bold findfont 79.6355 sf 0 0 m (100) show NC gr  1 1 1 c black 340 327 m 1633 X s
 gsave  2268 2180 0 0 C 371.632 261.66 t -19 r /Helvetica-Bold findfont 53.0904 sf 0 0 m (lep_Pt_0) show NC gr 
 gsave  2268 2180 0 0 C 451.268 261.66 t -19 r /Helvetica-Bold findfont 53.0904 sf 0 0 m (lep_Pt_1) show NC gr 
 gsave  2268 2180 0 0 C 534.696 261.66 t -19 r /Helvetica-Bold findfont 53.0904 sf 0 0 m (lep_Pt_2) show NC gr 
 gsave  2268 2180 0 0 C 618.123 261.66 t -19 r /Helvetica-Bold findfont 53.0904 sf 0 0 m (lep_Eta_0) show NC gr 
 gsave  2268 2180 0 0 C 697.759 261.66 t -19 r /Helvetica-Bold findfont 53.0904 sf 0 0 m (lep_Eta_1) show NC gr 
 gsave  2268 2180 0 0 C 781.187 261.66 t -19 r /Helvetica-Bold findfont 53.0904 sf 0 0 m (lep_Eta_2) show NC gr 
 gsave  2268 2180 0 0 C 860.822 261.66 t -19 r /Helvetica-Bold findfont 53.0904 sf 0 0 m (lead_jetPt) show NC gr 
 gsave  2268 2180 0 0 C 944.25 261.66 t -19 r /Helvetica-Bold findfont 53.0904 sf 0 0 m (sublead_jetPt) show NC gr 
 gsave  2268 2180 0 0 C 1023.89 261.66 t -19 r /Helvetica-Bold findfont 53.0904 sf 0 0 m (lead_jetEta) show NC gr 
 gsave  2268 2180 0 0 C 1107.31 261.66 t -19 r /Helvetica-Bold findfont 53.0904 sf 0 0 m (sublead_jetEta) show NC gr 
 gsave  2268 2180 0 0 C 1186.95 261.66 t -19 r /Helvetica-Bold findfont 53.0904 sf 0 0 m (MET_RefFinal_et) show NC gr 
 gsave  2268 2180 0 0 C 1266.58 257.867 t -19 r /Helvetica-Bold findfont 53.0904 sf 0 0 m (Mll01) show NC gr 
 gsave  2268 2180 0 0 C 1346.22 257.867 t -19 r /Helvetica-Bold findfont 53.0904 sf 0 0 m (Mll02) show NC gr 
 gsave  2268 2180 0 0 C 1429.65 254.075 t -19 r /Helvetica-Bold findfont 53.0904 sf 0 0 m (Mll12) show NC gr 
 gsave  2268 2180 0 0 C 1509.28 257.867 t -19 r /Helvetica-Bold findfont 53.0904 sf 0 0 m (DRll01) show NC gr 
 gsave  2268 2180 0 0 C 1592.71 254.075 t -19 r /Helvetica-Bold findfont 53.0904 sf 0 0 m (DRll12) show NC gr 
 gsave  2268 2180 0 0 C 1672.35 257.867 t -19 r /Helvetica-Bold findfont 53.0904 sf 0 0 m (DRLJ) show NC gr 
 gsave  2268 2180 0 0 C 1755.77 257.867 t -19 r /Helvetica-Bold findfont 53.0904 sf 0 0 m (DPHIMETJ) show NC gr 
 gsave  2268 2180 0 0 C 1835.41 257.867 t -19 r /Helvetica-Bold findfont 53.0904 sf 0 0 m (MJJ) show NC gr 
 gsave  2268 2180 0 0 C 1918.84 257.867 t -19 r /Helvetica-Bold findfont 53.0904 sf 0 0 m (Mlll012) show NC gr  340 390 m -63 Y s[ 4 8] 0 sd 340 1897 m -1570 Y s[  ] 0 sd 422 390 m -63 Y s[ 4 8] 0 sd 422 1897 m -1570 Y s[  ] 0 sd 503 390 m -63 Y s[ 4
 8] 0 sd 503 1897 m -1570 Y s[  ] 0 sd 585 390 m -63 Y s[ 4 8] 0 sd 585 1897 m -1570 Y s[  ] 0 sd 667 390 m -63 Y s[ 4 8] 0 sd 667 1897 m -1570 Y s[  ] 0 sd 748 390 m -63 Y s[ 4 8] 0 sd 748 1897 m -1570 Y s[  ] 0 sd 830 390 m -63 Y s[ 4 8] 0 sd 830
 1897 m -1570 Y s[  ] 0 sd 912 390 m -63 Y s[ 4 8] 0 sd 912 1897 m -1570 Y s[  ] 0 sd 993 390 m -63 Y s[ 4 8] 0 sd 993 1897 m -1570 Y s[  ] 0 sd 1075 390 m -63 Y s[ 4 8] 0 sd 1075 1897 m -1570 Y s[  ] 0 sd 1157 390 m -63 Y s[ 4 8] 0 sd 1157 1897 m
 -1570 Y s[  ] 0 sd 1238 390 m -63 Y s[ 4 8] 0 sd 1238 1897 m -1570 Y s[  ] 0 sd 1320 390 m -63 Y s[ 4 8] 0 sd 1320 1897 m -1570 Y s[  ] 0 sd 1401 390 m -63 Y s[ 4 8] 0 sd 1401 1897 m -1570 Y s[  ] 0 sd 1483 390 m -63 Y s[ 4 8] 0 sd 1483 1897 m -1570
 Y s[  ] 0 sd 1565 390 m -63 Y s[ 4 8] 0 sd 1565 1897 m -1570 Y s[  ] 0 sd 1646 390 m -63 Y s[ 4 8] 0 sd 1646 1897 m -1570 Y s[  ] 0 sd 1728 390 m -63 Y s[ 4 8] 0 sd 1728 1897 m -1570 Y s[  ] 0 sd 1810 390 m -63 Y s[ 4 8] 0 sd 1810 1897 m -1570 Y s[ 
 ] 0 sd 1891 390 m -63 Y s[ 4 8] 0 sd 1891 1897 m -1570 Y s[  ] 0 sd 1973 390 m -63 Y s[ 4 8] 0 sd 1973 1897 m -1570 Y s[  ] 0 sd 340 1897 m 1633 X s 340 1834 m 63 Y s 422 1834 m 63 Y s 503 1834 m 63 Y s 585 1834 m 63 Y s 667 1834 m 63 Y s 748 1834 m
 63 Y s 830 1834 m 63 Y s 912 1834 m 63 Y s 993 1834 m 63 Y s 1075 1834 m 63 Y s 1157 1834 m 63 Y s 1238 1834 m 63 Y s 1320 1834 m 63 Y s 1401 1834 m 63 Y s 1483 1834 m 63 Y s 1565 1834 m 63 Y s 1646 1834 m 63 Y s 1728 1834 m 63 Y s 1810 1834 m 63 Y
 s 1891 1834 m 63 Y s 1973 1834 m 63 Y s 340 327 m 1570 Y s
 gsave  2268 2180 0 0 C 68.259 352.672 t 0 r /Helvetica-Bold findfont 53.0904 sf 0 0 m (lep_Pt_0) show NC gr 
 gsave  2268 2180 0 0 C 75.8434 432.307 t 0 r /Helvetica-Bold findfont 53.0904 sf 0 0 m (lep_Pt_1) show NC gr 
 gsave  2268 2180 0 0 C 68.259 508.151 t 0 r /Helvetica-Bold findfont 53.0904 sf 0 0 m (lep_Pt_2) show NC gr 
 gsave  2268 2180 0 0 C 41.7138 587.786 t 0 r /Helvetica-Bold findfont 53.0904 sf 0 0 m (lep_Eta_0) show NC gr 
 gsave  2268 2180 0 0 C 49.2982 667.422 t 0 r /Helvetica-Bold findfont 53.0904 sf 0 0 m (lep_Eta_1) show NC gr 
 gsave  2268 2180 0 0 C 41.7138 747.057 t 0 r /Helvetica-Bold findfont 53.0904 sf 0 0 m (lep_Eta_2) show NC gr 
 gsave  2268 2180 0 0 C 37.9217 822.901 t 0 r /Helvetica-Bold findfont 53.0904 sf 0 0 m (lead_jetPt) show NC gr 
 gsave  2268 2180 0 0 C -56.8825 902.536 t 0 r /Helvetica-Bold findfont 53.0904 sf 0 0 m (sublead_jetPt) show NC gr 
 gsave  2268 2180 0 0 C 7.58434 982.172 t 0 r /Helvetica-Bold findfont 53.0904 sf 0 0 m (lead_jetEta) show NC gr 
 gsave  2268 2180 0 0 C -87.2199 1058.02 t 0 r /Helvetica-Bold findfont 53.0904 sf 0 0 m (sublead_jetEta) show NC gr 
 gsave  2268 2180 0 0 C -140.31 1133.86 t 0 r /Helvetica-Bold findfont 53.0904 sf 0 0 m (MET_RefFinal_et) show NC gr 
 gsave  2268 2180 0 0 C 163.063 1209.7 t 0 r /Helvetica-Bold findfont 53.0904 sf 0 0 m (Mll01) show NC gr 
 gsave  2268 2180 0 0 C 155.479 1285.55 t 0 r /Helvetica-Bold findfont 53.0904 sf 0 0 m (Mll02) show NC gr 
 gsave  2268 2180 0 0 C 155.479 1365.18 t 0 r /Helvetica-Bold findfont 53.0904 sf 0 0 m (Mll12) show NC gr 
 gsave  2268 2180 0 0 C 128.934 1444.82 t 0 r /Helvetica-Bold findfont 53.0904 sf 0 0 m (DRll01) show NC gr 
 gsave  2268 2180 0 0 C 121.349 1524.45 t 0 r /Helvetica-Bold findfont 53.0904 sf 0 0 m (DRll12) show NC gr 
 gsave  2268 2180 0 0 C 151.687 1600.3 t 0 r /Helvetica-Bold findfont 53.0904 sf 0 0 m (DRLJ) show NC gr 
 gsave  2268 2180 0 0 C 22.753 1679.93 t 0 r /Helvetica-Bold findfont 53.0904 sf 0 0 m (DPHIMETJ) show NC gr 
 gsave  2268 2180 0 0 C 185.816 1759.57 t 0 r /Helvetica-Bold findfont 53.0904 sf 0 0 m (MJJ) show NC gr 
 gsave  2268 2180 0 0 C 109.973 1835.41 t 0 r /Helvetica-Bold findfont 53.0904 sf 0 0 m (Mlll012) show NC gr  405 327 m -65 X s[ 4 8] 0 sd 1973 327 m -1633 X s[  ] 0 sd 405 406 m -65 X s[ 4 8] 0 sd 1973 406 m -1633 X s[  ] 0 sd 405 484 m -65 X s[ 4
 8] 0 sd 1973 484 m -1633 X s[  ] 0 sd 405 563 m -65 X s[ 4 8] 0 sd 1973 563 m -1633 X s[  ] 0 sd 405 641 m -65 X s[ 4 8] 0 sd 1973 641 m -1633 X s[  ] 0 sd 405 720 m -65 X s[ 4 8] 0 sd 1973 720 m -1633 X s[  ] 0 sd 405 798 m -65 X s[ 4 8] 0 sd 1973
 798 m -1633 X s[  ] 0 sd 405 877 m -65 X s[ 4 8] 0 sd 1973 877 m -1633 X s[  ] 0 sd 405 955 m -65 X s[ 4 8] 0 sd 1973 955 m -1633 X s[  ] 0 sd 405 1034 m -65 X s[ 4 8] 0 sd 1973 1034 m -1633 X s[  ] 0 sd 405 1112 m -65 X s[ 4 8] 0 sd 1973 1112 m
 -1633 X s[  ] 0 sd 405 1191 m -65 X s[ 4 8] 0 sd 1973 1191 m -1633 X s[  ] 0 sd 405 1269 m -65 X s[ 4 8] 0 sd 1973 1269 m -1633 X s[  ] 0 sd 405 1348 m -65 X s[ 4 8] 0 sd 1973 1348 m -1633 X s[  ] 0 sd 405 1426 m -65 X s[ 4 8] 0 sd 1973 1426 m -1633
 X s[  ] 0 sd 405 1505 m -65 X s[ 4 8] 0 sd 1973 1505 m -1633 X s[  ] 0 sd 405 1583 m -65 X s[ 4 8] 0 sd 1973 1583 m -1633 X s[  ] 0 sd 405 1662 m -65 X s[ 4 8] 0 sd 1973 1662 m -1633 X s[  ] 0 sd 405 1740 m -65 X s[ 4 8] 0 sd 1973 1740 m -1633 X s[ 
 ] 0 sd 405 1819 m -65 X s[ 4 8] 0 sd 1973 1819 m -1633 X s[  ] 0 sd 405 1897 m -65 X s[ 4 8] 0 sd 1973 1897 m -1633 X s[  ] 0 sd 1973 327 m 1570 Y s 1908 327 m 65 X s 1908 406 m 65 X s 1908 484 m 65 X s 1908 563 m 65 X s 1908 641 m 65 X s 1908 720 m
 65 X s 1908 798 m 65 X s 1908 877 m 65 X s 1908 955 m 65 X s 1908 1034 m 65 X s 1908 1112 m 65 X s 1908 1191 m 65 X s 1908 1269 m 65 X s 1908 1348 m 65 X s 1908 1426 m 65 X s 1908 1505 m 65 X s 1908 1583 m 65 X s 1908 1662 m 65 X s 1908 1740 m 65 X
 s 1908 1819 m 65 X s 1908 1897 m 65 X s 0.490196 0.545098 0.615686 c 0.364706 0.419608 0.490196 c 1587 119 23 2051 bf 0.490196 0.545098 0.615686 c 23 2051 m 1587 X s 1610 2051 m 119 Y s 1610 2170 m -1587 X s 23 2170 m -119 Y s 1 1 1 c black 1 1 1 c
 gsave  2268 2180 0 0 C 94.8042 2085.69 t 0 r /Helvetica-Bold findfont 94.8042 sf 0 0 m (Correlation Matrix \(background\)) show NC gr  black 1 1 1 c
 gsave  2268 2180 0 0 C 326.126 345.087 t 0 r /Helvetica-Bold findfont 60.6747 sf 0 0 m (100) show NC gr  black 1 1 1 c
 gsave  2268 2180 0 0 C 417.138 341.295 t 0 r /Helvetica-Bold findfont 60.6747 sf 0 0 m ( 24) show NC gr  black 1 1 1 c
 gsave  2268 2180 0 0 C 500.566 345.087 t 0 r /Helvetica-Bold findfont 60.6747 sf 0 0 m ( 25) show NC gr  black 1 1 1 c
 gsave  2268 2180 0 0 C 587.786 345.087 t 0 r /Helvetica-Bold findfont 60.6747 sf 0 0 m ( \2559) show NC gr  black 1 1 1 c
 gsave  2268 2180 0 0 C 667.422 345.087 t 0 r /Helvetica-Bold findfont 60.6747 sf 0 0 m ( \2559) show NC gr  black 1 1 1 c
 gsave  2268 2180 0 0 C 754.641 341.295 t 0 r /Helvetica-Bold findfont 60.6747 sf 0 0 m (  7) show NC gr  black 1 1 1 c
 gsave  2268 2180 0 0 C 826.693 345.087 t 0 r /Helvetica-Bold findfont 60.6747 sf 0 0 m ( 37) show NC gr  black 1 1 1 c
 gsave  2268 2180 0 0 C 910.12 345.087 t 0 r /Helvetica-Bold findfont 60.6747 sf 0 0 m ( 26) show NC gr  black 1 1 1 c
 gsave  2268 2180 0 0 C 993.548 341.295 t 0 r /Helvetica-Bold findfont 60.6747 sf 0 0 m ( \2554) show NC gr  black 1 1 1 c
 gsave  2268 2180 0 0 C 1080.77 341.295 t 0 r /Helvetica-Bold findfont 60.6747 sf 0 0 m (  7) show NC gr  black 1 1 1 c
 gsave  2268 2180 0 0 C 1152.82 345.087 t 0 r /Helvetica-Bold findfont 60.6747 sf 0 0 m ( 15) show NC gr  black 1 1 1 c
 gsave  2268 2180 0 0 C 1236.25 345.087 t 0 r /Helvetica-Bold findfont 60.6747 sf 0 0 m ( 58) show NC gr  black 1 1 1 c
 gsave  2268 2180 0 0 C 1315.88 345.087 t 0 r /Helvetica-Bold findfont 60.6747 sf 0 0 m ( 57) show NC gr  black 1 1 1 c
 gsave  2268 2180 0 0 C 1406.89 345.087 t 0 r /Helvetica-Bold findfont 60.6747 sf 0 0 m (  6) show NC gr  black 1 1 1 c
 gsave  2268 2180 0 0 C 1475.15 345.087 t 0 r /Helvetica-Bold findfont 60.6747 sf 0 0 m (\25516) show NC gr  black 1 1 1 c
 gsave  2268 2180 0 0 C 1558.58 341.295 t 0 r /Helvetica-Bold findfont 60.6747 sf 0 0 m (\25514) show NC gr  black 1 1 1 c
 gsave  2268 2180 0 0 C 1642.01 341.295 t 0 r /Helvetica-Bold findfont 60.6747 sf 0 0 m ( 12) show NC gr  black 1 1 1 c
 gsave  2268 2180 0 0 C 1729.23 341.295 t 0 r /Helvetica-Bold findfont 60.6747 sf 0 0 m ( \2554) show NC gr  black 1 1 1 c
 gsave  2268 2180 0 0 C 1808.86 341.295 t 0 r /Helvetica-Bold findfont 60.6747 sf 0 0 m ( 11) show NC gr  black 1 1 1 c
 gsave  2268 2180 0 0 C 1888.5 345.087 t 0 r /Helvetica-Bold findfont 60.6747 sf 0 0 m ( 50) show NC gr  black 1 1 1 c
 gsave  2268 2180 0 0 C 337.503 420.931 t 0 r /Helvetica-Bold findfont 60.6747 sf 0 0 m ( 24) show NC gr  black 1 1 1 c
 gsave  2268 2180 0 0 C 405.762 424.723 t 0 r /Helvetica-Bold findfont 60.6747 sf 0 0 m (100) show NC gr  black 1 1 1 c
 gsave  2268 2180 0 0 C 508.151 424.723 t 0 r /Helvetica-Bold findfont 60.6747 sf 0 0 m (  6) show NC gr  black 1 1 1 c
 gsave  2268 2180 0 0 C 595.37 420.931 t 0 r /Helvetica-Bold findfont 60.6747 sf 0 0 m ( \2551) show NC gr  black 1 1 1 c
 gsave  2268 2180 0 0 C 675.006 420.931 t 0 r /Helvetica-Bold findfont 60.6747 sf 0 0 m ( \2551) show NC gr  black 1 1 1 c
 gsave  2268 2180 0 0 C 758.434 420.931 t 0 r /Helvetica-Bold findfont 60.6747 sf 0 0 m (  1) show NC gr  black 1 1 1 c
 gsave  2268 2180 0 0 C 826.693 424.723 t 0 r /Helvetica-Bold findfont 60.6747 sf 0 0 m ( 32) show NC gr  black 1 1 1 c
 gsave  2268 2180 0 0 C 910.12 420.931 t 0 r /Helvetica-Bold findfont 60.6747 sf 0 0 m ( 17) show NC gr  black 1 1 1 c
 gsave  2268 2180 0 0 C 993.548 420.931 t 0 r /Helvetica-Bold findfont 60.6747 sf 0 0 m ( \2552) show NC gr  black 1 1 1 c
 gsave  2268 2180 0 0 C 1160.4 424.723 t 0 r /Helvetica-Bold findfont 60.6747 sf 0 0 m (  8) show NC gr  black 1 1 1 c
 gsave  2268 2180 0 0 C 1236.25 424.723 t 0 r /Helvetica-Bold findfont 60.6747 sf 0 0 m ( 50) show NC gr  black 1 1 1 c
 gsave  2268 2180 0 0 C 1315.88 420.931 t 0 r /Helvetica-Bold findfont 60.6747 sf 0 0 m ( 17) show NC gr  black 1 1 1 c
 gsave  2268 2180 0 0 C 1403.1 424.723 t 0 r /Helvetica-Bold findfont 60.6747 sf 0 0 m ( 51) show NC gr  black 1 1 1 c
 gsave  2268 2180 0 0 C 1475.15 424.723 t 0 r /Helvetica-Bold findfont 60.6747 sf 0 0 m (\25515) show NC gr  black 1 1 1 c
 gsave  2268 2180 0 0 C 1569.96 424.723 t 0 r /Helvetica-Bold findfont 60.6747 sf 0 0 m (  8) show NC gr  black 1 1 1 c
 gsave  2268 2180 0 0 C 1645.8 420.931 t 0 r /Helvetica-Bold findfont 60.6747 sf 0 0 m ( 11) show NC gr  black 1 1 1 c
 gsave  2268 2180 0 0 C 1721.64 424.723 t 0 r /Helvetica-Bold findfont 60.6747 sf 0 0 m (\25525) show NC gr  black 1 1 1 c
 gsave  2268 2180 0 0 C 1805.07 424.723 t 0 r /Helvetica-Bold findfont 60.6747 sf 0 0 m ( 10) show NC gr  black 1 1 1 c
 gsave  2268 2180 0 0 C 1888.5 420.931 t 0 r /Helvetica-Bold findfont 60.6747 sf 0 0 m ( 44) show NC gr  black 1 1 1 c
 gsave  2268 2180 0 0 C 337.503 500.566 t 0 r /Helvetica-Bold findfont 60.6747 sf 0 0 m ( 25) show NC gr  black 1 1 1 c
 gsave  2268 2180 0 0 C 424.723 500.566 t 0 r /Helvetica-Bold findfont 60.6747 sf 0 0 m (  6) show NC gr  black 1 1 1 c
 gsave  2268 2180 0 0 C 489.19 500.566 t 0 r /Helvetica-Bold findfont 60.6747 sf 0 0 m (100) show NC gr  black 1 1 1 c
 gsave  2268 2180 0 0 C 587.786 496.774 t 0 r /Helvetica-Bold findfont 60.6747 sf 0 0 m ( 11) show NC gr  black 1 1 1 c
 gsave  2268 2180 0 0 C 826.693 500.566 t 0 r /Helvetica-Bold findfont 60.6747 sf 0 0 m ( 16) show NC gr  black 1 1 1 c
 gsave  2268 2180 0 0 C 910.12 496.774 t 0 r /Helvetica-Bold findfont 60.6747 sf 0 0 m ( 14) show NC gr  black 1 1 1 c
 gsave  2268 2180 0 0 C 993.548 496.774 t 0 r /Helvetica-Bold findfont 60.6747 sf 0 0 m ( \2552) show NC gr  black 1 1 1 c
 gsave  2268 2180 0 0 C 1073.18 500.566 t 0 r /Helvetica-Bold findfont 60.6747 sf 0 0 m ( 10) show NC gr  black 1 1 1 c
 gsave  2268 2180 0 0 C 1152.82 500.566 t 0 r /Helvetica-Bold findfont 60.6747 sf 0 0 m ( 18) show NC gr  black 1 1 1 c
 gsave  2268 2180 0 0 C 1236.25 496.774 t 0 r /Helvetica-Bold findfont 60.6747 sf 0 0 m ( 14) show NC gr  black 1 1 1 c
 gsave  2268 2180 0 0 C 1315.88 500.566 t 0 r /Helvetica-Bold findfont 60.6747 sf 0 0 m ( 57) show NC gr  black 1 1 1 c
 gsave  2268 2180 0 0 C 1399.31 500.566 t 0 r /Helvetica-Bold findfont 60.6747 sf 0 0 m ( 37) show NC gr  black 1 1 1 c
 gsave  2268 2180 0 0 C 1482.74 496.774 t 0 r /Helvetica-Bold findfont 60.6747 sf 0 0 m ( \2557) show NC gr  black 1 1 1 c
 gsave  2268 2180 0 0 C 1569.96 496.774 t 0 r /Helvetica-Bold findfont 60.6747 sf 0 0 m (  4) show NC gr  black 1 1 1 c
 gsave  2268 2180 0 0 C 1638.22 496.774 t 0 r /Helvetica-Bold findfont 60.6747 sf 0 0 m (\25512) show NC gr  black 1 1 1 c
 gsave  2268 2180 0 0 C 1725.44 496.774 t 0 r /Helvetica-Bold findfont 60.6747 sf 0 0 m (\25511) show NC gr  black 1 1 1 c
 gsave  2268 2180 0 0 C 1812.66 500.566 t 0 r /Helvetica-Bold findfont 60.6747 sf 0 0 m (  8) show NC gr  black 1 1 1 c
 gsave  2268 2180 0 0 C 1888.5 500.566 t 0 r /Helvetica-Bold findfont 60.6747 sf 0 0 m ( 53) show NC gr  black 1 1 1 c
 gsave  2268 2180 0 0 C 341.295 580.202 t 0 r /Helvetica-Bold findfont 60.6747 sf 0 0 m ( \2559) show NC gr  black 1 1 1 c
 gsave  2268 2180 0 0 C 428.515 576.41 t 0 r /Helvetica-Bold findfont 60.6747 sf 0 0 m ( \2551) show NC gr  black 1 1 1 c
 gsave  2268 2180 0 0 C 504.358 576.41 t 0 r /Helvetica-Bold findfont 60.6747 sf 0 0 m ( 11) show NC gr  black 1 1 1 c
 gsave  2268 2180 0 0 C 572.617 580.202 t 0 r /Helvetica-Bold findfont 60.6747 sf 0 0 m (100) show NC gr  black 1 1 1 c
 gsave  2268 2180 0 0 C 667.422 580.202 t 0 r /Helvetica-Bold findfont 60.6747 sf 0 0 m ( 61) show NC gr  black 1 1 1 c
 gsave  2268 2180 0 0 C 747.057 580.202 t 0 r /Helvetica-Bold findfont 60.6747 sf 0 0 m ( 10) show NC gr  black 1 1 1 c
 gsave  2268 2180 0 0 C 834.277 576.41 t 0 r /Helvetica-Bold findfont 60.6747 sf 0 0 m (  4) show NC gr  black 1 1 1 c
 gsave  2268 2180 0 0 C 913.913 576.41 t 0 r /Helvetica-Bold findfont 60.6747 sf 0 0 m ( \2554) show NC gr  black 1 1 1 c
 gsave  2268 2180 0 0 C 997.34 580.202 t 0 r /Helvetica-Bold findfont 60.6747 sf 0 0 m (  3) show NC gr  black 1 1 1 c
 gsave  2268 2180 0 0 C 1236.25 576.41 t 0 r /Helvetica-Bold findfont 60.6747 sf 0 0 m (\25511) show NC gr  black 1 1 1 c
 gsave  2268 2180 0 0 C 1312.09 576.41 t 0 r /Helvetica-Bold findfont 60.6747 sf 0 0 m (\25514) show NC gr  black 1 1 1 c
 gsave  2268 2180 0 0 C 1403.1 576.41 t 0 r /Helvetica-Bold findfont 60.6747 sf 0 0 m ( \2557) show NC gr  black 1 1 1 c
 gsave  2268 2180 0 0 C 1562.37 576.41 t 0 r /Helvetica-Bold findfont 60.6747 sf 0 0 m (\25521) show NC gr  black 1 1 1 c
 gsave  2268 2180 0 0 C 1642.01 576.41 t 0 r /Helvetica-Bold findfont 60.6747 sf 0 0 m (\25521) show NC gr  black 1 1 1 c
 gsave  2268 2180 0 0 C 1733.02 576.41 t 0 r /Helvetica-Bold findfont 60.6747 sf 0 0 m (  2) show NC gr  black 1 1 1 c
 gsave  2268 2180 0 0 C 1808.86 576.41 t 0 r /Helvetica-Bold findfont 60.6747 sf 0 0 m ( \2552) show NC gr  black 1 1 1 c
 gsave  2268 2180 0 0 C 1884.71 580.202 t 0 r /Helvetica-Bold findfont 60.6747 sf 0 0 m (\25513) show NC gr  black 1 1 1 c
 gsave  2268 2180 0 0 C 341.295 659.837 t 0 r /Helvetica-Bold findfont 60.6747 sf 0 0 m ( \2559) show NC gr  black 1 1 1 c
 gsave  2268 2180 0 0 C 428.515 656.045 t 0 r /Helvetica-Bold findfont 60.6747 sf 0 0 m ( \2551) show NC gr  black 1 1 1 c
 gsave  2268 2180 0 0 C 587.786 659.837 t 0 r /Helvetica-Bold findfont 60.6747 sf 0 0 m ( 61) show NC gr  black 1 1 1 c
 gsave  2268 2180 0 0 C 652.253 659.837 t 0 r /Helvetica-Bold findfont 60.6747 sf 0 0 m (100) show NC gr  black 1 1 1 c
 gsave  2268 2180 0 0 C 747.057 659.837 t 0 r /Helvetica-Bold findfont 60.6747 sf 0 0 m ( 20) show NC gr  black 1 1 1 c
 gsave  2268 2180 0 0 C 913.913 659.837 t 0 r /Helvetica-Bold findfont 60.6747 sf 0 0 m ( \2558) show NC gr  black 1 1 1 c
 gsave  2268 2180 0 0 C 993.548 656.045 t 0 r /Helvetica-Bold findfont 60.6747 sf 0 0 m ( \2554) show NC gr  black 1 1 1 c
 gsave  2268 2180 0 0 C 1076.98 659.837 t 0 r /Helvetica-Bold findfont 60.6747 sf 0 0 m ( \2556) show NC gr  black 1 1 1 c
 gsave  2268 2180 0 0 C 1164.2 656.045 t 0 r /Helvetica-Bold findfont 60.6747 sf 0 0 m ( \2551) show NC gr  black 1 1 1 c
 gsave  2268 2180 0 0 C 1240.04 656.045 t 0 r /Helvetica-Bold findfont 60.6747 sf 0 0 m ( \2554) show NC gr  black 1 1 1 c
 gsave  2268 2180 0 0 C 1319.67 659.837 t 0 r /Helvetica-Bold findfont 60.6747 sf 0 0 m ( \2556) show NC gr  black 1 1 1 c
 gsave  2268 2180 0 0 C 1410.69 656.045 t 0 r /Helvetica-Bold findfont 60.6747 sf 0 0 m (  1) show NC gr  black 1 1 1 c
 gsave  2268 2180 0 0 C 1478.95 656.045 t 0 r /Helvetica-Bold findfont 60.6747 sf 0 0 m ( 14) show NC gr  black 1 1 1 c
 gsave  2268 2180 0 0 C 1566.17 656.045 t 0 r /Helvetica-Bold findfont 60.6747 sf 0 0 m ( \2557) show NC gr  black 1 1 1 c
 gsave  2268 2180 0 0 C 1638.22 656.045 t 0 r /Helvetica-Bold findfont 60.6747 sf 0 0 m (\25517) show NC gr  black 1 1 1 c
 gsave  2268 2180 0 0 C 1733.02 656.045 t 0 r /Helvetica-Bold findfont 60.6747 sf 0 0 m (  7) show NC gr  black 1 1 1 c
 gsave  2268 2180 0 0 C 1808.86 659.837 t 0 r /Helvetica-Bold findfont 60.6747 sf 0 0 m ( \2555) show NC gr  black 1 1 1 c
 gsave  2268 2180 0 0 C 345.087 735.681 t 0 r /Helvetica-Bold findfont 60.6747 sf 0 0 m (  7) show NC gr  black 1 1 1 c
 gsave  2268 2180 0 0 C 428.515 735.681 t 0 r /Helvetica-Bold findfont 60.6747 sf 0 0 m (  1) show NC gr  black 1 1 1 c
 gsave  2268 2180 0 0 C 583.994 739.473 t 0 r /Helvetica-Bold findfont 60.6747 sf 0 0 m ( 10) show NC gr  black 1 1 1 c
 gsave  2268 2180 0 0 C 663.629 739.473 t 0 r /Helvetica-Bold findfont 60.6747 sf 0 0 m ( 20) show NC gr  black 1 1 1 c
 gsave  2268 2180 0 0 C 735.681 739.473 t 0 r /Helvetica-Bold findfont 60.6747 sf 0 0 m (100) show NC gr  black 1 1 1 c
 gsave  2268 2180 0 0 C 834.277 739.473 t 0 r /Helvetica-Bold findfont 60.6747 sf 0 0 m (  8) show NC gr  black 1 1 1 c
 gsave  2268 2180 0 0 C 989.756 739.473 t 0 r /Helvetica-Bold findfont 60.6747 sf 0 0 m ( 18) show NC gr  black 1 1 1 c
 gsave  2268 2180 0 0 C 1073.18 735.681 t 0 r /Helvetica-Bold findfont 60.6747 sf 0 0 m ( 17) show NC gr  black 1 1 1 c
 gsave  2268 2180 0 0 C 1160.4 735.681 t 0 r /Helvetica-Bold findfont 60.6747 sf 0 0 m (  4) show NC gr  black 1 1 1 c
 gsave  2268 2180 0 0 C 1243.83 739.473 t 0 r /Helvetica-Bold findfont 60.6747 sf 0 0 m (  3) show NC gr  black 1 1 1 c
 gsave  2268 2180 0 0 C 1315.88 735.681 t 0 r /Helvetica-Bold findfont 60.6747 sf 0 0 m ( 22) show NC gr  black 1 1 1 c
 gsave  2268 2180 0 0 C 1403.1 735.681 t 0 r /Helvetica-Bold findfont 60.6747 sf 0 0 m ( \2552) show NC gr  black 1 1 1 c
 gsave  2268 2180 0 0 C 1490.32 735.681 t 0 r /Helvetica-Bold findfont 60.6747 sf 0 0 m (  1) show NC gr  black 1 1 1 c
 gsave  2268 2180 0 0 C 1569.96 735.681 t 0 r /Helvetica-Bold findfont 60.6747 sf 0 0 m (  4) show NC gr  black 1 1 1 c
 gsave  2268 2180 0 0 C 1645.8 735.681 t 0 r /Helvetica-Bold findfont 60.6747 sf 0 0 m ( \2554) show NC gr  black 1 1 1 c
 gsave  2268 2180 0 0 C 1733.02 735.681 t 0 r /Helvetica-Bold findfont 60.6747 sf 0 0 m (  2) show NC gr  black 1 1 1 c
 gsave  2268 2180 0 0 C 1808.86 735.681 t 0 r /Helvetica-Bold findfont 60.6747 sf 0 0 m ( \2554) show NC gr  black 1 1 1 c
 gsave  2268 2180 0 0 C 1892.29 735.681 t 0 r /Helvetica-Bold findfont 60.6747 sf 0 0 m ( 11) show NC gr  black 1 1 1 c
 gsave  2268 2180 0 0 C 337.503 815.316 t 0 r /Helvetica-Bold findfont 60.6747 sf 0 0 m ( 37) show NC gr  black 1 1 1 c
 gsave  2268 2180 0 0 C 417.138 815.316 t 0 r /Helvetica-Bold findfont 60.6747 sf 0 0 m ( 32) show NC gr  black 1 1 1 c
 gsave  2268 2180 0 0 C 500.566 815.316 t 0 r /Helvetica-Bold findfont 60.6747 sf 0 0 m ( 16) show NC gr  black 1 1 1 c
 gsave  2268 2180 0 0 C 591.578 811.524 t 0 r /Helvetica-Bold findfont 60.6747 sf 0 0 m (  4) show NC gr  black 1 1 1 c
 gsave  2268 2180 0 0 C 754.641 815.316 t 0 r /Helvetica-Bold findfont 60.6747 sf 0 0 m (  8) show NC gr  black 1 1 1 c
 gsave  2268 2180 0 0 C 815.316 815.316 t 0 r /Helvetica-Bold findfont 60.6747 sf 0 0 m (100) show NC gr  black 1 1 1 c
 gsave  2268 2180 0 0 C 910.12 815.316 t 0 r /Helvetica-Bold findfont 60.6747 sf 0 0 m ( 56) show NC gr  black 1 1 1 c
 gsave  2268 2180 0 0 C 989.756 815.316 t 0 r /Helvetica-Bold findfont 60.6747 sf 0 0 m ( 10) show NC gr  black 1 1 1 c
 gsave  2268 2180 0 0 C 1073.18 811.524 t 0 r /Helvetica-Bold findfont 60.6747 sf 0 0 m ( 12) show NC gr  black 1 1 1 c
 gsave  2268 2180 0 0 C 1152.82 815.316 t 0 r /Helvetica-Bold findfont 60.6747 sf 0 0 m ( 33) show NC gr  black 1 1 1 c
 gsave  2268 2180 0 0 C 1236.25 815.316 t 0 r /Helvetica-Bold findfont 60.6747 sf 0 0 m ( 10) show NC gr  black 1 1 1 c
 gsave  2268 2180 0 0 C 1315.88 811.524 t 0 r /Helvetica-Bold findfont 60.6747 sf 0 0 m ( 12) show NC gr  black 1 1 1 c
 gsave  2268 2180 0 0 C 1406.89 811.524 t 0 r /Helvetica-Bold findfont 60.6747 sf 0 0 m (  7) show NC gr  black 1 1 1 c
 gsave  2268 2180 0 0 C 1475.15 815.316 t 0 r /Helvetica-Bold findfont 60.6747 sf 0 0 m (\25525) show NC gr  black 1 1 1 c
 gsave  2268 2180 0 0 C 1558.58 815.316 t 0 r /Helvetica-Bold findfont 60.6747 sf 0 0 m (\25516) show NC gr  black 1 1 1 c
 gsave  2268 2180 0 0 C 1642.01 815.316 t 0 r /Helvetica-Bold findfont 60.6747 sf 0 0 m ( 15) show NC gr  black 1 1 1 c
 gsave  2268 2180 0 0 C 1725.44 811.524 t 0 r /Helvetica-Bold findfont 60.6747 sf 0 0 m ( 14) show NC gr  black 1 1 1 c
 gsave  2268 2180 0 0 C 1805.07 815.316 t 0 r /Helvetica-Bold findfont 60.6747 sf 0 0 m ( 52) show NC gr  black 1 1 1 c
 gsave  2268 2180 0 0 C 1888.5 811.524 t 0 r /Helvetica-Bold findfont 60.6747 sf 0 0 m ( 12) show NC gr  black 1 1 1 c
 gsave  2268 2180 0 0 C 337.503 894.952 t 0 r /Helvetica-Bold findfont 60.6747 sf 0 0 m ( 26) show NC gr  black 1 1 1 c
 gsave  2268 2180 0 0 C 417.138 891.16 t 0 r /Helvetica-Bold findfont 60.6747 sf 0 0 m ( 17) show NC gr  black 1 1 1 c
 gsave  2268 2180 0 0 C 500.566 891.16 t 0 r /Helvetica-Bold findfont 60.6747 sf 0 0 m ( 14) show NC gr  black 1 1 1 c
 gsave  2268 2180 0 0 C 587.786 891.16 t 0 r /Helvetica-Bold findfont 60.6747 sf 0 0 m ( \2554) show NC gr  black 1 1 1 c
 gsave  2268 2180 0 0 C 667.422 894.952 t 0 r /Helvetica-Bold findfont 60.6747 sf 0 0 m ( \2558) show NC gr  black 1 1 1 c
 gsave  2268 2180 0 0 C 826.693 894.952 t 0 r /Helvetica-Bold findfont 60.6747 sf 0 0 m ( 56) show NC gr  black 1 1 1 c
 gsave  2268 2180 0 0 C 898.744 894.952 t 0 r /Helvetica-Bold findfont 60.6747 sf 0 0 m (100) show NC gr  black 1 1 1 c
 gsave  2268 2180 0 0 C 989.756 894.952 t 0 r /Helvetica-Bold findfont 60.6747 sf 0 0 m ( 10) show NC gr  black 1 1 1 c
 gsave  2268 2180 0 0 C 1080.77 891.16 t 0 r /Helvetica-Bold findfont 60.6747 sf 0 0 m (  4) show NC gr  black 1 1 1 c
 gsave  2268 2180 0 0 C 1152.82 894.952 t 0 r /Helvetica-Bold findfont 60.6747 sf 0 0 m ( 13) show NC gr  black 1 1 1 c
 gsave  2268 2180 0 0 C 1236.25 894.952 t 0 r /Helvetica-Bold findfont 60.6747 sf 0 0 m ( 15) show NC gr  black 1 1 1 c
 gsave  2268 2180 0 0 C 1315.88 894.952 t 0 r /Helvetica-Bold findfont 60.6747 sf 0 0 m ( 13) show NC gr  black 1 1 1 c
 gsave  2268 2180 0 0 C 1399.31 894.952 t 0 r /Helvetica-Bold findfont 60.6747 sf 0 0 m ( 13) show NC gr  black 1 1 1 c
 gsave  2268 2180 0 0 C 1475.15 891.16 t 0 r /Helvetica-Bold findfont 60.6747 sf 0 0 m (\25514) show NC gr  black 1 1 1 c
 gsave  2268 2180 0 0 C 1642.01 894.952 t 0 r /Helvetica-Bold findfont 60.6747 sf 0 0 m ( 13) show NC gr  black 1 1 1 c
 gsave  2268 2180 0 0 C 1729.23 894.952 t 0 r /Helvetica-Bold findfont 60.6747 sf 0 0 m ( \2559) show NC gr  black 1 1 1 c
 gsave  2268 2180 0 0 C 1805.07 894.952 t 0 r /Helvetica-Bold findfont 60.6747 sf 0 0 m ( 67) show NC gr  black 1 1 1 c
 gsave  2268 2180 0 0 C 1888.5 894.952 t 0 r /Helvetica-Bold findfont 60.6747 sf 0 0 m ( 16) show NC gr  black 1 1 1 c
 gsave  2268 2180 0 0 C 341.295 970.795 t 0 r /Helvetica-Bold findfont 60.6747 sf 0 0 m ( \2554) show NC gr  black 1 1 1 c
 gsave  2268 2180 0 0 C 420.931 970.795 t 0 r /Helvetica-Bold findfont 60.6747 sf 0 0 m ( \2552) show NC gr  black 1 1 1 c
 gsave  2268 2180 0 0 C 504.358 970.795 t 0 r /Helvetica-Bold findfont 60.6747 sf 0 0 m ( \2552) show NC gr  black 1 1 1 c
 gsave  2268 2180 0 0 C 591.578 974.587 t 0 r /Helvetica-Bold findfont 60.6747 sf 0 0 m (  3) show NC gr  black 1 1 1 c
 gsave  2268 2180 0 0 C 667.422 970.795 t 0 r /Helvetica-Bold findfont 60.6747 sf 0 0 m ( \2554) show NC gr  black 1 1 1 c
 gsave  2268 2180 0 0 C 747.057 974.587 t 0 r /Helvetica-Bold findfont 60.6747 sf 0 0 m ( 18) show NC gr  black 1 1 1 c
 gsave  2268 2180 0 0 C 826.693 974.587 t 0 r /Helvetica-Bold findfont 60.6747 sf 0 0 m ( 10) show NC gr  black 1 1 1 c
 gsave  2268 2180 0 0 C 910.12 974.587 t 0 r /Helvetica-Bold findfont 60.6747 sf 0 0 m ( 10) show NC gr  black 1 1 1 c
 gsave  2268 2180 0 0 C 978.379 974.587 t 0 r /Helvetica-Bold findfont 60.6747 sf 0 0 m (100) show NC gr  black 1 1 1 c
 gsave  2268 2180 0 0 C 1073.18 974.587 t 0 r /Helvetica-Bold findfont 60.6747 sf 0 0 m ( 25) show NC gr  black 1 1 1 c
 gsave  2268 2180 0 0 C 1164.2 970.795 t 0 r /Helvetica-Bold findfont 60.6747 sf 0 0 m (  1) show NC gr  black 1 1 1 c
 gsave  2268 2180 0 0 C 1240.04 970.795 t 0 r /Helvetica-Bold findfont 60.6747 sf 0 0 m ( \2557) show NC gr  black 1 1 1 c
 gsave  2268 2180 0 0 C 1319.67 970.795 t 0 r /Helvetica-Bold findfont 60.6747 sf 0 0 m ( \2557) show NC gr  black 1 1 1 c
 gsave  2268 2180 0 0 C 1406.89 970.795 t 0 r /Helvetica-Bold findfont 60.6747 sf 0 0 m (  4) show NC gr  black 1 1 1 c
 gsave  2268 2180 0 0 C 1482.74 970.795 t 0 r /Helvetica-Bold findfont 60.6747 sf 0 0 m ( \2554) show NC gr  black 1 1 1 c
 gsave  2268 2180 0 0 C 1562.37 974.587 t 0 r /Helvetica-Bold findfont 60.6747 sf 0 0 m ( 10) show NC gr  black 1 1 1 c
 gsave  2268 2180 0 0 C 1649.59 970.795 t 0 r /Helvetica-Bold findfont 60.6747 sf 0 0 m (  4) show NC gr  black 1 1 1 c
 gsave  2268 2180 0 0 C 1733.02 970.795 t 0 r /Helvetica-Bold findfont 60.6747 sf 0 0 m (  2) show NC gr  black 1 1 1 c
 gsave  2268 2180 0 0 C 1805.07 974.587 t 0 r /Helvetica-Bold findfont 60.6747 sf 0 0 m ( 13) show NC gr  black 1 1 1 c
 gsave  2268 2180 0 0 C 1892.29 974.587 t 0 r /Helvetica-Bold findfont 60.6747 sf 0 0 m ( \2553) show NC gr  black 1 1 1 c
 gsave  2268 2180 0 0 C 345.087 1046.64 t 0 r /Helvetica-Bold findfont 60.6747 sf 0 0 m (  7) show NC gr  black 1 1 1 c
 gsave  2268 2180 0 0 C 500.566 1050.43 t 0 r /Helvetica-Bold findfont 60.6747 sf 0 0 m ( 10) show NC gr  black 1 1 1 c
 gsave  2268 2180 0 0 C 667.422 1050.43 t 0 r /Helvetica-Bold findfont 60.6747 sf 0 0 m ( \2556) show NC gr  black 1 1 1 c
 gsave  2268 2180 0 0 C 747.057 1046.64 t 0 r /Helvetica-Bold findfont 60.6747 sf 0 0 m ( 17) show NC gr  black 1 1 1 c
 gsave  2268 2180 0 0 C 826.693 1046.64 t 0 r /Helvetica-Bold findfont 60.6747 sf 0 0 m ( 12) show NC gr  black 1 1 1 c
 gsave  2268 2180 0 0 C 917.705 1046.64 t 0 r /Helvetica-Bold findfont 60.6747 sf 0 0 m (  4) show NC gr  black 1 1 1 c
 gsave  2268 2180 0 0 C 989.756 1050.43 t 0 r /Helvetica-Bold findfont 60.6747 sf 0 0 m ( 25) show NC gr  black 1 1 1 c
 gsave  2268 2180 0 0 C 1061.81 1050.43 t 0 r /Helvetica-Bold findfont 60.6747 sf 0 0 m (100) show NC gr  black 1 1 1 c
 gsave  2268 2180 0 0 C 1240.04 1050.43 t 0 r /Helvetica-Bold findfont 60.6747 sf 0 0 m ( \2556) show NC gr  black 1 1 1 c
 gsave  2268 2180 0 0 C 1315.88 1046.64 t 0 r /Helvetica-Bold findfont 60.6747 sf 0 0 m ( 12) show NC gr  black 1 1 1 c
 gsave  2268 2180 0 0 C 1406.89 1050.43 t 0 r /Helvetica-Bold findfont 60.6747 sf 0 0 m (  3) show NC gr  black 1 1 1 c
 gsave  2268 2180 0 0 C 1475.15 1050.43 t 0 r /Helvetica-Bold findfont 60.6747 sf 0 0 m (\25520) show NC gr  black 1 1 1 c
 gsave  2268 2180 0 0 C 1569.96 1046.64 t 0 r /Helvetica-Bold findfont 60.6747 sf 0 0 m (  2) show NC gr  black 1 1 1 c
 gsave  2268 2180 0 0 C 1645.8 1046.64 t 0 r /Helvetica-Bold findfont 60.6747 sf 0 0 m ( 11) show NC gr  black 1 1 1 c
 gsave  2268 2180 0 0 C 1812.66 1050.43 t 0 r /Helvetica-Bold findfont 60.6747 sf 0 0 m (  3) show NC gr  black 1 1 1 c
 gsave  2268 2180 0 0 C 1896.08 1050.43 t 0 r /Helvetica-Bold findfont 60.6747 sf 0 0 m (  6) show NC gr  black 1 1 1 c
 gsave  2268 2180 0 0 C 337.503 1130.07 t 0 r /Helvetica-Bold findfont 60.6747 sf 0 0 m ( 15) show NC gr  black 1 1 1 c
 gsave  2268 2180 0 0 C 424.723 1130.07 t 0 r /Helvetica-Bold findfont 60.6747 sf 0 0 m (  8) show NC gr  black 1 1 1 c
 gsave  2268 2180 0 0 C 500.566 1130.07 t 0 r /Helvetica-Bold findfont 60.6747 sf 0 0 m ( 18) show NC gr  black 1 1 1 c
 gsave  2268 2180 0 0 C 675.006 1126.27 t 0 r /Helvetica-Bold findfont 60.6747 sf 0 0 m ( \2551) show NC gr  black 1 1 1 c
 gsave  2268 2180 0 0 C 754.641 1126.27 t 0 r /Helvetica-Bold findfont 60.6747 sf 0 0 m (  4) show NC gr  black 1 1 1 c
 gsave  2268 2180 0 0 C 826.693 1130.07 t 0 r /Helvetica-Bold findfont 60.6747 sf 0 0 m ( 33) show NC gr  black 1 1 1 c
 gsave  2268 2180 0 0 C 910.12 1130.07 t 0 r /Helvetica-Bold findfont 60.6747 sf 0 0 m ( 13) show NC gr  black 1 1 1 c
 gsave  2268 2180 0 0 C 1001.13 1126.27 t 0 r /Helvetica-Bold findfont 60.6747 sf 0 0 m (  1) show NC gr  black 1 1 1 c
 gsave  2268 2180 0 0 C 1141.44 1130.07 t 0 r /Helvetica-Bold findfont 60.6747 sf 0 0 m (100) show NC gr  black 1 1 1 c
 gsave  2268 2180 0 0 C 1243.83 1130.07 t 0 r /Helvetica-Bold findfont 60.6747 sf 0 0 m (  6) show NC gr  black 1 1 1 c
 gsave  2268 2180 0 0 C 1315.88 1130.07 t 0 r /Helvetica-Bold findfont 60.6747 sf 0 0 m ( 19) show NC gr  black 1 1 1 c
 gsave  2268 2180 0 0 C 1406.89 1130.07 t 0 r /Helvetica-Bold findfont 60.6747 sf 0 0 m (  8) show NC gr  black 1 1 1 c
 gsave  2268 2180 0 0 C 1482.74 1130.07 t 0 r /Helvetica-Bold findfont 60.6747 sf 0 0 m ( \2555) show NC gr  black 1 1 1 c
 gsave  2268 2180 0 0 C 1569.96 1126.27 t 0 r /Helvetica-Bold findfont 60.6747 sf 0 0 m (  4) show NC gr  black 1 1 1 c
 gsave  2268 2180 0 0 C 1645.8 1126.27 t 0 r /Helvetica-Bold findfont 60.6747 sf 0 0 m ( \2552) show NC gr  black 1 1 1 c
 gsave  2268 2180 0 0 C 1725.44 1130.07 t 0 r /Helvetica-Bold findfont 60.6747 sf 0 0 m ( 15) show NC gr  black 1 1 1 c
 gsave  2268 2180 0 0 C 1812.66 1126.27 t 0 r /Helvetica-Bold findfont 60.6747 sf 0 0 m (  4) show NC gr  black 1 1 1 c
 gsave  2268 2180 0 0 C 1888.5 1130.07 t 0 r /Helvetica-Bold findfont 60.6747 sf 0 0 m ( 16) show NC gr  black 1 1 1 c
 gsave  2268 2180 0 0 C 337.503 1209.7 t 0 r /Helvetica-Bold findfont 60.6747 sf 0 0 m ( 58) show NC gr  black 1 1 1 c
 gsave  2268 2180 0 0 C 417.138 1209.7 t 0 r /Helvetica-Bold findfont 60.6747 sf 0 0 m ( 50) show NC gr  black 1 1 1 c
 gsave  2268 2180 0 0 C 500.566 1205.91 t 0 r /Helvetica-Bold findfont 60.6747 sf 0 0 m ( 14) show NC gr  black 1 1 1 c
 gsave  2268 2180 0 0 C 583.994 1205.91 t 0 r /Helvetica-Bold findfont 60.6747 sf 0 0 m (\25511) show NC gr  black 1 1 1 c
 gsave  2268 2180 0 0 C 667.422 1205.91 t 0 r /Helvetica-Bold findfont 60.6747 sf 0 0 m ( \2554) show NC gr  black 1 1 1 c
 gsave  2268 2180 0 0 C 754.641 1209.7 t 0 r /Helvetica-Bold findfont 60.6747 sf 0 0 m (  3) show NC gr  black 1 1 1 c
 gsave  2268 2180 0 0 C 826.693 1209.7 t 0 r /Helvetica-Bold findfont 60.6747 sf 0 0 m ( 10) show NC gr  black 1 1 1 c
 gsave  2268 2180 0 0 C 910.12 1209.7 t 0 r /Helvetica-Bold findfont 60.6747 sf 0 0 m ( 15) show NC gr  black 1 1 1 c
 gsave  2268 2180 0 0 C 993.548 1205.91 t 0 r /Helvetica-Bold findfont 60.6747 sf 0 0 m ( \2557) show NC gr  black 1 1 1 c
 gsave  2268 2180 0 0 C 1076.98 1209.7 t 0 r /Helvetica-Bold findfont 60.6747 sf 0 0 m ( \2556) show NC gr  black 1 1 1 c
 gsave  2268 2180 0 0 C 1160.4 1209.7 t 0 r /Helvetica-Bold findfont 60.6747 sf 0 0 m (  6) show NC gr  black 1 1 1 c
 gsave  2268 2180 0 0 C 1224.87 1209.7 t 0 r /Helvetica-Bold findfont 60.6747 sf 0 0 m (100) show NC gr  black 1 1 1 c
 gsave  2268 2180 0 0 C 1315.88 1209.7 t 0 r /Helvetica-Bold findfont 60.6747 sf 0 0 m ( 49) show NC gr  black 1 1 1 c
 gsave  2268 2180 0 0 C 1399.31 1209.7 t 0 r /Helvetica-Bold findfont 60.6747 sf 0 0 m ( 26) show NC gr  black 1 1 1 c
 gsave  2268 2180 0 0 C 1478.95 1209.7 t 0 r /Helvetica-Bold findfont 60.6747 sf 0 0 m ( 35) show NC gr  black 1 1 1 c
 gsave  2268 2180 0 0 C 1721.64 1209.7 t 0 r /Helvetica-Bold findfont 60.6747 sf 0 0 m (\25510) show NC gr  black 1 1 1 c
 gsave  2268 2180 0 0 C 1812.66 1209.7 t 0 r /Helvetica-Bold findfont 60.6747 sf 0 0 m (  5) show NC gr  black 1 1 1 c
 gsave  2268 2180 0 0 C 1888.5 1209.7 t 0 r /Helvetica-Bold findfont 60.6747 sf 0 0 m ( 64) show NC gr  black 1 1 1 c
 gsave  2268 2180 0 0 C 337.503 1285.55 t 0 r /Helvetica-Bold findfont 60.6747 sf 0 0 m ( 57) show NC gr  black 1 1 1 c
 gsave  2268 2180 0 0 C 417.138 1281.75 t 0 r /Helvetica-Bold findfont 60.6747 sf 0 0 m ( 17) show NC gr  black 1 1 1 c
 gsave  2268 2180 0 0 C 500.566 1285.55 t 0 r /Helvetica-Bold findfont 60.6747 sf 0 0 m ( 57) show NC gr  black 1 1 1 c
 gsave  2268 2180 0 0 C 580.202 1281.75 t 0 r /Helvetica-Bold findfont 60.6747 sf 0 0 m (\25514) show NC gr  black 1 1 1 c
 gsave  2268 2180 0 0 C 667.422 1285.55 t 0 r /Helvetica-Bold findfont 60.6747 sf 0 0 m ( \2556) show NC gr  black 1 1 1 c
 gsave  2268 2180 0 0 C 747.057 1281.75 t 0 r /Helvetica-Bold findfont 60.6747 sf 0 0 m ( 22) show NC gr  black 1 1 1 c
 gsave  2268 2180 0 0 C 826.693 1281.75 t 0 r /Helvetica-Bold findfont 60.6747 sf 0 0 m ( 12) show NC gr  black 1 1 1 c
 gsave  2268 2180 0 0 C 910.12 1285.55 t 0 r /Helvetica-Bold findfont 60.6747 sf 0 0 m ( 13) show NC gr  black 1 1 1 c
 gsave  2268 2180 0 0 C 993.548 1281.75 t 0 r /Helvetica-Bold findfont 60.6747 sf 0 0 m ( \2557) show NC gr  black 1 1 1 c
 gsave  2268 2180 0 0 C 1073.18 1281.75 t 0 r /Helvetica-Bold findfont 60.6747 sf 0 0 m ( 12) show NC gr  black 1 1 1 c
 gsave  2268 2180 0 0 C 1152.82 1285.55 t 0 r /Helvetica-Bold findfont 60.6747 sf 0 0 m ( 19) show NC gr  black 1 1 1 c
 gsave  2268 2180 0 0 C 1236.25 1285.55 t 0 r /Helvetica-Bold findfont 60.6747 sf 0 0 m ( 49) show NC gr  black 1 1 1 c
 gsave  2268 2180 0 0 C 1304.51 1285.55 t 0 r /Helvetica-Bold findfont 60.6747 sf 0 0 m (100) show NC gr  black 1 1 1 c
 gsave  2268 2180 0 0 C 1399.31 1285.55 t 0 r /Helvetica-Bold findfont 60.6747 sf 0 0 m ( 46) show NC gr  black 1 1 1 c
 gsave  2268 2180 0 0 C 1482.74 1281.75 t 0 r /Helvetica-Bold findfont 60.6747 sf 0 0 m ( 11) show NC gr  black 1 1 1 c
 gsave  2268 2180 0 0 C 1562.37 1281.75 t 0 r /Helvetica-Bold findfont 60.6747 sf 0 0 m ( 24) show NC gr  black 1 1 1 c
 gsave  2268 2180 0 0 C 1649.59 1285.55 t 0 r /Helvetica-Bold findfont 60.6747 sf 0 0 m (  9) show NC gr  black 1 1 1 c
 gsave  2268 2180 0 0 C 1725.44 1281.75 t 0 r /Helvetica-Bold findfont 60.6747 sf 0 0 m (\25511) show NC gr  black 1 1 1 c
 gsave  2268 2180 0 0 C 1888.5 1285.55 t 0 r /Helvetica-Bold findfont 60.6747 sf 0 0 m ( 88) show NC gr  black 1 1 1 c
 gsave  2268 2180 0 0 C 345.087 1365.18 t 0 r /Helvetica-Bold findfont 60.6747 sf 0 0 m (  6) show NC gr  black 1 1 1 c
 gsave  2268 2180 0 0 C 420.931 1365.18 t 0 r /Helvetica-Bold findfont 60.6747 sf 0 0 m ( 51) show NC gr  black 1 1 1 c
 gsave  2268 2180 0 0 C 500.566 1365.18 t 0 r /Helvetica-Bold findfont 60.6747 sf 0 0 m ( 37) show NC gr  black 1 1 1 c
 gsave  2268 2180 0 0 C 587.786 1361.39 t 0 r /Helvetica-Bold findfont 60.6747 sf 0 0 m ( \2557) show NC gr  black 1 1 1 c
 gsave  2268 2180 0 0 C 675.006 1361.39 t 0 r /Helvetica-Bold findfont 60.6747 sf 0 0 m (  1) show NC gr  black 1 1 1 c
 gsave  2268 2180 0 0 C 750.849 1361.39 t 0 r /Helvetica-Bold findfont 60.6747 sf 0 0 m ( \2552) show NC gr  black 1 1 1 c
 gsave  2268 2180 0 0 C 834.277 1361.39 t 0 r /Helvetica-Bold findfont 60.6747 sf 0 0 m (  7) show NC gr  black 1 1 1 c
 gsave  2268 2180 0 0 C 910.12 1365.18 t 0 r /Helvetica-Bold findfont 60.6747 sf 0 0 m ( 13) show NC gr  black 1 1 1 c
 gsave  2268 2180 0 0 C 997.34 1361.39 t 0 r /Helvetica-Bold findfont 60.6747 sf 0 0 m (  4) show NC gr  black 1 1 1 c
 gsave  2268 2180 0 0 C 1080.77 1365.18 t 0 r /Helvetica-Bold findfont 60.6747 sf 0 0 m (  3) show NC gr  black 1 1 1 c
 gsave  2268 2180 0 0 C 1160.4 1365.18 t 0 r /Helvetica-Bold findfont 60.6747 sf 0 0 m (  8) show NC gr  black 1 1 1 c
 gsave  2268 2180 0 0 C 1236.25 1365.18 t 0 r /Helvetica-Bold findfont 60.6747 sf 0 0 m ( 26) show NC gr  black 1 1 1 c
 gsave  2268 2180 0 0 C 1315.88 1365.18 t 0 r /Helvetica-Bold findfont 60.6747 sf 0 0 m ( 46) show NC gr  black 1 1 1 c
 gsave  2268 2180 0 0 C 1387.93 1365.18 t 0 r /Helvetica-Bold findfont 60.6747 sf 0 0 m (100) show NC gr  black 1 1 1 c
 gsave  2268 2180 0 0 C 1482.74 1361.39 t 0 r /Helvetica-Bold findfont 60.6747 sf 0 0 m ( \2554) show NC gr  black 1 1 1 c
 gsave  2268 2180 0 0 C 1562.37 1365.18 t 0 r /Helvetica-Bold findfont 60.6747 sf 0 0 m ( 68) show NC gr  black 1 1 1 c
 gsave  2268 2180 0 0 C 1645.8 1361.39 t 0 r /Helvetica-Bold findfont 60.6747 sf 0 0 m ( 11) show NC gr  black 1 1 1 c
 gsave  2268 2180 0 0 C 1721.64 1365.18 t 0 r /Helvetica-Bold findfont 60.6747 sf 0 0 m (\25529) show NC gr  black 1 1 1 c
 gsave  2268 2180 0 0 C 1812.66 1365.18 t 0 r /Helvetica-Bold findfont 60.6747 sf 0 0 m (  5) show NC gr  black 1 1 1 c
 gsave  2268 2180 0 0 C 1888.5 1365.18 t 0 r /Helvetica-Bold findfont 60.6747 sf 0 0 m ( 76) show NC gr  black 1 1 1 c
 gsave  2268 2180 0 0 C 333.711 1444.82 t 0 r /Helvetica-Bold findfont 60.6747 sf 0 0 m (\25516) show NC gr  black 1 1 1 c
 gsave  2268 2180 0 0 C 413.346 1444.82 t 0 r /Helvetica-Bold findfont 60.6747 sf 0 0 m (\25515) show NC gr  black 1 1 1 c
 gsave  2268 2180 0 0 C 504.358 1441.02 t 0 r /Helvetica-Bold findfont 60.6747 sf 0 0 m ( \2557) show NC gr  black 1 1 1 c
 gsave  2268 2180 0 0 C 663.629 1441.02 t 0 r /Helvetica-Bold findfont 60.6747 sf 0 0 m ( 14) show NC gr  black 1 1 1 c
 gsave  2268 2180 0 0 C 758.434 1441.02 t 0 r /Helvetica-Bold findfont 60.6747 sf 0 0 m (  1) show NC gr  black 1 1 1 c
 gsave  2268 2180 0 0 C 822.9 1444.82 t 0 r /Helvetica-Bold findfont 60.6747 sf 0 0 m (\25525) show NC gr  black 1 1 1 c
 gsave  2268 2180 0 0 C 906.328 1441.02 t 0 r /Helvetica-Bold findfont 60.6747 sf 0 0 m (\25514) show NC gr  black 1 1 1 c
 gsave  2268 2180 0 0 C 993.548 1441.02 t 0 r /Helvetica-Bold findfont 60.6747 sf 0 0 m ( \2554) show NC gr  black 1 1 1 c
 gsave  2268 2180 0 0 C 1069.39 1444.82 t 0 r /Helvetica-Bold findfont 60.6747 sf 0 0 m (\25520) show NC gr  black 1 1 1 c
 gsave  2268 2180 0 0 C 1156.61 1444.82 t 0 r /Helvetica-Bold findfont 60.6747 sf 0 0 m ( \2555) show NC gr  black 1 1 1 c
 gsave  2268 2180 0 0 C 1236.25 1444.82 t 0 r /Helvetica-Bold findfont 60.6747 sf 0 0 m ( 35) show NC gr  black 1 1 1 c
 gsave  2268 2180 0 0 C 1319.67 1441.02 t 0 r /Helvetica-Bold findfont 60.6747 sf 0 0 m ( 11) show NC gr  black 1 1 1 c
 gsave  2268 2180 0 0 C 1403.1 1441.02 t 0 r /Helvetica-Bold findfont 60.6747 sf 0 0 m ( \2554) show NC gr  black 1 1 1 c
 gsave  2268 2180 0 0 C 1467.57 1444.82 t 0 r /Helvetica-Bold findfont 60.6747 sf 0 0 m (100) show NC gr  black 1 1 1 c
 gsave  2268 2180 0 0 C 1573.75 1441.02 t 0 r /Helvetica-Bold findfont 60.6747 sf 0 0 m ( \2551) show NC gr  black 1 1 1 c
 gsave  2268 2180 0 0 C 1638.22 1444.82 t 0 r /Helvetica-Bold findfont 60.6747 sf 0 0 m (\25525) show NC gr  black 1 1 1 c
 gsave  2268 2180 0 0 C 1733.02 1444.82 t 0 r /Helvetica-Bold findfont 60.6747 sf 0 0 m (  9) show NC gr  black 1 1 1 c
 gsave  2268 2180 0 0 C 1801.28 1444.82 t 0 r /Helvetica-Bold findfont 60.6747 sf 0 0 m (\25510) show NC gr  black 1 1 1 c
 gsave  2268 2180 0 0 C 1888.5 1444.82 t 0 r /Helvetica-Bold findfont 60.6747 sf 0 0 m ( 13) show NC gr  black 1 1 1 c
 gsave  2268 2180 0 0 C 333.711 1520.66 t 0 r /Helvetica-Bold findfont 60.6747 sf 0 0 m (\25514) show NC gr  black 1 1 1 c
 gsave  2268 2180 0 0 C 424.723 1524.45 t 0 r /Helvetica-Bold findfont 60.6747 sf 0 0 m (  8) show NC gr  black 1 1 1 c
 gsave  2268 2180 0 0 C 508.151 1520.66 t 0 r /Helvetica-Bold findfont 60.6747 sf 0 0 m (  4) show NC gr  black 1 1 1 c
 gsave  2268 2180 0 0 C 583.994 1520.66 t 0 r /Helvetica-Bold findfont 60.6747 sf 0 0 m (\25521) show NC gr  black 1 1 1 c
 gsave  2268 2180 0 0 C 667.422 1520.66 t 0 r /Helvetica-Bold findfont 60.6747 sf 0 0 m ( \2557) show NC gr  black 1 1 1 c
 gsave  2268 2180 0 0 C 754.641 1520.66 t 0 r /Helvetica-Bold findfont 60.6747 sf 0 0 m (  4) show NC gr  black 1 1 1 c
 gsave  2268 2180 0 0 C 822.9 1524.45 t 0 r /Helvetica-Bold findfont 60.6747 sf 0 0 m (\25516) show NC gr  black 1 1 1 c
 gsave  2268 2180 0 0 C 989.756 1524.45 t 0 r /Helvetica-Bold findfont 60.6747 sf 0 0 m ( 10) show NC gr  black 1 1 1 c
 gsave  2268 2180 0 0 C 1080.77 1520.66 t 0 r /Helvetica-Bold findfont 60.6747 sf 0 0 m (  2) show NC gr  black 1 1 1 c
 gsave  2268 2180 0 0 C 1160.4 1520.66 t 0 r /Helvetica-Bold findfont 60.6747 sf 0 0 m (  4) show NC gr  black 1 1 1 c
 gsave  2268 2180 0 0 C 1315.88 1520.66 t 0 r /Helvetica-Bold findfont 60.6747 sf 0 0 m ( 24) show NC gr  black 1 1 1 c
 gsave  2268 2180 0 0 C 1399.31 1524.45 t 0 r /Helvetica-Bold findfont 60.6747 sf 0 0 m ( 68) show NC gr  black 1 1 1 c
 gsave  2268 2180 0 0 C 1490.32 1520.66 t 0 r /Helvetica-Bold findfont 60.6747 sf 0 0 m ( \2551) show NC gr  black 1 1 1 c
 gsave  2268 2180 0 0 C 1551 1524.45 t 0 r /Helvetica-Bold findfont 60.6747 sf 0 0 m (100) show NC gr  black 1 1 1 c
 gsave  2268 2180 0 0 C 1642.01 1524.45 t 0 r /Helvetica-Bold findfont 60.6747 sf 0 0 m ( 18) show NC gr  black 1 1 1 c
 gsave  2268 2180 0 0 C 1721.64 1524.45 t 0 r /Helvetica-Bold findfont 60.6747 sf 0 0 m (\25519) show NC gr  black 1 1 1 c
 gsave  2268 2180 0 0 C 1808.86 1520.66 t 0 r /Helvetica-Bold findfont 60.6747 sf 0 0 m ( \2554) show NC gr  black 1 1 1 c
 gsave  2268 2180 0 0 C 1888.5 1524.45 t 0 r /Helvetica-Bold findfont 60.6747 sf 0 0 m ( 43) show NC gr  black 1 1 1 c
 gsave  2268 2180 0 0 C 337.503 1596.5 t 0 r /Helvetica-Bold findfont 60.6747 sf 0 0 m ( 12) show NC gr  black 1 1 1 c
 gsave  2268 2180 0 0 C 420.931 1596.5 t 0 r /Helvetica-Bold findfont 60.6747 sf 0 0 m ( 11) show NC gr  black 1 1 1 c
 gsave  2268 2180 0 0 C 496.774 1596.5 t 0 r /Helvetica-Bold findfont 60.6747 sf 0 0 m (\25512) show NC gr  black 1 1 1 c
 gsave  2268 2180 0 0 C 583.994 1596.5 t 0 r /Helvetica-Bold findfont 60.6747 sf 0 0 m (\25521) show NC gr  black 1 1 1 c
 gsave  2268 2180 0 0 C 659.837 1596.5 t 0 r /Helvetica-Bold findfont 60.6747 sf 0 0 m (\25517) show NC gr  black 1 1 1 c
 gsave  2268 2180 0 0 C 750.849 1596.5 t 0 r /Helvetica-Bold findfont 60.6747 sf 0 0 m ( \2554) show NC gr  black 1 1 1 c
 gsave  2268 2180 0 0 C 826.693 1600.3 t 0 r /Helvetica-Bold findfont 60.6747 sf 0 0 m ( 15) show NC gr  black 1 1 1 c
 gsave  2268 2180 0 0 C 910.12 1600.3 t 0 r /Helvetica-Bold findfont 60.6747 sf 0 0 m ( 13) show NC gr  black 1 1 1 c
 gsave  2268 2180 0 0 C 997.34 1596.5 t 0 r /Helvetica-Bold findfont 60.6747 sf 0 0 m (  4) show NC gr  black 1 1 1 c
 gsave  2268 2180 0 0 C 1076.98 1596.5 t 0 r /Helvetica-Bold findfont 60.6747 sf 0 0 m ( 11) show NC gr  black 1 1 1 c
 gsave  2268 2180 0 0 C 1156.61 1596.5 t 0 r /Helvetica-Bold findfont 60.6747 sf 0 0 m ( \2552) show NC gr  black 1 1 1 c
 gsave  2268 2180 0 0 C 1323.47 1600.3 t 0 r /Helvetica-Bold findfont 60.6747 sf 0 0 m (  9) show NC gr  black 1 1 1 c
 gsave  2268 2180 0 0 C 1403.1 1596.5 t 0 r /Helvetica-Bold findfont 60.6747 sf 0 0 m ( 11) show NC gr  black 1 1 1 c
 gsave  2268 2180 0 0 C 1475.15 1600.3 t 0 r /Helvetica-Bold findfont 60.6747 sf 0 0 m (\25525) show NC gr  black 1 1 1 c
 gsave  2268 2180 0 0 C 1562.37 1600.3 t 0 r /Helvetica-Bold findfont 60.6747 sf 0 0 m ( 18) show NC gr  black 1 1 1 c
 gsave  2268 2180 0 0 C 1630.63 1600.3 t 0 r /Helvetica-Bold findfont 60.6747 sf 0 0 m (100) show NC gr  black 1 1 1 c
 gsave  2268 2180 0 0 C 1721.64 1600.3 t 0 r /Helvetica-Bold findfont 60.6747 sf 0 0 m (\25520) show NC gr  black 1 1 1 c
 gsave  2268 2180 0 0 C 1805.07 1596.5 t 0 r /Helvetica-Bold findfont 60.6747 sf 0 0 m ( 14) show NC gr  black 1 1 1 c
 gsave  2268 2180 0 0 C 1896.08 1600.3 t 0 r /Helvetica-Bold findfont 60.6747 sf 0 0 m (  8) show NC gr  black 1 1 1 c
 gsave  2268 2180 0 0 C 341.295 1676.14 t 0 r /Helvetica-Bold findfont 60.6747 sf 0 0 m ( \2554) show NC gr  black 1 1 1 c
 gsave  2268 2180 0 0 C 413.346 1679.93 t 0 r /Helvetica-Bold findfont 60.6747 sf 0 0 m (\25525) show NC gr  black 1 1 1 c
 gsave  2268 2180 0 0 C 500.566 1676.14 t 0 r /Helvetica-Bold findfont 60.6747 sf 0 0 m (\25511) show NC gr  black 1 1 1 c
 gsave  2268 2180 0 0 C 591.578 1676.14 t 0 r /Helvetica-Bold findfont 60.6747 sf 0 0 m (  2) show NC gr  black 1 1 1 c
 gsave  2268 2180 0 0 C 671.214 1676.14 t 0 r /Helvetica-Bold findfont 60.6747 sf 0 0 m (  7) show NC gr  black 1 1 1 c
 gsave  2268 2180 0 0 C 754.641 1676.14 t 0 r /Helvetica-Bold findfont 60.6747 sf 0 0 m (  2) show NC gr  black 1 1 1 c
 gsave  2268 2180 0 0 C 826.693 1676.14 t 0 r /Helvetica-Bold findfont 60.6747 sf 0 0 m ( 14) show NC gr  black 1 1 1 c
 gsave  2268 2180 0 0 C 913.913 1679.93 t 0 r /Helvetica-Bold findfont 60.6747 sf 0 0 m ( \2559) show NC gr  black 1 1 1 c
 gsave  2268 2180 0 0 C 997.34 1676.14 t 0 r /Helvetica-Bold findfont 60.6747 sf 0 0 m (  2) show NC gr  black 1 1 1 c
 gsave  2268 2180 0 0 C 1152.82 1679.93 t 0 r /Helvetica-Bold findfont 60.6747 sf 0 0 m ( 15) show NC gr  black 1 1 1 c
 gsave  2268 2180 0 0 C 1232.45 1679.93 t 0 r /Helvetica-Bold findfont 60.6747 sf 0 0 m (\25510) show NC gr  black 1 1 1 c
 gsave  2268 2180 0 0 C 1315.88 1676.14 t 0 r /Helvetica-Bold findfont 60.6747 sf 0 0 m (\25511) show NC gr  black 1 1 1 c
 gsave  2268 2180 0 0 C 1395.52 1679.93 t 0 r /Helvetica-Bold findfont 60.6747 sf 0 0 m (\25529) show NC gr  black 1 1 1 c
 gsave  2268 2180 0 0 C 1486.53 1679.93 t 0 r /Helvetica-Bold findfont 60.6747 sf 0 0 m (  9) show NC gr  black 1 1 1 c
 gsave  2268 2180 0 0 C 1558.58 1679.93 t 0 r /Helvetica-Bold findfont 60.6747 sf 0 0 m (\25519) show NC gr  black 1 1 1 c
 gsave  2268 2180 0 0 C 1638.22 1679.93 t 0 r /Helvetica-Bold findfont 60.6747 sf 0 0 m (\25520) show NC gr  black 1 1 1 c
 gsave  2268 2180 0 0 C 1714.06 1679.93 t 0 r /Helvetica-Bold findfont 60.6747 sf 0 0 m (100) show NC gr  black 1 1 1 c
 gsave  2268 2180 0 0 C 1808.86 1679.93 t 0 r /Helvetica-Bold findfont 60.6747 sf 0 0 m ( \2553) show NC gr  black 1 1 1 c
 gsave  2268 2180 0 0 C 1884.71 1679.93 t 0 r /Helvetica-Bold findfont 60.6747 sf 0 0 m (\25519) show NC gr  black 1 1 1 c
 gsave  2268 2180 0 0 C 341.295 1755.77 t 0 r /Helvetica-Bold findfont 60.6747 sf 0 0 m ( 11) show NC gr  black 1 1 1 c
 gsave  2268 2180 0 0 C 417.138 1759.57 t 0 r /Helvetica-Bold findfont 60.6747 sf 0 0 m ( 10) show NC gr  black 1 1 1 c
 gsave  2268 2180 0 0 C 508.151 1759.57 t 0 r /Helvetica-Bold findfont 60.6747 sf 0 0 m (  8) show NC gr  black 1 1 1 c
 gsave  2268 2180 0 0 C 587.786 1755.77 t 0 r /Helvetica-Bold findfont 60.6747 sf 0 0 m ( \2552) show NC gr  black 1 1 1 c
 gsave  2268 2180 0 0 C 667.422 1759.57 t 0 r /Helvetica-Bold findfont 60.6747 sf 0 0 m ( \2555) show NC gr  black 1 1 1 c
 gsave  2268 2180 0 0 C 750.849 1755.77 t 0 r /Helvetica-Bold findfont 60.6747 sf 0 0 m ( \2554) show NC gr  black 1 1 1 c
 gsave  2268 2180 0 0 C 826.693 1759.57 t 0 r /Helvetica-Bold findfont 60.6747 sf 0 0 m ( 52) show NC gr  black 1 1 1 c
 gsave  2268 2180 0 0 C 910.12 1759.57 t 0 r /Helvetica-Bold findfont 60.6747 sf 0 0 m ( 67) show NC gr  black 1 1 1 c
 gsave  2268 2180 0 0 C 989.756 1759.57 t 0 r /Helvetica-Bold findfont 60.6747 sf 0 0 m ( 13) show NC gr  black 1 1 1 c
 gsave  2268 2180 0 0 C 1080.77 1759.57 t 0 r /Helvetica-Bold findfont 60.6747 sf 0 0 m (  3) show NC gr  black 1 1 1 c
 gsave  2268 2180 0 0 C 1160.4 1755.77 t 0 r /Helvetica-Bold findfont 60.6747 sf 0 0 m (  4) show NC gr  black 1 1 1 c
 gsave  2268 2180 0 0 C 1243.83 1759.57 t 0 r /Helvetica-Bold findfont 60.6747 sf 0 0 m (  5) show NC gr  black 1 1 1 c
 gsave  2268 2180 0 0 C 1406.89 1759.57 t 0 r /Helvetica-Bold findfont 60.6747 sf 0 0 m (  5) show NC gr  black 1 1 1 c
 gsave  2268 2180 0 0 C 1475.15 1759.57 t 0 r /Helvetica-Bold findfont 60.6747 sf 0 0 m (\25510) show NC gr  black 1 1 1 c
 gsave  2268 2180 0 0 C 1566.17 1755.77 t 0 r /Helvetica-Bold findfont 60.6747 sf 0 0 m ( \2554) show NC gr  black 1 1 1 c
 gsave  2268 2180 0 0 C 1642.01 1755.77 t 0 r /Helvetica-Bold findfont 60.6747 sf 0 0 m ( 14) show NC gr  black 1 1 1 c
 gsave  2268 2180 0 0 C 1729.23 1759.57 t 0 r /Helvetica-Bold findfont 60.6747 sf 0 0 m ( \2553) show NC gr  black 1 1 1 c
 gsave  2268 2180 0 0 C 1793.7 1759.57 t 0 r /Helvetica-Bold findfont 60.6747 sf 0 0 m (100) show NC gr  black 1 1 1 c
 gsave  2268 2180 0 0 C 1896.08 1759.57 t 0 r /Helvetica-Bold findfont 60.6747 sf 0 0 m (  3) show NC gr  black 1 1 1 c
 gsave  2268 2180 0 0 C 337.503 1835.41 t 0 r /Helvetica-Bold findfont 60.6747 sf 0 0 m ( 50) show NC gr  black 1 1 1 c
 gsave  2268 2180 0 0 C 417.138 1831.62 t 0 r /Helvetica-Bold findfont 60.6747 sf 0 0 m ( 44) show NC gr  black 1 1 1 c
 gsave  2268 2180 0 0 C 500.566 1835.41 t 0 r /Helvetica-Bold findfont 60.6747 sf 0 0 m ( 53) show NC gr  black 1 1 1 c
 gsave  2268 2180 0 0 C 580.202 1835.41 t 0 r /Helvetica-Bold findfont 60.6747 sf 0 0 m (\25513) show NC gr  black 1 1 1 c
 gsave  2268 2180 0 0 C 750.849 1831.62 t 0 r /Helvetica-Bold findfont 60.6747 sf 0 0 m ( 11) show NC gr  black 1 1 1 c
 gsave  2268 2180 0 0 C 826.693 1831.62 t 0 r /Helvetica-Bold findfont 60.6747 sf 0 0 m ( 12) show NC gr  black 1 1 1 c
 gsave  2268 2180 0 0 C 910.12 1835.41 t 0 r /Helvetica-Bold findfont 60.6747 sf 0 0 m ( 16) show NC gr  black 1 1 1 c
 gsave  2268 2180 0 0 C 993.548 1835.41 t 0 r /Helvetica-Bold findfont 60.6747 sf 0 0 m ( \2553) show NC gr  black 1 1 1 c
 gsave  2268 2180 0 0 C 1080.77 1835.41 t 0 r /Helvetica-Bold findfont 60.6747 sf 0 0 m (  6) show NC gr  black 1 1 1 c
 gsave  2268 2180 0 0 C 1152.82 1835.41 t 0 r /Helvetica-Bold findfont 60.6747 sf 0 0 m ( 16) show NC gr  black 1 1 1 c
 gsave  2268 2180 0 0 C 1236.25 1835.41 t 0 r /Helvetica-Bold findfont 60.6747 sf 0 0 m ( 64) show NC gr  black 1 1 1 c
 gsave  2268 2180 0 0 C 1315.88 1835.41 t 0 r /Helvetica-Bold findfont 60.6747 sf 0 0 m ( 88) show NC gr  black 1 1 1 c
 gsave  2268 2180 0 0 C 1399.31 1835.41 t 0 r /Helvetica-Bold findfont 60.6747 sf 0 0 m ( 76) show NC gr  black 1 1 1 c
 gsave  2268 2180 0 0 C 1478.95 1835.41 t 0 r /Helvetica-Bold findfont 60.6747 sf 0 0 m ( 13) show NC gr  black 1 1 1 c
 gsave  2268 2180 0 0 C 1562.37 1835.41 t 0 r /Helvetica-Bold findfont 60.6747 sf 0 0 m ( 43) show NC gr  black 1 1 1 c
 gsave  2268 2180 0 0 C 1649.59 1835.41 t 0 r /Helvetica-Bold findfont 60.6747 sf 0 0 m (  8) show NC gr  black 1 1 1 c
 gsave  2268 2180 0 0 C 1721.64 1835.41 t 0 r /Helvetica-Bold findfont 60.6747 sf 0 0 m (\25519) show NC gr  black 1 1 1 c
 gsave  2268 2180 0 0 C 1812.66 1835.41 t 0 r /Helvetica-Bold findfont 60.6747 sf 0 0 m (  3) show NC gr  black 1 1 1 c
 gsave  2268 2180 0 0 C 1877.12 1835.41 t 0 r /Helvetica-Bold findfont 60.6747 sf 0 0 m (100) show NC gr  black
 gsave  2268 2180 0 0 C 1201.89 1918.84 t 0 r /Helvetica-Bold findfont 53.0904 sf 0 0 m (Linear correlation coefficients in %) show NC gr 
 gr  gr showpage
end
%%EOF
